mjd,m,merr
52653.460924,15.111,0.017
52653.476219,15.151,0.018
52653.49153,15.135,0.017
52653.506896,15.145,0.017
52653.522296,15.115,0.015
52722.378092,15.135,0.015
52722.391096,15.301,0.017
52722.403709,15.491,0.02
52751.262318,15.044,0.015
52751.273018,15.045,0.015
52751.284378,15.066,0.015
52751.310846,15.113,0.017
52781.216428,15.089,0.017
52781.227057,15.079,0.015
52781.237758,15.07,0.015
52781.248488,15.057,0.017
52781.259111,15.041,0.015
52801.214638,15.084,0.061
52801.225204,15.048,0.059
52801.246259,15.079,0.066
52801.25666,15.078,0.066
52809.179152,15.067,0.021
52809.189125,15.167,0.043
52809.209053,15.312,0.025
52809.219162,15.375,0.026
52827.173062,15.058,0.036
52827.182963,15.068,0.036
52830.171174,15.03,0.033
52830.181364,15.086,0.035
52830.191477,15.111,0.038
52830.211529,15.262,0.043
52977.452325,15.047,0.02
52977.463407,15.084,0.021
52977.47446,15.119,0.021
52977.485821,15.131,0.021
52977.49688,15.127,0.021
53008.409747,15.766,0.043
53008.422492,15.812,0.043
53008.447769,15.328,0.026
53008.460312,15.13,0.022
53038.449739,15.292,0.028
53096.274499,15.04,0.025
53096.284367,15.082,0.025
53096.294344,15.09,0.026
53096.304163,15.096,0.031
53096.314029,15.146,0.03
53125.245135,15.089,0.033
53125.254871,15.122,0.033
53125.264426,15.349,0.035
53125.273977,15.476,0.04
53125.283735,15.641,0.048
53134.241335,14.999,0.02
53134.250201,15.036,0.015
53134.259058,15.033,0.015
53134.268016,15.046,0.015
53134.277053,15.036,0.015
53155.215875,15.042,0.033
53155.224585,15.018,0.03
53155.232966,15.043,0.028
53155.241365,15.05,0.028
53155.249783,15.031,0.028
53163.237266,15.043,0.086
53163.246795,15.05,0.097
53163.256391,15.048,0.051
53169.219564,15.092,0.018
53169.228992,15.087,0.018
53169.238482,15.111,0.021
53169.247894,15.231,0.021
53169.257241,15.255,0.02
53193.178782,15.064,0.018
53193.187996,15.052,0.018
53193.197225,15.052,0.018
53193.206475,15.032,0.026
53340.439334,15.041,0.035
53340.451619,15.022,0.03
53340.464434,15.025,0.03
53340.477136,15.013,0.028
53340.489663,15.022,0.026
53359.427434,15.051,0.018
53359.440343,15.056,0.017
53359.456874,15.038,0.017
53359.469721,15.024,0.015
53359.483016,15.025,0.015
53362.483359,15.857,0.043
53362.496874,15.819,0.033
53362.510377,15.579,0.025
53362.523851,15.273,0.03
53451.341244,15.064,0.02
53451.352255,15.037,0.02
53451.363039,15.042,0.02
53451.374039,15.02,0.018
53451.384845,15.017,0.018
53480.271089,15.091,0.03
53480.280121,15.048,0.028
53480.289299,15.067,0.028
53480.298381,15.03,0.026
53480.308352,15.019,0.028
53490.252208,15.031,0.015
53490.263181,15.028,0.015
53490.274374,15.016,0.015
53490.284861,15.013,0.015
53490.296338,15.019,0.013
53536.21817,15.05,0.03
53536.228109,15.039,0.031
53536.238104,15.04,0.031
53536.248067,15.038,0.033
53536.258125,15.019,0.031
53565.166588,15.049,0.022
53565.177221,15.041,0.022
53565.187864,15.027,0.022
53565.198534,15.032,0.022
53565.209219,15.047,0.022
53726.488474,15.139,0.022
53726.501936,15.131,0.02
53774.41587,15.667,0.033
53774.428429,15.752,0.035
53774.441267,15.773,0.035
53774.454009,15.596,0.03
53774.466759,15.349,0.024
53802.368451,15.033,0.015
53802.380506,15.032,0.015
53802.392973,15.036,0.016
53802.404983,15.03,0.015
53802.417109,15.032,0.015
53806.369582,15.011,0.033
53806.380828,15.017,0.026
53806.403332,15.034,0.026
53828.287857,15.143,0.023
53828.298386,15.324,0.02
53828.309047,15.521,0.023
53828.319601,15.655,0.021
53828.330156,15.794,0.025
53834.277993,15.116,0.026
53834.287834,15.143,0.026
53834.297565,15.155,0.026
53834.307382,15.159,0.026
53834.317104,15.122,0.026
53842.251535,15.137,0.028
53842.263205,15.139,0.028
53842.275046,15.108,0.028
53842.286281,15.087,0.026
53842.297505,15.068,0.026
53857.282612,15.841,0.036
53857.292617,15.692,0.033
53857.302597,15.507,0.031
53857.312637,15.375,0.025
53877.225262,15.044,0.083
53877.25721,15.041,0.025
53877.267846,15.045,0.033
53904.220909,15.036,0.015
53904.230795,15.043,0.016
53904.240772,15.04,0.015
53904.250903,15.043,0.016
53904.261006,15.038,0.016
53933.16769,15.042,0.024
53933.178393,15.031,0.024
53933.189063,15.05,0.026
53933.199774,15.033,0.03
53933.210612,15.059,0.033
53954.145568,15.042,0.037
53954.157571,15.062,0.041
53954.169584,15.01,0.039
53954.181777,15.03,0.041
54072.461686,15.026,0.043
54072.475135,15.006,0.036
54072.488023,15.015,0.036
54072.501292,15.017,0.033
54072.514157,15.005,0.028
54080.463383,15.052,0.031
54080.475345,15.022,0.022
54108.400867,15.098,0.033
54108.4131,15.069,0.031
54108.425244,15.055,0.03
54108.437507,15.021,0.03
54108.449652,15.035,0.03
54125.380507,15.276,0.025
54125.392375,15.193,0.025
54125.404412,15.145,0.023
54125.417155,15.109,0.021
54125.429061,15.092,0.023
54140.413018,15.791,0.031
54140.463595,15.178,0.02
54158.342151,15.125,0.025
54158.363935,15.072,0.023
54158.374937,15.079,0.023
54158.386053,15.048,0.023
54188.315849,15.071,0.03
54188.325674,15.106,0.031
54188.335444,15.138,0.031
54188.344978,15.149,0.031
54188.354717,15.214,0.033
54212.26089,15.078,0.021
54212.269384,15.066,0.02
54212.278076,15.048,0.02
54212.286524,15.038,0.02
54212.295202,15.047,0.018
54497.389885,15.083,0.043
54497.401981,15.071,0.036
54497.413957,15.063,0.031
54497.425964,15.031,0.031
54497.438618,15.045,0.026
54525.343315,15.074,0.021
54525.35466,15.058,0.021
54525.366403,15.079,0.021
54525.377743,15.117,0.023
54525.389814,15.134,0.031
54558.310049,15.173,0.064
54558.321745,15.117,0.074
54558.345027,15.198,0.045
54570.293399,15.083,0.023
54570.304519,15.075,0.023
54570.316477,15.048,0.023
54570.32735,15.048,0.021
54570.338492,15.055,0.021
54586.25318,15.042,0.028
54586.263551,15.058,0.023
54586.273538,15.047,0.023
54586.284366,15.044,0.023
54598.244102,15.068,0.036
54598.253645,15.1,0.038
54598.263022,15.115,0.038
54598.272402,15.151,0.04
54598.281901,15.193,0.041
54619.21269,15.038,0.026
54619.222888,15.039,0.023
54619.23309,15.06,0.026
54619.243261,15.038,0.026
54619.253778,15.061,0.026
