mjd,m,merr
52650.472303,15.61,0.026
52650.487242,15.664,0.026
52650.502036,15.733,0.026
52650.516821,15.859,0.03
52666.467302,15.9,0.04
52666.482773,15.823,0.031
52666.528387,15.735,0.03
52698.406572,15.768,0.028
52698.420917,15.888,0.031
52698.435943,15.888,0.031
52711.318363,15.714,0.033
52711.332578,15.639,0.03
52711.34707,15.592,0.028
52711.360991,15.594,0.028
52711.374997,15.616,0.028
52725.38594,15.955,0.035
52725.398445,15.96,0.035
52725.398561,15.922,0.028
52725.410664,15.886,0.033
52725.410779,15.877,0.028
52725.42305,15.776,0.031
52725.423165,15.802,0.028
52725.435734,15.71,0.03
52725.435849,15.722,0.026
52739.298807,15.618,0.028
52739.310445,15.655,0.028
52739.32229,15.728,0.03
52739.334004,15.826,0.031
52739.345843,15.915,0.035
52754.262249,15.759,0.028
52754.275134,15.839,0.03
52754.287639,15.905,0.031
52754.301765,15.933,0.033
52754.314053,15.942,0.033
52769.215792,15.835,0.044
52769.227443,15.864,0.046
52769.239199,15.911,0.046
52769.251194,15.946,0.048
52769.263645,15.837,0.046
52820.175863,15.685,0.033
52820.195686,15.754,0.048
52820.205536,15.874,0.041
52820.215424,15.932,0.044
52824.174724,15.694,0.031
52824.184697,15.669,0.031
52824.194546,15.67,0.031
52824.204449,15.667,0.033
52824.214325,15.664,0.033
52993.461485,15.661,0.025
52993.47398,15.654,0.023
52993.486511,15.65,0.021
52993.511836,15.749,0.021
53006.456799,15.615,0.03
53006.468989,15.626,0.033
53006.481259,15.643,0.03
53006.493537,15.716,0.03
53006.505728,15.846,0.037
53033.402362,15.644,0.028
53033.415113,15.679,0.028
53033.427405,15.665,0.028
53033.439643,15.746,0.028
53033.452109,15.821,0.03
53052.390567,15.571,0.022
53052.402453,15.565,0.022
53052.414207,15.579,0.022
53052.425979,15.641,0.024
53052.43779,15.727,0.026
53079.333809,15.65,0.025
53079.345066,15.636,0.025
53079.356509,15.634,0.025
53079.367661,15.663,0.025
53079.379862,15.727,0.026
53092.327877,15.631,0.02
53092.338738,15.617,0.02
53092.348581,15.628,0.02
53092.358491,15.666,0.02
53092.368306,15.709,0.02
53110.293719,15.903,0.035
53110.304311,15.854,0.033
53110.314921,15.759,0.028
53110.325628,15.68,0.026
53110.336215,15.635,0.026
53111.291897,15.767,0.028
53111.302699,15.679,0.026
53111.313531,15.667,0.024
53111.32435,15.632,0.024
53111.33534,15.578,0.022
53121.249104,15.604,0.02
53121.259829,15.622,0.02
53121.27067,15.644,0.02
53121.281317,15.713,0.021
53121.291984,15.817,0.028
53138.250363,15.734,0.028
53138.259863,15.644,0.025
53138.269351,15.632,0.026
53138.278827,15.569,0.025
53138.288285,15.59,0.025
53150.210099,15.98,0.124
53150.222119,15.911,0.087
53150.231064,15.881,0.049
53166.218073,15.686,0.033
53166.227871,15.652,0.031
53166.237518,15.721,0.033
53166.247172,15.71,0.033
53166.256877,15.745,0.035
53177.21955,15.733,0.028
53414.392993,15.598,0.024
53414.41812,15.624,0.024
53437.417044,15.61,0.024
53437.428372,15.579,0.024
53437.439658,15.605,0.024
53437.456384,15.653,0.026
53437.467655,15.67,0.026
53438.469195,15.913,0.033
53438.480857,15.887,0.033
53438.492582,15.877,0.033
53445.46852,15.861,0.03
53445.480319,15.834,0.028
53445.492527,15.706,0.026
53471.317952,15.81,0.033
53471.329102,15.718,0.031
53471.338799,15.663,0.03
53471.349284,15.62,0.054
53471.359348,15.599,0.031
53500.24,15.749,0.03
53500.250727,15.658,0.028
53500.262081,15.589,0.026
53500.273093,15.583,0.026
53500.284115,15.585,0.026
53502.260459,15.683,0.031
53502.2795,15.79,0.035
53502.29329,15.913,0.041
53502.303443,15.879,0.043
53502.313571,15.873,0.039
53523.220711,15.675,0.031
53523.231218,15.782,0.033
53523.241683,15.886,0.035
53523.252167,15.889,0.035
53523.262711,15.87,0.033
53738.488838,15.791,0.061
53769.454864,15.83,0.03
53769.468362,15.871,0.03
53769.481516,15.858,0.028
53769.4954,15.762,0.024
53769.508663,15.67,0.022
53789.415821,15.759,0.041
53789.440804,15.879,0.066
53789.453417,15.856,0.053
53789.466063,15.793,0.045
53845.271001,15.711,0.037
53845.281846,15.802,0.041
53845.292704,15.845,0.041
53852.24827,15.698,0.038
53852.258423,15.703,0.038
53852.268636,15.891,0.045
53852.278764,15.873,0.043
53852.289107,15.833,0.041
53881.220083,15.728,0.035
53881.231125,15.633,0.033
53881.242185,15.585,0.031
53881.25324,15.575,0.031
53881.264639,15.529,0.031
53887.21756,15.86,0.049
53887.227782,15.768,0.045
53887.238186,15.675,0.041
53887.248334,15.619,0.038
53887.25858,15.544,0.036
53902.17745,15.686,0.046
53902.197406,15.545,0.046
53902.207308,15.549,0.039
53902.217549,15.625,0.05
53914.176917,15.76,0.056
53914.186466,15.726,0.054
54144.390985,15.607,0.03
54144.402943,15.596,0.028
54144.414908,15.667,0.03
54144.426987,15.812,0.035
54144.438953,15.876,0.036
54153.394322,15.849,0.04
54153.406911,15.891,0.045
54153.418877,15.686,0.031
54153.43057,15.639,0.046
54153.442299,15.566,0.061
54208.259339,15.841,0.04
54208.268131,15.895,0.04
54208.276894,15.856,0.038
54208.285755,15.859,0.036
54208.294458,15.795,0.036
54559.242518,15.877,0.026
54559.254218,15.782,0.024
54559.266178,15.688,0.022
54559.278001,15.618,0.018
54559.289709,15.578,0.018
54568.290961,15.804,0.028
54568.301903,15.842,0.028
54568.312847,15.858,0.028
54581.251896,15.629,0.028
54581.262443,15.623,0.03
54581.273104,15.73,0.035
54581.283658,15.804,0.041
54581.29432,15.854,0.043
54589.251998,15.88,0.026
54589.262487,15.892,0.028
54589.272931,15.866,0.026
54589.283453,15.79,0.024
54589.293902,15.701,0.022
54592.239259,15.71,0.041
54592.249079,15.575,0.036
54592.259521,15.619,0.038
54592.269437,15.58,0.036
54592.279291,15.554,0.035
54621.211981,15.69,0.024
54621.222134,15.78,0.028
54621.232228,15.866,0.028
54621.242345,15.834,0.03
54621.252459,15.844,0.03
