mjd,m,merr
52651.432725,16.207,0.048
52651.447929,16.216,0.046
52651.463242,16.257,0.048
52651.493514,16.4,0.056
52652.479086,16.328,0.045
52652.494243,16.269,0.046
52652.509123,16.213,0.041
52652.524444,16.232,0.041
52681.354644,16.309,0.056
52681.369345,16.478,0.056
52681.400128,16.429,0.056
52681.414787,16.384,0.049
52696.410435,16.226,0.054
52696.423282,16.375,0.051
52723.32972,16.44,0.076
52723.329835,16.177,0.071
52752.290985,16.6,0.064
52752.302622,16.606,0.064
52752.313256,16.527,0.059
52752.323925,16.459,0.056
52752.334639,16.411,0.054
52772.251427,16.292,0.104
52772.263179,16.259,0.1
52810.229756,16.292,0.048
52810.230027,16.002,0.056
52810.239693,16.206,0.038
52810.239963,15.984,0.053
52810.249585,16.323,0.078
52812.231444,16.2,0.036
52812.241476,16.145,0.036
52812.241747,15.909,0.051
52812.251676,16.089,0.035
52812.251946,15.875,0.048
52812.261912,16.125,0.035
52812.271915,16.131,0.035
52812.272185,15.829,0.048
52826.173762,16.334,0.07
52826.183713,16.24,0.063
52826.193689,16.232,0.063
52826.203605,16.296,0.068
52826.213474,16.191,0.057
52840.162868,16.225,0.054
52840.172825,16.231,0.054
52840.182772,16.324,0.059
52840.192734,16.376,0.063
52840.202705,16.415,0.067
52976.466445,16.213,0.046
52976.479835,16.163,0.044
52976.493252,16.249,0.044
52976.506277,16.319,0.046
52976.519503,16.381,0.048
52990.467547,16.501,0.073
52990.480134,16.6,0.068
52990.492746,16.506,0.059
52990.505335,16.373,0.051
52990.518416,16.296,0.051
53023.399097,16.665,0.059
53023.412216,16.63,0.053
53023.424248,16.439,0.043
53023.436336,16.311,0.038
53023.448382,16.298,0.036
53035.42954,16.274,0.038
53035.441829,16.285,0.053
53035.454195,16.29,0.043
53035.466505,16.36,0.045
53037.414523,16.124,0.04
53037.426881,16.224,0.041
53037.439304,16.255,0.04
53037.452283,16.318,0.043
53037.466564,16.523,0.051
53049.34139,16.26,0.033
53049.35325,16.222,0.031
53049.365115,16.196,0.031
53049.376979,16.222,0.033
53049.388842,16.264,0.035
53107.285577,16.302,0.04
53107.295928,16.347,0.041
53107.306214,16.37,0.041
53107.316515,16.455,0.045
53107.32691,16.566,0.054
53136.241937,16.275,0.053
53136.250847,16.343,0.054
53136.259844,16.364,0.056
53136.277861,16.579,0.069
53154.228399,16.401,0.087
53154.245079,16.229,0.076
53164.217247,16.251,0.045
53164.227334,16.26,0.046
53164.237983,16.238,0.048
53164.257337,16.251,0.046
53358.475241,16.355,0.054
53358.48974,16.417,0.056
53358.504215,16.488,0.058
53358.518742,16.58,0.061
53422.347206,16.211,0.076
53422.359189,16.343,0.08
53422.371181,16.441,0.102
53422.395261,16.412,0.176
53442.263377,16.254,0.039
53442.274691,16.28,0.041
53442.285996,16.42,0.044
53442.29843,16.53,0.05
53442.309794,16.577,0.052
53445.403062,16.295,0.035
53445.404503,16.271,0.033
53445.41486,16.237,0.033
53445.416288,16.253,0.033
53445.426366,16.197,0.031
53445.427801,16.218,0.031
53445.438123,16.187,0.031
53445.439613,16.166,0.031
53445.450267,16.142,0.031
53445.451768,16.168,0.031
53446.384239,16.151,0.031
53446.385133,16.212,0.033
53446.395463,16.214,0.033
53446.396357,16.227,0.033
53446.406073,16.228,0.033
53446.406969,16.237,0.033
53446.416695,16.339,0.037
53446.417589,16.305,0.037
53446.427328,16.411,0.041
53446.428222,16.407,0.041
53450.352442,16.188,0.055
53450.3637,16.214,0.055
53450.374856,16.242,0.055
53474.352797,16.361,0.046
53474.364116,16.258,0.043
53474.374535,16.228,0.041
53474.385748,16.22,0.043
53476.326032,16.32,0.054
53476.368089,16.151,0.041
53521.212067,16.402,0.057
53521.222393,16.33,0.065
53521.23271,16.269,0.065
53521.243037,16.185,0.068
53521.253345,16.22,0.083
53538.217746,16.345,0.105
53538.227372,16.429,0.117
53538.236988,16.43,0.115
53538.246663,16.277,0.104
53538.256306,16.285,0.105
53553.177611,16.313,0.059
53553.188132,16.488,0.07
53553.19883,16.557,0.078
53553.209367,16.614,0.076
53553.219988,16.482,0.067
53582.168979,16.506,0.08
53582.191434,16.32,0.072
53582.20266,16.2,0.096
53728.468533,16.246,0.054
53728.482139,16.22,0.059
53728.495898,16.17,0.048
53728.509156,16.177,0.054
53728.522416,16.252,0.057
53742.477641,16.272,0.033
53742.490584,16.354,0.033
53742.503442,16.435,0.035
53742.516489,16.525,0.037
53742.52947,16.487,0.033
53772.415172,16.32,0.046
53772.427769,16.263,0.043
53772.440639,16.258,0.043
53772.453589,16.184,0.039
53772.466426,16.226,0.043
53786.370203,16.183,0.043
53807.337492,16.281,0.076
53807.34863,16.221,0.068
53807.359766,16.265,0.074
53807.37091,16.22,0.07
53824.377563,16.213,0.046
53824.389276,16.195,0.041
53824.401055,16.217,0.036
53824.413065,16.333,0.049
53824.424711,16.325,0.04
53843.306277,16.479,0.078
53843.317543,16.386,0.076
53843.328814,16.334,0.074
53843.340082,16.297,0.072
53843.351378,16.244,0.068
53855.24668,16.503,0.061
53855.256849,16.463,0.059
53855.267089,16.338,0.051
53855.277262,16.336,0.051
53855.287558,16.282,0.049
53878.24103,16.446,0.073
53878.251786,16.33,0.063
53878.262503,16.267,0.059
53878.273505,16.229,0.058
53878.285335,16.221,0.058
53892.216624,16.32,0.122
53892.246813,16.169,0.109
53892.256886,16.251,0.118
53903.232243,16.418,0.066
53903.241697,16.404,0.068
53903.251442,16.355,0.066
53903.261166,16.258,0.059
53903.270769,16.341,0.066
53917.194162,16.081,0.145
53917.213854,16.246,0.127
53932.181034,16.266,0.131
53932.191666,16.143,0.089
53932.202511,16.104,0.08
53932.213259,16.169,0.076
54086.434862,16.154,0.069
54086.448626,16.264,0.073
54086.461961,16.21,0.068
54086.477096,16.229,0.066
54086.490314,16.289,0.068
54169.328491,16.194,0.039
54169.340038,16.224,0.043
54169.35127,16.282,0.046
54169.362505,16.377,0.048
54169.373869,16.451,0.048
54186.323649,16.178,0.054
54186.333874,16.209,0.059
54186.344275,16.269,0.073
54186.354494,16.316,0.066
54200.288294,16.291,0.037
54200.30854,16.386,0.041
54200.318884,16.501,0.044
54209.263844,16.151,0.099
54209.272954,16.246,0.074
54209.281864,16.155,0.078
54209.290649,16.057,0.074
54209.299499,16.164,0.084
54217.250928,16.145,0.057
54217.259569,16.198,0.059
54217.268263,16.087,0.055
54217.276911,16.167,0.061
54217.285553,16.257,0.065
54218.27146,16.352,0.106
54218.280211,16.307,0.101
54218.2892,16.246,0.094
54218.298084,16.218,0.089
54218.307362,16.201,0.087
54509.386944,16.354,0.049
54509.399092,16.473,0.053
54509.41103,16.538,0.056
54509.422948,16.633,0.061
54509.434883,16.467,0.053
54536.326259,16.205,0.045
54536.337264,16.278,0.048
54536.348208,16.388,0.051
54536.359122,16.403,0.051
54536.370028,16.575,0.058
54543.336429,16.205,0.086
54543.347973,16.257,0.089
54543.358707,16.291,0.092
54543.370668,16.333,0.096
54543.381911,16.332,0.092
54561.244239,16.176,0.048
54561.25573,16.199,0.051
54561.267142,16.158,0.056
54561.291277,16.151,0.059
54583.288892,16.243,0.068
54614.21933,16.244,0.059
54614.229823,16.257,0.061
54614.240113,16.206,0.058
54614.250469,16.183,0.058
54614.260723,16.239,0.063
