mjd,m,merr
52667.47526,16.69,0.083
52667.490615,16.774,0.091
52667.50574,16.788,0.091
52667.52121,16.811,0.087
52667.536428,16.855,0.093
52668.504433,16.58,0.113
52668.519794,16.516,0.055
52668.535087,16.486,0.057
52671.471296,16.437,0.055
52671.471426,16.406,0.057
52671.487006,16.53,0.061
52671.487134,16.451,0.059
52671.502437,16.479,0.057
52671.502565,16.515,0.061
52671.517845,16.588,0.065
52671.517973,16.484,0.059
52674.464955,16.441,0.059
52674.465072,16.518,0.065
52674.479205,16.558,0.059
52674.479322,16.558,0.061
52674.494247,16.468,0.142
52674.494466,16.421,0.08
52704.379997,16.66,0.065
52704.39329,16.726,0.068
52704.406532,16.736,0.072
52704.419621,16.758,0.074
52704.432809,16.801,0.076
52708.381173,16.555,0.064
52708.381528,16.458,0.069
52708.394189,16.497,0.063
52708.394543,16.408,0.066
52708.4073,16.524,0.064
52708.40774,16.5,0.071
52708.420424,16.512,0.066
52708.420779,16.464,0.071
52708.433464,16.591,0.071
52728.352212,16.807,0.074
52728.364619,16.83,0.078
52728.376837,16.892,0.083
52728.388918,16.889,0.083
52728.400996,16.882,0.085
52731.355509,16.846,0.08
52731.367638,16.892,0.08
52731.379777,16.848,0.081
52731.391909,16.878,0.089
52731.404013,16.934,0.102
52737.322843,16.876,0.074
52737.322978,16.943,0.081
52737.33555,16.941,0.078
52737.335683,16.841,0.074
52737.34746,16.885,0.074
52737.347575,16.977,0.083
52737.359386,16.934,0.078
52737.3595,16.957,0.081
52737.371692,16.946,0.078
52737.371876,16.968,0.08
52756.256824,16.835,0.085
52756.256935,16.783,0.078
52756.26877,16.877,0.087
52756.268882,16.887,0.087
52756.280708,16.822,0.083
52756.280817,16.907,0.087
52756.292637,16.817,0.081
52756.292746,16.782,0.076
52756.304678,16.814,0.083
52756.304787,16.916,0.089
52760.262037,16.617,0.063
52760.27383,16.681,0.067
52760.285698,16.704,0.07
52760.297657,16.711,0.072
52760.309438,16.703,0.072
52761.26284,16.599,0.061
52761.274562,16.463,0.055
52761.286337,16.489,0.059
52761.29806,16.347,0.054
52761.309873,16.342,0.054
52767.262702,16.482,0.064
52767.274157,16.469,0.068
52767.286859,16.506,0.068
52767.298508,16.454,0.064
52767.310028,16.505,0.068
52789.221413,16.704,0.07
52789.231699,16.604,0.063
52789.242126,16.568,0.063
52789.252461,16.576,0.061
52789.26306,16.507,0.055
52794.218963,16.749,0.091
52794.219051,16.636,0.078
52794.22899,16.656,0.08
52794.229079,16.729,0.081
52794.239154,16.568,0.076
52794.23924,16.688,0.083
52794.249134,16.688,0.085
52794.249223,16.781,0.091
52794.259215,16.667,0.083
52794.259304,16.718,0.085
52816.175316,16.567,0.08
52816.185967,16.514,0.08
52816.195775,16.62,0.091
52816.205639,16.649,0.107
52816.215469,16.64,0.118
52819.212475,16.979,0.226
52823.185512,16.534,0.076
52823.195468,16.459,0.072
52823.205398,16.403,0.07
52996.472205,16.403,0.05
52996.472389,16.43,0.054
52996.485163,16.432,0.048
52996.485347,16.442,0.052
52996.49818,16.478,0.048
52996.498521,16.437,0.05
52996.511266,16.439,0.046
52996.51145,16.491,0.052
52996.524221,16.527,0.046
52996.524405,16.529,0.05
53027.403393,16.395,0.041
53027.403631,16.267,0.044
53027.416154,16.469,0.044
53027.416336,16.283,0.046
53027.428926,16.497,0.044
53027.429109,16.311,0.044
53027.44261,16.488,0.044
53027.442792,16.35,0.046
53027.4556,16.565,0.043
53027.455782,16.409,0.044
53028.430026,16.899,0.058
53028.442912,16.966,0.054
53028.457695,16.931,0.068
53028.470578,16.943,0.054
53028.47562,16.926,0.076
53028.490156,16.869,0.061
53028.49017,16.787,0.054
53032.453659,16.749,0.07
53032.453778,16.817,0.067
53032.465997,16.756,0.068
53032.466117,16.898,0.072
53032.478253,16.761,0.067
53032.478373,16.879,0.068
53032.49051,16.817,0.065
53032.49063,16.867,0.065
53032.502797,16.817,0.067
53032.502917,16.859,0.065
53033.390942,16.508,0.074
53033.391036,16.564,0.076
53033.394349,16.507,0.079
53033.394446,16.569,0.076
53033.403736,16.463,0.065
53033.40383,16.512,0.065
53033.406628,16.493,0.066
53033.406725,16.622,0.071
53033.415934,16.537,0.065
53033.416027,16.564,0.065
53033.419377,16.512,0.066
53033.419474,16.671,0.074
53033.4283,16.551,0.063
53033.428393,16.538,0.061
53033.431653,16.528,0.064
53033.431749,16.605,0.068
53033.440398,16.616,0.067
53033.440491,16.64,0.065
53033.444128,16.55,0.064
53033.444224,16.588,0.066
53033.452198,16.563,0.065
53033.452323,16.624,0.065
53033.455931,16.614,0.066
53033.456029,16.686,0.069
53033.464303,16.578,0.065
53033.464399,16.649,0.065
53033.468107,16.626,0.066
53033.468206,16.716,0.071
53033.476315,16.551,0.065
53033.476412,16.599,0.061
53033.480312,16.674,0.068
53033.48041,16.678,0.068
53033.488419,16.67,0.07
53033.488582,16.623,0.063
53033.492574,16.609,0.063
53033.492673,16.694,0.068
53033.500748,16.623,0.068
53033.500844,16.677,0.065
53033.505005,16.738,0.071
53033.505103,16.729,0.071
53054.413236,16.744,0.059
53054.425645,16.828,0.064
53054.435614,16.757,0.065
53054.437438,16.775,0.063
53054.449455,16.806,0.064
53054.45158,16.683,0.061
53054.461509,16.767,0.064
53054.463461,16.793,0.07
53054.476049,16.784,0.07
53054.488467,16.801,0.072
53060.366069,16.766,0.05
53060.366239,16.704,0.052
53060.377277,16.764,0.052
53060.377447,16.707,0.052
53060.389086,16.774,0.05
53060.389256,16.682,0.05
53060.400371,16.776,0.052
53060.400542,16.725,0.054
53060.411643,16.801,0.052
53060.411813,16.689,0.054
53080.340661,16.459,0.049
53080.343144,16.404,0.046
53080.351918,16.355,0.046
53080.354029,16.417,0.048
53080.363093,16.394,0.048
53080.366165,16.38,0.046
53080.37434,16.416,0.049
53080.377578,16.416,0.046
53080.385777,16.51,0.053
53080.388585,16.447,0.048
53084.388238,16.957,0.052
53084.398944,16.974,0.055
53084.409662,16.956,0.054
53084.42026,16.986,0.055
53084.430916,16.909,0.054
53086.360051,16.524,0.058
53086.37102,16.477,0.064
53086.381982,16.585,0.058
53086.393038,16.498,0.048
53086.404376,16.565,0.045
53095.319383,16.583,0.073
53095.329264,16.508,0.069
53095.339326,16.577,0.073
53095.349359,16.508,0.068
53095.359667,16.48,0.066
53111.300487,16.338,0.053
53111.311727,16.386,0.054
53111.322536,16.403,0.053
53111.33334,16.522,0.059
53111.34465,16.483,0.059
53115.308952,16.851,0.057
53115.32003,17.019,0.067
53115.331181,16.872,0.057
53115.342249,16.939,0.065
53115.353317,16.944,0.065
53117.312765,16.51,0.045
53117.323063,16.536,0.046
53117.333682,16.578,0.048
53117.34415,16.589,0.048
53117.354631,16.56,0.048
53139.245819,16.475,0.061
53139.247811,16.447,0.061
53139.255435,16.497,0.061
53139.2573,16.424,0.059
53139.26675,16.432,0.057
53139.274737,16.392,0.053
53139.276269,16.381,0.054
53139.284186,16.481,0.058
53139.285733,16.398,0.055
53143.277341,16.952,0.067
53143.286706,16.981,0.07
53143.29599,17.014,0.07
53143.305279,16.975,0.072
53143.314578,16.971,0.07
53147.247627,16.776,0.068
53147.256483,16.841,0.071
53147.266127,16.736,0.066
53147.275151,16.756,0.066
53147.283873,16.745,0.064
53148.208252,16.313,0.048
53148.217203,16.33,0.052
53148.226157,16.375,0.048
53148.23514,16.448,0.055
53148.244095,16.367,0.046
53168.175176,16.86,0.091
53168.185196,16.831,0.087
53168.195211,16.802,0.083
53168.20523,16.771,0.083
53168.215309,16.86,0.094
53169.179049,16.598,0.07
53169.189166,16.661,0.072
53169.199266,16.718,0.076
53169.209368,16.737,0.076
53169.219482,16.674,0.07
53172.178599,16.668,0.055
53172.189553,16.679,0.057
53172.199982,16.722,0.059
53172.210277,16.701,0.059
53172.220531,16.702,0.061
53174.177227,16.933,0.084
53174.18706,16.9,0.081
53174.199048,16.864,0.078
53174.209065,16.825,0.078
53174.219048,16.835,0.079
53377.475693,16.564,0.067
53377.475802,16.594,0.072
53377.488644,16.678,0.074
53377.488753,16.551,0.07
53377.501588,16.625,0.07
53377.501697,16.573,0.07
53377.514543,16.618,0.067
53377.514652,16.645,0.07
53377.5275,16.636,0.068
53377.527609,16.594,0.068
53404.490881,16.798,0.111
53404.50475,16.962,0.111
53404.517845,16.841,0.096
53404.530475,16.902,0.102
53404.543067,16.95,0.15
53433.422025,16.638,0.07
53433.433325,16.586,0.068
53433.445065,16.656,0.078
53433.45626,16.68,0.08
53433.467472,16.641,0.08
53465.342678,16.947,0.089
53465.34278,17.011,0.1
53465.353681,16.973,0.091
53465.35378,17.073,0.104
53465.365188,17.037,0.091
53465.365288,16.896,0.083
53465.376016,16.973,0.085
53465.376116,16.89,0.083
53465.386775,16.82,0.078
53465.38688,16.66,0.07
53468.362926,16.672,0.111
53468.363026,16.592,0.113
53468.373906,16.536,0.083
53468.374006,16.566,0.083
53469.28553,16.806,0.078
53469.295435,16.767,0.07
53469.29554,16.782,0.074
53469.307261,16.781,0.072
53469.307364,16.792,0.076
53469.316879,16.772,0.07
53469.316981,16.817,0.076
53469.327731,16.736,0.067
53469.327834,16.824,0.074
53473.331936,16.597,0.07
53473.332035,16.562,0.072
53473.343164,16.698,0.081
53473.343262,16.638,0.078
53473.353873,16.642,0.076
53473.353973,16.688,0.081
53473.364211,16.626,0.074
53473.36431,16.668,0.08
53473.375029,16.667,0.078
53479.334337,16.727,0.144
53479.34563,16.803,0.155
53479.356413,16.817,0.155
53479.368171,16.714,0.139
53479.377392,16.705,0.137
53493.344619,16.863,0.094
53493.355004,16.796,0.089
53493.365141,16.742,0.083
53493.375823,16.541,0.072
53493.3861,16.694,0.087
53498.251894,16.444,0.068
53498.251993,16.463,0.068
53498.262417,16.556,0.083
53498.262516,16.466,0.076
53498.273927,16.506,0.076
53498.274026,16.53,0.076
53502.253396,16.923,0.104
53502.253494,16.937,0.1
53502.268993,16.951,0.113
53502.26909,16.919,0.107
53502.285758,16.861,0.105
53502.285855,16.87,0.104
53502.297981,16.718,0.1
53502.298079,16.67,0.089
53502.308129,16.703,0.104
53502.308227,16.563,0.087
53504.236519,16.522,0.074
53504.236618,16.578,0.078
53504.246178,16.529,0.074
53504.246277,16.507,0.07
53504.255557,16.576,0.078
53504.255654,16.599,0.078
53504.26561,16.561,0.074
53504.265708,16.646,0.08
53504.275104,16.57,0.08
53504.275202,16.61,0.081
53526.231045,16.487,0.142
53526.231133,16.464,0.124
53526.241375,16.584,0.08
53526.241466,16.563,0.08
53526.251705,16.606,0.083
53526.251799,16.599,0.085
53526.262106,16.627,0.081
53526.262194,16.611,0.085
53530.174242,16.915,0.109
53530.184215,16.809,0.094
53530.19403,17.022,0.122
53530.203961,16.949,0.109
53530.213823,17.04,0.124
53555.173797,16.828,0.096
53555.184026,16.881,0.105
53555.194263,16.974,0.113
53555.204494,16.982,0.124
53555.214793,17.038,0.135
53791.424427,16.882,0.083
53791.43624,16.786,0.08
53791.44806,16.944,0.093
53791.459883,16.858,0.089
53791.471723,16.939,0.098
53794.406842,16.863,0.074
53794.418468,16.812,0.068
53794.430093,16.918,0.076
53794.441721,16.91,0.074
53794.453353,16.961,0.076
53797.359047,16.926,0.074
53797.371096,16.825,0.073
53797.383244,16.967,0.087
53797.395327,16.905,0.092
53797.407361,16.742,0.125
53815.346351,16.9,0.142
53815.346475,16.783,0.13
53815.357487,16.814,0.137
53815.357611,16.821,0.137
53815.368632,16.809,0.122
53815.368756,16.73,0.109
53815.37981,16.648,0.105
53815.379934,16.754,0.12
53815.390983,16.545,0.098
53815.391107,16.598,0.102
53818.390188,16.488,0.061
53818.401207,16.472,0.061
53818.411989,16.379,0.057
53818.422771,16.367,0.057
53818.433709,16.505,0.068
53823.387817,16.705,0.076
53823.401608,16.625,0.081
53823.416139,16.73,0.109
53823.429608,16.757,0.081
53823.443173,16.722,0.13
53825.341482,16.853,0.109
53825.352643,16.972,0.426
53825.366085,16.992,0.183
53825.377346,17.171,0.326
53825.38941,16.832,0.126
53829.34834,16.709,0.159
53829.359039,16.785,0.189
53833.279684,16.374,0.078
53833.279957,16.491,0.085
53833.289502,16.331,0.074
53833.289774,16.39,0.076
53833.299932,16.402,0.08
53833.300206,16.376,0.076
53833.310001,16.438,0.08
53833.310274,16.479,0.081
53833.31999,16.408,0.076
53833.320263,16.515,0.081
53846.246223,16.873,0.102
53846.256817,16.885,0.102
53846.267226,16.878,0.078
53846.267336,16.981,0.109
53846.277987,16.832,0.073
53846.278098,17.011,0.111
53846.288489,17.001,0.083
53846.288599,16.903,0.097
53848.298812,16.599,0.091
53848.309482,16.573,0.089
53848.320148,16.575,0.094
53848.331161,16.603,0.091
53848.342732,16.599,0.094
53849.3058,16.685,0.08
53849.316572,16.622,0.078
53849.327673,16.498,0.067
53849.33844,16.507,0.07
53849.349217,16.441,0.067
53852.312854,16.616,0.083
53852.324471,16.473,0.072
53852.335306,16.376,0.063
53852.34615,16.401,0.068
53852.356978,16.423,0.068
53855.303301,16.432,0.068
53855.314453,16.504,0.072
53855.326006,16.408,0.061
53855.337456,16.443,0.065
53855.348118,16.453,0.067
53858.29708,16.343,0.087
53858.307776,16.357,0.072
53858.317991,16.34,0.137
53881.216043,16.899,0.114
53881.226007,16.955,0.117
53881.236142,16.895,0.111
53881.24627,16.9,0.116
53881.256272,16.842,0.107
53883.229907,16.756,0.094
53883.241349,16.685,0.085
53883.252855,16.585,0.081
53883.264281,16.52,0.08
53883.275709,16.518,0.08
53886.213075,16.691,0.086
53886.2231,16.503,0.073
53886.23333,16.55,0.076
53886.243367,16.418,0.068
53886.253377,16.373,0.068
53891.161456,16.378,0.154
53891.206839,16.786,0.211
53905.169956,16.922,0.115
53905.179965,17.005,0.131
53905.180063,17.093,0.141
53905.189956,17.0,0.13
53905.190052,16.949,0.124
53905.199968,16.982,0.128
53905.200066,17.041,0.137
53905.21003,16.956,0.128
53905.210127,17.072,0.144
53910.170885,16.513,0.081
53910.171875,16.591,0.096
53910.181473,16.485,0.078
53910.182156,16.634,0.098
53910.192025,16.517,0.081
53910.192371,16.695,0.102
53910.20255,16.604,0.087
53910.202605,16.718,0.102
53910.21285,16.667,0.115
53910.213064,16.617,0.101
53914.175993,16.691,0.154
53914.17608,16.754,0.161
53914.186412,16.749,0.135
53914.186499,16.668,0.128
53917.170504,16.437,0.207
53917.202247,16.813,0.405
53917.202334,16.491,0.259
54113.457349,16.958,0.141
54113.483172,17.019,0.144
54113.500114,17.033,0.135
54113.513086,17.134,0.144
54121.459297,16.477,0.074
54121.47178,16.479,0.074
54121.484956,16.63,0.081
54121.497433,16.622,0.081
54121.509919,16.627,0.079
54124.470124,16.585,0.055
54124.482554,16.577,0.057
54124.49562,16.647,0.057
54124.508003,16.658,0.061
54124.520364,16.712,0.063
54147.400843,16.848,0.086
54147.40115,16.807,0.092
54147.41268,16.901,0.089
54147.412987,16.902,0.099
54147.424935,16.926,0.096
54147.425243,16.876,0.101
54147.437414,16.982,0.096
54147.437719,16.975,0.104
54147.449531,17.088,0.109
54147.449837,16.894,0.104
54149.401251,16.456,0.061
54149.413032,16.521,0.063
54149.425775,16.539,0.063
54149.437662,16.527,0.063
54149.449435,16.696,0.069
54156.380945,16.88,0.074
54156.392501,16.908,0.068
54156.410662,16.946,0.067
54156.422534,16.804,0.055
54156.434095,16.756,0.055
54157.384351,16.784,0.074
54157.396037,16.777,0.07
54157.407738,16.878,0.076
54157.419454,16.815,0.068
54157.431239,16.812,0.063
54175.332383,16.866,0.087
54175.33253,16.741,0.081
54175.343112,16.872,0.087
54175.343257,16.985,0.099
54175.353832,16.839,0.086
54175.353978,16.876,0.089
54175.364643,16.907,0.089
54175.364788,16.946,0.094
54175.376109,16.876,0.086
54175.376255,16.843,0.084
54175.377121,16.904,0.072
54175.387943,16.895,0.072
54175.398862,16.866,0.074
54175.409814,16.949,0.078
54175.420678,16.929,0.076
54178.360403,16.937,0.098
54178.371242,16.843,0.094
54178.382431,16.993,0.148
54178.393217,16.923,0.1
54178.40463,16.911,0.085
54198.277169,16.625,0.104
54198.286893,16.693,0.186
54210.308793,16.79,0.078
54210.317963,16.68,0.072
54210.327135,16.797,0.078
54210.33637,16.747,0.076
54210.345945,16.853,0.087
54475.459882,16.881,0.068
54475.460212,16.845,0.063
54475.472942,16.811,0.061
54475.473268,16.787,0.057
54475.48584,16.59,0.048
54475.486168,16.607,0.048
54475.498717,16.514,0.044
54475.499043,16.6,0.046
54475.511896,16.474,0.046
54475.512223,16.513,0.044
54483.462315,16.762,0.074
54483.462526,16.627,0.067
54483.475256,16.683,0.067
54483.475468,16.722,0.07
54483.488224,16.728,0.067
54483.488432,16.716,0.067
54483.501336,16.705,0.061
54483.501548,16.688,0.061
54483.514444,16.662,0.054
54483.514656,16.774,0.061
54485.468971,16.791,0.131
54485.481684,16.831,0.13
54485.494385,16.963,0.135
54485.507078,16.911,0.118
54485.519767,16.927,0.105
54509.396663,16.747,0.048
54509.396838,16.789,0.05
54509.408758,16.585,0.043
54509.408933,16.618,0.043
54509.420843,16.555,0.041
54509.421018,16.574,0.041
54509.43291,16.482,0.037
54509.433087,16.567,0.041
54509.44501,16.408,0.035
54509.445185,16.457,0.039
54524.45021,16.59,0.059
54524.450401,16.526,0.054
54524.461757,16.592,0.063
54524.461947,16.622,0.057
54524.473455,16.584,0.065
54524.473647,16.577,0.055
54524.484958,16.605,0.067
54524.485149,16.683,0.061
54524.497221,16.604,0.067
54524.497412,16.745,0.067
54532.386037,16.805,0.052
54532.386608,16.8,0.052
54532.397522,16.815,0.054
54532.398091,16.818,0.054
54532.408843,16.769,0.052
54532.40941,16.877,0.057
54532.420116,16.786,0.052
54532.42068,16.873,0.057
54532.431363,16.764,0.054
54532.431931,16.844,0.055
54538.365466,16.818,0.05
54538.376639,16.842,0.05
54538.387655,16.822,0.048
54538.398594,16.84,0.05
54538.409619,16.862,0.05
54543.281284,17.837,0.281
54543.282916,16.95,0.118
54543.292246,17.58,0.209
54543.293874,16.959,0.111
54543.30313,17.408,0.17
54543.304753,16.966,0.107
54543.31401,17.021,0.115
54543.315635,16.805,0.089
54543.324874,16.968,0.105
54543.326496,16.677,0.078
54555.370686,16.519,0.037
54555.382543,16.533,0.039
54555.394417,16.563,0.043
54555.406286,16.606,0.044
54568.347972,16.648,0.078
54568.348112,16.649,0.084
54568.358996,16.465,0.068
54568.359135,16.612,0.081
54568.369889,16.488,0.066
54568.370028,16.532,0.074
54568.380794,16.502,0.068
54568.380933,16.475,0.074
54568.391611,16.356,0.061
54568.39175,16.471,0.071
54586.290608,16.419,0.05
54586.300704,16.469,0.052
54586.310779,16.501,0.055
54586.320859,16.6,0.063
54586.33098,16.586,0.061
54594.258918,16.739,0.072
54594.269209,16.824,0.078
54594.279509,16.81,0.078
54594.289776,16.839,0.08
54594.300102,16.829,0.078
54618.213791,16.872,0.07
54618.224012,16.846,0.067
54618.234227,17.021,0.08
54618.24446,16.907,0.074
54618.254708,16.885,0.07
54622.216756,16.518,0.14
54622.22778,16.643,0.15
54622.237766,16.673,0.102
54622.238011,16.687,0.155
54622.25799,16.68,0.168
