mjd,m,merr
52652.457323,15.193,0.017
52652.472549,15.183,0.017
52652.487765,15.218,0.017
52652.505959,15.313,0.018
52652.52082,15.462,0.022
52664.35922,15.194,0.018
52664.37446,15.235,0.03
52664.420297,15.519,0.055
52722.405364,15.265,0.017
52722.418346,15.357,0.018
52722.431704,15.437,0.02
52722.444688,15.481,0.022
52722.457726,15.366,0.02
52751.313042,15.528,0.022
52751.325127,15.51,0.022
52751.335887,15.411,0.02
52751.346609,15.325,0.02
52751.357937,15.253,0.02
52752.2324,15.159,0.018
52752.242661,15.2,0.018
52752.252922,15.262,0.02
52752.263199,15.347,0.02
52752.273487,15.391,0.02
52753.255995,15.488,0.026
52753.269115,15.396,0.025
52753.282172,15.31,0.023
52753.296191,15.235,0.021
52753.30879,15.215,0.021
52754.256792,15.219,0.017
52754.268846,15.17,0.017
52754.281707,15.129,0.015
52754.294196,15.126,0.015
52754.308338,15.173,0.017
52755.260612,15.15,0.017
52755.272615,15.205,0.017
52755.284566,15.254,0.017
52755.296451,15.306,0.018
52755.30833,15.374,0.02
52756.250759,15.212,0.017
52756.262705,15.294,0.017
52756.274637,15.43,0.02
52756.286582,15.524,0.022
52756.298616,15.477,0.02
52772.271364,15.168,0.038
52772.271596,15.185,0.038
52772.29486,15.335,0.041
52772.295101,15.466,0.046
52782.217488,15.202,0.059
52800.218385,15.515,0.057
52800.228719,15.518,0.055
52800.238866,15.506,0.055
52812.224783,15.348,0.022
52812.234866,15.435,0.022
52812.244856,15.461,0.024
52812.255092,15.428,0.022
52812.265091,15.35,0.02
52827.173342,15.405,0.043
52827.183269,15.39,0.043
52839.168379,15.434,0.026
52839.188481,15.58,0.03
52990.467328,15.433,0.022
52990.480585,15.413,0.02
52990.493612,15.332,0.018
52990.506815,15.222,0.017
52990.519843,15.178,0.015
53023.407123,15.127,0.013
53023.4198,15.12,0.011
53023.43248,15.149,0.011
53023.44517,15.196,0.013
53023.457872,15.262,0.013
53046.407163,15.434,0.026
53046.419673,15.545,0.028
53046.431633,15.483,0.026
53046.443538,15.371,0.024
53046.456116,15.266,0.022
53107.296838,15.193,0.013
53107.307872,15.235,0.015
53107.319142,15.298,0.015
53107.330181,15.356,0.017
53107.34125,15.424,0.017
53127.247913,15.417,0.043
53127.257972,15.351,0.041
53127.267934,15.246,0.035
53127.277892,15.25,0.033
53127.287926,15.182,0.031
53136.24466,15.337,0.02
53136.254033,15.268,0.02
53136.263501,15.225,0.018
53136.272771,15.194,0.018
53136.282044,15.173,0.018
53154.250417,15.182,0.024
53154.259305,15.209,0.024
53154.268117,15.202,0.024
53154.276929,15.226,0.026
53154.285728,15.261,0.026
53164.22099,15.178,0.015
53164.231165,15.227,0.017
53164.241397,15.285,0.018
53164.251575,15.352,0.02
53164.261757,15.429,0.02
53194.204687,15.161,0.065
53194.214817,15.18,0.037
53358.476113,15.194,0.02
53358.49059,15.278,0.02
53358.505064,15.372,0.021
53358.519594,15.449,0.023
53400.491355,15.258,0.026
53400.504005,15.393,0.028
53400.516655,15.433,0.028
53400.529321,15.369,0.024
53421.355489,15.323,0.028
53421.379252,15.53,0.031
53421.391329,15.457,0.028
53421.40321,15.342,0.024
53430.371317,15.385,0.026
53430.383026,15.288,0.022
53430.398029,15.251,0.022
53430.409225,15.161,0.02
53430.420569,15.139,0.02
53491.253449,15.23,0.022
53491.26587,15.348,0.02
53491.278877,15.523,0.024
53491.289466,15.499,0.024
53491.300354,15.422,0.022
53537.260319,15.219,0.057
53566.221187,15.247,0.033
53566.231866,15.18,0.031
53566.242493,15.147,0.031
53566.253126,15.192,0.033
53583.157775,15.412,0.067
53583.169075,15.461,0.033
53583.180342,15.381,0.024
53583.191603,15.293,0.024
53583.202884,15.24,0.026
53727.493726,15.089,0.031
53757.389611,15.478,0.028
53757.402246,15.351,0.024
53757.414948,15.293,0.022
53757.42774,15.184,0.02
53757.440595,15.166,0.02
53773.419354,15.441,0.02
53773.432354,15.297,0.017
53773.445018,15.233,0.017
53773.457709,15.187,0.015
53773.470561,15.139,0.015
53826.291296,15.29,0.016
53826.312931,15.405,0.04
53826.32367,15.406,0.018
53826.334673,15.345,0.018
53827.309628,15.309,0.015
53827.320754,15.231,0.013
53827.332122,15.167,0.013
53827.343273,15.133,0.013
53827.354165,15.115,0.013
53856.272823,15.291,0.021
53856.282897,15.405,0.023
53856.292845,15.479,0.025
53856.302732,15.497,0.026
53856.312658,15.406,0.023
53877.257703,15.265,0.015
53877.26834,15.321,0.018
53904.217381,15.285,0.024
53904.227237,15.361,0.026
53904.237108,15.421,0.028
53904.246995,15.418,0.028
53904.256885,15.372,0.028
53909.209604,15.366,0.03
53909.2199,15.404,0.03
53909.230139,15.353,0.028
53909.240413,15.279,0.026
53909.250626,15.213,0.026
53910.165306,15.358,0.026
53910.16657,15.353,0.026
53910.175556,15.494,0.024
53910.177144,15.47,0.028
53910.185861,15.531,0.026
53910.187708,15.482,0.03
53910.196054,15.408,0.022
53910.198225,15.419,0.026
53910.206293,15.318,0.02
53910.20874,15.305,0.025
53910.216644,15.248,0.018
53910.227064,15.228,0.02
53910.237504,15.162,0.02
53910.248012,15.143,0.018
53910.258487,15.124,0.02
53918.193745,15.525,0.063
53933.16902,15.179,0.02
53933.179719,15.159,0.022
53933.190411,15.128,0.024
53933.20109,15.143,0.028
53933.211935,15.182,0.031
54098.43551,15.179,0.02
54098.448302,15.223,0.02
54098.460804,15.303,0.021
54098.472899,15.384,0.023
54124.396563,15.125,0.015
54124.409225,15.138,0.016
54124.422485,15.231,0.016
54124.435194,15.277,0.018
54124.447629,15.345,0.02
54140.395909,15.197,0.02
54140.408132,15.146,0.02
54140.420239,15.122,0.018
54140.43251,15.118,0.018
54140.444852,15.156,0.02
54188.316511,15.296,0.035
54188.326338,15.216,0.031
54188.336112,15.213,0.03
54188.345641,15.135,0.028
54188.355468,15.131,0.026
54198.275454,15.207,0.018
54198.285129,15.156,0.037
54198.295148,15.124,0.057
54198.304895,15.029,0.076
54210.265408,15.516,0.023
54210.274213,15.433,0.021
54210.283139,15.352,0.02
54210.292041,15.303,0.02
54210.300859,15.244,0.018
54218.268805,15.527,0.043
54218.277466,15.531,0.041
54218.286105,15.438,0.039
54218.294741,15.365,0.035
54218.303335,15.283,0.033
54498.401626,15.227,0.021
54498.414106,15.28,0.021
54498.437712,15.501,0.026
54526.337949,15.329,0.023
54526.349515,15.459,0.025
54526.360914,15.595,0.026
54537.323336,15.144,0.041
54537.334313,15.153,0.038
54537.34523,15.083,0.031
54537.356415,15.096,0.036
54537.367537,15.162,0.025
54555.243824,15.421,0.03
54555.255675,15.374,0.028
54555.267314,15.262,0.026
54555.279053,15.186,0.023
54555.290766,15.163,0.025
54559.299649,15.238,0.023
54559.311154,15.185,0.023
54559.32281,15.196,0.023
54559.334286,15.212,0.023
54559.345741,15.245,0.023
54569.292206,15.217,0.023
54569.303188,15.258,0.025
54569.314155,15.358,0.026
54569.325073,15.41,0.026
54569.335967,15.394,0.028
54585.252759,15.327,0.048
54585.26279,15.316,0.048
54585.272907,15.288,0.058
54585.282962,15.213,0.025
54599.243751,15.156,0.031
54599.253051,15.116,0.031
54599.262357,15.16,0.033
54599.271648,15.219,0.033
54599.281054,15.268,0.033
54618.214983,15.288,0.033
54618.225347,15.377,0.036
54618.235646,15.422,0.038
54618.246152,15.457,0.038
54618.256975,15.374,0.036
