mjd,m,merr
52646.480389,16.449,0.074
52646.495325,16.538,0.073
52646.510534,16.448,0.066
52646.525433,16.461,0.069
52667.464407,16.624,0.079
52667.479637,16.52,0.073
52667.494251,16.27,0.058
52667.508899,16.058,0.048
52667.523518,15.77,0.036
52676.369868,16.316,0.063
52676.385586,16.416,0.067
52676.401163,16.459,0.063
52676.421662,16.563,0.067
52676.436275,16.486,0.065
52707.39335,16.294,0.043
52707.406932,16.247,0.044
52707.420563,16.315,0.048
52707.433841,16.332,0.048
52710.38659,16.074,0.028
52710.38719,16.01,0.04
52710.399734,16.193,0.028
52710.400334,16.121,0.043
52710.412752,16.196,0.03
52710.425848,16.236,0.031
52738.300724,16.233,0.041
52738.312271,15.983,0.031
52738.323781,15.743,0.026
52738.335414,15.681,0.024
52738.347159,15.743,0.024
52755.267219,16.176,0.043
52755.27923,16.226,0.043
52755.291161,16.251,0.044
52755.303025,16.326,0.05
52755.314989,16.309,0.05
52768.214298,16.654,0.106
52768.22593,16.6,0.101
52768.238484,16.645,0.104
52768.250281,16.647,0.102
52768.262126,16.47,0.087
52792.232923,16.466,0.087
52792.243875,16.641,0.101
52792.254703,16.501,0.087
52792.2655,16.554,0.097
52793.265144,16.466,0.087
52793.275448,16.641,0.101
52793.286206,16.501,0.087
52793.296714,16.554,0.097
52819.215974,16.415,0.091
52824.175236,16.505,0.084
52824.185133,16.604,0.087
52824.195107,16.457,0.081
52824.205131,16.569,0.092
52824.21508,16.6,0.094
53033.401213,16.143,0.044
53033.413352,16.234,0.044
53033.425777,16.277,0.046
53033.437873,16.276,0.044
53033.450037,16.333,0.048
53053.409757,16.533,0.052
53053.421552,16.54,0.055
53053.433251,16.588,0.061
53053.445604,16.57,0.124
53053.457311,16.571,0.113
53062.39853,16.049,0.089
53062.409884,16.067,0.067
53062.421259,16.152,0.12
53062.432671,16.08,0.037
53062.444166,16.239,0.142
53079.365855,16.509,0.052
53079.377219,16.553,0.054
53079.388057,16.526,0.052
53079.399605,16.587,0.054
53079.410842,16.555,0.052
53087.348533,15.995,0.025
53087.359393,16.015,0.025
53087.370512,16.106,0.026
53087.382232,16.12,0.028
53087.393213,16.196,0.03
53089.34086,15.785,0.025
53089.364793,15.955,0.106
53110.294321,16.075,0.039
53110.305137,16.166,0.041
53110.31594,16.212,0.041
53110.326742,16.172,0.041
53110.337543,16.259,0.044
53119.251152,16.59,0.046
53119.261658,16.606,0.046
53119.272155,16.589,0.046
53119.282751,16.653,0.046
53119.29321,16.694,0.052
53138.251196,15.94,0.033
53138.260721,15.968,0.033
53138.2703,15.968,0.035
53138.279893,16.025,0.035
53138.289476,16.048,0.037
53149.212096,16.516,0.054
53149.221149,16.488,0.05
53149.230128,16.598,0.055
53149.239205,16.546,0.05
53149.248252,16.577,0.054
53166.241895,15.764,0.031
53166.251341,15.792,0.033
53166.260792,15.835,0.033
53166.270242,15.853,0.035
53166.27978,15.913,0.037
53447.357407,16.655,0.059
53447.367801,16.838,0.189
53447.400422,16.251,0.039
53466.312244,15.793,0.031
53466.321457,15.913,0.035
53466.330753,15.963,0.035
53466.340684,15.907,0.035
53466.350151,16.044,0.039
53468.390163,16.048,0.039
53468.399777,16.068,0.043
53468.409344,16.051,0.041
53468.418931,16.091,0.043
53468.429037,16.119,0.044
53469.330223,15.769,0.026
53469.339836,15.737,0.026
53469.349347,15.76,0.026
53469.359181,15.82,0.028
53469.368723,15.862,0.031
53503.324534,16.558,0.052
53503.333566,16.574,0.054
53503.343937,16.479,0.055
53503.353461,16.523,0.059
53503.363802,16.477,0.061
53522.216943,16.571,0.068
53522.227186,16.7,0.074
53522.237469,16.673,0.074
53522.247677,16.722,0.08
53522.257965,16.661,0.081
53528.164748,16.593,0.081
53528.176389,16.651,0.085
53528.187861,16.661,0.089
53528.19885,16.583,0.081
53528.209545,16.665,0.091
53746.46889,15.812,0.05
53746.481501,15.876,0.05
53746.494022,15.933,0.046
53746.506466,15.955,0.041
53746.51899,15.99,0.039
53790.405474,16.321,0.051
53790.417565,16.282,0.049
53790.429293,16.259,0.083
53790.441041,16.408,0.053
53790.453305,16.371,0.049
53818.341884,16.005,0.035
53818.353251,16.088,0.038
53818.364588,16.1,0.038
53818.375742,16.154,0.04
53818.386921,16.129,0.04
53845.25031,16.402,0.351
53845.272837,15.81,0.04
53845.284116,15.756,0.038
53845.295326,15.76,0.04
53850.249698,16.515,0.074
53850.259963,16.538,0.076
53850.270279,16.593,0.078
53850.280667,16.557,0.078
53850.291039,16.607,0.079
53882.161481,16.396,0.055
53882.174394,16.533,0.059
53882.187376,16.445,0.057
53882.198602,16.514,0.059
53882.210471,16.533,0.059
53884.221406,16.423,0.072
53884.232997,16.366,0.068
53884.244555,16.383,0.068
53884.256147,16.451,0.072
53884.267743,16.456,0.074
53901.18546,16.629,0.144
53901.195453,16.573,0.12
53901.20548,16.513,0.113
54152.402881,16.609,0.052
54152.414765,16.445,0.044
54152.426719,16.12,0.033
54152.438631,15.994,0.028
54152.450562,15.756,0.022
54173.322891,15.758,0.031
54173.333731,15.638,0.03
54173.344431,15.65,0.056
54173.355058,15.767,0.033
54173.365956,15.809,0.031
54185.335884,16.699,0.201
54185.346327,16.609,0.119
54185.356876,16.558,0.099
54200.270329,16.634,0.089
54200.289409,16.66,0.092
54200.298848,16.444,0.086
54200.30855,16.255,0.066
54477.461346,15.436,0.02
54477.474292,15.484,0.02
54477.48723,15.601,0.022
54477.500161,15.654,0.022
54477.513226,15.69,0.022
54484.459742,16.481,0.074
54539.321088,16.44,0.037
54539.331981,16.484,0.037
54539.342854,16.499,0.035
54539.353704,16.51,0.035
54539.364724,16.544,0.035
54558.242418,16.656,0.115
54558.254006,16.566,0.091
54558.265633,16.494,0.055
54558.277279,16.582,0.061
54558.288846,16.602,0.067
54567.291062,16.331,0.039
54567.302364,16.36,0.039
54567.313666,16.4,0.041
54567.324837,16.414,0.041
54567.335993,16.48,0.043
54580.256286,16.626,0.111
54580.266617,16.687,0.112
54580.276874,16.629,0.114
54580.287212,16.721,0.114
54580.297489,16.7,0.114
54591.241923,16.26,0.114
54591.251507,16.616,0.16
54591.261095,16.436,0.139
54591.28041,16.387,0.125
54597.253525,16.098,0.055
54597.264162,16.029,0.052
54597.274774,16.16,0.057
54597.285543,16.206,0.057
54597.29618,16.195,0.055
54611.204528,16.521,0.097
54611.212891,16.604,0.099
54611.221114,16.539,0.097
54611.237561,16.485,0.091
54620.218672,16.188,0.041
54620.228901,16.231,0.043
54620.23907,16.263,0.044
54620.24926,16.308,0.046
54620.259461,16.364,0.048
