mjd,m,merr
52668.516483,14.797,0.018
52668.531715,14.81,0.018
52670.471564,14.948,0.017
52670.48557,14.865,0.015
52670.49959,14.8,0.015
52670.513621,14.757,0.013
52670.527634,14.749,0.013
52673.44819,15.098,0.017
52673.463412,15.086,0.017
52673.478901,15.04,0.015
52673.494395,14.952,0.013
52703.383468,15.05,0.017
52703.409951,14.917,0.031
52703.423128,14.823,0.026
52703.436341,14.797,0.015
52708.379624,15.109,0.017
52708.393254,15.108,0.017
52708.406824,15.112,0.017
52708.42114,15.071,0.017
52708.435202,14.986,0.015
52727.393731,14.891,0.057
52727.406118,14.826,0.033
52727.418762,14.916,0.026
52727.431143,14.89,0.024
52730.350539,14.745,0.011
52730.362152,14.71,0.011
52730.373729,14.729,0.011
52730.385231,14.755,0.011
52730.396725,14.778,0.013
52733.399462,14.718,0.017
52733.411241,14.773,0.037
52736.310082,15.014,0.018
52736.32193,14.958,0.016
52736.333818,14.889,0.016
52736.345621,14.789,0.016
52736.357444,14.752,0.015
52757.27107,14.725,0.015
52757.283094,14.754,0.013
52757.295084,14.81,0.015
52757.307059,14.823,0.015
52757.319042,14.86,0.017
52758.26853,14.72,0.011
52758.280296,14.755,0.013
52758.292208,14.773,0.013
52758.304,14.797,0.013
52758.316089,14.818,0.013
52764.213014,14.925,0.009
52764.225421,14.858,0.009
52769.20556,15.156,0.028
52769.217446,15.086,0.026
52769.229108,15.047,0.024
52769.240846,15.028,0.024
52769.252924,14.939,0.022
52788.226714,14.869,0.039
52788.258386,14.949,0.03
52788.268803,14.99,0.017
52793.255342,14.822,0.017
52793.265334,14.872,0.018
52793.275312,14.863,0.018
52793.285323,14.868,0.018
52793.295294,14.945,0.02
52796.221989,14.728,0.02
52796.232044,14.763,0.02
52796.242097,14.762,0.02
52796.252134,14.769,0.022
52796.262246,14.809,0.024
52815.175658,15.018,0.024
52815.185631,15.053,0.024
52815.195689,15.082,0.026
52815.205701,15.048,0.026
52815.215704,15.071,0.024
52821.171061,14.908,0.018
52821.180865,14.934,0.02
52821.190666,14.969,0.02
52821.200487,14.993,0.022
52821.210288,15.015,0.022
52822.173834,14.84,0.018
52822.183703,14.895,0.018
52822.213356,15.008,0.024
53028.467071,14.833,0.009
53028.480223,14.861,0.011
53028.49478,14.898,0.011
53028.520995,15.025,0.033
53032.460342,14.753,0.012
53032.473004,14.766,0.012
53032.485177,14.788,0.012
53032.49791,14.821,0.012
53032.510051,14.862,0.013
53055.409704,15.091,0.043
53081.404827,14.974,0.013
53081.415934,14.934,0.013
53081.427067,14.849,0.013
53081.438523,14.796,0.013
53081.44986,14.758,0.013
53082.40412,15.023,0.011
53082.415394,14.975,0.011
53082.426386,14.922,0.011
53082.437281,14.838,0.011
53084.386384,15.067,0.011
53084.397087,15.07,0.011
53084.40766,15.061,0.011
53084.418406,15.031,0.011
53084.42906,14.97,0.011
53091.393307,15.071,0.013
53091.413896,15.094,0.013
53091.424187,15.102,0.013
53112.337635,14.863,0.021
53116.368427,14.923,0.011
53116.390528,14.775,0.009
53116.401726,14.789,0.011
53116.412776,14.784,0.011
53140.250389,14.794,0.015
53140.259655,14.772,0.013
53140.269146,14.747,0.013
53140.278298,14.728,0.013
53140.288357,14.708,0.013
53141.264345,14.737,0.011
53141.274079,14.743,0.011
53141.283666,14.778,0.011
53141.293385,14.695,0.011
53141.30301,14.728,0.011
53143.236567,14.988,0.013
53143.245644,14.912,0.012
53143.26518,14.808,0.01
53143.279424,14.801,0.01
53144.256584,14.909,0.018
53144.265979,14.839,0.018
53144.277365,14.807,0.018
53144.28831,14.77,0.016
53144.297233,14.76,0.013
53168.176001,14.735,0.016
53168.186226,14.738,0.016
53168.196178,14.744,0.015
53168.206148,14.736,0.016
53168.2161,14.741,0.016
53170.177661,14.721,0.011
53170.187784,14.714,0.011
53170.197896,14.705,0.011
53170.208007,14.695,0.011
53170.218159,14.728,0.011
53173.17626,14.778,0.013
53173.185839,14.735,0.013
53173.197677,14.719,0.013
53173.207179,14.714,0.013
53173.216783,14.682,0.013
53381.518451,14.83,0.026
53403.480607,14.816,0.024
53403.493174,14.832,0.024
53403.505739,14.877,0.024
53403.518356,14.912,0.024
53403.531075,14.955,0.024
53432.40909,14.951,0.018
53432.433045,14.959,0.02
53432.444609,15.037,0.02
53432.456112,15.051,0.02
53446.447496,14.749,0.011
53446.458392,14.762,0.011
53446.468966,14.806,0.011
53446.479512,14.815,0.013
53446.490123,14.877,0.013
53464.390053,15.074,0.017
53464.400463,15.104,0.017
53464.411661,15.142,0.017
53464.422299,15.137,0.018
53464.432604,15.129,0.018
53467.330326,14.869,0.015
53467.341885,14.892,0.026
53467.364636,14.968,0.015
53467.376032,14.998,0.018
53467.433792,15.096,0.02
53467.443386,15.139,0.022
53467.462537,15.19,0.046
53467.472316,15.125,0.026
53478.321195,14.705,0.02
53478.330333,14.704,0.02
53478.339499,14.688,0.02
53478.348723,14.727,0.02
53478.357898,14.732,0.02
53495.301707,15.03,0.054
53495.311745,15.162,0.048
53495.32178,15.092,0.039
53495.331797,15.123,0.044
53495.341843,15.164,0.054
53499.26371,14.878,0.015
53499.274601,14.946,0.017
53499.289726,14.981,0.017
53499.305068,15.006,0.017
53499.315479,15.063,0.02
53503.274027,14.831,0.013
53503.284355,14.845,0.013
53503.295341,14.895,0.015
53503.304432,14.906,0.015
53503.313252,14.939,0.015
53506.238804,14.704,0.018
53506.248215,14.722,0.018
53506.257616,14.768,0.018
53506.267076,14.747,0.018
53506.277046,14.755,0.018
53525.21837,15.088,0.022
53525.228665,15.101,0.022
53525.239207,15.096,0.022
53525.249459,15.103,0.022
53525.259701,15.109,0.022
53745.463001,14.79,0.018
53745.476117,14.791,0.017
53745.489364,14.743,0.015
53745.503235,14.724,0.013
53745.516153,14.742,0.015
53759.501154,15.107,0.044
53759.514178,15.12,0.037
53762.480666,15.069,0.017
53762.494034,15.11,0.018
53762.507237,15.115,0.02
53762.520108,15.094,0.017
53762.533527,15.084,0.018
53790.452709,14.992,0.017
53790.464637,14.865,0.015
53790.476464,14.806,0.02
53790.488297,14.755,0.022
53790.500133,14.775,0.024
53793.458793,15.069,0.022
53793.470639,15.008,0.03
53793.494274,14.85,0.015
53793.50612,14.765,0.013
53797.360557,14.952,0.02
53797.372359,14.984,0.018
53797.384164,15.017,0.02
53797.396029,15.031,0.024
53797.407841,15.061,0.048
53799.398102,15.023,0.031
53799.40972,14.997,0.024
53799.421326,15.012,0.02
53799.432949,15.073,0.022
53799.444587,15.099,0.026
53803.351234,14.768,0.017
53803.362636,14.785,0.017
53803.373936,14.843,0.017
53803.385422,14.834,0.017
53803.396726,14.913,0.018
53816.414455,14.721,0.013
53816.4264,14.722,0.013
53816.437921,14.738,0.015
53816.449706,14.754,0.015
53819.410381,14.711,0.015
53819.43246,14.702,0.015
53819.443235,14.753,0.015
53819.45402,14.752,0.017
53827.412648,14.976,0.018
53827.423231,14.886,0.018
53827.433783,14.826,0.017
53827.444331,14.815,0.017
53827.454969,14.795,0.017
53832.331249,15.017,0.018
53832.342274,15.019,0.022
53832.352304,15.059,0.02
53848.299388,14.747,0.018
53848.310058,14.744,0.018
53848.320722,14.715,0.018
53848.331737,14.744,0.018
53848.343308,14.752,0.018
53850.384757,14.77,0.017
53850.3957,14.797,0.017
53850.406486,14.798,0.017
53850.41729,14.866,0.018
53850.42809,14.924,0.02
53853.302428,14.819,0.017
53853.313543,14.756,0.015
53853.323979,14.759,0.017
53853.334423,14.753,0.017
53853.344858,14.72,0.015
53856.336868,14.785,0.015
53856.347118,14.769,0.015
53856.35737,14.745,0.015
53856.367731,14.73,0.015
53856.377977,14.721,0.015
53880.223451,14.749,0.015
53880.234633,14.709,0.015
53880.245832,14.7,0.015
53880.257079,14.718,0.015
53880.268117,14.726,0.015
53882.277866,14.694,0.015
53882.28912,14.725,0.015
53882.300377,14.727,0.015
53882.311627,14.757,0.015
53882.322889,14.803,0.017
53884.220246,14.798,0.016
53884.232665,14.759,0.016
53884.245494,14.748,0.016
53884.257492,14.709,0.016
53890.17255,15.036,0.028
53890.186542,15.042,0.028
53890.200609,15.069,0.028
53890.214122,15.089,0.028
53890.227303,15.011,0.028
53891.248102,15.011,0.045
53891.266081,14.914,0.041
53891.310785,14.844,0.04
53906.171451,14.826,0.022
53906.18159,14.835,0.02
53906.191674,14.825,0.024
53906.201839,14.84,0.031
53906.211998,14.89,0.028
53911.195778,14.643,0.061
53911.216399,14.824,0.054
53911.226699,14.867,0.044
53911.237002,14.866,0.041
53915.174358,14.731,0.022
53915.184718,14.721,0.022
53915.195064,14.699,0.022
53915.205393,14.739,0.024
54123.461248,14.883,0.018
54123.473758,14.788,0.016
54123.486411,14.768,0.016
54123.498825,14.74,0.015
54123.511683,14.708,0.015
54144.422596,14.801,0.013
54144.434076,14.867,0.013
54144.445259,14.898,0.013
54144.456741,14.944,0.015
54144.467928,14.97,0.015
54148.401677,14.749,0.016
54148.408057,14.764,0.011
54148.413255,14.741,0.016
54148.420264,14.769,0.011
54148.424962,14.77,0.016
54148.432539,14.773,0.011
54148.43685,14.8,0.018
54148.444682,14.811,0.013
54148.44869,14.841,0.018
54148.45682,14.835,0.013
54154.394238,14.765,0.011
54154.405956,14.773,0.009
54154.417691,14.731,0.009
54154.429475,14.727,0.009
54154.441223,14.729,0.009
54158.396746,14.886,0.017
54158.408495,14.791,0.017
54158.42022,14.796,0.015
54158.43198,14.757,0.015
54158.44376,14.729,0.013
54173.374304,15.026,0.017
54173.38516,15.059,0.015
54173.396029,15.078,0.015
54173.406916,15.08,0.015
54173.417798,15.096,0.015
54176.380352,14.94,0.013
54176.391336,14.99,0.013
54176.402218,15.009,0.013
54176.41319,15.053,0.015
54176.424214,15.059,0.015
54177.380419,14.901,0.015
54177.391907,14.975,0.016
54177.402549,15.004,0.016
54177.413149,15.023,0.016
54179.399394,14.934,0.013
54179.410571,14.961,0.015
54179.421621,14.991,0.015
54179.432682,15.012,0.015
54179.444458,15.054,0.015
54206.316274,15.036,0.015
54206.325531,15.064,0.015
54206.334792,15.069,0.015
54206.344048,15.078,0.015
54206.353303,15.111,0.017
54209.3116,14.96,0.037
54209.320846,14.965,0.026
54209.330055,15.023,0.028
54209.33926,15.021,0.028
54209.348468,15.068,0.024
54507.449237,15.097,0.011
54507.461603,15.111,0.013
54507.474017,15.093,0.011
54507.48637,15.041,0.011
54507.498914,15.019,0.011
54530.39377,14.76,0.009
54530.405099,14.756,0.009
54530.416441,14.731,0.007
54530.42784,14.701,0.009
54530.439179,14.735,0.009
54536.380374,15.053,0.009
54536.391608,15.011,0.009
54536.402847,14.955,0.009
54536.414166,14.867,0.009
54536.425395,14.798,0.007
54554.367409,14.861,0.009
54554.379334,14.878,0.011
54554.391277,14.916,0.011
54554.403301,14.956,0.013
54554.415323,15.007,0.013
54563.355448,14.712,0.007
54563.367114,14.727,0.007
54563.378739,14.731,0.007
54563.402411,14.762,0.009
54567.312107,15.011,0.023
54567.323465,14.916,0.021
54567.334906,14.885,0.02
54567.346186,14.848,0.02
54567.357348,14.815,0.02
54570.295998,15.113,0.018
54570.307104,15.074,0.017
54570.318217,15.017,0.017
54570.329292,15.012,0.017
54570.340327,14.909,0.015
54585.2976,14.923,0.013
54585.307924,14.985,0.028
54585.318269,14.99,0.015
54585.32863,15.033,0.015
54585.338977,15.046,0.013
54592.29519,14.735,0.011
54592.305808,14.757,0.011
54592.31636,14.776,0.011
54592.326919,14.826,0.013
54592.33749,14.79,0.024
54599.252958,14.783,0.018
54599.263535,14.76,0.017
54599.274075,14.73,0.017
54599.2846,14.764,0.017
54599.295126,14.68,0.017
54615.221788,14.997,0.013
54615.232353,15.006,0.015
54615.242795,15.048,0.015
54615.253313,15.072,0.015
54615.263803,15.071,0.017
54623.174075,14.762,0.031
54623.184092,14.722,0.031
54623.194194,14.74,0.033
54623.204336,14.769,0.031
54623.21453,14.737,0.033
