mjd,m,merr
52668.516356,15.343,0.026
52668.531589,15.334,0.025
52671.463939,15.148,0.02
52671.479435,15.145,0.02
52671.495155,15.134,0.02
52671.510566,15.21,0.02
52671.525871,15.225,0.02
52672.453038,15.323,0.054
52673.447925,15.239,0.02
52673.463147,15.243,0.02
52673.478537,15.262,0.02
52673.494088,15.287,0.02
52703.383181,15.326,0.026
52703.409664,15.283,0.043
52703.422843,15.202,0.033
52703.436054,15.137,0.02
52709.380366,15.111,0.018
52709.393794,15.164,0.018
52709.407568,15.168,0.02
52709.420873,15.171,0.02
52709.434678,15.189,0.02
52727.393406,15.474,0.113
52727.405875,15.583,0.067
52727.418483,15.545,0.052
52727.430836,15.554,0.039
52730.350308,15.285,0.022
52730.361919,15.298,0.022
52730.373498,15.311,0.022
52730.384999,15.366,0.024
52730.396492,15.348,0.024
52733.399226,15.124,0.031
52733.411004,15.177,0.052
52736.315039,14.988,0.015
52736.327295,14.871,0.015
52736.339352,14.789,0.013
52736.351473,14.731,0.013
52736.36366,14.735,0.013
52757.270959,14.925,0.017
52757.282983,14.951,0.017
52757.294973,14.959,0.017
52757.306949,14.978,0.018
52757.31893,14.99,0.018
52758.268306,15.33,0.02
52758.280071,15.308,0.02
52758.291983,15.336,0.022
52758.303775,15.365,0.022
52758.315864,15.385,0.022
52764.212766,14.805,0.009
52764.225171,14.829,0.009
52764.237735,14.864,0.009
52764.250179,14.89,0.009
52764.262474,14.915,0.009
52788.226502,14.976,0.043
52788.258172,15.004,0.037
52788.268584,15.008,0.017
52793.255159,14.943,0.02
52793.265152,14.942,0.02
52793.275134,14.982,0.022
52793.285129,14.972,0.02
52793.29511,14.993,0.022
52796.230706,15.393,0.043
52796.265385,15.401,0.048
52815.175478,15.333,0.033
52815.185451,15.352,0.031
52815.195511,15.389,0.035
52815.205522,15.427,0.039
52815.215522,15.426,0.035
52821.171671,15.016,0.025
52821.181994,14.968,0.028
52821.192099,15.061,0.026
52821.20212,15.042,0.028
52821.212299,15.083,0.028
52822.173655,15.421,0.031
52822.183519,15.483,0.033
52822.193445,15.477,0.035
52822.213172,15.489,0.037
53028.466891,14.909,0.013
53028.480043,14.948,0.02
53028.49432,14.984,0.015
53028.520816,15.047,0.039
53032.460083,15.241,0.018
53032.472745,15.283,0.018
53032.484914,15.279,0.018
53032.497647,15.328,0.018
53032.509792,15.322,0.018
53055.409457,15.348,0.059
53061.388024,15.049,0.013
53061.400538,15.073,0.015
53061.411737,15.084,0.015
53061.424041,15.105,0.015
53061.435945,15.159,0.017
53081.404589,15.052,0.015
53081.415695,14.962,0.015
53081.426829,14.872,0.013
53081.438281,14.791,0.013
53081.449622,14.754,0.013
53082.403947,15.271,0.015
53082.41522,15.269,0.015
53082.426212,15.272,0.017
53082.437107,15.292,0.017
53082.447987,15.287,0.017
53091.382859,15.317,0.017
53091.393134,15.343,0.017
53091.403409,15.347,0.017
53091.413723,15.372,0.018
53091.424014,15.354,0.018
53112.316079,15.5,0.028
53112.326711,15.524,0.038
53112.337417,15.516,0.038
53116.368254,15.038,0.013
53116.379304,15.055,0.013
53116.401553,15.115,0.015
53116.412603,15.13,0.015
53140.250177,14.928,0.016
53140.259442,14.94,0.016
53140.268934,14.954,0.016
53140.278085,14.963,0.016
53140.288128,14.955,0.016
53141.264195,15.292,0.018
53141.273928,15.284,0.018
53141.283515,15.303,0.018
53141.293234,15.346,0.02
53141.302859,15.333,0.02
53144.256447,15.166,0.023
53144.265842,15.193,0.026
53144.277211,15.211,0.025
53144.288171,15.217,0.023
53168.175794,15.038,0.021
53168.186018,15.1,0.021
53168.19597,15.082,0.021
53168.205941,15.108,0.021
53168.215891,15.111,0.023
53170.177523,15.189,0.017
53170.187646,15.217,0.017
53170.197758,15.215,0.017
53170.207869,15.227,0.017
53170.21802,15.235,0.017
53173.176131,14.995,0.016
53173.185711,15.016,0.018
53173.197549,15.042,0.018
53173.207049,15.06,0.02
53173.216651,15.063,0.02
53381.518192,15.421,0.07
53403.480356,15.29,0.037
53403.492925,15.29,0.035
53403.505488,15.288,0.035
53403.518107,15.302,0.035
53403.530812,15.316,0.037
53432.408845,15.083,0.024
53432.432799,15.132,0.026
53432.444364,15.156,0.024
53432.455866,15.154,0.024
53446.447373,15.261,0.018
53446.458269,15.243,0.018
53446.468844,15.296,0.018
53446.47939,15.28,0.02
53446.490001,15.289,0.02
53464.38974,15.306,0.02
53464.400149,15.252,0.02
53464.411343,15.119,0.018
53464.421983,15.047,0.018
53464.432285,14.987,0.017
53467.330018,15.261,0.02
53467.364328,15.319,0.022
53467.375726,15.345,0.03
53467.433587,15.345,0.028
53467.44318,15.327,0.031
53467.472113,15.391,0.033
53478.320861,15.158,0.031
53478.330001,15.029,0.028
53478.339165,14.969,0.028
53478.348392,14.939,0.026
53478.357565,14.873,0.024
53495.311529,15.486,0.068
53495.321563,15.422,0.055
53495.33158,15.477,0.061
53495.341626,15.499,0.07
53499.263168,14.825,0.015
53499.274396,14.87,0.015
53499.289522,14.901,0.017
53499.304864,14.931,0.017
53499.315275,14.974,0.018
53503.273822,15.191,0.018
53503.284151,15.217,0.018
53503.295136,15.228,0.018
53503.304225,15.234,0.018
53503.313045,15.213,0.018
53506.238405,14.927,0.022
53506.248009,14.952,0.024
53506.257411,14.958,0.024
53506.26687,14.996,0.024
53506.276841,15.026,0.024
53525.218002,14.919,0.02
53525.228483,14.933,0.018
53525.239024,14.965,0.018
53525.249276,14.939,0.02
53525.259518,14.989,0.02
53745.462726,15.314,0.033
53745.475843,15.294,0.028
53745.48909,15.26,0.026
53745.502961,15.343,0.026
53745.515879,15.332,0.028
53759.513903,15.442,0.054
53762.480395,15.261,0.02
53762.493763,15.297,0.022
53762.506964,15.272,0.03
53762.519836,15.284,0.022
53762.533254,15.294,0.026
53777.48517,15.056,0.028
53777.498257,15.084,0.028
53777.511083,15.098,0.028
53777.523928,15.127,0.028
53777.53683,15.109,0.028
53790.404666,15.363,0.026
53790.416516,15.377,0.026
53790.428362,15.365,0.026
53790.440219,15.395,0.026
53790.452239,15.43,0.026
53793.458525,15.312,0.03
53793.470373,15.274,0.026
53793.494008,15.332,0.022
53793.505851,15.362,0.024
53797.360294,15.365,0.026
53797.372096,15.372,0.028
53797.383902,15.392,0.03
53797.395766,15.414,0.046
53797.407578,15.445,0.03
53799.40946,14.955,0.037
53799.421067,14.865,0.028
53799.432688,14.723,0.028
53799.444327,14.674,0.028
53803.350914,14.988,0.022
53803.362284,15.022,0.022
53803.373616,15.069,0.022
53803.385102,15.062,0.02
53803.396405,15.104,0.022
53816.414123,15.299,0.023
53816.426072,15.256,0.023
53816.437594,15.204,0.023
53816.449378,15.154,0.023
53819.410113,15.305,0.026
53819.420889,15.293,0.024
53819.432192,15.273,0.026
53819.442966,15.297,0.028
53819.453753,15.297,0.03
53827.412391,15.065,0.02
53827.422975,15.094,0.024
53827.433527,15.107,0.022
53827.444074,15.115,0.022
53827.454712,15.128,0.024
53832.330941,14.704,0.015
53832.341967,14.734,0.018
53832.351996,14.765,0.017
53848.299227,15.119,0.028
53848.309898,15.119,0.028
53848.320562,15.155,0.03
53848.331577,15.172,0.031
53848.343147,15.151,0.028
53850.384634,15.281,0.026
53850.395573,15.309,0.026
53850.406357,15.301,0.026
53850.417166,15.302,0.028
53850.427962,15.335,0.031
53853.302174,15.054,0.02
53853.313288,15.083,0.022
53853.323723,15.112,0.022
53853.334168,15.105,0.022
53853.344603,15.135,0.022
53856.336618,14.938,0.018
53856.346871,14.924,0.018
53856.357122,14.948,0.018
53856.367483,14.953,0.02
53856.377728,14.977,0.02
53880.223233,15.457,0.03
53880.234418,15.501,0.03
53880.245606,15.517,0.03
53880.256865,15.533,0.031
53880.267902,15.533,0.031
53882.232307,14.73,0.015
53882.243537,14.676,0.015
53882.254771,14.677,0.013
53882.266009,14.705,0.015
53882.277276,14.74,0.015
53884.219951,14.871,0.018
53884.232416,14.919,0.02
53884.245249,14.922,0.02
53884.257258,14.99,0.021
53890.186224,15.373,0.039
53890.200286,15.394,0.041
53890.213806,15.361,0.039
53891.171953,14.982,0.041
53891.191206,15.084,0.046
53891.209146,15.036,0.043
53891.227159,15.136,0.048
53891.247785,15.176,0.053
53906.171208,15.389,0.046
53906.181332,15.31,0.03
53906.191424,15.27,0.035
53906.201589,15.255,0.046
53906.211755,15.195,0.041
53911.216197,15.409,0.08
53911.226497,15.445,0.08
53911.236801,15.377,0.057
53915.174148,14.847,0.024
53915.184504,14.872,0.026
53915.194843,14.926,0.028
53915.205189,14.955,0.028
54123.460991,15.289,0.028
54123.473396,15.296,0.028
54123.486146,15.334,0.028
54123.498559,15.34,0.028
54123.511418,15.381,0.03
54144.422352,15.458,0.026
54144.433833,15.427,0.026
54144.445015,15.472,0.026
54144.456495,15.459,0.026
54144.467684,15.415,0.026
54148.401426,14.908,0.02
54148.413005,14.934,0.02
54148.42471,14.955,0.02
54148.436322,14.957,0.02
54148.448437,14.992,0.021
54149.399403,15.328,0.018
54149.411508,15.331,0.017
54149.423682,15.347,0.017
54149.435728,15.375,0.018
54149.447851,15.388,0.018
54154.393948,15.277,0.018
54154.405663,15.271,0.018
54154.417398,15.305,0.018
54154.429182,15.306,0.018
54154.44093,15.292,0.017
54158.396206,15.144,0.022
54158.407958,15.097,0.022
54158.419682,15.048,0.018
54158.43144,14.983,0.018
54158.443221,14.957,0.017
54173.374047,15.316,0.018
54173.384901,15.318,0.018
54173.39577,15.325,0.018
54173.406657,15.337,0.017
54173.417538,15.344,0.017
54176.380088,15.145,0.017
54176.391071,15.17,0.017
54176.401954,15.188,0.017
54176.412925,15.193,0.017
54176.423949,15.217,0.017
54177.380256,14.93,0.016
54177.391744,14.834,0.015
54177.402384,14.759,0.013
54177.412985,14.72,0.013
54177.424378,14.713,0.021
54179.399131,14.904,0.015
54179.410306,14.937,0.015
54179.421358,14.95,0.015
54179.432417,14.975,0.015
54179.444196,15.005,0.017
54206.316021,15.38,0.02
54206.325279,15.399,0.02
54206.33454,15.397,0.022
54206.343795,15.372,0.02
54206.353051,15.386,0.022
54209.311348,15.266,0.05
54209.320595,15.233,0.033
54209.329802,15.239,0.03
54209.339007,15.25,0.031
54209.348216,15.307,0.028
54507.399117,14.872,0.011
54507.41138,14.913,0.011
54507.423678,14.936,0.011
54507.436061,14.955,0.011
54507.448331,14.972,0.011
54530.393375,15.227,0.013
54530.40471,15.252,0.013
54530.416048,15.242,0.013
54530.427452,15.268,0.015
54530.43879,15.255,0.015
54532.438485,15.385,0.031
54532.449798,15.393,0.031
54532.461748,15.38,0.031
54532.472733,15.382,0.031
54532.483717,15.426,0.033
54536.379467,15.05,0.011
54536.390705,14.991,0.011
54536.401946,14.917,0.009
54536.413262,14.874,0.009
54536.424493,14.862,0.009
54554.367062,15.189,0.015
54554.378988,15.209,0.017
54554.390927,15.231,0.017
54554.402949,15.225,0.017
54554.414977,15.254,0.018
54563.355059,15.324,0.015
54563.366732,15.331,0.015
54563.378358,15.321,0.015
54563.390456,15.339,0.017
54563.402029,15.354,0.017
54570.295069,15.291,0.022
54570.30614,15.286,0.022
54570.317293,15.31,0.022
54570.328369,15.301,0.022
54570.33941,15.324,0.022
54584.308172,15.417,0.02
54584.318778,15.41,0.02
54584.329386,15.436,0.02
54584.340004,15.41,0.02
54584.350637,15.376,0.022
54591.299869,15.465,0.024
54591.310062,15.437,0.024
54591.320294,15.392,0.022
54591.330539,15.372,0.022
54591.340777,15.28,0.02
54599.252013,15.232,0.028
54599.262596,15.242,0.028
54599.273134,15.255,0.028
54599.283663,15.264,0.028
54599.294186,15.3,0.03
54614.218591,14.922,0.015
54614.228625,14.946,0.013
54614.238623,14.98,0.015
54614.24863,15.005,0.015
54614.258621,15.031,0.015
