mjd,m,merr
52653.458988,15.824,0.031
52653.473719,15.453,0.023
52653.489121,15.122,0.018
52653.504515,15.049,0.016
52653.520038,15.049,0.016
52684.430478,15.047,0.023
52684.445657,15.035,0.021
52684.460448,15.012,0.03
52684.47524,15.057,0.031
52693.415446,15.054,0.017
52693.43187,15.109,0.018
52693.447308,15.137,0.018
52693.46279,15.137,0.018
52693.478262,15.074,0.018
52721.312655,15.093,0.017
52721.325228,15.056,0.015
52721.337846,15.019,0.015
52721.350439,14.994,0.015
52721.363205,14.996,0.015
52750.287776,15.012,0.022
52750.298382,15.06,0.02
52750.308979,15.042,0.017
52750.31958,15.099,0.02
52750.33018,15.223,0.024
52781.21967,15.176,0.021
52781.230848,15.068,0.02
52781.242173,15.024,0.02
52781.253258,15.021,0.018
52781.264505,15.007,0.018
52801.216517,15.009,0.048
52801.226631,14.972,0.046
52801.236893,15.059,0.048
52801.246963,15.02,0.05
52801.257125,15.015,0.048
52809.219536,15.046,0.017
52809.229415,15.063,0.018
52809.239207,15.112,0.018
52809.249177,15.139,0.018
52809.259047,15.167,0.02
52830.172228,15.044,0.03
52830.182041,15.008,0.028
52830.191868,14.983,0.028
52830.201747,14.975,0.028
52830.211545,14.983,0.028
52845.160424,15.024,0.025
52845.170263,15.019,0.022
52845.189992,15.023,0.022
52845.19981,15.043,0.022
52988.422145,15.576,0.043
52988.439511,15.996,0.058
52988.45948,15.655,0.04
52988.472327,15.413,0.033
53008.483118,15.064,0.018
53008.497545,15.08,0.016
53008.511656,15.097,0.016
53008.527952,15.108,0.016
53038.442208,15.072,0.028
53038.455148,15.071,0.024
53038.467731,15.053,0.028
53038.480716,15.033,0.024
53038.497688,15.036,0.022
53045.377696,15.102,0.024
53045.388939,15.068,0.022
53045.400269,15.057,0.022
53045.411525,15.024,0.02
53045.422712,15.025,0.02
53096.325872,15.33,0.035
53096.336107,15.177,0.03
53096.346526,15.11,0.026
53096.357216,15.077,0.026
53096.367935,15.038,0.024
53108.304161,15.034,0.013
53108.315085,15.02,0.013
53108.326085,15.017,0.013
53108.337032,15.022,0.013
53108.347953,15.018,0.013
53125.24862,14.99,0.028
53125.258466,14.997,0.028
53125.268398,14.978,0.026
53125.288172,15.005,0.028
53134.246226,15.03,0.017
53134.255656,15.039,0.017
53134.265136,15.036,0.017
53134.274558,15.052,0.017
53134.284,15.06,0.017
53155.250895,15.042,0.028
53155.259645,15.031,0.028
53155.268451,15.052,0.03
53155.277229,15.014,0.03
53155.285997,14.997,0.03
53193.17911,15.214,0.02
53193.199082,15.563,0.028
53193.209124,15.899,0.039
53214.160747,15.047,0.037
53359.487418,15.13,0.017
53359.500223,15.079,0.017
53359.512994,15.045,0.015
53359.526128,15.022,0.015
53362.509659,15.029,0.017
53362.524199,15.004,0.017
53362.538346,15.033,0.017
53390.407967,15.022,0.018
53390.421141,15.02,0.018
53390.436936,15.023,0.017
53390.450058,15.029,0.015
53390.463192,15.039,0.015
53429.334068,15.359,0.026
53429.345284,15.18,0.022
53429.356553,15.066,0.02
53429.367837,15.042,0.02
53429.379114,15.04,0.018
53461.333974,15.082,0.017
53461.34426,15.125,0.017
53461.354806,15.159,0.018
53461.365144,15.143,0.017
53461.37546,15.149,0.017
53489.25064,15.021,0.02
53489.260869,15.02,0.017
53489.297085,15.025,0.017
53535.218974,15.09,0.02
53535.228992,15.054,0.018
53535.239002,15.026,0.018
53535.249025,15.004,0.018
53535.259041,14.985,0.018
53563.172067,14.986,0.044
53599.142309,15.001,0.03
53599.154936,14.941,0.031
53599.180127,14.961,0.033
53599.192728,15.005,0.039
53607.126425,14.996,0.018
53607.138014,14.976,0.033
53607.149468,14.997,0.022
53607.160896,15.015,0.018
53725.469853,15.073,0.02
53725.482959,15.076,0.02
53725.496106,15.225,0.022
53725.50973,15.46,0.026
53725.523455,15.808,0.035
53755.406625,15.025,0.02
53755.41951,15.036,0.02
53755.432763,15.03,0.02
53755.445571,15.019,0.02
53755.458477,15.01,0.018
53775.417868,15.039,0.044
53775.444081,15.121,0.037
53803.349188,15.052,0.02
53803.361172,14.981,0.02
53803.37314,14.995,0.018
53803.385383,14.978,0.018
53803.397195,14.962,0.016
53807.364768,15.018,0.025
53807.37706,15.014,0.025
53807.389023,15.004,0.025
53829.277893,14.994,0.071
53833.265587,14.994,0.026
53833.277508,15.025,0.018
53833.288541,15.024,0.018
53833.299035,15.022,0.016
53833.309473,15.032,0.016
53858.2497,15.71,0.058
53858.26018,15.428,0.036
53858.270268,15.227,0.033
53858.280492,15.085,0.033
53858.290806,15.056,0.02
53876.214496,15.05,0.049
53876.235713,15.0,0.013
53876.246325,15.004,0.013
53876.257004,14.976,0.013
53905.215184,15.156,0.02
53905.225094,15.094,0.02
53905.234825,15.057,0.02
53905.244524,15.026,0.02
53905.257635,15.007,0.018
53933.168436,14.997,0.015
53933.178729,14.983,0.016
53933.18938,15.011,0.018
53933.199639,15.007,0.02
53933.21,15.071,0.025
53955.149127,15.778,0.083
53955.161336,15.927,0.098
53955.173607,15.771,0.091
53955.185826,15.471,0.072
53955.197934,15.209,0.061
54079.424657,15.968,0.072
54079.436498,15.613,0.05
54079.448337,15.349,0.037
54079.460246,15.153,0.031
54079.472088,15.071,0.026
54108.395478,14.999,0.022
54108.40834,14.998,0.022
54108.421164,15.02,0.022
54108.433793,15.002,0.02
54108.446421,15.017,0.022
54139.385654,14.979,0.028
54139.39737,14.991,0.028
54139.408923,14.964,0.031
54139.421657,14.986,0.03
54139.433646,14.941,0.035
54465.452456,15.023,0.023
54465.464828,15.061,0.023
54465.47783,15.031,0.023
54465.490195,15.043,0.023
54465.50278,15.048,0.023
54484.472762,15.828,0.041
54484.484921,16.09,0.048
54484.498654,16.027,0.046
54496.476364,15.056,0.021
54496.48888,15.058,0.02
54496.500692,15.049,0.021
54496.512772,15.057,0.02
54496.524619,15.044,0.02
54524.341594,15.017,0.02
54524.353616,14.989,0.018
54524.365081,14.999,0.018
54524.376752,14.988,0.018
54524.388287,14.984,0.018
54539.318951,14.981,0.018
54539.329357,14.982,0.018
54539.339773,14.99,0.018
54539.350282,14.995,0.018
54539.3609,15.017,0.018
54571.294611,15.0,0.026
54571.306049,15.002,0.026
54571.317167,15.009,0.025
54571.327939,14.987,0.025
54571.338801,14.992,0.025
54620.217239,15.131,0.025
54620.227493,15.022,0.023
54620.237705,14.993,0.021
54620.247852,14.998,0.023
54620.257989,14.99,0.021
