mjd,m,merr
52667.465162,15.809,0.036
52667.48039,15.698,0.033
52667.495,15.654,0.031
52667.50965,15.617,0.03
52667.524266,15.618,0.031
52676.370039,15.884,0.051
52676.385118,15.92,0.048
52676.400229,16.015,0.048
52676.415529,16.0,0.049
52676.430517,15.97,0.046
52707.381225,15.9,0.03
52707.394393,15.888,0.03
52707.408422,15.792,0.028
52707.421626,15.672,0.026
52707.434907,15.624,0.024
52711.310939,16.01,0.053
52711.311054,15.938,0.046
52711.323944,15.951,0.048
52711.324059,15.933,0.045
52711.33756,15.848,0.043
52711.337674,15.832,0.04
52711.350656,15.732,0.038
52711.350772,15.754,0.036
52711.36371,15.655,0.035
52711.363825,15.696,0.033
52725.429991,15.688,0.024
52725.441751,15.635,0.024
52725.453449,15.643,0.026
52725.465198,15.606,0.026
52725.476905,15.59,0.026
52734.314389,15.828,0.073
52734.314744,15.889,0.063
52738.302071,15.972,0.031
52738.313568,15.936,0.03
52738.325076,15.935,0.03
52738.336783,15.888,0.028
52738.34845,15.844,0.026
52755.267787,15.638,0.026
52755.2798,15.626,0.024
52755.291721,15.61,0.024
52755.303584,15.623,0.026
52755.315548,15.625,0.026
52769.267825,15.86,0.056
52769.267934,16.027,0.066
52769.279243,15.806,0.054
52769.279352,15.986,0.059
52769.290734,15.795,0.053
52769.290843,15.743,0.048
52769.302541,15.709,0.051
52769.30265,15.816,0.051
52769.314027,15.672,0.049
52769.314136,15.703,0.048
52794.220144,15.85,0.041
52794.230459,15.881,0.043
52794.240982,15.882,0.043
52794.2515,15.928,0.046
52794.262248,15.911,0.046
52797.219305,15.671,0.048
52797.229608,15.616,0.048
52797.240244,15.712,0.053
52797.250835,15.683,0.053
52797.26104,15.761,0.058
52813.181305,15.854,0.051
52813.19116,15.825,0.046
52813.201049,15.796,0.045
52813.210884,15.706,0.045
52813.220734,15.66,0.043
52824.175445,15.711,0.033
52824.185437,15.702,0.033
52824.195276,15.632,0.031
52824.205169,15.619,0.031
52824.215051,15.598,0.031
53002.506006,15.956,0.021
53002.520933,15.888,0.02
53002.535098,15.845,0.02
53006.457538,15.865,0.037
53006.469727,15.88,0.037
53006.481997,15.781,0.031
53006.494272,15.69,0.028
53006.506466,15.631,0.035
53033.415781,15.996,0.036
53033.428079,15.984,0.036
53033.440312,16.003,0.036
53033.452777,15.983,0.036
53053.410323,15.974,0.03
53053.422117,15.928,0.031
53053.433815,15.944,0.035
53053.44617,15.855,0.05
53053.457876,15.773,0.041
53064.363317,15.969,0.035
53064.411505,15.923,0.028
53079.366362,15.618,0.022
53079.377728,15.616,0.022
53079.388564,15.614,0.022
53079.400113,15.585,0.02
53079.41135,15.608,0.022
53110.294892,15.758,0.03
53110.305708,15.701,0.028
53110.316511,15.648,0.024
53110.327314,15.602,0.024
53110.338113,15.594,0.024
53119.251336,15.933,0.026
53119.26209,15.966,0.026
53119.272543,15.919,0.026
53119.283063,15.873,0.025
53119.297101,15.745,0.023
53120.245116,15.704,0.022
53120.255657,15.73,0.022
53120.266621,15.791,0.022
53120.277382,15.805,0.022
53120.288251,15.824,0.022
53138.251733,15.745,0.028
53138.261266,15.694,0.026
53138.270835,15.767,0.028
53138.28043,15.791,0.028
53138.290013,15.813,0.03
53149.209513,15.646,0.026
53149.218088,15.698,0.026
53149.226715,15.7,0.026
53149.235437,15.738,0.026
53149.244296,15.751,0.026
53166.242337,15.912,0.035
53166.251783,15.912,0.035
53166.261235,15.872,0.033
53166.270685,15.821,0.033
53166.280224,15.739,0.031
53468.390761,15.979,0.037
53468.400382,15.938,0.037
53468.409945,15.928,0.033
53468.419533,15.903,0.033
53468.429642,15.89,0.035
53503.325643,15.793,0.026
53503.334663,15.724,0.026
53503.345031,15.625,0.026
53503.355876,15.606,0.026
53503.36491,15.607,0.028
53522.217493,15.597,0.028
53522.227736,15.622,0.028
53522.238018,15.63,0.028
53522.248226,15.649,0.028
53522.258515,15.64,0.03
53528.164959,15.577,0.033
53528.17672,15.615,0.035
53528.188187,15.626,0.037
53528.198994,15.693,0.037
53528.209689,15.739,0.039
53747.472422,16.155,0.1
53747.48548,16.024,0.074
53747.498496,16.007,0.067
53747.511747,15.98,0.052
53747.524733,15.92,0.046
53790.406327,15.708,0.028
53790.418417,15.731,0.028
53790.430145,15.777,0.03
53790.441895,15.802,0.028
53790.45416,15.868,0.03
53799.349441,15.608,0.02
53799.361475,15.597,0.02
53799.373287,15.604,0.02
53799.385115,15.632,0.02
53799.396991,15.67,0.021
53818.342423,15.907,0.03
53818.353794,15.996,0.033
53818.365133,15.967,0.031
53818.376284,15.945,0.031
53818.387463,15.946,0.031
53845.296521,15.812,0.036
53845.307708,15.874,0.038
53845.330388,15.924,0.059
53845.341606,15.911,0.046
53851.289587,15.98,0.043
53851.299906,15.924,0.041
53851.310338,15.922,0.043
53851.320738,15.859,0.041
53851.331428,15.875,0.04
53880.215348,15.869,0.043
53880.22657,15.902,0.043
53880.237798,15.932,0.043
53880.249031,15.906,0.041
53880.260272,16.012,0.044
53885.221587,15.768,0.039
53885.233593,15.769,0.037
53885.245523,15.769,0.037
53885.257518,15.824,0.043
53885.269798,15.854,0.043
53912.177175,15.614,0.036
53912.186834,15.649,0.036
53912.206364,15.641,0.036
54112.500292,15.633,0.04
54112.512887,15.62,0.04
54112.52547,15.701,0.043
54152.40345,15.681,0.02
54152.415336,15.628,0.02
54152.427288,15.607,0.018
54152.439202,15.612,0.018
54152.451132,15.609,0.018
54173.32355,15.743,0.03
54173.334394,15.797,0.033
54173.345095,15.727,0.073
54173.355721,15.822,0.031
54173.366616,15.876,0.033
54185.336528,15.602,0.054
54185.347053,15.639,0.038
54185.357525,15.699,0.045
54201.287685,15.966,0.041
54201.297032,15.902,0.038
54201.306403,15.921,0.038
54201.315887,15.934,0.038
54201.325245,15.884,0.036
54478.469512,15.688,0.018
54478.482609,15.619,0.017
54478.495702,15.603,0.015
54478.508786,15.53,0.015
54558.244004,15.866,0.052
54558.255592,15.886,0.037
54558.267289,15.968,0.055
54558.278863,15.98,0.033
54558.290447,15.96,0.035
54568.291826,15.642,0.024
54568.302768,15.681,0.024
54568.313711,15.697,0.024
54568.324678,15.757,0.026
54568.335629,15.79,0.026
54580.267105,16.048,0.061
54580.27736,15.949,0.056
54580.287699,15.979,0.056
54580.297975,15.829,0.051
54597.25417,15.613,0.033
54597.264798,15.581,0.033
54597.2754,15.65,0.035
54597.286172,15.717,0.037
54597.296819,15.721,0.035
54611.205047,16.068,0.061
54611.213404,16.103,0.064
54611.22163,16.064,0.061
54611.229867,16.032,0.059
54611.238077,15.949,0.056
54620.219167,15.962,0.031
54620.229396,15.949,0.031
54620.239566,15.881,0.031
54620.249754,15.843,0.03
54620.259956,15.79,0.028
