mjd,m,merr
52643.495778,16.496,0.061
52643.512057,16.526,0.061
52643.528659,16.509,0.059
52667.476525,16.814,0.083
52667.49178,16.588,0.068
52667.506907,16.603,0.072
52667.522375,16.508,0.065
52667.537595,16.621,0.07
52670.499141,16.685,0.078
52670.514269,16.951,0.094
52670.528732,17.062,0.101
52676.438471,16.681,0.078
52676.454676,16.485,0.061
52676.470036,16.521,0.061
52676.489336,16.585,0.067
52676.507662,16.72,0.074
52701.380815,17.027,0.096
52701.401283,16.784,0.083
52701.414442,16.696,0.074
52701.427501,16.608,0.069
52701.440601,16.571,0.068
52707.378166,16.958,0.089
52707.391347,17.076,0.099
52707.404436,16.795,0.079
52707.418129,16.69,0.073
52707.431679,16.589,0.068
52729.304316,17.14,0.107
52729.31679,16.98,0.094
52729.328873,16.739,0.074
52729.340904,16.661,0.069
52729.353578,16.596,0.064
52732.311064,16.471,0.064
52732.32312,16.479,0.064
52732.335043,16.58,0.069
52732.347265,16.574,0.071
52732.359475,16.931,0.099
52737.325029,16.503,0.052
52737.337313,16.487,0.05
52737.349285,16.545,0.052
52737.361229,16.582,0.054
52737.373656,16.661,0.055
52756.261526,17.059,0.109
52756.273617,16.794,0.089
52756.285952,16.729,0.086
52756.298043,16.586,0.073
52756.310169,16.506,0.066
52761.264298,16.764,0.068
52761.276016,17.04,0.087
52761.287829,17.034,0.091
52761.299514,16.94,0.085
52761.311327,16.729,0.07
52768.267417,16.926,0.113
52768.279534,16.962,0.115
52768.291621,16.744,0.093
52768.303502,16.656,0.083
52768.315389,16.506,0.07
52792.22438,17.155,0.14
52792.235108,16.984,0.125
52792.246233,16.825,0.111
52792.256975,16.74,0.101
52792.267678,16.61,0.089
52793.256629,17.155,0.14
52793.266996,16.984,0.125
52793.277292,16.825,0.111
52793.288044,16.74,0.101
52793.298617,16.61,0.089
52824.176957,16.512,0.083
52824.186853,16.489,0.081
52824.196835,16.334,0.073
52824.206855,16.553,0.091
52824.216845,16.694,0.097
53033.453253,16.761,0.068
53033.465329,16.638,0.061
53033.477341,16.606,0.057
53033.489516,16.482,0.052
53033.501773,16.503,0.054
53054.437497,16.496,0.046
53054.453463,16.514,0.048
53054.465345,16.473,0.048
53054.477935,16.55,0.052
53054.490352,16.677,0.057
53062.400645,16.324,0.155
53062.412,16.503,0.093
53062.423375,16.635,0.244
53062.434788,16.547,0.061
53062.446282,16.686,0.265
53080.344497,16.983,0.074
53080.355382,16.979,0.074
53080.367514,16.795,0.061
53080.378928,16.632,0.054
53080.389939,16.583,0.052
53087.350493,16.808,0.049
53087.361407,16.651,0.043
53087.372472,16.546,0.04
53087.384192,16.542,0.041
53087.395175,16.533,0.041
53089.342825,16.544,0.048
53089.388584,16.691,0.081
53118.26485,16.547,0.041
53118.276193,16.54,0.04
53118.286498,16.581,0.041
53118.296801,16.698,0.046
53118.306965,16.784,0.051
53139.24936,16.772,0.074
53139.258849,16.916,0.085
53139.268304,16.988,0.085
53139.277817,17.009,0.089
53139.287287,16.861,0.078
53148.285506,16.46,0.049
53148.294171,16.569,0.056
53148.302905,16.53,0.056
53148.311556,16.612,0.061
53148.323844,16.726,0.069
53169.180174,16.704,0.072
53169.190289,16.548,0.061
53169.200389,16.531,0.061
53169.21049,16.476,0.057
53169.220611,16.487,0.054
53175.179117,16.746,0.092
53175.1887,16.594,0.097
53175.198475,16.511,0.054
53175.208016,16.289,0.083
53175.217729,16.563,0.076
53440.480686,16.836,0.089
53440.491185,16.639,0.072
53440.502343,16.613,0.072
53478.367693,16.532,0.093
53478.377314,16.559,0.093
53478.386327,16.602,0.096
53478.395394,16.586,0.091
53478.4044,16.579,0.083
53496.251829,16.563,0.078
53496.261862,16.517,0.07
53496.271942,16.582,0.072
53496.282047,16.691,0.083
53496.292088,16.842,0.094
53527.215416,16.641,0.08
53527.225257,16.648,0.081
53527.235104,16.489,0.072
53527.245072,16.544,0.076
53527.254953,16.524,0.08
53556.17417,16.575,0.072
53556.184677,16.603,0.074
53556.195302,16.762,0.085
53556.206134,16.993,0.105
53556.21665,17.149,0.128
53746.470628,16.506,0.1
53746.483245,16.565,0.096
53746.495781,16.482,0.08
53746.508209,16.627,0.076
53746.520732,16.725,0.076
53791.414981,16.598,0.059
53791.426883,16.489,0.054
53791.438745,16.519,0.054
53791.450687,16.515,0.059
53791.462635,16.608,0.068
53815.348146,16.867,0.148
53815.370443,17.269,0.216
53815.381605,17.176,0.205
53815.392775,16.912,0.13
53817.325195,17.08,0.101
53817.336814,16.961,0.089
53817.348277,16.954,0.087
53817.360286,16.649,0.066
53846.290249,16.551,0.069
53850.251207,16.955,0.112
53850.261473,16.807,0.094
53850.271767,17.033,0.116
53850.282196,17.206,0.132
53850.292534,17.181,0.135
53884.222989,17.121,0.131
53884.234571,16.805,0.096
53884.246137,16.747,0.094
53884.257732,16.647,0.087
53884.269321,16.556,0.078
53901.227082,16.649,0.13
53911.224519,16.71,0.219
53911.23415,16.811,0.216
54155.412816,16.735,0.063
54155.424656,16.641,0.055
54155.436519,16.639,0.055
54155.4485,16.558,0.054
54155.460425,16.574,0.054
54156.382572,16.784,0.063
54156.394105,16.666,0.05
54156.412597,16.613,0.044
54156.42414,16.574,0.041
54156.435702,16.511,0.041
54174.328969,16.66,0.094
54174.33963,16.735,0.096
54174.350368,16.907,0.112
54174.361196,16.998,0.134
54180.335454,16.629,0.061
54180.345764,16.738,0.068
54180.35607,16.868,0.076
54180.366696,17.059,0.092
54180.377069,17.04,0.097
54200.310165,16.552,0.099
54200.319847,16.682,0.106
54200.32925,16.98,0.134
54200.338852,17.044,0.145
54476.468213,16.509,0.039
54476.481126,16.448,0.035
54476.494035,16.527,0.037
54476.506937,16.598,0.039
54484.437514,16.67,0.1
54484.450625,16.536,0.083
54484.463624,16.638,0.078
54533.388319,16.853,0.041
54533.399795,16.679,0.035
54533.411326,16.584,0.031
54533.422537,16.562,0.031
54533.433951,16.528,0.031
54539.32432,16.555,0.041
54539.335199,16.649,0.044
54539.346064,16.708,0.043
54539.356947,16.937,0.05
54539.367947,17.064,0.055
54567.293803,17.047,0.076
54567.304994,16.926,0.068
54567.316262,16.878,0.063
54567.327434,16.761,0.057
54567.33859,16.607,0.048
54568.349956,16.484,0.063
54580.294819,17.015,0.118
54580.305442,16.759,0.096
54580.316053,16.662,0.087
54580.326655,16.51,0.076
54580.337257,16.493,0.076
54587.300474,16.677,0.059
54587.310858,16.542,0.054
54587.321165,16.486,0.05
54587.331463,16.489,0.054
54587.341849,16.447,0.052
54595.250166,16.682,0.065
54595.260144,16.697,0.065
54595.270095,16.578,0.057
54595.280072,16.571,0.054
54595.290032,16.518,0.052
54611.255733,16.81,0.059
54611.265574,16.982,0.08
54611.275373,17.072,0.098
54611.28517,17.049,0.12
54611.294935,17.005,0.093
54619.213927,16.716,0.063
54619.224164,16.815,0.083
54619.234452,17.047,0.109
54619.244741,17.046,0.083
54619.255131,16.883,0.076
