mjd,m,merr
52650.433934,16.363,0.05
52650.447841,16.377,0.052
52650.461809,16.384,0.05
52650.475885,16.417,0.05
52650.489841,16.404,0.05
52666.463277,16.285,0.048
52666.477733,16.35,0.05
52666.492195,16.368,0.048
52666.50672,16.4,0.048
52666.521187,16.408,0.05
52698.392762,16.316,0.228
52698.407534,16.472,0.05
52698.421743,16.502,0.052
52698.436772,16.51,0.054
52711.320813,16.045,0.043
52711.334985,16.063,0.043
52711.349392,16.105,0.043
52711.363339,16.21,0.046
52711.377344,16.19,0.044
52724.363248,15.986,0.035
52724.375547,15.775,0.03
52724.387846,15.723,0.028
52724.387961,15.681,0.026
52724.400441,15.645,0.026
52724.412681,15.695,0.03
52739.300461,16.3,0.05
52739.312197,16.421,0.052
52739.323921,16.395,0.05
52739.335642,16.334,0.048
52739.347578,16.36,0.052
52754.279267,15.818,0.035
52754.291765,15.842,0.035
52754.304682,15.903,0.036
52754.329889,15.96,0.038
52770.216453,16.425,0.078
52770.228677,16.422,0.078
52770.24075,16.404,0.078
52770.252982,16.499,0.081
52770.265018,16.454,0.078
52820.177043,15.867,0.035
52820.196848,15.787,0.039
52820.216589,15.771,0.037
52825.19489,15.967,0.052
52825.204826,15.985,0.05
52825.214747,15.912,0.063
53006.449626,15.881,0.041
53006.462902,15.927,0.041
53006.475415,16.067,0.048
53034.398266,16.152,0.048
53034.4101,16.209,0.049
53034.421953,16.269,0.053
53034.433897,16.291,0.053
53034.445909,16.212,0.049
53051.390351,15.665,0.022
53051.40195,15.747,0.024
53051.413709,15.793,0.024
53065.339843,16.457,0.055
53065.351394,16.494,0.055
53065.362719,16.501,0.055
53065.374097,16.451,0.052
53065.385503,16.5,0.05
53078.404484,16.198,0.073
53078.41515,16.308,0.054
53093.326295,16.484,0.035
53093.347101,15.878,0.02
53093.35748,15.574,0.017
53093.368025,15.467,0.015
53109.301252,16.482,0.054
53109.311384,16.539,0.058
53109.321595,16.479,0.054
53109.331757,16.613,0.063
53109.34181,16.55,0.061
53121.252694,15.459,0.018
53121.274131,15.616,0.02
53121.284785,15.656,0.02
53121.295461,15.721,0.022
53137.263639,16.411,0.053
53137.273522,16.403,0.053
53137.28337,16.398,0.058
53137.293079,16.414,0.059
53165.23544,15.534,0.028
53165.277664,15.762,0.036
53177.220046,16.309,0.059
53177.229822,16.313,0.044
53177.249465,16.344,0.044
53177.259243,16.345,0.046
53475.317042,16.392,0.052
53475.346982,16.382,0.052
53475.357924,16.406,0.054
53501.254965,16.502,0.061
53501.266584,16.456,0.057
53501.280505,16.485,0.057
53501.292637,16.496,0.061
53501.302837,16.533,0.063
53529.212001,16.399,0.061
53529.223739,16.468,0.065
53529.235132,16.468,0.07
53529.246496,16.41,0.07
53529.257397,16.402,0.068
53540.218753,16.028,0.115
53540.228578,16.093,0.12
53540.23816,16.133,0.12
53540.247863,16.114,0.122
53540.257547,16.119,0.128
53550.180364,16.419,0.059
53550.200138,16.396,0.061
53550.210038,16.438,0.065
53550.219896,16.387,0.093
53739.482023,15.705,0.03
53739.495409,15.743,0.03
53739.50831,15.768,0.026
53770.423231,16.163,0.043
53770.437522,16.218,0.05
53770.454698,16.208,0.043
53770.468998,16.303,0.044
53770.481937,16.354,0.046
53788.415251,15.881,0.028
53788.427739,15.918,0.031
53788.440259,15.948,0.033
53788.452859,15.989,0.035
53788.465568,16.04,0.036
53813.374121,16.025,0.058
53813.397087,16.113,0.063
53813.408647,16.079,0.061
53813.420346,16.148,0.064
53820.355555,16.382,0.228
53844.294314,16.398,0.071
53844.3053,16.332,0.071
53844.316241,16.366,0.076
53844.327152,16.446,0.086
53844.338165,16.374,0.078
53852.248979,16.481,0.076
53852.259136,16.555,0.079
53852.269347,16.461,0.073
53852.279482,16.398,0.068
53852.289825,16.464,0.069
53881.220818,15.601,0.031
53881.231862,15.666,0.031
53881.242926,15.742,0.035
53881.253977,15.735,0.033
53881.265379,15.844,0.039
53887.218679,16.09,0.059
53887.228898,16.183,0.063
53887.239295,16.195,0.064
53887.249444,16.182,0.061
53887.259701,16.267,0.066
53902.218702,15.6,0.043
53902.238331,15.579,0.037
53902.24822,15.671,0.041
53902.258394,15.703,0.044
53914.177569,16.397,0.096
53914.187124,16.503,0.114
53914.197182,16.395,0.099
53931.169091,16.086,0.07
53931.189939,16.105,0.074
53931.200361,16.202,0.085
53940.16201,16.407,0.089
53940.17259,16.38,0.089
53940.194042,16.526,0.155
53940.207959,16.316,0.155
54154.388565,15.733,0.03
54154.400101,15.822,0.031
54154.411582,15.854,0.033
54154.423061,15.873,0.033
54154.434609,15.931,0.035
54169.330916,16.215,0.073
54169.341871,16.303,0.076
54169.352833,16.165,0.071
54169.363744,16.201,0.071
54169.374597,16.26,0.073
54205.272718,15.853,0.036
54205.281984,15.956,0.038
54205.291816,15.949,0.038
54205.301071,16.004,0.041
54208.260004,16.145,0.051
54208.268791,16.193,0.049
54208.277554,16.18,0.049
54208.286416,16.233,0.051
54208.295118,16.194,0.051
54560.26355,16.314,0.028
54581.242487,16.319,0.096
54581.252234,16.479,0.114
54581.261909,16.388,0.104
54581.271695,16.228,0.086
54581.281474,16.292,0.106
54594.252813,15.826,0.058
54594.262354,15.909,0.061
54594.271778,15.89,0.061
54594.281822,15.984,0.066
54612.210652,16.475,0.079
54612.219219,16.394,0.074
54612.228711,16.308,0.069
54612.237229,16.15,0.059
54612.245804,15.892,0.049
