mjd,m,merr
52673.442087,16.336,0.063
52673.471563,16.509,0.063
52673.486281,16.475,0.059
52704.421223,16.595,0.079
52704.421464,16.604,0.076
52704.436926,16.599,0.084
52704.437168,16.762,0.092
52704.452534,16.664,0.094
52704.452775,16.626,0.084
52704.466932,16.559,0.087
52704.467173,16.683,0.092
52704.481096,16.699,0.101
52704.481337,16.779,0.101
52705.386024,16.183,0.048
52705.399441,16.197,0.048
52705.412642,16.266,0.054
52705.426332,16.229,0.052
52705.439593,16.24,0.054
52709.381032,16.357,0.059
52709.394465,16.281,0.055
52709.408237,16.226,0.052
52709.421607,16.131,0.048
52709.435344,16.162,0.05
52729.347645,16.589,0.067
52729.359232,16.463,0.059
52729.370792,16.485,0.059
52729.382253,16.49,0.063
52729.393741,16.556,0.068
52736.328144,16.524,0.061
52736.3402,16.53,0.061
52736.352322,16.566,0.065
52736.364508,16.613,0.068
52758.270101,16.38,0.066
52758.270444,16.576,0.073
52758.28265,16.483,0.074
52758.282992,16.479,0.068
52758.29467,16.408,0.069
52758.295012,16.479,0.068
52758.306922,16.539,0.076
52758.307266,16.566,0.073
52758.319239,16.465,0.073
52758.319578,16.581,0.074
52759.260018,16.361,0.064
52759.272236,16.255,0.058
52759.272345,16.506,0.073
52759.284089,16.194,0.056
52759.284198,16.171,0.049
52759.295933,16.258,0.059
52759.296042,16.294,0.058
52759.30777,16.238,0.059
52759.307879,16.262,0.054
52765.213789,16.332,0.046
52765.238402,16.46,0.203
52765.250738,16.455,0.041
52765.26322,16.385,0.039
52796.265867,17.136,0.231
52815.175492,16.694,0.127
52815.186028,16.748,0.155
52815.206402,16.705,0.137
52815.216562,16.535,0.106
52821.172126,16.616,0.109
52821.18245,16.748,0.125
52821.192555,16.817,0.137
52821.212755,16.648,0.116
53031.461463,16.485,0.049
53031.473609,16.431,0.046
53031.48575,16.495,0.048
53031.497847,16.526,0.051
53031.510123,16.596,0.054
53060.366956,16.393,0.041
53060.379225,16.342,0.04
53060.391049,16.413,0.041
53060.403079,16.478,0.045
53060.41493,16.455,0.043
53081.424935,16.518,0.057
53081.435848,16.545,0.059
53081.44662,16.538,0.061
53081.457399,16.585,0.065
53081.468302,16.41,0.057
53082.407826,16.343,0.04
53082.418967,16.366,0.041
53082.429916,16.39,0.045
53082.441253,16.344,0.043
53082.452576,16.452,0.048
53084.406533,16.68,0.046
53084.418418,16.685,0.048
53084.429301,16.659,0.049
53084.440828,16.636,0.049
53084.451878,16.612,0.049
53090.355104,16.699,0.096
53090.367113,16.81,0.107
53090.378113,16.764,0.104
53090.388673,16.736,0.104
53091.347897,16.62,0.046
53091.35863,16.656,0.048
53091.368384,16.617,0.048
53091.378334,16.656,0.051
53112.318378,16.629,0.076
53112.329213,16.665,0.098
53112.339956,16.602,0.072
53115.36832,16.4,0.043
53115.37914,16.271,0.04
53115.389799,16.224,0.041
53115.401044,16.202,0.043
53120.244539,16.599,0.068
53120.254489,16.644,0.068
53120.264458,16.59,0.063
53120.285039,16.561,0.058
53140.206571,16.639,0.078
53140.215964,16.674,0.081
53140.22536,16.725,0.085
53140.23476,16.688,0.081
53140.244153,16.68,0.081
53141.280523,16.61,0.064
53141.289631,16.578,0.061
53143.295534,16.259,0.04
53143.304796,16.366,0.041
53143.322953,16.326,0.043
53143.332098,16.353,0.045
53167.16897,16.697,0.109
53167.210077,16.634,0.102
53170.198231,16.716,0.068
53170.208225,16.638,0.064
53172.185965,16.445,0.059
53383.482266,16.359,0.08
53383.495135,16.351,0.078
53383.50796,16.354,0.072
53383.521188,16.409,0.074
53383.534473,16.492,0.08
53431.484857,16.284,0.146
53463.341736,16.305,0.167
53777.486135,16.613,0.12
53777.499221,16.568,0.111
53777.512058,16.513,0.104
53777.525009,16.602,0.109
53777.537807,16.641,0.12
53792.470184,16.515,0.137
53792.482165,16.335,0.118
53792.494135,16.422,0.167
53792.506123,16.566,0.2
53802.399433,16.585,0.141
53802.410927,16.554,0.094
53802.422404,16.536,0.131
53802.433907,16.528,0.074
53802.445398,16.518,0.076
53824.43066,16.557,0.081
53824.463506,16.609,0.085
53824.474475,16.646,0.107
53831.335151,16.443,0.076
53831.344925,16.517,0.078
53831.354994,16.465,0.072
53831.364764,16.51,0.076
53831.375036,16.538,0.076
53846.351273,16.485,0.089
53846.362221,16.447,0.089
53846.374401,16.464,0.096
53846.387627,16.497,0.109
53846.399399,16.535,0.118
53851.343735,16.393,0.081
53851.35392,16.341,0.078
53851.364335,16.419,0.081
53851.374315,16.188,0.067
53851.384277,16.187,0.07
53857.332348,16.338,0.074
53857.342674,16.34,0.076
53857.352986,16.374,0.085
53857.363791,16.347,0.117
53857.374565,16.329,0.105
53858.282784,16.84,0.137
53879.278231,16.318,0.061
53879.296573,16.383,0.064
53879.312845,16.357,0.066
53879.329552,16.396,0.071
53879.346087,16.249,0.064
53885.271808,16.628,0.084
53885.291527,16.595,0.087
53885.30944,16.617,0.092
53885.328754,16.729,0.107
53885.347334,16.82,0.129
53912.203482,16.742,0.117
54149.400145,16.61,0.059
54149.412253,16.647,0.057
54149.424421,16.665,0.057
54149.436469,16.567,0.052
54149.448592,16.427,0.044
54153.392475,16.767,0.213
54153.404205,16.631,0.083
54153.415952,16.603,0.1
54153.427696,16.723,0.159
54153.439561,16.658,0.176
54174.377304,16.575,0.122
54174.39889,16.38,0.065
54174.409822,16.426,0.091
54174.420563,16.262,0.05
54177.402018,16.277,0.046
54177.413836,16.251,0.046
54177.425542,16.33,0.078
54177.448992,16.297,0.078
54180.393153,16.385,0.052
54180.403967,16.308,0.05
54180.414649,16.362,0.05
54180.425185,16.351,0.05
54180.435917,16.398,0.054
54205.359687,16.446,0.052
54205.369109,16.472,0.059
54205.378495,16.498,0.061
54205.387937,16.426,0.055
54205.397439,16.454,0.054
54208.313866,16.516,0.055
54208.323181,16.52,0.054
54208.332444,16.537,0.057
54208.341698,16.562,0.063
54208.350936,16.631,0.059
54212.321209,16.438,0.065
54212.330568,16.472,0.067
54212.339851,16.544,0.07
54212.349226,16.454,0.065
54212.358569,16.479,0.068
54481.472544,16.269,0.061
54481.49891,16.347,0.054
54498.461726,16.539,0.05
54498.474561,16.547,0.05
54498.48735,16.547,0.052
54498.500142,16.627,0.054
54498.512994,16.649,0.057
54506.453094,16.463,0.048
54506.465742,16.52,0.05
54506.478214,16.53,0.052
54506.49067,16.496,0.048
54506.503172,16.507,0.046
54527.39379,16.492,0.05
54527.405334,16.467,0.048
54527.416959,16.518,0.048
54527.428499,16.47,0.048
54527.440027,16.508,0.054
54532.439703,16.42,0.074
54532.450796,16.504,0.079
54532.462746,16.588,0.084
54532.473731,16.444,0.076
54532.484716,16.599,0.089
54535.390129,16.439,0.037
54535.41288,16.424,0.037
54535.424256,16.442,0.037
54535.435632,16.473,0.041
54561.358349,16.202,0.033
54561.370048,16.269,0.035
54561.381749,16.251,0.035
54561.393465,16.246,0.037
54571.303637,16.374,0.072
54571.314832,16.312,0.07
54571.326012,16.405,0.072
54571.337196,16.417,0.074
54571.348332,16.341,0.068
54584.308827,16.552,0.057
54584.319435,16.662,0.065
54584.330045,16.609,0.063
54584.340662,16.644,0.067
54584.351301,16.669,0.074
54591.300499,16.551,0.067
54591.310694,16.598,0.068
54591.320924,16.689,0.076
54591.331169,16.714,0.076
54591.34141,16.578,0.07
54614.219173,16.327,0.05
54614.229209,16.329,0.05
54614.239202,16.374,0.052
54614.249214,16.418,0.052
54614.259202,16.418,0.054
