mjd,m,merr
52613.453924,15.376,0.024
52613.4692,15.394,0.024
52613.484445,15.412,0.024
52613.499648,15.391,0.024
52613.514933,15.403,0.024
52618.460494,15.362,0.033
52618.491175,15.421,0.037
52618.506742,15.426,0.033
52618.522083,15.444,0.03
52641.456221,15.402,0.02
52641.471556,15.409,0.02
52641.486925,15.444,0.02
52641.501733,15.423,0.02
52641.517216,15.444,0.02
52643.44213,15.432,0.02
52643.456114,15.422,0.02
52643.470064,15.458,0.02
52643.484068,15.493,0.02
52643.498392,15.517,0.02
52647.459002,15.069,0.017
52647.473872,15.117,0.018
52647.488221,15.148,0.018
52647.5029,15.188,0.02
52667.397253,15.156,0.017
52667.412666,15.193,0.017
52667.427954,15.202,0.017
52667.443271,15.236,0.018
52667.458618,15.242,0.02
52670.399118,14.94,0.015
52670.413032,15.011,0.017
52670.42702,15.023,0.017
52670.44096,15.085,0.017
52670.454882,15.084,0.017
52673.306778,15.47,0.022
52673.322059,15.504,0.022
52673.33732,15.564,0.024
52673.352642,15.58,0.024
52673.367984,15.524,0.024
52703.312545,14.896,0.031
52703.326351,14.915,0.041
52703.339668,14.956,0.031
52703.353767,14.939,0.037
52707.318697,15.335,0.023
52707.331743,15.402,0.023
52707.358284,15.437,0.025
52730.229765,15.3,0.017
52730.241401,15.306,0.018
52730.253102,15.333,0.018
52730.264792,15.365,0.018
52730.276449,15.354,0.018
52730.289639,15.372,0.02
52730.301212,15.387,0.02
52730.312854,15.362,0.02
52730.324404,15.401,0.02
52730.335961,15.412,0.022
52733.181025,15.014,0.015
52733.193231,15.039,0.017
52733.205392,15.049,0.017
52733.217506,15.091,0.017
52733.229775,15.125,0.017
52733.253087,15.112,0.017
52733.265143,15.13,0.017
52733.277499,15.189,0.018
52733.29023,15.185,0.022
52733.302235,15.288,0.059
52737.246973,15.417,0.024
52737.259873,15.44,0.024
52737.271546,15.424,0.022
52737.283363,15.391,0.022
52737.295225,15.428,0.022
52756.199531,15.028,0.018
52756.21178,15.068,0.02
52756.248259,15.121,0.023
52758.205831,15.275,0.017
52758.217685,15.292,0.018
52758.229575,15.321,0.018
52758.241547,15.311,0.018
52758.253432,15.385,0.02
52788.171747,15.387,0.035
52788.182002,15.428,0.026
52793.222508,15.397,0.033
52793.232543,15.421,0.039
52793.242487,15.437,0.039
52966.466815,15.309,0.022
52966.47923,15.33,0.022
52966.491773,15.335,0.02
52966.504312,15.361,0.022
52972.451282,14.923,0.013
52972.464137,14.958,0.013
52972.476979,14.986,0.013
52972.489728,15.041,0.013
52972.502602,15.059,0.013
52987.50378,15.263,0.028
52994.46535,15.364,0.015
52994.477876,15.371,0.013
52994.490415,15.408,0.013
52994.503002,15.403,0.013
52994.515566,15.395,0.013
52996.394895,15.396,0.018
52996.407713,15.4,0.018
52996.420726,15.423,0.016
52996.433495,15.423,0.016
52996.446283,15.418,0.015
53025.348473,15.092,0.016
53025.371969,15.144,0.021
53028.431538,15.036,0.01
53028.446018,15.065,0.023
53028.459203,15.1,0.018
53028.472817,15.119,0.01
53028.491682,15.114,0.03
53033.336776,14.817,0.013
53033.349059,14.867,0.013
53033.361193,14.891,0.013
53033.386067,14.996,0.017
53054.366619,15.538,0.018
53054.381297,15.505,0.018
53054.393291,15.323,0.017
53054.405956,15.092,0.013
53054.417889,15.026,0.013
53060.301731,15.333,0.013
53060.31392,15.35,0.013
53060.326053,15.346,0.013
53060.33816,15.373,0.013
53060.35025,15.374,0.013
53080.282363,15.4,0.018
53080.293885,15.413,0.02
53080.305898,15.421,0.018
53080.317243,15.429,0.018
53080.328526,15.449,0.018
53082.346507,15.557,0.016
53082.357692,15.411,0.015
53082.368878,15.172,0.013
53082.380648,15.055,0.012
53082.392634,14.932,0.012
53084.357637,14.98,0.01
53084.368788,15.018,0.01
53084.380574,15.048,0.012
53084.391701,15.057,0.012
53091.283563,15.166,0.012
53091.293624,15.211,0.012
53091.304296,15.217,0.012
53091.314365,15.219,0.012
53091.324412,15.232,0.013
53111.1906,15.176,0.02
53111.201378,15.208,0.02
53111.212129,15.264,0.02
53111.222864,15.278,0.02
53111.233693,15.268,0.022
53115.254144,15.579,0.02
53115.264946,15.598,0.02
53115.275733,15.611,0.02
53115.286499,15.545,0.018
53115.297778,15.479,0.018
53139.159932,15.182,0.018
53139.169645,15.204,0.018
53139.179207,15.23,0.02
53139.188733,15.231,0.02
53139.198246,15.268,0.02
53141.217934,15.435,0.02
53141.228162,15.454,0.02
53141.237581,15.444,0.021
53141.247838,15.438,0.02
53141.257204,15.448,0.021
53143.228813,15.595,0.025
53143.237929,15.585,0.023
53143.246979,15.603,0.025
53143.266537,15.521,0.02
53143.280789,15.248,0.016
53346.452568,15.498,0.033
53346.465903,15.52,0.033
53346.47958,15.518,0.033
53346.492232,15.554,0.033
53346.504374,15.546,0.033
53353.458116,14.859,0.017
53353.471528,14.919,0.017
53353.484367,14.975,0.017
53353.497211,14.986,0.017
53353.510054,15.017,0.017
53376.481893,14.985,0.013
53376.495832,15.02,0.015
53376.50964,15.038,0.015
53376.526912,15.103,0.015
53381.436974,14.894,0.024
53381.475791,15.018,0.022
53403.353706,15.241,0.02
53403.367171,15.259,0.02
53403.380021,15.287,0.02
53403.393982,15.313,0.02
53403.406823,15.319,0.02
53410.355408,15.416,0.017
53410.367597,15.448,0.017
53410.380525,15.448,0.017
53410.393341,15.438,0.017
53410.406232,15.43,0.017
53432.348082,14.744,0.043
53432.370882,14.846,0.02
53432.382237,14.907,0.015
53432.393929,14.938,0.017
53437.29438,14.956,0.013
53437.306391,14.836,0.011
53437.318016,14.791,0.011
53437.329714,14.814,0.011
53437.341353,14.855,0.013
53438.284143,15.416,0.018
53438.296386,15.398,0.018
53438.309393,15.448,0.018
53438.321574,15.423,0.018
53438.33371,15.454,0.02
53440.297647,15.546,0.022
53440.311941,15.539,0.022
53440.324509,15.594,0.024
53440.337622,15.599,0.024
53440.351682,15.573,0.024
53441.275674,15.359,0.018
53441.287175,15.354,0.018
53441.298559,15.384,0.018
53441.309959,15.416,0.018
53441.321402,15.431,0.018
53443.273052,15.401,0.018
53443.283902,15.421,0.018
53443.295399,15.419,0.018
53443.306239,15.426,0.018
53443.317652,15.423,0.018
53446.281116,15.304,0.035
53446.291603,15.331,0.03
53446.302525,15.344,0.02
53446.313429,15.383,0.024
53446.324948,15.373,0.018
53464.292949,15.303,0.02
53464.303134,15.29,0.02
53464.313299,15.301,0.02
53464.323482,15.333,0.022
53464.33364,15.388,0.026
53495.245671,15.055,0.041
53495.255709,15.106,0.048
53495.265837,15.102,0.054
53495.275867,15.138,0.054
53495.285953,15.17,0.08
53496.196661,15.464,0.03
53496.206947,15.448,0.03
53496.217171,15.47,0.031
53496.227456,15.454,0.031
53496.237722,15.493,0.033
53525.184082,15.265,0.028
53525.194296,15.303,0.031
53525.204467,15.314,0.031
53527.165848,15.428,0.03
53527.176115,15.44,0.031
53527.185966,15.432,0.033
53527.195797,15.455,0.033
53527.205562,15.498,0.035
53708.460355,15.129,0.02
53708.473331,15.163,0.018
53708.4861,15.187,0.02
53708.498811,15.204,0.018
53708.511606,15.245,0.02
53710.453198,15.298,0.026
53710.466547,15.311,0.028
53710.479236,15.352,0.028
53710.491758,15.378,0.028
53710.504386,15.414,0.028
53732.475348,15.533,0.035
53732.48889,15.513,0.035
53732.501719,15.318,0.03
53732.514582,15.093,0.026
53732.527306,14.987,0.02
53735.467114,15.417,0.046
53735.519071,15.461,0.03
53746.402761,15.181,0.028
53746.415226,15.219,0.028
53746.427781,15.195,0.028
53746.440468,15.244,0.028
53746.452932,15.265,0.028
53759.407866,15.082,0.018
53759.420675,15.126,0.02
53759.433269,15.171,0.03
53759.445885,15.16,0.028
53759.45847,15.185,0.065
53762.412454,14.815,0.015
53762.425157,14.849,0.015
53762.437838,14.891,0.02
53762.450369,14.934,0.043
53762.463321,14.958,0.015
53787.467051,15.239,0.022
53790.341835,14.82,0.015
53790.353533,14.775,0.013
53790.365225,14.782,0.013
53790.376916,14.813,0.015
53790.388626,14.853,0.015
53791.352132,15.421,0.02
53791.363933,15.441,0.02
53791.375826,15.421,0.02
53791.387489,15.441,0.021
53791.399382,15.425,0.021
53793.346975,15.528,0.024
53793.358707,15.542,0.026
53793.370436,15.577,0.031
53793.382185,15.559,0.024
53797.2497,14.933,0.015
53797.27291,14.979,0.013
53797.28449,14.562,0.355
53799.336206,15.321,0.02
53799.347644,15.336,0.022
53799.359066,15.364,0.026
53799.370504,15.398,0.031
53799.38195,15.422,0.041
53815.286418,14.967,0.026
53815.29758,14.937,0.03
53815.30875,15.009,0.018
53815.319939,15.049,0.02
53815.331137,15.029,0.022
53817.263767,15.179,0.016
53817.275261,15.23,0.016
53817.286528,15.213,0.018
53817.297841,15.234,0.018
53817.309181,15.257,0.018
53819.290418,15.406,0.026
53819.314365,15.476,0.07
53819.33624,15.457,0.024
53820.318133,15.159,0.044
53826.285862,15.487,0.026
53826.311278,15.603,0.048
53826.323113,15.531,0.028
53826.334328,15.531,0.028
53827.297736,15.342,0.022
53827.308856,15.357,0.024
53827.330553,15.402,0.024
53827.341557,15.404,0.026
53832.224421,15.245,0.026
53832.23656,15.273,0.026
53832.247175,15.277,0.026
53832.258299,15.297,0.026
53832.268975,15.349,0.028
53846.190399,15.579,0.028
53846.201109,15.539,0.028
53846.211919,15.554,0.03
53846.222634,15.554,0.026
53846.233304,15.479,0.025
53846.246864,15.215,0.028
53846.257664,15.041,0.024
53846.26847,14.952,0.022
53846.279275,14.832,0.02
53846.290081,14.829,0.02
53850.195333,15.177,0.023
53850.205723,15.195,0.023
53850.21621,15.197,0.025
53850.226725,15.21,0.025
53850.237297,15.253,0.058
53850.2738,15.295,0.024
53850.284914,15.296,0.024
53850.296287,15.295,0.024
53850.307918,15.318,0.024
53850.319387,15.379,0.026
53852.189942,15.397,0.026
53852.202295,15.449,0.028
53852.214127,15.399,0.026
53852.225532,15.474,0.028
53852.236955,15.445,0.028
53853.243377,15.075,0.02
53853.254107,15.108,0.02
53853.265123,15.11,0.022
53853.275916,15.098,0.022
53853.286346,15.146,0.024
53856.276785,14.874,0.017
53856.289549,14.916,0.018
53856.301098,14.914,0.018
53856.311238,14.988,0.02
53856.321392,14.962,0.022
53879.162493,15.526,0.021
53879.173307,15.522,0.023
53879.184039,15.406,0.021
53879.194771,15.155,0.018
53879.206399,15.024,0.016
53882.168188,15.407,0.026
53882.181062,15.394,0.026
53882.193976,15.412,0.026
53882.205209,15.467,0.028
53882.217114,15.453,0.028
53884.161698,15.256,0.028
53884.173442,15.071,0.024
53884.185195,14.993,0.022
53884.196996,14.838,0.02
53884.208768,14.778,0.02
53885.158277,15.406,0.025
53885.16938,15.426,0.025
53885.180229,15.406,0.025
53885.191,15.399,0.026
53885.202287,15.424,0.028
54060.462137,15.434,0.035
54060.475805,15.416,0.033
54060.489415,15.421,0.031
54060.502204,15.437,0.033
54086.425953,15.202,0.02
54086.4389,15.245,0.02
54086.451747,15.268,0.02
54086.464603,15.274,0.02
54086.477571,15.352,0.022
54091.358595,15.157,0.03
54091.371217,15.244,0.03
54091.37926,15.201,0.02
54091.383123,15.23,0.028
54091.391843,15.217,0.02
54091.395024,15.231,0.028
54091.404761,15.228,0.018
54091.407148,15.252,0.028
54091.417357,15.245,0.018
54091.429954,15.267,0.018
54113.391228,15.437,0.026
54113.431583,15.464,0.033
54113.444478,15.522,0.035
54115.412355,14.835,0.016
54115.425096,14.797,0.016
54115.43824,14.797,0.016
54115.451449,14.83,0.016
54115.464235,14.849,0.018
54123.394381,15.519,0.026
54123.407287,15.609,0.028
54123.419697,15.553,0.028
54123.432745,15.562,0.028
54123.445098,15.471,0.028
54144.361703,15.405,0.018
54144.372777,15.412,0.018
54144.384442,15.39,0.018
54144.395517,15.419,0.02
54144.407868,15.431,0.02
54148.339116,14.942,0.016
54148.350711,14.855,0.015
54148.362301,14.763,0.015
54148.373912,14.803,0.015
54148.385867,14.814,0.015
54154.329244,15.397,0.017
54154.341649,15.393,0.017
54154.35326,15.41,0.018
54154.364894,15.407,0.018
54154.376499,15.428,0.018
54155.30093,14.995,0.015
54155.312584,15.039,0.015
54155.324305,15.045,0.015
54155.336322,15.082,0.015
54155.348506,15.109,0.015
54156.320486,15.467,0.02
54156.332094,15.486,0.02
54156.343608,15.525,0.022
54156.355129,15.528,0.022
54156.366661,15.515,0.022
54173.314874,14.996,0.013
54173.325597,15.027,0.015
54173.336337,15.041,0.013
54173.347067,15.064,0.013
54173.358705,15.086,0.015
54174.270516,15.423,0.023
54174.281464,15.443,0.025
54174.292546,15.417,0.026
54174.303418,15.427,0.036
54174.3147,15.449,0.026
54176.277262,15.411,0.018
54176.287882,15.175,0.017
54176.298624,15.066,0.015
54176.309192,14.961,0.013
54176.319806,14.841,0.011
54179.337901,15.545,0.022
54179.348907,15.522,0.022
54179.359551,15.567,0.022
54179.370649,15.497,0.022
54179.381748,15.455,0.024
54180.27878,15.259,0.018
54180.289115,15.257,0.018
54180.299589,15.284,0.02
54180.310322,15.287,0.02
54180.320676,15.316,0.02
54186.339808,14.996,0.013
54186.351544,15.025,0.015
54186.363005,15.041,0.013
54186.374404,15.064,0.015
54186.386343,15.086,0.015
54200.219266,15.333,0.026
54200.228744,15.351,0.026
54200.257737,15.392,0.028
54206.264072,14.985,0.013
54206.27357,15.034,0.015
54206.282715,15.029,0.015
54206.291868,15.056,0.015
54206.300996,15.088,0.017
54209.259943,14.781,0.033
54209.269021,14.777,0.024
54209.27808,14.751,0.033
54209.287143,14.778,0.031
54209.296205,14.796,0.026
54439.449557,15.182,0.013
54439.462446,15.225,0.013
54439.475326,15.263,0.013
54439.488198,15.264,0.015
54439.501077,15.311,0.013
54507.333362,15.419,0.015
54507.345448,15.427,0.015
54507.357552,15.42,0.015
54507.369608,15.428,0.015
54507.381668,15.425,0.015
54507.452806,15.419,0.03
54507.464724,15.405,0.031
54507.476684,15.468,0.031
54507.489482,15.478,0.026
54507.501351,15.555,0.028
54522.395945,15.452,0.02
54522.407592,15.465,0.022
54522.419264,15.49,0.022
54522.430921,15.544,0.024
54522.442554,15.568,0.026
54529.327102,15.131,0.011
54529.338417,15.065,0.011
54529.349715,14.964,0.009
54529.361015,14.842,0.009
54529.372318,14.759,0.009
54534.391007,14.906,0.018
54536.273221,14.929,0.009
54536.284239,14.97,0.009
54536.295183,15.015,0.009
54536.306181,15.039,0.009
54536.317167,15.06,0.011
54553.305884,15.368,0.024
54553.317778,15.39,0.017
54553.329658,15.384,0.018
54553.341727,15.379,0.018
54553.353658,15.409,0.02
54562.298045,14.874,0.009
54562.309582,14.809,0.009
54562.321097,14.858,0.007
54562.332655,14.861,0.009
54562.34419,14.89,0.009
54568.243655,15.406,0.031
54568.254636,15.421,0.031
54568.265514,15.431,0.031
54568.276473,15.416,0.031
54568.287274,15.411,0.031
54580.196104,15.454,0.018
54580.206727,15.481,0.018
54580.217342,15.513,0.02
54580.227953,15.533,0.022
54580.238624,15.572,0.028
54584.250214,15.168,0.017
54584.260876,15.191,0.017
54584.271456,15.213,0.017
54584.282026,15.233,0.017
54584.292659,15.241,0.018
54591.24421,15.397,0.022
54591.254366,15.365,0.022
54591.264529,15.391,0.024
54591.274692,15.419,0.026
54591.284845,15.411,0.026
54611.161882,15.399,0.018
54611.172229,15.406,0.018
54611.182205,15.412,0.018
54611.192046,15.423,0.018
54611.201932,15.456,0.018
54614.164868,15.337,0.018
54614.174828,15.317,0.018
54614.184799,15.348,0.018
54614.194805,15.354,0.018
54614.204748,15.373,0.02
