mjd,m,merr
52650.433578,16.15,0.043
52650.447488,16.211,0.044
52650.461455,16.226,0.044
52650.47553,16.257,0.043
52650.489487,16.293,0.044
52665.453595,16.048,0.039
52665.467959,16.101,0.039
52665.482259,16.095,0.039
52665.496554,16.144,0.039
52665.510973,16.158,0.041
52677.392301,16.492,0.081
52677.406855,16.534,0.07
52677.421137,16.569,0.081
52677.435557,16.513,0.081
52677.449865,16.544,0.063
52680.429527,16.466,0.061
52680.473911,16.202,0.048
52680.490023,16.244,0.046
52697.401168,16.265,0.131
52697.446398,16.132,0.098
52706.369271,16.283,0.043
52706.382147,16.359,0.044
52706.395097,16.372,0.046
52706.408321,16.438,0.05
52706.421464,16.459,0.052
52712.317339,16.549,0.091
52712.330306,16.678,0.179
52712.343283,16.451,0.074
52712.356127,16.531,0.078
52712.36929,16.464,0.07
52724.360437,16.294,0.041
52724.372056,16.301,0.041
52724.383613,16.343,0.044
52724.395159,16.367,0.044
52724.406763,16.391,0.046
52753.258896,16.124,0.043
52753.271555,16.136,0.043
52753.288097,16.161,0.041
52753.30039,16.118,0.043
52753.313363,16.089,0.041
52770.21548,16.196,0.074
52770.227159,16.102,0.066
52770.23878,16.127,0.068
52770.250254,16.156,0.069
52770.262084,16.145,0.066
52797.219041,16.48,0.08
52797.229048,16.507,0.085
52797.239028,16.54,0.091
52797.248994,16.502,0.089
52797.258958,16.531,0.093
52811.179466,16.435,0.072
52811.189418,16.464,0.072
52811.199311,16.468,0.07
52811.209206,16.536,0.076
52811.219041,16.397,0.063
52825.205609,16.73,0.104
52825.215702,17.461,0.239
52842.171791,16.428,0.098
52847.160083,16.264,0.08
52847.180403,16.36,0.078
52847.190463,16.357,0.111
52847.200907,16.41,0.085
52992.472435,16.555,0.059
52992.485959,16.521,0.054
52992.499541,16.533,0.055
52992.512834,16.616,0.07
52992.526097,16.568,0.067
53034.405643,16.466,0.057
53034.418118,16.486,0.057
53034.430508,16.534,0.061
53034.442943,16.505,0.059
53034.455187,16.411,0.054
53051.390792,16.257,0.037
53051.402392,16.159,0.033
53051.414151,16.109,0.031
53051.425755,16.149,0.033
53051.437396,16.105,0.03
53065.36103,16.231,0.041
53065.375271,16.153,0.038
53094.288488,16.549,0.049
53109.300993,16.299,0.049
53122.251191,16.51,0.052
53122.261539,16.567,0.055
53122.271895,16.44,0.048
53122.282251,16.53,0.052
53122.292919,16.486,0.048
53124.337902,16.253,0.07
53124.347169,16.341,0.07
53124.356424,16.291,0.068
53125.28991,16.259,0.087
53125.299852,16.137,0.076
53125.309801,16.134,0.078
53125.319748,16.247,0.093
53125.32974,16.285,0.091
53137.253923,16.341,0.053
53137.263993,16.419,0.056
53137.283709,16.537,0.068
53153.250527,16.123,0.044
53153.259539,16.143,0.044
53153.268326,16.124,0.044
53153.27711,16.107,0.048
53153.285947,16.073,0.046
53165.245584,16.445,0.213
53165.267913,16.485,0.073
53178.221469,16.264,0.046
53178.231455,16.148,0.089
53178.241525,16.058,0.078
53441.398266,16.476,0.05
53441.409195,16.437,0.048
53441.420155,16.349,0.046
53441.431598,16.288,0.044
53441.442527,16.218,0.043
53500.248043,16.38,0.052
53500.259442,16.25,0.046
53500.270401,16.165,0.043
53500.281446,16.117,0.041
53500.291645,16.148,0.043
53528.224037,16.078,0.052
53528.235294,16.135,0.055
53528.246361,16.109,0.052
53528.257198,16.125,0.052
53528.267579,16.098,0.052
53540.218505,16.443,0.159
53540.228329,16.571,0.179
53540.237913,16.615,0.178
53540.247615,16.457,0.155
53540.257302,16.511,0.174
53551.188603,16.484,0.061
53551.198754,16.407,0.059
53551.208694,16.51,0.063
53551.2186,16.526,0.07
53740.473083,16.16,0.041
53740.485989,16.221,0.044
53740.498942,16.292,0.046
53740.511791,16.335,0.048
53740.524722,16.365,0.05
53770.422807,16.535,0.059
53770.437099,16.461,0.059
53770.454275,16.345,0.054
53770.468575,16.22,0.043
53770.481511,16.181,0.039
53787.427339,16.114,0.038
53787.440146,16.174,0.041
53787.479186,16.109,0.069
53813.365759,16.582,0.109
53813.376764,16.491,0.1
53813.387775,16.619,0.113
53813.398797,16.482,0.096
53813.409835,16.44,0.096
53823.301164,16.459,0.051
53824.360442,16.293,0.046
53824.372738,16.323,0.07
53824.373538,16.364,0.071
53824.38373,16.334,0.085
53824.385254,16.346,0.073
53824.396452,16.316,0.061
53824.397082,16.452,0.063
53824.4091,16.429,0.051
53824.409708,16.347,0.061
53824.420731,16.327,0.053
53826.337347,16.244,0.044
53826.349473,16.152,0.059
53826.360766,16.064,0.081
53844.283108,16.536,0.067
53844.293383,16.523,0.07
53844.303657,16.516,0.074
53844.314146,16.42,0.07
53844.324599,16.398,0.074
53853.248406,16.099,0.056
53853.25879,16.077,0.053
53853.269107,16.104,0.054
53853.279548,16.128,0.054
53883.217883,16.51,0.068
53883.238499,16.47,0.061
53883.248767,16.539,0.066
53883.259107,16.684,0.076
53887.22815,16.441,0.087
53887.238808,16.484,0.091
53887.249472,16.518,0.089
53887.26019,16.511,0.089
53887.270898,16.588,0.094
53902.256273,16.387,0.078
53902.267145,16.342,0.078
53915.17795,16.352,0.086
53915.199204,16.54,0.097
54110.455395,16.327,0.127
54121.407325,16.43,0.054
54155.394745,16.213,0.048
54206.282901,16.282,0.049
54206.292243,16.324,0.049
54206.301589,16.411,0.056
54206.310968,16.4,0.054
54529.273745,16.254,0.053
54529.285112,16.143,0.049
54529.296705,16.161,0.049
54529.30789,16.076,0.045
54529.318996,16.126,0.046
54562.192069,16.672,0.023
54574.29929,16.524,0.12
54574.309937,16.501,0.111
54574.320632,16.544,0.115
54574.331312,16.637,0.122
54582.261056,16.112,0.041
54582.27139,16.118,0.039
54582.281734,16.13,0.039
54582.292127,16.125,0.041
54613.208582,16.2,0.041
54613.218447,16.21,0.041
54613.228442,16.223,0.043
54613.238493,16.29,0.044
54613.248513,16.287,0.044
