mjd,m,merr
52650.433578,15.642,0.028
52650.447488,15.64,0.026
52650.461455,15.647,0.026
52650.47553,15.656,0.024
52650.489487,15.643,0.024
52665.453595,16.161,0.043
52665.467959,16.14,0.039
52665.482259,15.992,0.035
52665.496554,15.87,0.03
52665.510973,15.797,0.028
52677.392301,15.679,0.039
52677.406855,15.713,0.035
52677.421137,15.732,0.035
52677.435557,15.727,0.041
52677.449865,15.783,0.033
52680.429527,15.626,0.03
52680.473911,15.65,0.03
52697.401168,15.66,0.089
52697.446398,15.622,0.063
52706.369271,15.642,0.024
52706.382147,15.648,0.024
52706.395097,15.68,0.024
52706.408321,15.627,0.024
52706.421464,15.634,0.024
52712.317339,15.66,0.041
52712.330306,15.697,0.07
52712.343283,15.702,0.039
52712.356127,15.679,0.039
52712.36929,15.809,0.039
52724.360437,15.691,0.024
52724.372056,15.677,0.024
52724.383613,15.726,0.024
52724.395159,15.694,0.024
52724.406763,15.737,0.026
52753.258896,16.015,0.039
52753.271555,15.916,0.033
52753.288097,15.848,0.031
52753.30039,15.771,0.03
52753.313363,15.736,0.03
52770.21548,15.77,0.051
52770.227159,15.862,0.053
52770.23878,15.8,0.051
52770.250254,15.781,0.051
52770.262084,15.79,0.048
52797.219041,15.703,0.039
52797.229048,15.702,0.041
52797.239028,15.727,0.043
52797.248994,15.722,0.043
52797.258958,15.712,0.043
52811.179466,15.671,0.033
52811.189418,15.725,0.035
52811.199311,15.694,0.035
52811.209206,15.686,0.033
52811.219041,15.713,0.033
52825.195361,15.679,0.048
52825.205609,15.707,0.045
52825.215702,15.708,0.048
52842.171791,15.702,0.05
52842.213761,15.971,0.118
52847.160083,15.946,0.065
52847.180403,16.031,0.059
52847.190463,16.147,0.089
52847.200907,16.154,0.067
52992.472435,16.028,0.039
52992.485959,16.02,0.037
52992.499541,16.036,0.035
52992.512834,15.903,0.037
52992.526097,15.795,0.035
53034.405643,15.706,0.03
53034.418118,15.767,0.031
53034.430508,15.707,0.03
53034.442943,15.771,0.031
53034.455187,15.814,0.031
53051.390792,15.645,0.022
53051.402392,15.669,0.022
53051.414151,15.667,0.02
53051.425755,15.718,0.022
53051.437396,15.691,0.02
53065.36103,15.819,0.028
53065.375271,15.899,0.03
53078.404859,16.281,0.073
53109.300993,16.105,0.041
53122.251191,15.86,0.03
53122.261539,15.939,0.031
53122.271895,16.046,0.033
53122.282251,16.103,0.035
53122.292919,16.065,0.033
53137.253923,15.677,0.03
53137.283709,15.589,0.03
53153.250527,15.901,0.035
53153.259539,15.796,0.031
53153.268326,15.786,0.031
53153.27711,15.773,0.035
53153.285947,15.733,0.035
53178.221469,15.783,0.03
53178.231455,15.754,0.063
53178.241525,15.73,0.072
53441.398266,15.627,0.024
53441.409195,15.616,0.024
53441.420155,15.668,0.024
53441.431598,15.615,0.024
53441.442527,15.657,0.026
53500.248043,15.728,0.03
53500.259442,15.723,0.028
53500.270401,15.724,0.028
53500.281446,15.798,0.03
53500.291645,15.775,0.03
53528.224037,15.724,0.039
53528.235294,15.74,0.037
53528.246361,15.705,0.035
53528.257198,15.703,0.033
53528.267579,15.753,0.037
53540.228329,16.032,0.104
53540.237913,15.965,0.094
53540.257302,15.836,0.085
53551.178586,15.782,0.031
53551.188603,15.652,0.03
53551.198754,15.685,0.031
53551.208694,15.703,0.031
53551.2186,15.713,0.035
53740.473083,16.083,0.039
53740.485989,16.202,0.041
53740.498942,16.141,0.041
53740.511791,16.115,0.041
53740.524722,16.018,0.035
53770.422807,15.732,0.03
53770.437099,15.796,0.033
53770.454275,15.789,0.031
53770.468575,15.841,0.03
53770.481511,15.817,0.028
53787.427339,15.942,0.033
53787.440146,15.984,0.036
53787.479186,16.228,0.066
53813.365759,15.733,0.048
53813.376764,15.811,0.052
53813.387775,15.851,0.055
53813.398797,15.989,0.059
53813.409835,16.069,0.065
53823.301164,16.014,0.035
53844.283108,15.806,0.033
53844.293383,15.877,0.037
53844.303657,15.917,0.041
53844.314146,15.99,0.046
53844.324599,16.051,0.052
53853.248406,15.722,0.041
53853.25879,15.738,0.041
53853.269107,15.772,0.041
53853.279548,15.796,0.041
53883.217883,15.731,0.041
53883.238499,15.869,0.043
53883.248767,15.934,0.045
53883.259107,15.933,0.049
53887.22815,15.701,0.044
53887.238808,15.758,0.044
53887.249472,15.801,0.046
53887.26019,15.77,0.043
53887.270898,15.8,0.044
53902.256273,15.737,0.043
53902.267145,15.714,0.046
53915.17795,15.837,0.053
53915.199204,15.737,0.051
53931.174797,15.83,0.051
53931.1952,15.739,0.049
53931.215382,15.736,0.053
54110.455395,15.809,0.079
54110.468266,15.943,0.076
54110.480946,15.995,0.092
54110.493632,15.84,0.106
54110.506342,15.905,0.112
54121.407325,15.699,0.03
54155.394745,15.726,0.031
54206.282901,15.89,0.036
54206.292243,15.879,0.035
54206.301589,15.842,0.036
54206.310968,15.892,0.036
54529.273745,15.962,0.045
54529.285112,16.036,0.046
54529.296705,16.152,0.053
54529.30789,16.204,0.053
54529.318996,16.134,0.049
54562.192069,15.715,0.045
54562.205494,15.666,0.041
54562.218396,15.67,0.041
54562.230084,15.653,0.04
54562.241455,15.678,0.038
54574.309937,15.695,0.05
54574.320632,15.66,0.05
54574.331312,15.723,0.052
54582.261056,15.715,0.028
54582.27139,15.706,0.026
54582.281734,15.703,0.026
54582.292127,15.692,0.026
54613.208582,15.663,0.024
54613.218447,15.629,0.024
54613.228442,15.621,0.026
54613.238493,15.653,0.024
54613.248513,15.666,0.026
