mjd,m,merr
52652.479728,16.627,0.064
52652.494882,16.623,0.061
52652.509763,16.692,0.064
52652.525088,16.738,0.068
52681.355283,16.886,0.099
52681.369974,17.247,0.116
52681.40076,17.328,0.122
52681.415418,17.358,0.117
52696.410921,16.57,0.059
52696.424379,16.592,0.066
52723.343272,16.954,0.302
52752.292044,16.497,0.063
52752.303684,16.538,0.066
52752.314315,16.555,0.064
52752.324986,16.545,0.066
52752.335697,16.552,0.064
52772.217292,15.94,0.091
52772.252339,16.421,0.115
52772.264102,16.468,0.131
52800.218919,16.459,0.146
52800.229259,16.362,0.131
52800.239402,16.352,0.128
52800.249507,16.666,0.179
52810.221975,16.621,0.213
52810.231859,16.511,0.172
52810.251487,16.474,0.067
52812.225147,16.461,0.057
52812.235225,16.517,0.061
52812.245213,16.504,0.061
52812.255455,16.466,0.057
52812.265458,16.5,0.057
52827.17388,16.409,0.115
52839.168839,16.524,0.126
52839.188931,16.65,0.087
52839.198949,16.699,0.091
52990.468294,16.693,0.089
52990.480879,16.717,0.079
52990.49349,16.646,0.071
52990.506075,16.482,0.059
52990.519156,16.368,0.056
53023.399807,16.645,0.053
53023.412923,17.173,0.079
53023.424951,16.951,0.064
53023.449098,18.317,0.221
53035.429988,16.623,0.053
53035.442277,16.643,0.061
53035.454645,16.761,0.073
53035.466957,16.721,0.059
53037.415235,16.683,0.063
53037.427595,16.624,0.056
53037.440019,16.637,0.054
53037.452996,16.705,0.058
53046.407873,16.678,0.093
53046.420382,16.579,0.085
53046.432343,16.266,0.067
53046.444249,16.367,0.07
53046.456826,16.196,0.061
53107.29748,16.625,0.048
53107.308597,16.602,0.048
53107.319784,16.649,0.048
53107.330824,16.707,0.054
53107.341893,16.682,0.05
53108.243768,16.769,0.068
53108.254905,16.885,0.072
53108.265948,16.788,0.065
53108.277067,16.957,0.072
53108.288106,17.011,0.076
53109.298709,16.653,0.061
53109.308703,16.661,0.063
53109.319036,16.662,0.063
53109.329171,16.67,0.063
53109.339219,16.681,0.064
53110.292672,16.944,0.074
53110.30349,16.879,0.072
53110.31429,16.948,0.074
53110.325093,16.884,0.07
53110.335892,16.832,0.067
53127.248512,16.339,0.118
53127.258571,16.427,0.124
53127.268533,16.517,0.122
53127.278559,16.598,0.122
53127.288525,16.52,0.117
53136.245232,16.96,0.089
53136.254606,16.893,0.085
53136.264072,16.932,0.087
53136.273342,16.903,0.085
53136.282617,16.931,0.085
53154.250788,17.058,0.141
53154.259677,17.049,0.135
53154.268489,17.003,0.133
53154.2773,16.969,0.13
53154.2861,16.941,0.124
53164.221554,16.82,0.063
53164.231729,16.918,0.07
53164.241961,16.947,0.081
53164.25214,16.987,0.076
53164.262322,16.863,0.068
53194.205285,16.953,0.205
53194.215374,16.762,0.172
53358.477063,16.78,0.079
53358.491527,16.748,0.079
53358.50599,16.713,0.073
53358.520533,16.829,0.083
53422.347668,16.902,0.157
53422.35965,16.929,0.142
53422.371641,17.017,0.183
53450.352928,16.758,0.098
53450.364168,16.686,0.089
53450.375324,16.713,0.089
53475.31717,16.347,0.05
53475.327058,16.315,0.048
53475.336878,16.259,0.046
53475.347116,16.313,0.048
53475.358052,16.267,0.046
53476.326211,16.69,0.074
53476.336532,16.72,0.074
53476.346911,16.73,0.074
53476.357713,16.705,0.067
53476.368188,16.734,0.068
53478.318353,16.759,0.105
53478.327506,16.75,0.105
53478.336703,16.753,0.104
53478.345921,16.694,0.1
53478.355069,16.659,0.094
53479.224454,17.06,0.168
53479.234582,17.099,0.176
53479.244609,16.943,0.15
53479.257091,16.91,0.146
53479.266949,16.694,0.118
53537.220753,16.21,0.176
53537.26086,16.842,0.213
53553.178094,16.686,0.087
53553.188619,16.556,0.078
53553.199317,16.42,0.07
53553.209852,16.438,0.067
53553.220476,16.326,0.061
53583.15869,16.641,0.202
53583.169988,16.453,0.065
53583.181258,16.462,0.065
53583.192518,16.266,0.059
53583.203801,16.214,0.059
53728.469426,16.476,0.068
53728.483015,16.423,0.068
53728.496792,16.439,0.065
53728.510048,16.543,0.078
53728.523293,16.399,0.067
53742.478401,16.422,0.039
53742.491344,16.427,0.039
53742.504204,16.477,0.039
53742.517254,16.497,0.039
53742.530234,16.526,0.037
53772.41643,16.332,0.05
53772.429062,16.42,0.054
53772.441896,16.402,0.054
53772.454847,16.43,0.055
53772.467688,16.443,0.055
53807.338212,16.862,0.139
53807.34935,16.746,0.118
53807.360484,16.846,0.131
53807.371629,16.826,0.128
53825.292198,16.851,0.068
53825.303308,16.771,0.069
53825.315356,16.746,0.059
53825.32656,16.826,0.066
53825.337701,16.727,0.064
53843.307035,16.904,0.12
53843.3183,16.908,0.124
53843.329577,16.918,0.13
53843.340841,16.865,0.126
53843.352146,16.866,0.126
53855.247365,16.825,0.086
53855.257549,16.807,0.086
53855.267773,16.762,0.079
53855.27795,16.796,0.081
53855.288245,16.713,0.076
53878.241427,16.316,0.071
53878.252183,16.26,0.063
53878.262924,16.289,0.064
53878.273904,16.331,0.064
53878.285731,16.262,0.064
53892.216985,16.567,0.159
53892.227056,16.539,0.152
53892.237128,16.648,0.174
53892.247171,16.603,0.165
53903.232854,16.949,0.109
53903.242314,16.83,0.101
53903.252062,16.955,0.112
53903.261784,17.016,0.124
53903.271386,16.971,0.12
53917.214477,16.658,0.185
53932.192258,16.43,0.114
53932.20557,16.432,0.099
53932.215859,16.434,0.078
53944.193308,16.412,0.106
54086.435496,16.944,0.15
54086.44926,16.905,0.139
54086.462601,16.986,0.145
54086.47773,16.906,0.129
54086.49095,16.771,0.111
54109.480436,16.505,0.173
54169.329216,16.544,0.059
54169.340761,16.581,0.065
54169.351993,16.518,0.061
54169.363226,16.522,0.061
54169.374593,16.573,0.059
54200.288826,16.825,0.1
54200.29876,16.81,0.063
54200.309073,16.884,0.067
54200.319419,16.893,0.065
54209.264442,16.468,0.083
54209.273551,16.437,0.096
54209.282462,16.471,0.109
54209.291244,16.479,0.099
54209.300124,16.536,0.135
54217.251545,16.511,0.08
54217.260184,16.441,0.078
54217.268878,16.415,0.076
54217.277528,16.411,0.081
54217.286168,16.485,0.08
54218.272073,16.789,0.16
54218.280942,16.748,0.153
54218.289816,16.793,0.153
54218.298697,16.818,0.157
54218.307979,16.792,0.152
54509.387597,16.863,0.078
54509.399747,16.919,0.078
54509.411681,16.969,0.083
54509.423603,16.746,0.069
54509.435535,16.671,0.066
54527.3443,17.056,0.092
54527.357505,17.04,0.089
54536.326859,16.531,0.059
54536.337863,16.566,0.058
54536.348809,16.657,0.063
54536.359723,16.736,0.069
54536.370628,16.631,0.063
54560.304492,16.548,0.076
54560.316886,16.604,0.083
54560.328426,16.63,0.084
54560.339933,16.724,0.091
54560.351422,16.677,0.087
