mjd,m,merr
52652.459212,15.751,0.026
52652.474326,15.708,0.028
52652.49265,15.758,0.028
52652.50774,15.727,0.024
52652.522598,15.733,0.026
52664.361059,15.604,0.031
52664.376297,15.63,0.041
52664.422126,15.576,0.065
52722.406839,15.666,0.024
52722.419821,15.664,0.024
52722.433181,15.676,0.026
52722.446162,15.816,0.03
52722.459198,16.13,0.041
52751.314327,15.643,0.024
52751.326418,15.658,0.026
52751.337178,15.675,0.028
52751.3479,15.656,0.028
52751.359229,15.656,0.028
52772.296712,15.77,0.073
52772.321717,15.727,0.097
52782.218445,15.606,0.089
52809.220521,15.593,0.03
52809.230528,15.634,0.031
52809.240507,15.603,0.03
53008.4635,15.724,0.035
53008.476034,15.759,0.035
53008.488629,15.751,0.031
53008.501165,15.717,0.03
53008.513838,15.714,0.03
53038.403819,15.637,0.046
53038.428333,15.596,0.041
53038.440451,15.632,0.043
53038.452561,15.633,0.04
53045.405946,15.682,0.038
53045.417845,15.685,0.038
53045.429704,15.666,0.038
53045.441597,15.702,0.04
53045.454006,15.668,0.04
53096.317749,15.702,0.046
53096.327432,15.662,0.045
53096.337034,15.725,0.046
53096.346683,15.684,0.043
53096.356509,15.724,0.045
53125.247349,15.694,0.049
53125.257102,15.671,0.048
53125.266667,15.709,0.048
53125.276196,15.695,0.046
53125.285921,15.674,0.049
53134.243452,15.729,0.041
53134.252316,15.691,0.026
53134.261178,15.686,0.025
53134.270154,15.69,0.025
53134.279165,15.672,0.026
53155.252539,15.718,0.053
53155.260952,15.699,0.054
53155.269344,15.71,0.056
53155.277666,15.68,0.054
53155.286007,15.657,0.054
53169.22164,15.75,0.035
53169.231013,15.74,0.035
53169.240471,15.747,0.036
53169.249886,15.747,0.036
53169.259232,15.747,0.031
53181.266004,15.716,0.033
53193.180772,15.737,0.035
53193.199216,15.754,0.058
53359.488568,15.695,0.026
53359.501373,15.685,0.026
53359.514145,15.696,0.028
53359.52728,15.685,0.028
53421.356435,15.7,0.039
53421.380199,15.703,0.104
53421.392275,15.711,0.035
53421.404159,15.705,0.035
53430.372276,15.718,0.035
53430.386156,15.709,0.033
53430.398987,15.755,0.035
53430.41034,15.744,0.033
53430.421526,15.721,0.033
53480.27279,15.719,0.05
53480.281834,15.703,0.05
53480.290999,15.74,0.046
53480.300087,15.704,0.048
53480.31007,15.717,0.048
53491.254369,15.685,0.033
53491.266789,15.696,0.028
53491.280212,15.754,0.031
53491.2911,15.793,0.033
53491.301824,15.856,0.031
53536.220254,15.637,0.052
53536.2302,15.69,0.055
53536.250156,15.698,0.055
53536.260218,15.636,0.054
53566.211443,15.706,0.048
53566.222059,15.75,0.052
53566.23274,15.733,0.052
53566.243365,15.698,0.05
53566.253998,15.765,0.054
53727.520755,15.862,0.068
53757.390772,15.704,0.035
53757.403419,15.703,0.035
53757.416178,15.707,0.033
53757.428895,15.897,0.041
53757.441821,16.219,0.054
53773.420528,15.708,0.026
53773.433399,15.709,0.026
53773.446068,15.69,0.024
53773.458753,15.709,0.024
53773.471605,15.697,0.026
53826.291731,15.829,0.03
53826.313367,16.212,0.041
53826.324104,16.23,0.04
53826.335106,15.914,0.028
53827.310063,15.716,0.021
53827.321182,15.728,0.021
53827.332551,15.731,0.021
53827.3437,15.694,0.021
53827.354597,15.677,0.023
53856.273741,15.745,0.033
53856.2838,15.734,0.031
53856.29375,15.723,0.031
53856.303672,15.73,0.031
53856.313564,15.703,0.031
53877.258528,15.755,0.03
53877.269163,15.67,0.031
53904.218384,15.991,0.046
53904.22823,15.755,0.039
53904.238118,15.712,0.037
53904.247981,15.728,0.037
53904.25788,15.72,0.037
53918.1847,15.682,0.063
53933.169331,16.297,0.055
53933.180009,16.111,0.052
53933.190706,15.838,0.043
53933.201396,15.72,0.044
53933.212234,15.748,0.052
54098.436608,15.762,0.035
54098.44977,15.719,0.033
54098.461911,15.726,0.033
54098.474002,15.769,0.035
54098.486094,15.723,0.033
54124.397725,15.737,0.028
54124.410392,15.671,0.028
54124.423642,15.703,0.026
54124.436331,15.718,0.028
54124.448768,15.668,0.026
54140.415867,16.283,0.046
54140.4286,16.044,0.037
54140.441248,15.796,0.031
54140.453899,15.692,0.028
54140.467165,15.723,0.028
54188.3175,15.751,0.051
54188.327323,15.758,0.051
54188.337098,15.743,0.049
54188.346626,15.782,0.049
54188.356456,15.804,0.061
54198.276461,15.69,0.028
54198.286133,15.771,0.081
54198.296158,15.713,0.105
54212.263239,15.702,0.035
54212.271903,15.695,0.035
54212.280333,15.706,0.035
54212.288783,15.708,0.033
54212.297462,15.69,0.033
54218.269732,15.811,0.057
54218.278393,16.164,0.072
54218.287025,16.254,0.08
54218.295665,16.336,0.083
54218.304261,16.175,0.074
54498.415151,15.699,0.031
54498.426977,15.769,0.033
54498.438759,15.743,0.031
54526.33895,15.744,0.031
54526.350515,15.747,0.031
54526.36191,15.687,0.03
54537.335423,15.826,0.066
54537.346599,15.702,0.064
54537.357527,15.687,0.051
54537.368649,15.765,0.053
54559.300521,15.787,0.038
54559.312073,15.765,0.038
54559.323679,15.748,0.036
54559.335153,15.754,0.035
54559.346611,15.79,0.036
54569.293171,15.743,0.038
54569.30415,15.725,0.035
54569.315119,15.701,0.033
54569.326033,15.744,0.036
54569.336926,15.705,0.035
54585.243567,15.649,0.064
54585.253691,15.677,0.054
54585.263719,15.707,0.049
54585.273836,15.748,0.078
54585.283888,15.633,0.045
54599.244482,15.724,0.053
54599.253816,15.746,0.051
54599.263093,15.715,0.051
54599.272378,15.701,0.048
54599.281785,15.74,0.046
54618.215829,15.726,0.049
54618.226189,15.757,0.049
54618.236491,15.666,0.049
54618.246991,15.691,0.046
54618.257854,15.75,0.048
