mjd,m,merr
52667.466175,15.42,0.026
52667.481396,15.458,0.026
52667.496025,15.506,0.028
52667.51065,15.55,0.026
52667.525265,15.552,0.03
52676.3712,15.585,0.038
52676.386279,15.616,0.036
52676.40139,15.644,0.035
52676.416691,15.68,0.038
52676.431681,15.678,0.036
52707.382284,15.694,0.026
52707.395453,15.68,0.024
52707.409485,15.671,0.026
52707.42269,15.607,0.024
52707.435971,15.494,0.022
52711.311772,15.386,0.03
52711.324778,15.458,0.03
52711.338393,15.461,0.03
52711.351491,15.469,0.03
52711.364542,15.48,0.028
52725.430469,15.633,0.024
52725.442229,15.532,0.022
52725.453927,15.415,0.022
52725.465676,15.305,0.02
52725.477384,15.197,0.018
52734.315454,15.276,0.033
52738.30231,15.654,0.024
52738.313806,15.681,0.026
52738.325315,15.664,0.024
52738.337021,15.635,0.022
52738.348689,15.615,0.02
52755.268468,15.649,0.026
52755.280478,15.663,0.026
52755.29239,15.703,0.028
52755.304254,15.646,0.028
52755.316218,15.657,0.028
52769.268494,15.718,0.048
52769.279925,15.634,0.043
52769.291405,15.584,0.041
52769.303222,15.515,0.04
52769.314714,15.337,0.035
52794.220699,15.272,0.025
52794.231014,15.278,0.025
52794.241533,15.331,0.026
52794.252055,15.351,0.026
52794.262802,15.393,0.03
52797.220038,15.154,0.03
52797.230344,15.101,0.03
52797.240984,15.134,0.03
52797.251568,15.102,0.03
52797.261779,15.14,0.031
52813.182024,15.206,0.03
52813.191877,15.184,0.025
52813.211605,15.066,0.026
52813.221454,15.128,0.026
52824.176072,15.379,0.024
52824.185978,15.414,0.026
52824.195818,15.359,0.031
52824.205714,15.446,0.028
52824.215605,15.483,0.028
53002.506457,15.434,0.013
53002.521383,15.287,0.012
53002.535546,15.218,0.012
53006.458273,15.569,0.028
53006.470462,15.64,0.031
53006.482733,15.674,0.03
53006.495009,15.675,0.028
53006.507202,15.736,0.035
53033.403832,15.655,0.03
53033.416538,15.621,0.026
53033.428839,15.56,0.025
53033.4413,15.4,0.023
53033.453537,15.297,0.02
53034.44836,15.541,0.028
53034.45812,15.469,0.024
53034.460251,15.427,0.026
53034.470633,15.358,0.022
53034.472112,15.307,0.021
53034.482952,15.254,0.018
53034.484092,15.215,0.02
53034.495511,15.236,0.018
53034.495996,15.178,0.02
53034.507919,15.201,0.018
53035.47175,15.565,0.021
53035.482711,15.398,0.02
53035.483916,15.512,0.02
53035.496163,15.476,0.018
53035.508328,15.208,0.016
53035.520547,15.439,0.016
53035.521397,15.197,0.017
53053.41122,15.653,0.022
53053.423014,15.671,0.024
53053.434712,15.659,0.028
53053.447067,15.639,0.039
53053.458773,15.677,0.037
53064.36358,15.53,0.024
53064.38765,15.691,0.588
53064.411769,15.179,0.015
53079.367225,15.206,0.017
53079.378532,15.154,0.017
53079.389371,15.145,0.015
53079.401351,15.161,0.015
53079.412156,15.216,0.015
53089.333865,15.53,0.135
53110.295083,15.208,0.018
53110.305899,15.202,0.018
53110.316702,15.167,0.017
53110.327504,15.137,0.017
53110.338305,15.156,0.017
53119.297387,15.502,0.018
53119.307392,15.594,0.02
53119.318113,15.598,0.02
53119.328307,15.641,0.021
53119.33835,15.651,0.021
53138.25191,15.298,0.02
53138.261443,15.307,0.018
53138.271012,15.386,0.02
53138.280607,15.416,0.02
53138.29019,15.43,0.022
53166.243039,15.617,0.028
53166.252485,15.651,0.028
53166.261936,15.665,0.028
53166.271387,15.67,0.03
53166.280926,15.688,0.03
53468.390964,15.276,0.02
53468.400583,15.209,0.02
53468.410146,15.202,0.018
53468.419735,15.17,0.018
53468.429845,15.15,0.018
53494.299908,15.156,0.02
53494.310546,15.227,0.022
53494.332237,15.29,0.022
53494.342684,15.31,0.022
53497.331043,15.227,0.057
53497.341042,15.189,0.044
53498.250401,15.655,0.031
53498.261206,15.708,0.037
53498.272707,15.633,0.03
53503.325843,15.696,0.024
53503.334861,15.674,0.024
53503.345231,15.679,0.028
53503.356105,15.665,0.028
53503.36511,15.655,0.03
53522.21814,15.279,0.022
53522.228384,15.302,0.02
53522.238668,15.343,0.022
53522.248877,15.379,0.022
53522.259166,15.403,0.024
53747.473135,15.529,0.055
53747.486185,15.591,0.054
53747.499209,15.629,0.05
53747.512443,15.62,0.039
53747.525446,15.603,0.035
53790.407167,15.232,0.018
53790.419253,15.151,0.018
53790.430979,15.148,0.016
53790.442732,15.13,0.016
53790.455118,15.199,0.016
53799.362197,15.407,0.016
53799.374004,15.486,0.016
53799.385839,15.494,0.016
53799.397728,15.516,0.016
53818.342696,15.266,0.018
53818.354064,15.3,0.018
53818.365402,15.342,0.02
53818.376556,15.403,0.02
53845.297369,15.534,0.03
53845.319939,15.603,0.038
53845.342455,15.651,0.038
53846.293643,15.475,0.03
53846.304671,15.501,0.031
53846.315686,15.568,0.031
53846.32671,15.583,0.033
53846.337709,15.62,0.033
53851.300292,15.157,0.023
53851.310722,15.202,0.023
53851.321121,15.28,0.025
53880.215741,15.274,0.026
53880.22696,15.246,0.024
53880.238191,15.365,0.026
53880.249423,15.377,0.026
53880.260665,15.372,0.026
53885.222003,15.429,0.03
53885.234009,15.304,0.026
53885.24594,15.197,0.024
53885.257935,15.143,0.024
53885.270215,15.128,0.024
53912.177695,15.266,0.026
53912.187356,15.303,0.04
53912.197087,15.444,0.048
53912.216887,15.514,0.058
53937.182935,15.654,0.048
53937.193047,15.649,0.046
54112.500982,15.43,0.033
54112.513576,15.56,0.035
54112.52616,15.573,0.036
54152.40374,15.665,0.02
54152.415627,15.64,0.02
54152.427581,15.599,0.018
54152.439495,15.562,0.017
54152.451425,15.452,0.017
54173.324339,15.373,0.023
54173.335253,15.426,0.023
54173.345886,15.489,0.054
54173.356513,15.489,0.023
54173.367484,15.495,0.023
54185.337298,15.689,0.069
54185.347822,15.623,0.031
54185.358295,15.646,0.035
54201.288276,15.602,0.025
54201.297621,15.659,0.025
54201.306989,15.678,0.025
54201.316473,15.689,0.025
54201.325833,15.704,0.025
54478.470124,15.59,0.017
54478.483221,15.604,0.017
54478.496315,15.596,0.015
54478.5094,15.477,0.015
54558.244293,15.459,0.044
54558.25588,15.524,0.026
54558.267577,15.546,0.033
54558.279149,15.558,0.022
54558.290734,15.617,0.026
54568.292553,15.221,0.017
54568.303496,15.153,0.017
54568.314441,15.18,0.017
54568.325401,15.144,0.015
54568.336357,15.149,0.015
54580.257021,15.118,0.031
54580.277604,15.283,0.035
54580.287943,15.324,0.036
54580.298219,15.37,0.038
54588.29268,15.65,0.024
54588.30329,15.672,0.024
54588.313914,15.598,0.024
54588.324522,15.581,0.022
54588.33502,15.422,0.02
54597.254915,15.225,0.024
54597.265555,15.213,0.024
54597.276139,15.285,0.024
54597.286907,15.325,0.024
54597.297558,15.361,0.024
54611.238697,15.282,0.026
54611.246941,15.327,0.028
54611.255202,15.387,0.03
54611.271751,15.375,0.033
54620.219764,15.659,0.024
54620.229994,15.669,0.026
54620.240167,15.641,0.024
54620.250369,15.633,0.024
54620.260556,15.636,0.024
