mjd,m,merr
52667.466175,15.098,0.02
52667.481396,15.031,0.018
52667.496025,14.989,0.018
52667.51065,14.963,0.016
52667.525265,14.986,0.018
52676.3712,14.997,0.021
52676.386279,14.987,0.02
52676.40139,15.056,0.02
52676.416691,15.09,0.021
52707.382284,15.035,0.015
52707.395453,15.07,0.015
52707.409485,15.053,0.015
52707.42269,15.016,0.015
52707.435971,14.964,0.015
52711.311772,14.965,0.02
52711.324778,14.946,0.02
52711.338393,14.96,0.02
52711.351491,14.938,0.018
52711.364542,14.953,0.018
52725.430469,14.991,0.015
52725.442229,14.985,0.015
52725.453927,14.998,0.015
52725.465676,14.996,0.015
52725.477384,15.011,0.015
52734.315454,15.082,0.03
52738.30231,14.951,0.013
52738.313806,14.945,0.013
52738.325315,14.949,0.013
52738.337021,14.958,0.013
52738.348689,14.983,0.013
52755.268468,14.928,0.015
52755.280478,14.939,0.015
52755.29239,14.93,0.015
52755.304254,14.948,0.015
52755.316218,14.931,0.015
52769.268494,14.961,0.023
52769.279925,14.982,0.025
52769.291405,14.951,0.025
52769.303222,14.941,0.025
52769.314714,14.953,0.025
52824.176072,14.975,0.017
52824.185978,14.975,0.017
52824.195818,15.05,0.02
52824.205714,14.972,0.018
52824.215605,14.974,0.018
53002.506457,15.171,0.012
53002.521383,15.145,0.01
53002.535546,15.104,0.01
53006.458273,14.94,0.017
53006.470462,14.948,0.017
53006.482733,14.975,0.017
53006.495009,14.953,0.015
53006.507202,14.971,0.018
53033.403832,14.957,0.016
53033.416538,14.949,0.016
53033.428839,14.974,0.016
53033.4413,14.993,0.016
53033.453537,15.007,0.016
53034.44836,15.04,0.018
53034.45812,15.022,0.017
53034.460251,15.085,0.018
53034.470633,15.002,0.015
53034.472112,15.042,0.018
53034.482952,14.997,0.015
53034.484092,15.061,0.018
53034.495511,15.019,0.015
53034.495996,15.023,0.018
53034.507919,14.995,0.015
53053.41122,14.977,0.013
53053.423014,15.007,0.015
53053.434712,15.168,0.017
53053.447067,15.456,0.033
53053.458773,15.609,0.035
53064.36358,15.004,0.015
53064.38765,14.903,0.252
53064.411769,15.045,0.013
53079.367225,14.988,0.013
53079.378532,15.009,0.015
53079.389371,14.996,0.013
53079.401351,14.999,0.013
53079.412156,14.971,0.013
53089.333865,15.784,0.17
53110.295083,14.975,0.015
53110.305899,14.981,0.015
53110.316702,15.006,0.015
53110.327504,14.991,0.015
53110.338305,14.986,0.015
53119.297387,14.979,0.012
53119.307392,14.976,0.012
53119.318113,14.97,0.012
53119.328307,14.978,0.012
53119.33835,14.98,0.013
53138.25191,15.608,0.026
53138.261443,15.342,0.02
53138.271012,15.144,0.017
53138.280607,15.048,0.015
53138.29019,14.975,0.015
53166.243039,14.997,0.017
53166.252485,15.007,0.017
53166.261936,14.989,0.017
53166.271387,15.006,0.017
53166.280926,15.001,0.017
53468.390964,15.636,0.026
53468.400583,15.77,0.031
53468.410146,15.731,0.03
53468.419735,15.561,0.024
53468.429845,15.331,0.022
53494.299908,15.046,0.018
53494.310546,15.113,0.02
53494.32169,15.129,0.048
53494.332237,15.128,0.018
53494.342684,15.134,0.018
53497.331043,15.149,0.05
53497.341042,15.14,0.044
53498.250498,15.027,0.018
53498.261304,15.025,0.02
53498.272812,15.043,0.018
53498.301687,15.131,0.057
53503.325843,15.124,0.015
53503.334861,15.117,0.015
53503.345231,15.132,0.017
53503.356105,15.138,0.017
53503.36511,15.134,0.018
53522.21814,15.763,0.031
53522.228384,15.49,0.024
53522.238668,15.275,0.02
53522.248877,15.105,0.018
53522.259166,15.116,0.018
53528.16503,14.996,0.02
53528.176826,15.015,0.02
53528.188384,15.034,0.022
53528.199171,15.017,0.02
53528.20976,15.015,0.02
53747.473135,15.109,0.037
53747.486185,15.123,0.033
53747.499209,15.079,0.03
53747.512443,15.081,0.024
53747.525446,15.091,0.022
53790.407167,15.589,0.026
53790.419253,15.744,0.028
53790.430979,15.657,0.026
53790.442732,15.376,0.02
53790.455118,15.146,0.016
53799.350165,15.092,0.013
53799.362197,15.306,0.015
53799.374004,15.584,0.018
53799.385839,15.726,0.02
53799.397728,15.635,0.02
53818.342696,15.099,0.016
53818.354064,15.078,0.015
53818.365402,15.069,0.015
53818.376556,15.066,0.015
53845.297369,15.05,0.02
53845.319939,15.055,0.025
53845.342455,15.067,0.021
53851.300292,15.101,0.021
53851.310722,15.109,0.02
53851.321121,15.092,0.02
53880.215741,15.062,0.022
53880.22696,15.072,0.02
53880.238191,15.057,0.02
53880.249423,15.068,0.02
53880.260665,15.083,0.02
53885.222003,15.062,0.02
53885.234009,15.081,0.02
53885.24594,15.1,0.02
53885.257935,15.105,0.022
53885.270215,15.088,0.022
53912.177695,15.082,0.023
53912.187356,15.136,0.025
53912.197087,15.129,0.03
53912.216887,15.015,0.048
53937.182935,15.416,0.038
53937.193047,15.207,0.031
54112.500982,15.085,0.025
54112.513576,15.062,0.025
54112.52616,15.101,0.025
54152.40374,15.25,0.015
54152.415627,15.1,0.013
54152.427581,15.072,0.013
54152.439495,15.079,0.011
54152.451425,15.06,0.011
54173.324339,15.109,0.02
54173.335253,15.14,0.018
54173.345886,15.1,0.041
54173.356513,15.129,0.016
54173.367484,15.106,0.016
54185.337298,14.939,0.038
54185.347822,15.089,0.02
54185.358295,15.068,0.021
54201.288276,15.659,0.026
54201.297621,15.592,0.025
54201.306989,15.388,0.02
54201.316473,15.198,0.016
54201.325833,15.108,0.016
54478.470124,15.515,0.017
54478.483221,15.401,0.013
54478.496315,15.144,0.011
54478.5094,15.024,0.009
54558.244293,15.068,0.037
54558.25588,15.049,0.018
54558.267577,15.036,0.02
54558.279149,15.061,0.015
54558.290734,15.028,0.017
54568.292553,14.975,0.013
54568.303496,14.994,0.013
54568.314441,14.997,0.013
54568.325401,15.001,0.013
54568.336357,15.012,0.013
54580.257021,14.986,0.026
54580.277604,15.012,0.028
54580.287943,15.038,0.028
54580.298219,15.0,0.028
54588.29268,15.057,0.015
54588.30329,15.05,0.015
54588.313914,15.033,0.015
54588.324522,15.041,0.015
54588.33502,15.045,0.015
54597.254915,15.024,0.02
54597.265555,15.043,0.018
54597.276139,15.026,0.018
54597.286907,15.021,0.018
54597.297558,15.044,0.018
54611.238697,15.015,0.021
54611.246941,14.994,0.023
54611.255202,14.986,0.021
54611.271751,15.033,0.025
54620.219764,15.027,0.015
54620.229994,15.036,0.015
54620.240167,15.033,0.015
54620.250369,15.02,0.015
54620.260556,15.019,0.015
