mjd,m,merr
52667.466049,16.235,0.053
52667.481275,16.237,0.051
52667.495902,16.285,0.054
52667.51053,16.288,0.053
52667.525144,16.279,0.059
52676.370681,16.222,0.068
52676.38576,16.326,0.066
52676.400872,16.328,0.061
52676.416173,16.365,0.066
52676.431163,16.292,0.059
52707.382284,16.379,0.043
52707.395453,16.236,0.037
52707.409485,15.82,0.026
52707.42269,15.577,0.022
52707.435971,15.432,0.02
52711.311413,16.302,0.068
52711.324419,16.386,0.068
52711.338034,16.434,0.069
52711.351131,16.382,0.064
52711.364184,16.471,0.069
52725.430469,16.224,0.037
52725.442229,16.278,0.041
52725.453927,16.262,0.043
52725.465676,16.308,0.044
52725.477384,16.367,0.046
52734.314858,16.274,0.096
52738.30231,15.918,0.03
52738.313806,15.944,0.03
52738.325315,15.983,0.03
52738.337021,15.995,0.028
52738.348689,16.016,0.028
52755.268468,16.358,0.046
52755.280478,16.337,0.044
52755.29239,16.109,0.037
52755.304254,15.838,0.03
52755.316218,15.669,0.026
52769.268159,16.251,0.079
52769.279577,16.244,0.076
52769.291067,16.328,0.084
52769.302874,16.35,0.089
52769.314367,16.421,0.096
52794.220416,16.505,0.069
52794.230731,16.416,0.066
52794.241251,16.396,0.063
52794.251772,16.358,0.063
52794.26252,16.338,0.066
52797.219947,16.266,0.083
52797.230254,16.36,0.091
52797.240893,16.348,0.091
52797.251478,16.36,0.092
52797.261689,16.436,0.102
52813.181933,16.362,0.079
52813.191788,16.39,0.073
52813.201677,16.312,0.069
52813.211514,16.35,0.076
52813.221365,16.508,0.089
52824.176072,16.226,0.05
52824.185978,16.27,0.052
52824.205714,16.213,0.052
52824.215605,16.261,0.054
53002.506457,15.831,0.018
53002.521383,15.649,0.015
53002.535546,15.576,0.015
53006.458273,16.298,0.052
53006.470462,16.285,0.052
53006.482733,16.249,0.046
53006.495009,16.3,0.048
53006.507202,16.357,0.059
53033.403832,15.824,0.035
53033.416538,15.873,0.035
53033.428839,15.882,0.035
53033.4413,15.87,0.033
53033.453537,15.916,0.035
53053.41122,15.421,0.018
53053.423014,15.508,0.02
53053.434712,15.598,0.022
53053.447067,15.667,0.037
53053.458773,15.749,0.039
53064.36358,16.375,0.05
53064.411769,16.399,0.039
53079.367225,16.096,0.033
53079.378532,15.863,0.028
53079.389371,15.673,0.022
53079.401351,15.534,0.02
53079.412156,15.554,0.02
53089.333865,16.383,0.226
53089.344582,16.441,0.107
53110.295083,15.904,0.031
53110.305899,15.937,0.031
53110.316702,15.988,0.031
53110.327504,16.017,0.033
53110.338305,16.006,0.033
53119.297387,16.283,0.036
53119.307392,16.357,0.038
53119.318113,16.359,0.036
53119.328307,16.412,0.04
53119.33835,16.409,0.043
53138.25191,16.339,0.044
53138.261443,16.351,0.043
53138.271012,16.341,0.043
53138.280607,16.404,0.043
53138.29019,16.404,0.046
53149.209758,15.555,0.023
53149.218333,15.621,0.025
53149.22696,15.657,0.025
53149.235914,15.649,0.025
53149.24454,15.686,0.026
53166.243039,16.341,0.05
53166.252485,16.431,0.054
53166.261936,16.501,0.055
53166.271387,16.399,0.054
53166.280926,16.405,0.054
53468.390964,16.321,0.046
53468.400583,16.322,0.048
53468.410146,16.32,0.044
53468.419735,16.344,0.046
53468.429845,16.372,0.05
53497.341042,16.327,0.109
53498.250498,15.978,0.041
53498.261304,16.029,0.046
53498.272812,16.012,0.043
53503.325843,16.376,0.043
53503.334861,16.476,0.046
53503.345231,16.462,0.05
53503.356105,16.415,0.05
53503.36511,16.447,0.054
53522.21814,16.416,0.055
53522.228384,16.315,0.048
53522.238668,16.401,0.054
53522.248877,16.42,0.055
53522.259166,16.43,0.057
53528.16503,16.473,0.074
53528.176826,16.38,0.067
53528.188384,16.396,0.07
53528.199171,16.436,0.068
53528.20976,16.394,0.068
53747.473135,16.319,0.109
53747.486185,16.383,0.102
53747.499209,16.325,0.085
53747.512443,16.322,0.072
53747.525446,16.405,0.067
53790.407167,16.085,0.038
53790.419253,16.127,0.038
53790.430979,16.151,0.038
53790.442732,16.169,0.038
53790.455118,16.193,0.038
53799.350165,16.248,0.038
53799.362197,16.238,0.036
53799.374004,16.279,0.036
53799.385839,16.222,0.035
53799.397728,16.301,0.038
53818.342696,16.281,0.041
53818.354064,16.298,0.041
53818.365402,16.326,0.043
53818.376556,16.325,0.043
53818.387731,16.297,0.041
53845.297369,15.664,0.031
53845.308557,15.686,0.033
53845.319939,15.767,0.045
53845.331235,15.83,0.045
53845.342455,15.865,0.045
53851.289974,15.987,0.043
53851.300292,15.999,0.045
53851.310722,16.029,0.045
53851.321121,16.076,0.046
53851.331812,16.059,0.046
53880.215741,15.965,0.043
53880.22696,15.963,0.043
53880.238191,15.934,0.041
53880.249423,15.942,0.041
53880.260665,15.948,0.041
53885.222003,16.259,0.057
53885.234009,16.298,0.055
53885.24594,16.298,0.057
53885.257935,16.26,0.059
53885.270215,16.265,0.061
53901.227391,16.209,0.086
53901.257076,16.262,0.119
53912.177695,15.818,0.048
53912.187356,15.97,0.046
53912.206886,15.977,0.048
53937.172825,16.161,0.076
53937.182935,16.237,0.076
53937.193047,16.248,0.076
54112.500982,15.62,0.041
54112.513576,15.465,0.036
54112.52616,15.47,0.036
54152.40374,16.246,0.03
54152.415627,16.236,0.03
54152.427581,16.288,0.03
54152.439495,16.278,0.028
54152.451425,16.321,0.028
54173.324339,16.43,0.058
54173.335253,16.484,0.056
54173.345886,16.717,0.147
54173.356513,16.422,0.051
54173.367484,16.325,0.046
54185.347822,15.853,0.041
54185.358295,15.84,0.045
54185.36852,15.904,0.102
54201.288276,15.834,0.041
54201.297621,15.919,0.043
54201.306989,15.908,0.041
54201.316473,15.92,0.041
54201.325833,15.976,0.043
54478.470124,16.473,0.031
54478.483221,16.377,0.028
54478.496315,16.136,0.022
54478.5094,15.803,0.015
54558.244293,16.396,0.113
54558.25588,16.395,0.048
54558.267577,16.477,0.055
54558.279149,16.447,0.044
54558.290734,16.396,0.046
54568.292553,16.383,0.043
54568.303496,16.402,0.043
54568.314441,16.383,0.041
54568.325401,16.471,0.044
54568.336357,16.491,0.044
54580.257021,15.326,0.035
54580.26735,15.38,0.035
54580.277604,15.39,0.036
54580.287943,15.536,0.04
54580.298219,15.63,0.043
54588.29268,16.477,0.046
54588.30329,16.46,0.046
54588.313914,16.486,0.048
54588.324522,16.431,0.044
54588.33502,16.444,0.046
54591.243202,16.427,0.089
54591.252787,16.46,0.092
54591.262393,16.445,0.094
54591.271988,16.521,0.094
54591.281685,16.389,0.087
54597.254915,16.419,0.061
54597.265555,16.319,0.055
54597.276139,16.347,0.055
54597.286907,16.374,0.057
54597.297558,16.418,0.055
54611.238697,16.165,0.068
54611.246941,16.221,0.069
54611.255202,16.126,0.066
54611.26346,16.208,0.069
54611.271751,16.231,0.074
54620.219764,16.329,0.039
54620.229994,16.305,0.039
54620.240167,16.301,0.037
54620.250369,16.356,0.037
54620.260556,16.295,0.037
