mjd,m,merr
52667.477168,15.787,0.037
52667.492426,15.802,0.037
52667.507551,15.729,0.035
52667.523017,15.593,0.03
52667.53826,15.432,0.026
52676.43909,15.731,0.035
52676.455299,15.755,0.033
52676.470698,15.708,0.031
52676.489956,15.765,0.033
52676.508282,15.756,0.033
52701.381762,15.751,0.033
52701.402254,15.792,0.035
52701.415388,15.815,0.035
52701.428445,15.802,0.035
52701.441545,15.806,0.036
52707.379238,15.243,0.021
52707.392423,15.242,0.021
52707.405511,15.252,0.021
52707.419204,15.303,0.023
52707.432752,15.312,0.023
52729.305397,15.795,0.035
52729.317865,15.801,0.035
52729.329948,15.855,0.035
52729.34197,15.842,0.035
52729.35465,15.763,0.033
52732.312129,15.825,0.036
52732.324186,15.869,0.04
52732.336116,15.856,0.038
52732.348329,15.875,0.041
52732.360597,15.877,0.04
52737.374975,15.858,0.03
52737.392252,15.915,0.03
52737.404341,15.909,0.031
52737.417072,15.895,0.033
52737.42944,15.914,0.033
52756.262086,15.306,0.025
52756.274178,15.334,0.025
52756.286512,15.344,0.025
52756.298604,15.358,0.026
52756.310727,15.415,0.026
52761.258265,15.808,0.031
52761.264462,15.8,0.036
52761.270047,15.86,0.031
52761.277378,15.825,0.036
52761.281731,15.821,0.031
52761.289279,15.781,0.035
52761.293546,15.808,0.03
52761.301438,15.745,0.033
52761.305352,15.742,0.03
52761.313332,15.704,0.035
52766.286131,15.721,0.044
52766.298183,15.698,0.046
52768.267752,15.383,0.028
52768.279875,15.408,0.028
52768.291961,15.387,0.028
52768.30384,15.362,0.026
52768.315725,15.407,0.028
52792.22449,15.268,0.028
52792.235216,15.312,0.03
52792.246343,15.335,0.03
52792.257086,15.376,0.031
52792.267789,15.415,0.031
52793.256719,15.268,0.028
52793.267087,15.312,0.03
52793.277382,15.335,0.03
52793.288134,15.376,0.031
52793.298706,15.415,0.031
52819.214469,15.9,0.068
52824.177421,15.659,0.04
52824.187318,15.742,0.041
52824.197295,15.754,0.045
52824.207371,15.785,0.045
52824.217309,15.745,0.045
53033.453528,15.672,0.028
53033.465605,15.791,0.03
53033.477616,15.738,0.03
53033.489792,15.778,0.03
53033.502049,15.813,0.031
53034.458234,15.391,0.024
53034.470747,15.349,0.024
53034.483066,15.375,0.024
53034.495624,15.488,0.024
53054.438049,15.645,0.024
53054.454019,15.643,0.024
53054.465898,15.628,0.026
53054.478902,15.739,0.026
53054.491548,15.724,0.026
53062.400821,15.653,0.093
53062.412177,15.706,0.05
53062.434965,15.623,0.03
53080.345016,15.879,0.03
53080.355958,15.807,0.028
53080.368036,15.671,0.024
53080.379447,15.503,0.02
53080.390459,15.246,0.017
53087.350679,15.478,0.016
53087.361594,15.51,0.016
53087.372659,15.518,0.016
53087.384469,15.55,0.018
53089.343013,15.832,0.03
53089.388771,15.797,0.038
53089.416279,15.793,0.026
53089.427149,15.785,0.025
53089.439442,15.649,0.023
53090.392189,15.853,0.038
53090.402615,15.857,0.031
53090.434617,15.904,0.049
53092.37629,15.326,0.016
53092.388749,15.332,0.017
53092.395887,15.375,0.018
53092.405714,15.408,0.018
53092.415609,15.407,0.018
53093.379504,15.772,0.02
53093.381193,15.784,0.02
53093.389973,15.749,0.018
53093.391086,15.774,0.02
53093.400661,15.674,0.018
53093.401059,15.714,0.02
53093.411441,15.569,0.017
53093.412994,15.584,0.016
53093.422045,15.487,0.015
53111.292601,15.613,0.028
53111.303403,15.624,0.03
53111.314235,15.598,0.028
53111.325054,15.708,0.03
53111.336043,15.667,0.028
53118.309652,15.902,0.025
53118.320357,15.892,0.025
53118.33093,15.885,0.025
53118.341515,15.845,0.025
53118.352045,15.864,0.025
53139.249817,15.736,0.031
53139.259305,15.776,0.031
53139.268805,15.739,0.03
53139.278271,15.761,0.03
53139.287742,15.757,0.03
53148.285973,15.676,0.028
53148.29464,15.65,0.026
53148.303374,15.654,0.028
53148.312024,15.741,0.028
53148.324312,15.72,0.03
53169.221383,15.472,0.022
53169.231329,15.49,0.024
53169.241326,15.484,0.024
53169.251252,15.52,0.026
53169.261183,15.576,0.026
53175.238177,15.88,0.036
53175.259222,15.824,0.056
53404.447549,15.618,0.051
53404.473427,15.542,0.049
53404.486549,15.468,0.046
53404.499472,15.435,0.045
53440.481061,15.657,0.031
53440.492197,15.633,0.03
53440.502719,15.617,0.031
53478.368449,15.497,0.037
53478.378069,15.426,0.033
53478.387138,15.421,0.033
53478.396152,15.376,0.03
53478.405166,15.393,0.03
53496.252132,15.59,0.033
53496.262161,15.633,0.033
53496.272246,15.645,0.033
53496.282348,15.667,0.035
53496.292408,15.681,0.035
53527.215502,15.728,0.037
53527.225343,15.701,0.037
53527.23519,15.618,0.035
53527.245158,15.631,0.035
53527.255039,15.562,0.035
53556.174361,15.899,0.043
53556.184867,15.885,0.041
53556.195492,15.848,0.039
53556.206324,15.855,0.039
53556.21684,15.884,0.041
53746.47168,15.631,0.048
53746.484375,15.669,0.046
53746.496831,15.658,0.041
53746.509259,15.728,0.037
53746.521784,15.701,0.033
53791.415712,15.792,0.03
53791.427615,15.667,0.03
53791.439481,15.81,0.031
53791.451422,15.812,0.033
53791.463373,15.838,0.035
53815.348504,15.782,0.059
53815.35964,15.786,0.057
53815.370802,15.812,0.061
53815.381966,15.856,0.065
53815.393133,15.856,0.054
53817.325337,15.417,0.025
53817.348417,15.481,0.025
53817.360421,15.484,0.025
53846.290349,15.136,0.021
53846.301043,15.116,0.021
53846.311649,15.123,0.021
53846.322332,15.164,0.021
53846.332904,15.18,0.021
53850.293616,15.142,0.023
53850.304187,15.224,0.025
53850.314869,15.262,0.025
53850.325411,15.31,0.025
53850.335933,15.3,0.025
53884.223936,15.863,0.044
53884.23552,15.855,0.044
53884.247083,15.892,0.046
53884.258679,15.893,0.044
53884.270269,15.877,0.044
53901.227169,15.742,0.065
54155.41295,15.811,0.03
54155.424791,15.826,0.028
54155.436654,15.862,0.028
54155.448634,15.878,0.03
54155.460559,15.832,0.028
54156.383004,15.663,0.026
54156.401017,15.69,0.022
54156.413026,15.71,0.022
54156.424569,15.698,0.022
54156.436132,15.736,0.022
54174.329919,15.736,0.048
54174.340588,15.765,0.041
54174.351329,15.696,0.036
54174.362154,15.609,0.04
54174.372963,15.57,0.028
54179.387809,15.858,0.038
54179.39315,15.901,0.03
54179.393369,15.847,0.03
54179.398549,15.859,0.04
54179.404246,15.88,0.03
54179.404376,15.89,0.03
54179.409301,15.879,0.04
54179.41532,15.893,0.028
54179.415449,15.866,0.028
54179.419889,15.903,0.04
54179.420009,15.943,0.043
54179.426609,15.887,0.03
54179.426783,15.864,0.03
54179.430629,15.894,0.04
54179.437955,15.89,0.03
54179.438083,15.899,0.03
54180.335585,15.779,0.031
54180.345894,15.76,0.03
54180.356201,15.75,0.03
54180.366826,15.821,0.031
54180.3772,15.791,0.035
54200.310259,15.746,0.045
54200.319941,15.772,0.045
54200.32935,15.738,0.041
54200.338947,15.769,0.043
54200.348325,15.751,0.045
54476.469234,15.52,0.018
54476.482142,15.591,0.018
54476.495053,15.518,0.017
54476.507952,15.555,0.018
54484.477931,15.49,0.028
54484.490801,15.578,0.024
54484.503654,15.553,0.022
54484.51659,15.635,0.024
54533.388884,15.618,0.015
54533.400358,15.648,0.017
54533.411888,15.625,0.017
54533.4231,15.675,0.017
54533.434516,15.724,0.017
54539.324473,15.8,0.024
54539.335352,15.865,0.024
54539.346218,15.826,0.02
54539.3571,15.715,0.018
54539.3681,15.644,0.017
54567.293938,15.279,0.017
54567.305128,15.274,0.017
54567.316397,15.236,0.015
54567.327568,15.25,0.015
54567.338724,15.278,0.015
54568.351228,15.873,0.041
54568.362249,15.853,0.041
54568.373143,15.819,0.04
54568.38404,15.792,0.04
54568.394863,15.608,0.035
54580.295726,15.788,0.043
54580.306347,15.681,0.039
54580.316961,15.609,0.035
54580.327565,15.493,0.031
54580.338165,15.408,0.028
54587.301069,15.512,0.024
54587.311456,15.585,0.024
54587.321764,15.585,0.024
54587.332061,15.615,0.026
54587.342446,15.617,0.026
54590.247628,15.656,0.051
54590.257811,15.667,0.051
54590.277715,15.704,0.066
54590.288269,15.715,0.061
54595.250858,15.584,0.026
54595.260839,15.598,0.026
54595.27079,15.604,0.024
54595.280769,15.573,0.024
54595.290733,15.651,0.024
54611.255877,15.606,0.02
54611.265717,15.627,0.03
54611.275515,15.631,0.039
54611.285313,15.675,0.057
54611.295077,15.67,0.028
54619.214554,15.639,0.026
54619.224786,15.617,0.039
54619.235091,15.635,0.039
54619.245365,15.696,0.028
54619.255754,15.674,0.028
