mjd,m,merr
52705.371749,16.802,0.099
52705.372351,16.94,0.109
52705.384784,16.818,0.101
52705.387852,16.873,0.094
52705.397824,16.927,0.111
52705.398424,16.656,0.084
52705.401234,16.797,0.087
52705.410856,16.816,0.102
52705.411457,16.99,0.114
52705.414378,16.836,0.093
52705.424064,16.827,0.106
52705.424664,17.078,0.129
52705.42808,16.868,0.096
52705.441344,16.901,0.098
52709.439506,16.464,0.079
52709.440347,16.468,0.074
52709.452641,16.251,0.066
52709.453478,16.365,0.071
52709.465696,16.181,0.066
52709.466537,16.276,0.069
52709.478755,16.093,0.059
52709.479599,16.206,0.063
52709.491916,15.93,0.053
52709.49276,16.272,0.069
52729.349332,16.978,0.094
52729.360844,16.916,0.089
52729.372398,16.976,0.098
52729.383864,17.01,0.104
52729.39535,16.884,0.094
52735.313025,16.188,0.069
52735.31314,16.209,0.066
52735.324858,16.319,0.076
52735.324972,16.289,0.069
52735.336999,16.272,0.078
52735.337114,16.243,0.071
52735.3488,16.351,0.079
52735.348935,16.295,0.071
52735.360642,16.449,0.086
52735.360757,16.406,0.078
52741.306183,16.693,0.135
52741.306297,16.73,0.137
52741.318616,16.696,0.135
52741.318731,16.655,0.124
52741.330508,16.909,0.158
52741.330622,16.676,0.125
52741.343618,16.673,0.124
52741.355645,16.708,0.216
52759.264462,16.526,0.065
52759.276414,16.525,0.065
52759.288374,16.568,0.068
52759.30034,16.623,0.074
52759.312333,16.676,0.08
52760.270619,16.555,0.078
52760.270964,16.713,0.086
52760.282637,16.655,0.092
52760.282982,16.621,0.089
52760.294864,16.781,0.101
52760.29521,16.663,0.086
52760.306872,16.668,0.091
52760.307218,16.704,0.091
52760.318889,16.715,0.097
52760.319235,16.665,0.091
52765.274245,16.814,0.096
52765.274587,16.892,0.099
52815.176769,16.112,0.076
52815.187299,16.067,0.069
52815.197474,16.244,0.089
52815.207675,16.262,0.102
52815.217834,16.438,0.109
52817.172195,16.417,0.102
52817.1926,16.569,0.127
52817.202737,16.489,0.125
52822.175902,16.625,0.107
52822.186042,16.695,0.12
52822.216143,16.504,0.134
53058.414985,16.802,0.064
53058.451918,16.812,0.063
53058.464251,16.827,0.058
53061.409342,16.943,0.083
53061.421101,16.947,0.079
53061.43301,16.985,0.078
53061.44482,17.072,0.134
53061.456849,16.925,0.081
53081.427182,16.692,0.072
53081.438084,16.58,0.065
53081.448858,16.399,0.057
53081.459636,16.242,0.052
53081.47054,16.125,0.046
53083.408174,16.302,0.036
53083.419127,16.084,0.031
53083.430409,16.063,0.038
53083.441924,16.127,0.035
53083.452861,16.153,0.036
53085.451742,16.495,0.112
53085.463892,16.48,0.122
53090.369163,16.504,0.081
53090.380246,16.634,0.087
53112.320607,16.544,0.085
53112.331442,16.654,0.102
53112.342183,16.576,0.117
53114.361845,16.846,0.069
53114.372683,16.713,0.061
53114.408811,16.843,0.084
53116.358892,16.877,0.066
53116.36952,16.739,0.063
53116.404678,16.731,0.068
53120.287285,17.016,0.091
53120.297189,16.858,0.076
53120.317336,16.885,0.078
53140.248121,16.768,0.094
53140.25769,16.856,0.1
53140.267195,16.918,0.107
53140.276703,16.801,0.098
53140.286229,16.806,0.094
53142.343404,16.014,0.076
53144.310326,15.972,0.048
53144.319601,16.035,0.054
53144.328878,16.143,0.054
53144.338152,16.22,0.081
53144.347549,16.301,0.104
53167.171063,16.128,0.066
53167.202159,16.33,0.074
53171.17708,16.387,0.063
53171.186863,16.462,0.068
53171.20673,16.608,0.069
53171.21648,16.397,0.056
53173.17711,16.625,0.057
53173.187871,16.661,0.055
53173.198095,16.626,0.061
53173.208369,16.675,0.063
53173.218597,16.666,0.065
53383.483955,16.459,0.094
53383.496821,16.654,0.107
53383.509652,16.613,0.1
53383.52288,16.66,0.096
53383.536165,16.71,0.102
53436.370644,16.68,0.08
53436.38233,16.505,0.067
53436.393578,16.336,0.057
53436.405448,16.186,0.05
53436.416711,16.141,0.048
53437.406269,16.15,0.063
53437.417566,16.254,0.102
53437.428895,16.315,0.087
53437.440185,16.258,0.061
53437.456906,16.373,0.068
53466.404464,16.883,0.105
53466.414017,16.967,0.115
53466.424411,16.898,0.109
53466.434059,16.827,0.107
53466.443653,16.777,0.107
53792.471883,16.61,0.185
53792.483862,16.649,0.146
53792.495835,16.555,0.154
53802.412582,16.73,0.117
53802.424072,16.822,0.102
53802.435561,16.918,0.113
53802.447059,16.767,0.102
53824.454263,16.187,0.063
53824.465223,16.191,0.061
53824.476193,16.099,0.07
53831.337017,16.329,0.07
53831.346794,16.364,0.07
53831.356861,16.314,0.067
53831.37691,16.478,0.074
53846.352796,16.628,0.107
53846.363744,16.419,0.089
53846.375932,16.306,0.087
53846.389149,16.12,0.08
53846.400933,16.055,0.078
53851.34528,16.522,0.091
53851.355461,16.589,0.096
53851.365881,16.584,0.096
53851.375855,16.716,0.109
53851.385819,16.618,0.107
53857.37637,16.693,0.163
53857.397269,17.177,0.333
54153.442186,16.928,0.253
54153.47808,16.997,0.218
54153.489917,16.993,0.154
54174.378926,16.846,0.135
54174.400501,16.793,0.102
54174.411437,16.912,0.118
54174.422179,16.821,0.1
54177.40374,16.82,0.087
54177.415513,16.91,0.098
54177.427199,16.824,0.13
54179.39163,16.859,0.114
54179.402445,16.671,0.096
54179.413357,16.501,0.081
54179.423861,16.231,0.064
54179.434915,16.102,0.058
54180.394863,16.236,0.05
54180.405506,16.024,0.043
54180.416386,15.94,0.039
54180.426774,15.934,0.039
54180.437471,16.009,0.043
54205.361299,16.492,0.054
54205.370703,16.55,0.067
54205.380088,16.538,0.063
54205.389529,16.636,0.068
54205.399034,16.645,0.063
54208.352514,16.752,0.081
54208.361675,16.759,0.081
54208.370827,16.762,0.087
54208.379985,16.772,0.087
54208.38915,16.82,0.102
54212.32281,16.855,0.096
54212.332172,16.725,0.083
54212.34145,16.835,0.093
54212.350825,16.826,0.091
54212.360164,16.839,0.093
54481.475482,16.44,0.081
54481.488665,16.479,0.126
54481.501848,16.635,0.068
54498.463555,16.444,0.048
54498.476388,16.517,0.052
54498.489176,16.547,0.052
54498.501971,16.532,0.052
54498.51482,16.599,0.055
54506.455229,16.766,0.065
54506.46786,16.825,0.068
54506.480326,16.828,0.067
54506.492787,16.805,0.063
54506.50529,16.834,0.061
54527.4418,16.819,0.068
54527.45348,16.859,0.076
54527.465225,16.885,0.081
54527.476767,16.804,0.078
54535.392057,16.026,0.026
54535.403442,16.072,0.028
54535.414804,16.184,0.031
54535.426182,16.228,0.033
54535.437561,16.283,0.035
54540.390201,16.619,0.048
54540.401689,16.671,0.046
54540.412982,16.607,0.044
54540.424349,16.805,0.055
54540.435535,16.694,0.052
54561.360111,16.67,0.05
54561.371812,16.715,0.054
54561.383517,16.754,0.054
54561.395229,16.816,0.057
54561.407087,16.764,0.067
54571.305507,16.9,0.122
54571.316694,16.997,0.131
54571.327884,16.777,0.105
54571.339038,16.686,0.096
54571.350197,16.597,0.089
54583.354646,16.85,0.122
54583.365703,16.814,0.12
54583.37672,16.896,0.137
54583.387771,16.873,0.141
54583.398749,16.934,0.155
54590.351583,16.849,0.133
54590.362408,16.544,0.109
54590.372899,16.258,0.081
