mjd,m,merr
52653.45949,16.416,0.051
52653.474247,16.332,0.049
52653.48962,16.348,0.048
52653.505014,16.449,0.054
52653.520537,16.656,0.061
52684.431494,16.39,0.073
52684.446672,16.301,0.066
52684.461463,16.42,0.201
52684.476256,16.43,0.116
52693.415826,16.277,0.048
52693.43225,16.304,0.05
52693.447825,16.326,0.052
52693.463172,16.495,0.059
52693.478652,16.684,0.072
52721.313047,16.477,0.054
52721.325619,16.357,0.048
52721.338242,16.346,0.048
52721.35083,16.318,0.046
52721.363596,16.326,0.046
52750.28813,16.289,0.07
52750.298737,16.346,0.061
52750.309332,16.35,0.055
52750.319934,16.447,0.065
52750.330534,16.68,0.085
52781.220786,16.886,0.092
52781.231826,16.634,0.071
52781.243154,16.477,0.063
52781.254248,16.337,0.058
52781.265473,16.336,0.056
52801.216964,16.45,0.176
52801.227084,16.269,0.146
52801.237354,16.343,0.154
52801.247419,16.381,0.157
52801.257574,16.249,0.141
52809.219989,16.52,0.059
52809.229867,16.6,0.065
52809.239659,16.743,0.074
52809.249629,16.848,0.081
52809.259503,16.813,0.08
52830.172677,16.253,0.083
52830.182491,16.281,0.083
52830.192321,16.226,0.083
52830.202205,16.273,0.085
52830.211995,16.376,0.093
52845.160777,16.155,0.077
52845.170617,16.228,0.07
52845.190346,16.199,0.069
52845.200161,16.305,0.071
52988.422821,16.407,0.099
52988.440174,16.543,0.101
52988.460161,17.058,0.144
52988.473153,16.623,0.104
53008.498237,16.519,0.059
53008.512376,16.535,0.059
53008.529119,16.79,0.071
53038.443046,16.594,0.104
53038.45597,16.46,0.081
53038.481554,16.784,0.117
53038.498514,17.041,0.133
53045.378181,16.323,0.07
53045.389424,16.36,0.072
53045.400753,16.419,0.074
53045.412011,16.572,0.087
53045.423197,16.814,0.107
53096.326327,16.225,0.076
53096.336561,16.353,0.085
53096.346979,16.283,0.076
53096.357671,16.416,0.085
53096.36839,16.509,0.089
53108.304652,16.917,0.068
53108.315537,16.675,0.055
53108.326537,16.503,0.048
53108.337484,16.408,0.043
53108.348404,16.301,0.039
53125.24904,16.342,0.093
53125.258887,16.26,0.085
53125.268826,16.289,0.08
53125.278731,16.236,0.089
53125.288592,16.336,0.085
53134.246637,16.295,0.05
53134.256123,16.372,0.048
53134.265547,16.416,0.052
53134.274969,16.528,0.057
53134.284411,16.637,0.065
53155.251287,16.216,0.076
53155.260037,16.347,0.091
53155.268843,16.481,0.105
53155.27763,16.654,0.122
53155.286389,16.774,0.137
53163.252214,16.913,0.405
53163.262376,16.492,0.157
53193.179502,16.506,0.061
53193.189498,16.803,0.198
53193.199473,16.893,0.087
53193.209517,16.898,0.091
53193.21951,16.646,0.074
53214.161149,16.308,0.111
53244.132633,16.403,0.093
53244.142813,16.447,0.098
53244.153016,16.647,0.124
53244.163203,16.752,0.137
53244.173405,16.702,0.139
53359.487943,16.71,0.067
53359.500748,16.503,0.055
53359.513521,16.433,0.054
53359.526654,16.366,0.05
53362.510818,16.517,0.063
53362.525356,16.893,0.089
53362.539504,17.002,0.115
53390.409094,16.4,0.065
53390.422267,16.52,0.076
53390.438067,16.704,0.078
53390.451183,17.007,0.091
53390.464318,16.766,0.072
53429.335195,16.395,0.065
53429.346411,16.361,0.065
53429.357683,16.508,0.072
53429.368963,16.643,0.081
53429.380242,16.825,0.094
53461.334489,16.318,0.048
53461.344789,16.362,0.05
53461.355322,16.391,0.052
53461.365689,16.473,0.055
53461.376606,16.668,0.068
53489.251039,16.339,0.061
53489.261266,16.399,0.057
53489.273714,16.508,0.111
53535.21943,16.335,0.059
53535.229446,16.295,0.055
53535.239458,16.359,0.059
53535.24948,16.387,0.059
53535.259497,16.592,0.072
53563.172833,16.627,0.231
53599.142894,16.314,0.093
53599.15552,16.591,0.13
53599.180712,16.624,0.137
53599.193314,16.506,0.133
53607.12681,16.891,0.094
53607.138401,16.889,0.174
53607.149857,16.553,0.148
53607.161282,16.459,0.065
53725.470454,16.496,0.07
53725.48348,16.847,0.096
53725.496627,16.751,0.085
53725.51025,16.555,0.068
53725.523976,16.426,0.059
53755.407135,16.275,0.063
53755.420019,16.352,0.067
53755.433372,16.521,0.076
53755.44608,16.736,0.091
53755.458987,16.728,0.089
53775.445331,16.651,0.12
53775.466939,16.517,0.142
53775.470975,16.813,0.198
53775.481045,16.29,0.134
53775.495121,16.435,0.177
53775.50935,16.615,0.181
53803.349817,16.678,0.083
53803.361811,16.578,0.076
53803.373769,16.351,0.061
53803.386012,16.345,0.058
53803.397821,16.319,0.054
53807.36552,16.28,0.078
53807.37781,16.297,0.081
53807.389775,16.374,0.086
53829.278526,16.117,0.073
53833.278152,16.36,0.056
53833.289226,16.507,0.064
53833.299675,16.747,0.079
53833.310224,16.783,0.081
53858.250111,16.37,0.091
53858.260579,16.517,0.086
53858.270735,16.766,0.109
53858.280892,16.833,0.117
53858.291211,16.688,0.074
53864.255664,16.339,0.102
53864.275045,16.666,0.139
53864.284599,16.699,0.142
53876.235956,16.424,0.061
53876.246566,16.337,0.058
53905.215812,16.278,0.051
53905.225719,16.349,0.054
53905.23545,16.309,0.054
53905.245148,16.395,0.059
53905.258262,16.719,0.083
53933.168528,16.573,0.038
53933.17882,16.792,0.051
53933.18947,16.796,0.059
53933.19973,16.704,0.061
53933.210092,16.652,0.073
53955.150273,16.391,0.135
53955.162493,16.424,0.144
53955.174748,16.557,0.17
53955.186987,16.913,0.25
53955.199077,16.975,0.276
54079.425277,16.555,0.124
54079.437117,16.571,0.122
54079.448957,16.511,0.105
54079.460865,16.628,0.115
54079.472709,16.742,0.117
54108.395998,16.469,0.083
54108.408858,16.773,0.107
54108.421681,16.967,0.131
54108.434313,16.74,0.102
54108.446938,16.498,0.081
54139.385791,16.572,0.129
54139.397508,16.825,0.15
54139.409062,16.701,0.15
54139.421793,16.463,0.117
54139.433802,16.372,0.127
54157.383786,16.238,0.056
54157.395119,16.231,0.054
54157.406078,16.32,0.056
54157.417046,16.331,0.054
54157.428004,16.458,0.061
54167.342971,16.654,0.109
54167.354726,16.455,0.087
54167.365866,16.477,0.089
54465.453507,16.755,0.107
54465.46588,16.861,0.116
54465.478879,17.01,0.127
54465.491248,16.788,0.104
54465.503883,16.627,0.091
54483.448786,16.452,0.066
54483.474636,16.398,0.063
54483.486796,16.5,0.071
54483.498942,16.632,0.078
54496.477449,16.762,0.084
54496.489885,16.522,0.069
54496.501693,16.502,0.066
54496.513772,16.354,0.058
54496.525889,16.371,0.058
54524.389268,16.68,0.064
54524.400777,16.479,0.058
54524.412401,16.426,0.054
54524.42387,16.357,0.053
54524.435904,16.26,0.048
54539.319103,16.337,0.054
54539.329509,16.492,0.056
54539.339924,16.646,0.064
54539.350434,16.713,0.066
54539.361051,16.754,0.066
54571.294744,16.349,0.076
54571.306183,16.284,0.069
54571.317303,16.322,0.069
54571.32807,16.455,0.079
54571.338933,16.371,0.071
