mjd,m,merr
52646.484239,15.846,0.041
52646.499455,15.837,0.038
52646.514378,15.824,0.036
52646.529262,15.869,0.04
52667.477694,15.879,0.041
52667.492951,15.976,0.043
52667.508077,16.025,0.043
52667.523545,16.1,0.044
52667.538886,15.993,0.041
52676.440201,15.636,0.031
52676.456409,15.556,0.028
52676.471815,15.424,0.024
52676.491074,15.422,0.024
52676.509402,15.554,0.024
52707.379474,15.738,0.033
52707.392662,15.785,0.033
52707.405748,15.836,0.036
52707.419441,15.792,0.035
52707.432989,15.84,0.036
52710.377536,15.987,0.041
52710.390709,16.01,0.04
52710.403798,16.014,0.038
52710.416838,16.062,0.04
52710.42991,16.065,0.041
52737.375394,15.274,0.017
52737.392482,15.298,0.017
52737.40465,15.348,0.018
52737.417303,15.321,0.02
52737.429671,15.434,0.022
52756.262311,15.984,0.045
52756.274403,15.997,0.045
52756.286736,16.019,0.046
52756.298964,16.012,0.045
52756.310951,16.002,0.045
52761.264687,15.672,0.031
52761.277604,15.671,0.031
52761.289504,15.696,0.033
52761.301664,15.68,0.035
52761.313558,15.729,0.035
52764.261237,15.907,0.035
52764.273205,15.978,0.035
52764.285232,15.965,0.036
52764.297315,15.962,0.036
52764.309217,15.97,0.036
52768.268554,15.752,0.041
52768.280664,15.676,0.039
52768.292838,15.755,0.037
52768.304673,15.677,0.037
52768.316522,15.844,0.037
52792.225145,15.887,0.045
52792.235872,15.975,0.053
52792.247004,15.857,0.048
52792.257742,15.906,0.049
52792.268548,15.875,0.048
52793.257275,15.887,0.045
52793.267643,15.975,0.053
52793.277929,15.857,0.048
52793.288686,15.906,0.049
52793.299327,15.875,0.048
52819.214658,15.479,0.041
52824.177608,16.08,0.054
52824.187503,16.08,0.056
52824.19748,16.115,0.066
52824.207558,16.083,0.058
52824.217492,16.072,0.058
53033.454268,15.832,0.031
53033.466345,16.012,0.033
53033.478355,15.854,0.033
53033.490532,16.003,0.033
53033.502788,16.048,0.035
53054.438493,16.018,0.03
53054.454463,15.987,0.03
53054.466342,16.033,0.031
53054.479346,15.927,0.033
53054.491991,16.029,0.031
53062.40135,15.994,0.104
53062.412705,15.871,0.076
53062.424099,15.834,0.098
53062.435493,15.844,0.033
53062.446987,15.87,0.122
53080.345744,15.793,0.026
53080.356689,15.74,0.024
53080.368767,15.79,0.026
53080.380206,15.751,0.026
53080.391187,15.759,0.026
53087.351211,15.844,0.021
53087.362125,15.877,0.021
53087.37399,15.918,0.023
53087.385,15.879,0.023
53087.395894,15.905,0.023
53089.343543,16.008,0.064
53089.389302,16.03,0.046
53089.405312,16.027,0.102
53111.293096,15.867,0.039
53111.303899,15.879,0.039
53111.314745,15.856,0.037
53111.32555,15.882,0.037
53111.33654,15.935,0.037
53119.296597,15.798,0.024
53119.307031,15.931,0.026
53119.317525,15.785,0.026
53119.328029,15.938,0.026
53119.33845,15.819,0.028
53139.250182,16.047,0.041
53139.259669,16.065,0.039
53139.269169,16.052,0.037
53139.278636,16.013,0.037
53139.288107,16.016,0.037
53149.250782,15.529,0.02
53149.259713,15.578,0.02
53149.268635,15.6,0.02
53149.277558,15.597,0.02
53149.286483,15.606,0.022
53169.221557,15.926,0.031
53169.231504,15.938,0.035
53169.241501,15.958,0.035
53169.251426,15.974,0.035
53169.261358,15.998,0.037
53440.481813,15.678,0.031
53440.492948,15.71,0.031
53440.503471,15.732,0.031
53478.368664,15.773,0.048
53478.378284,15.738,0.044
53478.387354,15.83,0.048
53478.396367,15.77,0.044
53478.405382,15.886,0.044
53496.25274,15.794,0.039
53496.26277,15.631,0.035
53496.272854,15.822,0.037
53496.282973,15.846,0.039
53496.293014,15.856,0.039
53527.216032,15.995,0.044
53527.225874,15.953,0.048
53527.235721,15.985,0.044
53527.245688,15.874,0.046
53527.25557,15.924,0.048
53791.416441,15.488,0.021
53791.428347,15.524,0.023
53791.440214,15.591,0.025
53791.452156,15.604,0.025
53791.464101,15.657,0.028
53815.39429,15.818,0.055
53815.405427,15.852,0.055
53815.416695,15.934,0.052
53815.428042,15.894,0.054
53815.439352,15.945,0.055
53817.326178,16.104,0.041
53817.337783,16.095,0.041
53817.349261,16.093,0.04
53817.361261,16.14,0.041
53850.294414,16.072,0.048
53850.30498,16.26,0.058
53850.315658,16.108,0.049
53850.326204,16.152,0.051
53850.336729,16.089,0.048
53884.224127,15.503,0.031
53884.235714,15.558,0.031
53884.247278,15.604,0.035
53884.258874,15.626,0.035
53884.270462,15.66,0.035
53901.227906,15.925,0.065
53901.247926,15.891,0.093
53901.257929,16.054,0.098
53911.234946,15.943,0.122
54155.413849,15.954,0.031
54155.425691,15.966,0.03
54155.437553,15.934,0.03
54155.449537,15.975,0.031
54155.46146,15.997,0.031
54156.383886,15.747,0.024
54156.401902,15.814,0.022
54156.413913,15.869,0.022
54156.425458,15.844,0.022
54156.437022,15.87,0.022
54174.330184,15.742,0.04
54174.340853,15.761,0.04
54174.351594,15.806,0.04
54174.362418,15.807,0.048
54179.387689,15.895,0.04
54179.39315,15.869,0.031
54179.398429,15.843,0.04
54179.404246,15.822,0.03
54179.40918,15.817,0.038
54179.41532,15.758,0.026
54179.419889,15.746,0.035
54179.426609,15.684,0.026
54179.430509,15.673,0.033
54179.437955,15.629,0.026
54180.336385,15.994,0.035
54180.346694,16.014,0.035
54180.357001,16.013,0.035
54180.367622,16.069,0.04
54180.377998,15.998,0.038
54200.311074,15.732,0.046
54200.320762,15.694,0.043
54200.330371,15.657,0.04
54200.339763,15.644,0.041
54200.349139,15.677,0.043
54477.464889,16.102,0.033
54477.47785,16.097,0.031
54477.490768,16.125,0.031
54477.503842,16.151,0.03
54477.51678,16.119,0.028
54484.466049,15.988,0.043
54484.479128,15.939,0.039
54484.491996,16.002,0.031
54484.504846,15.906,0.028
54484.517786,15.759,0.024
54533.389251,15.6,0.015
54533.400724,15.618,0.015
54533.412255,15.746,0.015
54533.423466,15.76,0.015
54533.434883,15.674,0.015
54539.325442,15.917,0.024
54539.33632,15.864,0.022
54539.347178,15.886,0.022
54539.358067,15.885,0.02
54539.369071,15.905,0.02
54567.294798,16.019,0.03
54567.30598,16.024,0.03
54567.317254,15.95,0.028
54567.328424,15.973,0.028
54567.339584,15.997,0.028
54580.29598,15.394,0.031
54580.306602,15.467,0.031
54580.317217,15.474,0.03
54580.32782,15.549,0.031
54580.33842,15.573,0.033
54587.301308,15.521,0.022
54587.311696,15.602,0.024
54587.322003,15.587,0.024
54587.3323,15.613,0.024
54587.342687,15.664,0.026
54595.251088,16.004,0.041
54595.261069,16.072,0.039
54595.271025,16.096,0.037
54595.280999,16.011,0.035
54595.290964,16.068,0.035
54611.256642,15.89,0.028
54611.266479,15.936,0.03
54611.276271,15.953,0.033
54611.286073,15.932,0.033
54611.295834,15.895,0.035
54619.214759,15.634,0.039
54619.224991,15.576,0.031
54619.235298,15.634,0.035
54619.245572,15.601,0.026
54619.255959,15.639,0.026
