mjd,m,merr
52646.484369,15.524,0.033
52646.499584,15.512,0.03
52646.514507,15.532,0.03
52646.529391,15.426,0.028
52667.477824,15.23,0.022
52667.493081,15.215,0.022
52667.508208,15.219,0.02
52667.523676,15.246,0.022
52667.539016,15.271,0.022
52676.43995,15.281,0.024
52676.456161,15.265,0.022
52676.471566,15.247,0.02
52676.490823,15.22,0.02
52676.509151,15.226,0.02
52701.382235,15.26,0.021
52701.402727,15.287,0.021
52701.415859,15.293,0.021
52701.428918,15.33,0.023
52701.442016,15.344,0.023
52707.379954,15.412,0.023
52707.393143,15.352,0.023
52707.406228,15.336,0.021
52707.419919,15.316,0.021
52707.433468,15.3,0.023
52729.355367,15.386,0.023
52729.367529,15.315,0.021
52729.379444,15.301,0.021
52729.391336,15.281,0.021
52729.403566,15.269,0.021
52732.361852,15.268,0.023
52732.373895,15.311,0.025
52732.38584,15.29,0.025
52732.398128,15.352,0.025
52732.410219,15.353,0.025
52737.375596,15.229,0.017
52737.392603,15.225,0.017
52737.40477,15.242,0.018
52737.417424,15.276,0.018
52737.429791,15.31,0.02
52756.262536,15.473,0.028
52756.274629,15.5,0.028
52756.286961,15.488,0.03
52756.299192,15.502,0.028
52756.311175,15.498,0.028
52761.264912,15.382,0.025
52761.277829,15.445,0.026
52761.289729,15.458,0.026
52761.301888,15.477,0.026
52761.313783,15.464,0.026
52768.268437,15.359,0.028
52768.280552,15.31,0.026
52768.292726,15.321,0.026
52768.304554,15.297,0.024
52768.31641,15.286,0.024
52792.225253,16.181,0.061
52792.23598,16.246,0.068
52792.247113,16.279,0.064
52792.25785,16.278,0.064
52792.268656,16.161,0.058
52793.257371,16.181,0.061
52793.267738,16.246,0.068
52793.278023,16.279,0.064
52793.28878,16.278,0.064
52793.299423,16.161,0.058
52819.214753,15.383,0.041
52824.177511,15.879,0.046
52824.187408,15.921,0.048
52824.197385,16.149,0.066
52824.207462,16.056,0.056
52824.217398,16.058,0.054
53001.461661,15.507,0.024
53001.461846,15.512,0.02
53001.475057,15.521,0.022
53001.475241,15.505,0.018
53001.488078,15.53,0.02
53001.488263,15.513,0.018
53001.502327,15.551,0.02
53001.502511,15.566,0.018
53001.515459,15.576,0.02
53001.515643,15.55,0.017
53033.45436,15.334,0.02
53033.466438,15.373,0.022
53033.478447,15.367,0.022
53033.490625,15.42,0.022
53033.50288,15.424,0.022
53054.438603,15.485,0.02
53054.454575,15.472,0.02
53054.466453,15.474,0.02
53054.479458,15.457,0.02
53054.492103,15.396,0.018
53062.401526,15.422,0.087
53062.412881,15.471,0.061
53062.424275,15.427,0.067
53062.43567,15.363,0.026
53062.447163,15.353,0.089
53080.345534,15.552,0.022
53080.356479,15.554,0.022
53080.368557,15.549,0.022
53080.379997,15.511,0.02
53080.390977,15.544,0.022
53087.351378,15.251,0.013
53087.362296,15.233,0.013
53087.374158,15.249,0.013
53087.385168,15.264,0.013
53087.396065,15.245,0.013
53089.343712,15.574,0.051
53089.389472,15.543,0.033
53111.293196,15.458,0.024
53111.303997,15.492,0.026
53111.314842,15.5,0.024
53111.325648,15.478,0.024
53111.336638,15.525,0.024
53118.310196,15.305,0.015
53118.3209,15.293,0.015
53118.331473,15.274,0.015
53118.342058,15.291,0.015
53118.352588,15.273,0.015
53139.250273,15.271,0.02
53139.25976,15.293,0.022
53139.269261,15.299,0.02
53139.278728,15.304,0.02
53139.288198,15.312,0.02
53148.286436,15.275,0.018
53148.2951,15.298,0.018
53148.303833,15.332,0.018
53148.314011,15.332,0.02
53148.324772,15.408,0.021
53169.221643,15.337,0.02
53169.231592,15.352,0.022
53169.241587,15.377,0.022
53169.251513,15.422,0.024
53169.261444,15.432,0.024
53175.219388,15.252,0.023
53175.229081,15.289,0.031
53175.238823,15.293,0.021
53175.248827,15.342,0.025
53175.259664,15.427,0.059
53404.500478,15.404,0.045
53404.51297,15.395,0.043
53404.525481,15.405,0.045
53404.538041,15.329,0.035
53440.481687,15.461,0.026
53440.492822,15.436,0.026
53440.503345,15.436,0.026
53478.368554,15.211,0.028
53478.378175,15.236,0.028
53478.387244,15.209,0.026
53478.396257,15.233,0.026
53478.405271,15.254,0.024
53496.252842,15.476,0.03
53496.262873,15.495,0.03
53496.272956,15.483,0.028
53496.283114,15.451,0.028
53496.293131,15.437,0.028
53527.216122,15.516,0.03
53527.225964,15.461,0.028
53527.235811,15.471,0.03
53527.245778,15.476,0.03
53527.255659,15.414,0.03
53556.175119,15.238,0.022
53556.185623,15.233,0.022
53556.196594,15.255,0.022
53556.207085,15.251,0.022
53556.217619,15.253,0.022
53791.416143,15.469,0.023
53791.428049,15.452,0.023
53791.439914,15.509,0.025
53791.451854,15.519,0.025
53791.463801,15.475,0.025
53815.394414,15.236,0.037
53815.405551,15.263,0.031
53815.416819,15.242,0.03
53815.428165,15.255,0.03
53815.439476,15.257,0.031
53817.326318,15.488,0.021
53817.337923,15.466,0.021
53817.3494,15.508,0.021
53817.361399,15.513,0.021
53846.291289,15.367,0.02
53846.301983,15.342,0.02
53846.312589,15.351,0.02
53846.323272,15.332,0.018
53846.333843,15.32,0.018
53850.294518,15.359,0.026
53850.305084,15.342,0.026
53850.315761,15.315,0.025
53850.326307,15.319,0.025
53850.336832,15.335,0.025
53884.224028,15.316,0.028
53884.235616,15.352,0.028
53884.24718,15.407,0.03
53884.258776,15.458,0.03
53884.270364,15.43,0.03
53901.228011,15.443,0.05
53901.248025,15.468,0.065
53901.258028,15.433,0.057
53911.196274,15.333,0.092
53911.225405,15.289,0.058
53911.235033,15.279,0.051
54155.413999,15.456,0.02
54155.425841,15.485,0.02
54155.437703,15.499,0.02
54155.449687,15.527,0.022
54155.461609,15.54,0.022
54156.383733,15.234,0.017
54156.401751,15.272,0.015
54156.413761,15.283,0.015
54156.425305,15.311,0.015
54156.436869,15.32,0.015
54174.330049,15.38,0.035
54174.340718,15.334,0.028
54174.351459,15.309,0.025
54174.362284,15.285,0.028
54174.373093,15.288,0.021
54180.33652,15.497,0.023
54180.346828,15.495,0.023
54180.357134,15.469,0.023
54180.367756,15.462,0.023
54180.378131,15.458,0.025
54200.311176,15.275,0.028
54200.320865,15.286,0.026
54200.330473,15.288,0.026
54200.339865,15.3,0.028
54200.349242,15.288,0.028
54476.469431,15.232,0.013
54476.482337,15.248,0.013
54476.495248,15.248,0.013
54476.508148,15.258,0.013
54484.46585,15.307,0.026
54484.47893,15.341,0.022
54484.491799,15.388,0.018
54484.504649,15.417,0.018
54484.517589,15.433,0.018
54533.38945,15.269,0.011
54533.400921,15.27,0.011
54533.412453,15.272,0.011
54533.423663,15.305,0.011
54533.435079,15.312,0.011
54539.325609,15.483,0.017
54539.336487,15.523,0.017
54539.347345,15.501,0.015
54539.358234,15.499,0.015
54539.369239,15.491,0.015
54567.294947,15.354,0.017
54567.306132,15.398,0.018
54567.317407,15.437,0.018
54567.328573,15.445,0.018
54567.339734,15.473,0.018
54568.351374,15.328,0.028
54568.362395,15.335,0.028
54568.37329,15.364,0.03
54568.384186,15.428,0.031
54568.395009,15.401,0.03
54580.295859,15.42,0.031
54580.30648,15.444,0.031
54580.317094,15.466,0.031
54580.327698,15.437,0.031
54580.338299,15.507,0.031
54587.301431,15.35,0.02
54587.311818,15.347,0.02
54587.322126,15.321,0.018
54587.332423,15.288,0.018
54587.34281,15.28,0.018
54595.251207,15.307,0.02
54595.261188,15.288,0.02
54595.271144,15.273,0.018
54595.281118,15.271,0.018
54595.291084,15.277,0.018
54611.256761,15.441,0.018
54611.266598,15.463,0.02
54611.276391,15.482,0.022
54611.286193,15.471,0.022
54611.295952,15.482,0.024
54619.214866,15.484,0.037
54619.225098,15.521,0.024
54619.235404,15.501,0.024
54619.245678,15.544,0.024
54619.256065,15.521,0.024
