mjd,m,merr
52650.436809,14.773,0.013
52650.450703,14.783,0.013
52650.464685,14.811,0.013
52650.478738,14.807,0.011
52650.492698,14.817,0.011
52651.427015,14.591,0.011
52651.442458,14.503,0.011
52651.457867,14.431,0.009
52651.488668,14.398,0.009
52665.455187,14.876,0.013
52665.469552,14.888,0.013
52665.483853,14.881,0.013
52665.498151,14.926,0.013
52665.512566,14.929,0.013
52677.451446,14.682,0.011
52677.465701,14.721,0.013
52677.479995,14.728,0.013
52677.494271,14.758,0.013
52677.508598,14.781,0.013
52697.402554,14.667,0.018
52697.447724,14.747,0.017
52706.370397,14.604,0.009
52706.38327,14.639,0.009
52706.396219,14.645,0.009
52706.409459,14.677,0.011
52706.422602,14.676,0.011
52712.320876,14.803,0.021
52712.334107,14.85,0.03
52712.347546,14.822,0.018
52712.361806,14.834,0.018
52712.375453,14.82,0.016
52724.361981,14.504,0.009
52724.373606,14.539,0.009
52724.385166,14.527,0.009
52724.396717,14.544,0.009
52724.408316,14.573,0.009
52725.429364,14.89,0.011
52725.441122,14.92,0.013
52725.45282,14.936,0.013
52725.464571,14.937,0.013
52725.476276,14.959,0.013
52753.260796,14.581,0.011
52753.273566,14.494,0.011
52753.289997,14.374,0.009
52753.302305,14.336,0.009
52753.31526,14.341,0.009
52755.261228,14.333,0.007
52755.273233,14.369,0.009
52755.285188,14.404,0.009
52755.297072,14.429,0.009
52755.308949,14.464,0.009
52756.254278,14.893,0.016
52756.266648,14.875,0.016
52756.278706,14.883,0.016
52756.290944,14.895,0.016
52756.303185,14.873,0.016
52757.264326,14.538,0.009
52757.268668,14.522,0.013
52757.276309,14.549,0.009
52757.28073,14.578,0.013
52757.288334,14.574,0.009
52757.292969,14.579,0.013
52757.30032,14.598,0.011
52757.305451,14.612,0.013
52757.312298,14.608,0.011
52757.317823,14.63,0.013
52758.259542,14.866,0.011
52758.271397,14.861,0.011
52758.283165,14.863,0.011
52758.295074,14.895,0.013
52758.306914,14.896,0.013
52771.267689,14.955,0.026
52771.279464,14.914,0.025
52771.291276,14.755,0.021
52771.302697,14.627,0.02
52771.31418,14.562,0.018
52797.220378,14.516,0.013
52797.230401,14.524,0.013
52797.240373,14.549,0.015
52797.250335,14.554,0.015
52797.260304,14.573,0.015
52811.220318,15.004,0.018
52811.23009,14.999,0.018
52811.239945,14.96,0.017
52811.249714,14.908,0.017
52811.259501,14.791,0.015
52826.175672,14.411,0.015
52826.185593,14.433,0.016
52826.195719,14.481,0.016
52826.20579,14.465,0.016
52826.215715,14.501,0.016
52842.174464,15.006,0.024
52842.185113,14.953,0.024
52847.161077,14.842,0.026
52847.181408,14.92,0.02
52847.19147,14.87,0.022
52847.202014,14.898,0.02
52992.474076,14.672,0.011
52992.487721,14.722,0.011
52992.501182,14.713,0.011
52992.514476,14.665,0.015
52992.52774,14.695,0.011
53034.407461,14.505,0.009
53034.41994,14.566,0.011
53034.432312,14.544,0.011
53034.444765,14.565,0.011
53034.457061,14.58,0.011
53051.392003,14.82,0.011
53051.403602,14.838,0.011
53051.415361,14.848,0.011
53051.426966,14.852,0.011
53051.438606,14.861,0.009
53065.348956,14.498,0.008
53065.362677,14.543,0.01
53065.378045,14.562,0.008
53065.393484,14.595,0.008
53065.411107,14.618,0.008
53078.416629,14.738,0.013
53094.331983,14.452,0.007
53094.342023,14.473,0.007
53109.302609,14.662,0.012
53109.312723,14.667,0.012
53109.322942,14.711,0.012
53109.333107,14.711,0.012
53109.343164,14.718,0.013
53122.296063,14.878,0.011
53122.30653,14.852,0.011
53122.31696,14.855,0.011
53122.327451,14.852,0.011
53122.337981,14.856,0.011
53137.25485,14.862,0.013
53137.284637,14.889,0.015
53137.29435,14.905,0.015
53153.251729,14.826,0.013
53153.26074,14.803,0.013
53153.269527,14.844,0.013
53153.278311,14.827,0.013
53153.287147,14.848,0.015
53165.236705,14.485,0.012
53165.259029,14.476,0.012
53165.268837,14.514,0.012
53165.278927,14.543,0.013
53178.222871,14.628,0.009
53178.232854,14.674,0.043
53178.252909,14.676,0.028
53386.488902,14.746,0.011
53386.501857,14.786,0.013
53386.515151,14.775,0.011
53386.530018,14.765,0.013
53386.543514,14.785,0.013
53441.445666,14.854,0.013
53441.457286,14.871,0.013
53441.470594,14.859,0.013
53441.482859,14.872,0.013
53441.494583,14.854,0.013
53500.249416,14.981,0.015
53500.260765,14.971,0.015
53500.271697,14.925,0.013
53500.282767,14.876,0.013
53500.292934,14.757,0.011
53528.225703,14.611,0.013
53528.236962,14.64,0.015
53528.248028,14.634,0.015
53528.258872,14.65,0.015
53528.269247,14.682,0.015
53540.220067,15.073,0.043
53540.229886,15.031,0.041
53540.239487,15.048,0.041
53540.24918,14.983,0.039
53540.258862,14.854,0.035
53551.17974,15.022,0.015
53551.189759,14.966,0.015
53551.199921,14.935,0.015
53551.209848,14.834,0.015
53551.219754,14.716,0.013
53740.475235,14.852,0.013
53740.488142,14.864,0.013
53740.501096,14.87,0.013
53740.513943,14.876,0.013
53740.526879,14.886,0.013
53770.485226,14.506,0.009
53770.498285,14.535,0.009
53770.511204,14.567,0.009
53770.524168,14.563,0.009
53787.428982,14.717,0.012
53787.441794,14.712,0.012
53787.454762,14.752,0.012
53787.467773,14.759,0.012
53813.411797,14.884,0.022
53813.422821,14.913,0.022
53813.433967,14.872,0.022
53813.444977,14.892,0.024
53813.456015,14.954,0.024
53823.302616,14.348,0.008
53823.313567,14.375,0.008
53823.32447,14.414,0.008
53823.335567,14.421,0.008
53823.346402,14.465,0.008
53824.360714,14.902,0.013
53824.37301,14.871,0.018
53824.373851,14.844,0.016
53824.38486,14.9,0.02
53824.385568,14.89,0.018
53824.397397,14.869,0.013
53824.39742,14.895,0.015
53824.409421,14.914,0.03
53824.409979,14.927,0.013
53824.421055,14.921,0.013
53844.284423,14.867,0.015
53844.294692,14.857,0.017
53844.304969,14.822,0.017
53844.315539,14.849,0.017
53844.32591,14.854,0.018
53853.291813,14.861,0.016
53853.302622,14.863,0.016
53853.313047,14.845,0.015
53853.323562,14.869,0.016
53853.333976,14.862,0.016
53887.229615,14.642,0.017
53887.24027,14.643,0.017
53887.250968,14.669,0.017
53887.261665,14.677,0.017
53887.27238,14.679,0.017
53902.237067,14.872,0.018
53902.247411,14.875,0.018
53902.25786,14.87,0.018
53902.269213,14.889,0.02
53915.179295,14.904,0.021
53915.18916,14.873,0.021
53915.200557,14.871,0.021
53931.175749,14.828,0.018
53931.186015,14.819,0.018
53931.196144,14.891,0.018
53931.216328,14.896,0.021
54098.431465,15.029,0.018
54098.443468,14.978,0.017
54098.458648,14.852,0.015
54098.472019,14.64,0.011
54098.48423,14.564,0.011
54121.396918,14.827,0.013
54121.409118,14.847,0.013
54121.421312,14.838,0.013
54121.433504,14.854,0.013
54121.445691,14.856,0.013
54155.408744,14.655,0.012
54155.420397,14.669,0.012
54155.432425,14.669,0.012
54155.444306,14.695,0.012
54155.456061,14.719,0.013
54206.275333,14.595,0.012
54206.284706,14.584,0.012
54206.294048,14.611,0.012
54206.303395,14.625,0.012
54206.312788,14.652,0.012
54529.321508,14.736,0.016
54529.332908,14.744,0.016
54529.344119,14.756,0.016
54529.355309,14.773,0.016
54529.366602,14.785,0.016
54562.196781,14.792,0.016
54562.209761,14.805,0.015
54562.222156,14.829,0.015
54562.233693,14.794,0.013
54574.289686,14.486,0.018
54574.300378,14.533,0.018
54574.311029,14.544,0.017
54574.321725,14.597,0.018
54574.332405,14.577,0.018
54582.293474,14.85,0.013
54582.304078,14.84,0.013
54582.314645,14.861,0.015
54582.325213,14.862,0.015
54582.335843,14.871,0.015
54613.209717,14.879,0.011
54613.219582,14.883,0.013
54613.22959,14.882,0.013
54613.239662,14.886,0.013
54613.249782,14.886,0.013
