mjd,m,merr
52651.437922,15.879,0.04
52651.453124,15.92,0.04
52651.468435,15.918,0.04
52651.483578,15.989,0.043
52651.498713,16.015,0.043
52665.468658,16.146,0.043
52665.483418,16.129,0.041
52665.499196,16.129,0.043
52665.514462,16.257,0.046
52665.530603,16.198,0.043
52677.480165,15.9,0.041
52677.49603,15.92,0.04
52677.51099,15.909,0.036
52696.404998,15.921,0.03
52696.419728,15.85,0.028
52696.432516,15.772,0.061
52723.36072,16.193,0.046
52752.286989,16.076,0.039
52752.297202,16.114,0.039
52752.307382,16.12,0.039
52752.317587,16.146,0.041
52752.327768,16.108,0.039
52771.219164,15.795,0.055
52771.230836,15.928,0.055
52771.242517,15.906,0.055
52771.254181,15.897,0.055
52771.266024,15.859,0.054
52787.221779,15.881,0.028
52787.232534,15.796,0.026
52787.243129,15.679,0.022
52787.253698,15.599,0.02
52787.264244,15.553,0.022
52811.221622,16.031,0.049
52811.231423,16.152,0.054
52811.241237,16.046,0.051
52811.251042,16.057,0.056
52811.260858,16.124,0.054
52826.175742,15.961,0.05
52826.18572,15.946,0.052
52826.195729,16.037,0.054
52826.205576,15.957,0.05
52826.215443,15.975,0.052
52842.168028,16.169,0.08
52842.169144,16.068,0.063
52842.174092,15.981,0.054
52842.177965,15.846,0.412
52842.184757,15.887,0.05
52847.161345,16.168,0.063
52847.181677,16.156,0.059
52847.191738,16.128,0.061
52847.202285,16.176,0.061
53024.410267,15.695,0.059
53024.449143,15.624,0.028
53024.461922,15.622,0.052
53035.470756,15.767,0.024
53035.483529,15.805,0.026
53035.496141,15.82,0.026
53035.508921,15.839,0.028
53035.522232,15.847,0.028
53050.385595,16.207,0.089
53050.39731,16.181,0.057
53050.408959,16.214,0.037
53050.420698,16.09,0.03
53050.432459,15.889,0.026
53078.334813,15.829,0.028
53078.345607,15.841,0.028
53078.35653,15.913,0.031
53094.339882,16.255,0.031
53094.350295,16.234,0.03
53094.361161,16.164,0.03
53094.371469,16.094,0.028
53094.381767,15.976,0.024
53109.295426,16.138,0.035
53109.306162,16.13,0.035
53109.31687,16.138,0.035
53109.327726,16.129,0.035
53109.338439,16.226,0.039
53110.292669,16.079,0.04
53110.303269,16.122,0.041
53110.313885,16.094,0.04
53110.324567,16.14,0.04
53112.314938,16.175,0.041
53112.325557,15.891,0.031
53112.33629,15.773,0.045
53137.248735,15.673,0.026
53137.258528,15.655,0.026
53137.268404,15.704,0.026
53137.278191,15.713,0.028
53137.28801,15.712,0.03
53165.231124,16.019,0.035
53165.241125,16.081,0.039
53165.251153,16.102,0.044
53165.261222,16.119,0.043
53386.489422,16.276,0.044
53386.502377,16.172,0.043
53386.51567,16.073,0.037
53386.530536,15.867,0.031
53386.544035,15.838,0.035
53442.266364,15.939,0.033
53442.27767,15.921,0.031
53442.289507,15.953,0.031
53442.301419,15.989,0.033
53442.312776,16.029,0.033
53442.36933,16.181,0.037
53442.380084,16.178,0.037
53442.39089,16.145,0.035
53442.401653,16.144,0.037
53442.412613,16.12,0.035
53443.432697,15.966,0.054
53443.436232,15.982,0.055
53443.447349,15.97,0.037
53443.465418,16.021,0.046
53443.468953,16.098,0.054
53443.476206,16.087,0.037
53443.479763,16.024,0.035
53445.403579,16.15,0.031
53445.404898,16.17,0.031
53445.415377,16.115,0.03
53445.416683,16.128,0.031
53445.426882,16.159,0.03
53445.428194,16.145,0.03
53445.438641,16.207,0.031
53445.440006,16.184,0.031
53445.450784,16.235,0.033
53445.452161,16.218,0.031
53473.435843,15.84,0.035
53473.445534,15.83,0.035
53473.45521,15.817,0.035
53473.465689,15.863,0.039
53498.318803,15.872,0.031
53498.330461,15.853,0.03
53498.342431,15.883,0.031
53498.35559,15.935,0.035
53498.367082,15.896,0.033
53499.269369,16.242,0.044
53499.280885,16.238,0.043
53499.297289,16.236,0.043
53499.310493,16.19,0.043
53499.320538,16.051,0.037
53528.225275,16.245,0.059
53528.236533,16.204,0.057
53528.247601,16.059,0.048
53528.258442,15.843,0.039
53528.268818,15.799,0.037
53539.218107,16.153,0.1
53539.227682,16.109,0.089
53539.237259,15.902,0.078
53539.246825,15.803,0.068
53539.256394,15.716,0.065
53552.222083,16.045,0.048
53552.23202,16.116,0.054
53552.241975,16.089,0.052
53552.251897,16.106,0.055
53552.26191,16.091,0.052
53570.169081,16.244,0.089
53570.190264,16.098,0.085
53570.200887,16.297,0.102
53570.211484,16.181,0.102
53576.176601,16.15,0.065
53582.171,15.817,0.041
53582.18221,15.831,0.041
53582.193467,15.742,0.043
53582.204685,15.773,0.05
53741.47812,16.153,0.033
53741.491448,16.129,0.031
53741.50459,16.178,0.033
53741.517478,16.177,0.031
53741.530548,16.179,0.031
53786.421731,15.801,0.08
53786.433952,15.88,0.044
53786.445995,15.896,0.035
53843.325915,16.028,0.054
53843.337317,16.084,0.054
53843.348829,16.029,0.054
53848.29614,15.824,0.028
53848.306999,15.881,0.03
53848.31778,15.854,0.03
53848.328543,15.878,0.031
53848.339417,15.974,0.033
53882.217898,16.316,0.054
53882.22845,16.155,0.046
53882.23919,16.18,0.049
53886.229309,16.166,0.052
53886.240195,16.175,0.054
53886.251098,16.257,0.059
53886.261998,16.235,0.061
53886.272926,16.224,0.059
53903.222093,15.773,0.041
53903.232062,15.809,0.043
53903.242007,15.804,0.043
53903.251916,15.781,0.044
53903.261949,15.836,0.046
53931.176003,16.143,0.064
53931.186268,16.102,0.063
53931.196399,16.125,0.061
54085.473833,15.817,0.061
54085.486772,15.851,0.049
54085.499766,15.853,0.046
54085.512957,15.906,0.048
54085.525875,15.918,0.049
54123.392926,16.122,0.046
54123.405272,16.144,0.043
54123.417792,16.228,0.044
54123.430317,16.22,0.044
54123.442622,16.246,0.043
54156.372562,16.197,0.048
54156.383605,16.172,0.043
54156.394572,16.258,0.045
54156.405618,16.278,0.041
54156.416924,16.217,0.04
54207.281176,16.073,0.068
54207.300421,16.165,0.096
54216.264187,15.896,0.037
54216.272972,15.861,0.037
54216.281723,15.909,0.039
54216.290846,15.93,0.039
54216.299605,16.025,0.041
54529.32048,16.07,0.045
54529.331878,16.126,0.045
54529.343092,16.193,0.046
54529.354278,16.107,0.043
54529.365572,16.148,0.045
54562.221217,16.351,0.071
54562.244122,16.309,0.063
54573.292752,16.17,0.065
54573.303589,16.099,0.061
54573.314432,16.08,0.059
54573.32525,16.131,0.065
54573.336058,16.105,0.061
54582.290893,15.615,0.043
54582.301107,15.634,0.043
54582.311294,15.681,0.045
54582.322098,15.725,0.045
54582.332269,15.799,0.046
54613.212192,16.072,0.053
54613.223045,16.113,0.056
54613.23332,16.18,0.058
54613.243733,16.216,0.061
54613.253967,16.167,0.059
