mjd,m,merr
52653.460622,17.254,0.114
52653.475376,17.288,0.124
52653.490751,17.251,0.107
52653.506145,17.19,0.104
52653.521672,17.339,0.117
52684.432507,16.458,0.076
52684.447684,16.365,0.068
52684.462478,16.38,0.119
52684.477272,16.416,0.092
52693.417445,16.305,0.048
52693.433834,16.268,0.046
52693.449455,16.352,0.05
52693.464783,16.434,0.055
52693.480248,16.469,0.057
52721.314652,16.929,0.08
52721.327209,16.953,0.081
52721.339825,17.062,0.089
52721.352429,17.012,0.085
52721.365186,17.041,0.089
52750.289531,16.783,0.091
52750.300141,16.821,0.081
52750.310737,16.873,0.096
52750.321338,16.903,0.098
52750.33194,16.853,0.128
52781.219879,16.846,0.074
52781.230514,16.929,0.078
52781.251953,17.043,0.091
52781.262671,16.903,0.08
52801.218311,16.481,0.181
52801.228563,16.461,0.179
52801.238687,16.415,0.178
52801.248751,16.538,0.191
52801.258922,16.686,0.228
52809.221339,16.814,0.078
52809.23121,16.769,0.076
52809.241018,16.897,0.085
52809.25097,17.002,0.091
52809.260851,16.984,0.094
52830.174016,17.04,0.172
52830.183829,17.048,0.172
52830.193695,17.284,0.213
52830.20355,17.132,0.185
52830.213345,17.473,0.259
52846.160263,16.406,0.07
52846.170303,16.483,0.076
52846.180345,16.474,0.074
52846.190319,16.46,0.074
52846.200359,16.388,0.069
53038.444413,16.556,0.094
53038.457311,16.453,0.078
53038.469901,16.318,0.087
53038.499861,16.37,0.07
53045.379626,16.756,0.102
53045.390868,16.719,0.1
53045.402197,16.847,0.107
53045.413455,16.883,0.111
53045.42464,16.958,0.117
53096.327681,16.431,0.089
53096.337914,16.512,0.094
53096.348333,16.571,0.094
53096.359024,16.647,0.102
53096.369806,16.684,0.102
53108.305995,16.842,0.063
53108.316882,16.994,0.072
53108.327886,16.97,0.07
53108.338834,16.986,0.068
53108.349756,17.011,0.072
53125.290537,17.061,0.163
53125.300478,16.981,0.15
53125.310426,16.862,0.135
53125.320374,16.982,0.157
53125.330387,17.119,0.174
53134.247859,17.025,0.091
53134.257346,17.131,0.096
53134.266768,16.887,0.076
53134.276188,17.011,0.085
53134.285632,16.999,0.087
53155.252451,16.486,0.098
53155.261201,16.567,0.111
53155.27001,16.491,0.104
53155.278793,16.714,0.13
53155.287555,16.625,0.122
53193.180665,16.942,0.091
53193.190664,17.056,0.107
53193.20064,16.958,0.096
53214.162349,16.516,0.104
53214.194123,16.587,0.131
53244.133824,17.056,0.167
53244.144004,16.95,0.157
53244.154208,16.925,0.157
53244.164394,17.144,0.2
53244.174597,16.975,0.176
53359.490049,16.468,0.05
53359.502848,16.562,0.054
53359.515618,16.66,0.063
53359.528773,16.669,0.061
53451.344973,17.164,0.131
53451.355967,16.877,0.1
53451.366745,17.004,0.113
53451.377764,16.776,0.089
53451.388539,16.64,0.08
53461.336017,17.004,0.085
53461.346332,17.079,0.091
53461.356864,16.984,0.083
53461.367215,17.047,0.091
53461.378321,16.877,0.08
53489.252174,16.851,0.089
53489.262387,16.901,0.089
53489.274836,16.993,0.131
53489.299464,17.853,0.636
53535.220436,16.811,0.089
53535.230452,16.842,0.091
53535.240471,16.806,0.087
53535.250488,16.8,0.087
53599.14418,16.74,0.139
53599.15681,16.734,0.152
53599.169399,16.591,0.135
53599.182006,16.583,0.137
53599.194597,16.698,0.167
53607.128264,17.064,0.109
53607.139843,17.199,0.248
53607.162732,16.977,0.105
53725.471911,16.875,0.098
53725.485007,16.873,0.096
53725.498085,16.98,0.104
53725.511709,16.892,0.094
53725.525434,16.992,0.1
53755.408556,17.055,0.124
53755.421605,17.232,0.146
53755.434801,17.134,0.128
53755.447503,17.185,0.133
53755.460411,17.126,0.124
53774.419411,17.011,0.102
53774.432008,17.01,0.096
53774.444807,17.013,0.093
53774.45756,17.134,0.093
53774.470302,17.2,0.109
53803.35152,16.794,0.092
53803.36357,16.76,0.089
53803.375387,16.915,0.102
53803.387631,16.912,0.099
53803.39944,16.863,0.089
53807.36692,16.891,0.137
53807.379212,17.019,0.152
53807.391314,16.966,0.155
53833.279903,17.145,0.119
53833.290845,17.098,0.107
53833.301151,17.04,0.101
53833.311717,17.023,0.097
53858.251223,16.524,0.173
53858.261689,16.625,0.15
53858.271843,16.72,0.14
53858.282029,16.479,0.102
53858.292326,16.683,0.101
53864.247244,17.59,0.335
53864.256854,17.46,0.285
53864.276142,17.404,0.274
53864.285697,17.539,0.312
53876.258857,16.733,0.124
53876.2698,16.703,0.125
53876.291626,16.758,0.125
53905.216658,17.256,0.125
53905.226568,17.259,0.125
53905.236296,17.225,0.127
53905.245995,17.193,0.122
53905.259515,17.046,0.112
53910.165727,17.064,0.142
53910.176302,16.987,0.107
53910.186867,16.975,0.107
53910.197381,17.029,0.106
53910.207885,17.129,0.119
53933.169409,16.701,0.084
53933.179968,16.739,0.091
53933.190349,16.856,0.106
53933.200609,16.831,0.117
53933.210971,16.943,0.162
53954.148617,16.368,0.122
53954.160632,16.347,0.124
53954.172698,16.277,0.117
54079.426617,16.938,0.185
54079.438457,16.837,0.161
54079.450296,16.936,0.165
54079.462202,16.947,0.157
54079.474047,16.793,0.128
54108.448365,16.389,0.074
54108.461325,16.57,0.093
54108.474067,16.452,0.087
54108.486799,16.542,0.087
54108.499587,16.468,0.076
54125.384537,16.807,0.104
54125.396144,16.606,0.083
54125.408743,16.758,0.101
54125.421109,16.909,0.122
54125.432833,16.854,0.112
54139.387299,16.513,0.129
54139.399021,16.494,0.116
54139.410575,16.888,0.214
54139.423303,16.834,0.177
54139.435308,16.714,0.172
54157.384176,16.972,0.102
54157.39551,17.173,0.122
54157.417437,16.969,0.092
54157.428395,16.918,0.089
54524.390588,16.792,0.071
54524.402095,16.785,0.078
54524.413722,16.899,0.081
54524.425187,16.915,0.083
54524.437221,16.995,0.089
54539.33069,16.444,0.061
