mjd,m,merr
52651.439085,16.052,0.048
52651.454285,16.038,0.045
52651.4696,16.107,0.048
52651.484741,16.092,0.048
52651.50016,16.118,0.046
52665.468915,16.297,0.049
52665.483676,16.209,0.045
52665.499452,16.183,0.046
52665.514718,16.229,0.048
52665.53086,16.226,0.046
52677.419792,15.892,0.041
52677.434688,15.997,0.046
52677.449671,16.006,0.046
52677.465165,15.973,0.041
52677.480034,16.051,0.048
52696.405589,16.186,0.037
52696.420288,16.233,0.039
52696.433103,16.226,0.063
52723.361205,16.072,0.063
52752.287438,16.083,0.039
52752.297652,16.157,0.041
52752.307831,16.11,0.037
52752.318037,16.123,0.039
52752.328217,16.16,0.041
52771.219506,16.255,0.087
52771.231181,16.337,0.08
52771.242859,16.283,0.076
52771.254523,16.279,0.076
52771.266369,16.249,0.074
52787.222934,16.173,0.045
52787.233829,16.157,0.043
52787.244665,16.238,0.045
52787.255611,16.218,0.046
52787.266416,16.232,0.048
52811.221892,16.601,0.078
52811.231692,16.49,0.071
52811.241506,16.387,0.068
52811.251312,16.354,0.066
52811.261143,16.361,0.066
52826.176102,16.178,0.057
52826.186076,16.176,0.059
52826.196094,16.186,0.059
52826.205939,16.077,0.055
52826.215803,16.114,0.055
52840.164929,15.808,0.035
52840.174885,15.845,0.037
52840.184836,15.89,0.039
52840.194794,15.889,0.039
52840.204778,15.892,0.041
53035.471204,16.12,0.031
53035.483976,16.086,0.031
53035.496589,16.099,0.033
53035.50937,16.129,0.035
53035.522683,16.129,0.033
53049.391398,16.131,0.031
53049.403278,16.204,0.035
53049.415162,16.229,0.037
53049.427076,16.18,0.035
53049.439024,16.091,0.033
53094.340431,16.265,0.031
53094.350931,16.207,0.03
53094.361711,16.101,0.026
53094.372019,15.93,0.022
53094.382316,15.715,0.018
53095.321097,16.346,0.049
53095.330978,16.274,0.048
53095.341019,16.302,0.048
53095.350999,16.355,0.051
53095.361266,16.294,0.048
53107.287796,15.921,0.03
53107.298109,15.949,0.03
53107.308388,15.988,0.03
53107.31869,16.012,0.03
53107.329094,16.024,0.031
53136.243926,16.122,0.045
53136.252908,16.131,0.046
53136.26181,16.107,0.045
53136.270751,16.154,0.046
53136.279838,16.089,0.043
53154.24772,15.82,0.051
53154.256154,15.828,0.051
53154.264598,15.812,0.049
53154.273021,15.82,0.049
53154.281513,15.815,0.049
53164.229539,15.819,0.033
53164.239937,15.751,0.036
53164.249559,15.739,0.03
53164.259265,15.728,0.033
53194.212117,15.835,0.063
53442.266138,15.85,0.03
53442.277444,15.852,0.03
53442.289282,15.855,0.028
53442.301192,15.9,0.03
53442.31255,15.878,0.03
53474.35531,16.206,0.041
53474.366429,16.202,0.041
53474.376865,16.146,0.039
53474.388068,16.096,0.037
53498.319006,15.701,0.026
53498.330662,15.746,0.026
53498.342632,15.789,0.028
53498.356059,15.842,0.031
53498.367293,15.863,0.03
53499.270069,16.326,0.043
53499.282329,16.298,0.043
53499.297796,16.256,0.041
53499.310999,16.175,0.043
53499.321048,16.039,0.033
53521.214362,16.135,0.044
53521.224674,16.165,0.048
53521.234995,16.197,0.052
53521.245323,16.229,0.046
53521.255627,16.203,0.072
53538.219677,16.0,0.081
53538.2293,16.035,0.083
53538.238914,15.99,0.08
53538.248588,15.953,0.078
53538.25823,15.998,0.085
53553.179625,15.983,0.044
53553.190311,15.942,0.043
53553.200845,16.008,0.044
53553.211393,16.004,0.043
53553.22201,16.031,0.044
53570.169652,16.139,0.085
53570.180258,16.175,0.089
53570.190833,16.109,0.085
53570.20146,16.159,0.091
53570.212068,16.122,0.093
53576.177208,16.21,0.044
53582.182505,16.141,0.061
53582.19376,16.213,0.063
53582.204981,16.083,0.068
53741.478416,15.824,0.022
53741.491744,15.827,0.022
53741.504885,15.881,0.022
53741.517773,15.899,0.022
53741.530937,15.918,0.022
53786.425925,15.884,0.04
53786.439332,15.859,0.033
53786.452745,15.951,0.035
53786.465914,15.952,0.035
53786.479215,15.946,0.033
53843.314928,16.012,0.049
53843.326312,15.906,0.045
53843.337712,15.789,0.041
53843.349225,15.831,0.043
53843.361023,15.773,0.041
53854.289184,16.297,0.256
53882.218259,15.816,0.033
53882.228824,15.875,0.033
53882.23955,15.836,0.035
53882.250151,15.858,0.04
53882.26066,15.849,0.036
53886.229672,16.053,0.044
53886.240559,16.038,0.046
53886.25146,16.057,0.048
53886.262363,16.103,0.05
53886.27329,16.142,0.054
53903.222424,15.547,0.033
53903.232395,15.548,0.033
53903.242341,15.565,0.033
53903.252252,15.575,0.035
53903.262284,15.623,0.039
53932.183414,15.95,0.113
53932.204884,16.008,0.08
53932.215645,16.012,0.067
53942.175013,15.939,0.153
54123.393386,16.129,0.043
54123.405732,16.156,0.041
54123.418251,16.166,0.039
54123.430777,16.278,0.039
54123.443079,16.262,0.039
54156.373138,15.872,0.035
54156.384179,15.881,0.031
54156.395146,15.872,0.031
54156.406191,15.871,0.028
54156.417496,15.886,0.03
54201.327525,15.667,0.018
54201.337665,15.695,0.018
54201.347903,15.743,0.02
54201.357532,15.78,0.02
54201.36763,15.788,0.02
54207.281659,16.327,0.111
54207.291381,16.413,0.178
54207.300906,16.815,0.272
54216.264427,15.516,0.028
54216.273212,15.547,0.03
54216.281963,15.584,0.03
54216.291087,15.616,0.031
54216.299848,15.686,0.031
54508.417917,16.015,0.035
54508.430056,16.024,0.035
54508.441975,16.045,0.035
54508.454125,16.146,0.036
54508.466414,16.185,0.038
54573.292995,16.093,0.059
54573.303835,16.028,0.055
54573.314677,16.11,0.059
54573.325495,16.103,0.061
54573.3363,16.151,0.063
54582.311652,16.099,0.069
54582.322456,16.348,0.086
54582.332629,16.703,0.117
