mjd,m,merr
52651.439473,16.805,0.091
52651.454674,16.762,0.083
52651.469989,16.837,0.091
52651.48513,16.822,0.089
52651.500547,16.953,0.099
52665.46955,16.476,0.059
52665.484314,16.454,0.058
52665.500086,16.503,0.061
52665.515354,16.488,0.058
52665.531494,16.52,0.058
52677.480686,16.523,0.068
52677.496416,16.519,0.063
52677.511378,16.601,0.068
52677.526564,16.49,0.061
52696.406134,16.923,0.074
52696.420827,16.961,0.076
52696.433649,16.929,0.163
52723.361688,16.849,0.105
52752.287883,16.616,0.063
52752.298096,16.764,0.07
52752.308275,16.602,0.059
52752.318482,16.711,0.065
52752.328662,16.699,0.067
52755.261114,16.663,0.061
52755.273117,16.709,0.063
52755.285071,16.635,0.057
52755.296955,16.729,0.065
52755.308832,16.706,0.065
52756.251246,16.805,0.068
52756.263193,16.662,0.061
52756.266776,16.636,0.069
52756.275126,16.634,0.061
52756.28707,16.546,0.054
52756.291072,16.521,0.059
52756.299104,16.498,0.05
52757.264078,16.923,0.076
52757.276062,16.827,0.07
52757.288087,16.922,0.078
52757.300074,16.962,0.081
52757.312053,16.997,0.083
52758.25981,16.657,0.052
52758.271664,16.734,0.055
52758.283433,16.725,0.055
52758.295341,16.669,0.057
52758.307182,16.75,0.059
52771.219625,16.689,0.124
52771.231292,16.574,0.098
52771.242978,16.602,0.098
52771.254637,16.476,0.089
52771.266484,16.369,0.08
52787.2237,16.837,0.079
52787.234592,16.778,0.071
52787.245431,16.861,0.076
52787.256371,16.827,0.076
52811.222433,16.943,0.109
52811.232234,16.768,0.091
52811.242048,16.631,0.079
52811.261685,16.461,0.069
52826.176282,16.807,0.102
52826.186259,16.762,0.1
52826.196273,16.668,0.093
52826.206118,16.64,0.089
52826.215983,16.604,0.083
52840.165108,16.685,0.08
52840.175063,16.684,0.08
52840.185014,16.688,0.08
52840.194973,16.719,0.083
52840.204956,16.734,0.085
53035.471648,16.428,0.044
53035.48442,16.46,0.05
53035.497033,16.485,0.05
53035.509813,16.487,0.05
53035.523128,16.511,0.05
53050.38654,16.461,0.083
53050.398257,16.468,0.068
53050.409906,16.498,0.046
53050.421662,16.476,0.041
53050.433406,16.531,0.044
53078.335745,16.882,0.067
53078.346502,16.928,0.07
53094.340613,16.716,0.05
53094.351113,16.719,0.05
53094.361893,16.78,0.054
53094.372201,16.719,0.048
53094.382498,16.666,0.048
53109.296257,16.817,0.061
53109.306995,16.822,0.063
53109.317706,16.805,0.063
53109.328559,16.836,0.065
53109.339272,16.777,0.061
53137.249505,16.715,0.065
53137.259297,16.705,0.063
53137.269173,16.775,0.067
53137.278959,16.838,0.072
53137.28878,16.801,0.074
53165.231904,16.575,0.055
53165.241905,16.591,0.057
53165.252,16.638,0.065
53165.262,16.632,0.065
53358.481294,16.789,0.094
53358.495773,16.931,0.101
53358.510278,16.874,0.092
53358.524809,16.924,0.096
53442.266708,16.763,0.068
53442.278013,16.812,0.068
53442.289851,16.832,0.068
53442.301763,16.901,0.07
53442.313123,16.868,0.07
53443.437094,16.821,0.109
53443.469813,16.796,0.1
53443.480625,16.901,0.074
53473.436743,16.96,0.091
53473.446434,16.965,0.093
53473.456111,16.89,0.089
53473.466587,16.768,0.083
53498.319209,16.788,0.072
53498.330863,16.716,0.063
53498.342835,16.76,0.068
53498.356263,16.802,0.074
53498.367495,16.814,0.072
53499.270272,16.51,0.052
53499.284345,16.515,0.054
53499.298,16.546,0.054
53499.311201,16.557,0.059
53499.321249,16.601,0.057
53528.226075,16.889,0.098
53528.237329,16.869,0.096
53528.248397,16.916,0.098
53528.25924,16.913,0.096
53528.269618,16.855,0.091
53539.218836,16.925,0.183
53539.228408,16.769,0.159
53539.238,16.601,0.139
53539.247548,16.673,0.146
53539.257126,16.558,0.133
53553.180296,16.663,0.085
53553.190983,16.606,0.078
53553.201519,16.593,0.076
53553.212064,16.618,0.076
53553.222685,16.641,0.08
53570.169746,16.966,0.187
53570.180351,16.693,0.144
53570.190926,16.777,0.161
53570.201553,16.98,0.203
53570.212162,16.834,0.183
53576.177305,16.897,0.102
53576.210139,17.33,0.487
53582.182713,16.911,0.107
53582.193953,16.99,0.122
53582.205176,17.154,0.176
53741.478709,16.7,0.052
53741.492038,16.644,0.048
53741.518071,16.725,0.048
53741.531319,16.704,0.05
53786.434963,16.826,0.083
53786.447006,16.783,0.076
53843.315062,16.883,0.104
53843.326447,16.868,0.104
53843.337846,16.958,0.112
53843.349359,17.0,0.119
53843.361157,16.979,0.119
53848.290781,16.439,0.068
53848.301539,16.445,0.07
53848.312195,16.532,0.078
53848.322984,16.481,0.074
53848.333879,16.52,0.074
53854.289375,16.381,0.21
53882.21844,16.94,0.089
53882.239731,16.882,0.092
53882.250334,16.894,0.094
53882.260842,16.912,0.092
53886.229864,16.699,0.08
53886.240751,16.73,0.085
53886.251652,16.774,0.089
53886.262556,16.775,0.091
53886.273481,16.766,0.089
53903.222598,16.713,0.094
53903.232569,16.709,0.094
53903.242532,16.524,0.081
53903.252427,16.477,0.08
53903.262474,16.474,0.081
53932.205365,17.024,0.289
53932.216115,16.882,0.148
53942.16462,16.269,0.243
53942.175466,16.684,0.269
54123.393622,16.777,0.081
54123.405966,16.75,0.074
54123.418487,16.707,0.068
54123.431011,16.757,0.068
54123.443314,16.757,0.067
54156.373284,16.819,0.079
54156.384326,16.817,0.076
54156.395293,16.816,0.069
54156.406339,16.842,0.068
54156.417642,16.856,0.068
54201.328032,16.821,0.052
54201.338241,16.914,0.057
54201.348407,16.902,0.055
54201.358053,16.89,0.054
54201.368153,16.897,0.055
54207.281902,16.746,0.145
54207.291625,16.7,0.201
54216.264668,16.829,0.083
54216.273452,16.719,0.078
54216.282206,16.869,0.087
54216.291328,16.94,0.093
54216.300089,16.836,0.081
54529.322402,16.773,0.073
54529.333796,16.707,0.071
54529.345005,16.651,0.068
54529.356192,16.817,0.076
54529.367487,16.739,0.074
54562.197696,16.714,0.099
54562.21086,16.787,0.101
54562.234479,16.715,0.087
54562.245917,16.686,0.084
54573.293254,16.476,0.081
54573.30409,16.467,0.081
54573.314933,16.501,0.081
54573.325752,16.552,0.089
54573.336596,16.482,0.083
54582.291377,16.56,0.084
54582.301595,16.555,0.087
54582.311773,16.458,0.083
54582.322578,16.733,0.101
54582.33275,16.545,0.084
54613.212633,16.799,0.096
54613.223484,16.953,0.112
54613.233758,16.917,0.109
54613.244172,16.807,0.099
54613.254405,16.764,0.096
