mjd,m,merr
52653.465334,16.222,0.039
52653.48063,16.285,0.043
52653.495966,16.238,0.039
52653.511313,16.285,0.041
52653.526715,16.231,0.037
52693.417815,15.687,0.03
52693.434202,15.661,0.031
52693.449897,15.733,0.031
52693.465154,15.809,0.033
52693.480614,15.795,0.035
52721.365562,16.318,0.046
52721.378449,16.315,0.046
52721.391348,16.331,0.048
52721.404278,16.401,0.052
52721.417163,16.404,0.052
52750.289887,16.362,0.065
52750.300496,16.405,0.057
52750.311094,16.358,0.065
52750.321695,16.487,0.07
52750.332296,16.432,0.093
52781.262888,16.331,0.05
52781.273631,16.292,0.048
52781.284316,16.341,0.05
52781.295154,16.433,0.054
52781.306045,16.361,0.05
52801.218582,15.644,0.091
52801.22883,15.64,0.096
52801.238958,15.773,0.107
52801.249024,15.876,0.118
52801.259191,15.831,0.113
52809.221606,16.29,0.048
52809.231476,16.262,0.048
52809.241285,16.296,0.05
52809.251276,16.254,0.048
52809.261133,16.31,0.05
52830.174282,15.986,0.068
52830.184112,15.919,0.065
52830.193968,15.998,0.067
52830.203817,15.991,0.067
52830.213612,16.051,0.072
53008.465342,16.064,0.046
53008.477876,16.082,0.044
53008.490472,16.104,0.043
53008.503009,16.124,0.041
53008.515683,16.159,0.041
53038.445539,16.436,0.087
53038.458438,16.459,0.081
53038.471036,16.491,0.087
53038.484026,16.604,0.137
53038.500987,16.592,0.093
53045.379912,16.368,0.074
53045.391154,16.355,0.072
53045.402482,16.343,0.068
53045.41374,16.379,0.07
53045.424926,16.322,0.07
53096.327949,15.967,0.059
53096.338182,15.835,0.05
53096.348601,15.767,0.046
53096.359292,15.715,0.043
53096.370075,15.642,0.039
53108.30626,15.918,0.028
53108.317146,15.809,0.026
53108.328206,15.674,0.022
53108.339099,15.598,0.02
53108.350021,15.633,0.022
53125.291285,15.746,0.05
53125.301226,15.785,0.054
53125.311174,15.823,0.054
53125.321168,15.843,0.055
53125.331136,15.903,0.057
53134.2481,16.385,0.054
53134.257586,16.345,0.05
53134.267009,16.392,0.05
53134.276429,16.443,0.052
53134.285872,16.433,0.054
53155.25268,16.328,0.087
53155.261431,16.293,0.094
53155.270241,16.266,0.096
53155.279023,16.292,0.093
53155.287785,16.277,0.093
53193.180895,16.236,0.05
53193.190894,16.278,0.1
53193.20087,16.326,0.057
53193.210914,16.254,0.052
53193.220909,16.353,0.059
53214.162586,15.974,0.068
53214.194361,16.028,0.089
53244.134075,16.323,0.087
53244.144256,16.333,0.087
53244.154459,16.297,0.091
53244.164645,16.411,0.104
53244.174849,16.361,0.104
53359.491817,16.345,0.046
53359.504614,16.299,0.043
53359.517386,16.318,0.046
53359.530537,16.336,0.046
53451.345198,16.459,0.07
53451.356193,16.406,0.068
53451.366969,16.361,0.068
53451.377989,16.248,0.063
53451.388764,16.215,0.057
53461.336316,15.676,0.028
53461.34663,15.699,0.028
53461.357162,15.736,0.028
53461.367513,15.785,0.03
53461.37862,15.755,0.031
53490.301284,15.88,0.03
53490.312078,15.93,0.03
53490.322844,15.942,0.03
53490.334804,15.94,0.031
53490.346529,15.977,0.033
53536.221627,16.056,0.072
53536.231587,16.063,0.076
53536.241565,16.076,0.076
53536.251531,16.169,0.085
53536.26159,16.156,0.083
53565.169692,16.228,0.065
53565.180328,16.202,0.061
53565.190979,16.146,0.061
53565.201645,16.155,0.059
53565.212323,16.292,0.068
53607.128545,15.908,0.059
53607.151588,15.718,0.039
53607.163012,15.7,0.033
53726.492508,16.206,0.052
53726.506311,16.275,0.052
53726.51966,16.197,0.05
53774.419696,16.103,0.052
53774.432295,16.215,0.05
53774.445094,16.3,0.05
53774.457849,16.156,0.044
53774.470591,16.404,0.052
53802.372983,15.863,0.031
53802.385337,15.918,0.033
53802.39749,15.934,0.036
53802.409519,15.872,0.031
53802.42165,15.906,0.031
53806.373861,16.308,0.087
53806.385099,16.33,0.08
53806.39635,16.368,0.083
53806.4076,16.331,0.081
53806.418932,16.485,0.091
53834.281067,16.322,0.069
53834.29091,16.272,0.066
53834.300626,16.387,0.071
53834.31045,16.365,0.069
53834.320163,16.325,0.066
53842.301524,16.236,0.081
53842.31405,16.323,0.091
53842.33811,16.443,0.104
53842.350352,16.412,0.102
53857.336469,15.92,0.038
53857.346888,15.905,0.04
53857.356963,15.933,0.04
53876.259016,15.815,0.054
53876.269958,15.813,0.076
53876.291783,15.706,0.048
53904.224211,16.467,0.053
53904.234101,16.342,0.049
53904.254228,16.327,0.048
53904.264303,16.329,0.049
53933.169935,16.165,0.056
53933.180547,16.17,0.056
53933.201189,16.196,0.071
53933.211498,16.148,0.079
53954.148832,16.436,0.13
53954.160841,16.403,0.131
53954.172923,16.379,0.128
54108.453948,16.437,0.111
54108.466568,16.439,0.117
54108.47864,16.416,0.116
54108.49071,16.491,0.112
54108.502869,16.34,0.096
54125.39636,16.431,0.071
54125.408976,16.386,0.071
54139.387708,16.315,0.107
54139.399431,16.279,0.106
54139.410986,16.345,0.125
54139.423715,16.406,0.107
54139.43572,16.385,0.135
54157.384851,15.781,0.033
54157.396166,15.717,0.031
54157.407123,15.738,0.031
54157.418091,15.777,0.031
54157.429049,15.799,0.031
54539.321166,15.791,0.036
54539.331575,15.718,0.036
54539.352601,15.861,0.04
