mjd,m,merr
52668.492434,16.273,0.133
52668.507773,16.286,0.068
52668.523056,16.223,0.048
52668.538352,16.341,0.081
52676.440698,16.481,0.074
52676.456908,16.356,0.065
52676.472314,16.331,0.059
52676.491569,16.229,0.054
52676.509897,16.17,0.052
52703.468223,16.192,0.081
52703.489297,16.356,0.061
52703.489655,16.351,0.056
52703.502226,16.376,0.059
52703.502584,16.341,0.058
52708.438095,16.193,0.051
52708.438453,16.132,0.046
52708.451157,16.139,0.053
52708.451515,16.232,0.046
52708.464208,16.198,0.054
52708.464566,16.253,0.049
52708.477262,16.086,0.053
52708.477621,16.241,0.049
52708.490687,16.098,0.053
52727.388919,16.062,0.135
52727.401237,16.028,0.078
52727.401591,16.148,0.074
52727.41349,16.121,0.12
52727.425365,16.281,0.114
52730.357776,16.433,0.066
52730.358134,16.12,0.063
52730.369919,16.495,0.066
52730.381882,16.469,0.061
52730.394004,16.492,0.068
52730.394359,16.492,0.058
52730.405929,16.469,0.061
52730.406288,16.714,0.069
52737.376899,16.362,0.052
52737.393082,16.412,0.054
52737.405271,16.424,0.054
52737.417905,16.348,0.054
52737.430309,16.242,0.052
52738.292352,16.147,0.052
52738.305849,16.165,0.043
52738.317345,16.144,0.041
52738.328843,16.137,0.041
52738.340638,16.156,0.041
52756.259719,16.317,0.055
52756.271667,16.433,0.057
52756.283614,16.371,0.055
52756.29553,16.369,0.055
52756.307577,16.458,0.055
52761.265636,16.284,0.05
52761.277355,16.305,0.05
52761.289169,16.304,0.052
52761.300859,16.267,0.052
52761.312668,16.28,0.054
52764.267082,16.062,0.043
52764.279119,16.069,0.043
52764.291253,16.145,0.043
52764.303158,16.125,0.045
52764.315063,16.233,0.046
52789.234348,16.304,0.056
52789.245,16.397,0.056
52789.255756,16.509,0.054
52789.266734,16.419,0.058
52791.248278,16.8,0.236
52791.270559,16.475,0.086
52816.228473,16.238,0.087
52816.238301,15.905,0.091
52816.248151,16.198,0.097
52816.258057,16.1,0.107
52819.215113,16.066,0.096
52823.187458,16.354,0.068
52823.197444,16.386,0.068
52823.207393,16.418,0.066
53000.511356,16.169,0.031
53000.524415,16.238,0.031
53000.537513,16.288,0.038
53032.456894,16.28,0.048
53032.469234,16.262,0.044
53032.481489,16.19,0.043
53032.493746,16.283,0.043
53032.506075,16.241,0.043
53035.496479,16.148,0.045
53035.520882,16.208,0.043
53054.415923,16.189,0.036
53054.428313,16.068,0.035
53054.452137,16.07,0.035
53054.464203,16.101,0.036
53062.427818,15.999,0.163
53062.451453,15.644,0.348
53062.463672,16.223,0.285
53080.343064,16.41,0.053
53080.354312,16.4,0.051
53080.365501,16.454,0.053
53080.376785,16.475,0.049
53080.388185,16.328,0.048
53087.386708,16.265,0.033
53087.39715,16.126,0.033
53087.407785,16.135,0.033
53087.418339,16.214,0.457
53111.314791,16.316,0.056
53111.336858,16.402,0.054
53111.347673,16.343,0.054
53139.258495,16.417,0.056
53139.267982,16.368,0.053
53139.277523,16.458,0.054
53148.24608,16.417,0.046
53148.25499,16.389,0.044
53148.263903,16.308,0.044
53148.272811,16.34,0.043
53148.281727,16.374,0.046
53168.21841,16.14,0.048
53168.228554,16.126,0.055
53168.238631,16.089,0.05
53168.24873,16.129,0.054
53168.258807,16.251,0.057
53175.220831,16.115,0.05
53175.230872,16.095,0.061
53175.240701,16.089,0.044
53175.250532,16.088,0.044
53175.260474,16.027,0.087
53404.500094,16.275,0.094
53404.52509,16.134,0.076
53404.537648,16.289,0.089
53469.330872,16.172,0.044
53469.340506,16.228,0.043
53469.350318,16.271,0.046
53469.359824,16.15,0.044
53469.369367,16.217,0.046
53504.239315,16.297,0.057
53504.249001,16.235,0.055
53504.259275,16.394,0.057
53504.268648,16.283,0.057
53504.277881,16.125,0.057
53530.216424,16.285,0.059
53530.227073,16.299,0.055
53530.23751,16.184,0.057
53530.249165,16.273,0.059
53530.259691,16.16,0.061
53556.174832,16.138,0.052
53556.185338,16.182,0.048
53556.195962,16.214,0.048
53556.21731,16.257,0.05
53797.374566,16.471,0.054
53797.386715,16.314,0.059
53797.398803,16.431,0.084
53797.410837,16.259,0.083
53815.360128,16.157,0.078
53815.37129,16.304,0.093
53815.393622,16.308,0.08
53833.323259,16.394,0.072
53833.333348,16.349,0.07
53833.343291,16.322,0.065
53833.353215,16.282,0.068
53833.363151,16.349,0.07
53846.290776,16.496,0.073
53846.30147,16.429,0.069
53846.312077,16.31,0.061
53846.322757,16.409,0.061
53846.33333,16.171,0.054
53881.258962,16.093,0.064
53881.288119,16.264,0.064
53881.298979,16.043,0.063
53881.310406,16.171,0.061
53881.320888,16.153,0.058
53886.255844,16.537,0.079
53886.269794,16.594,0.084
53886.280795,16.542,0.086
53886.293315,16.481,0.084
53886.304584,16.606,0.092
53905.17244,16.361,0.067
53905.182449,16.388,0.07
53905.192448,16.363,0.068
53905.202482,16.463,0.074
53905.21257,16.322,0.067
53910.173334,16.311,0.064
53910.174392,16.335,0.093
53910.183896,16.301,0.068
53910.184675,16.269,0.094
53910.194474,16.337,0.069
53910.194876,16.234,0.093
53910.204974,16.318,0.066
53910.20514,16.354,0.096
53910.215364,16.34,0.098
53914.178814,16.517,0.115
53914.189232,16.765,0.141
53914.199667,16.532,0.115
53917.184113,16.55,0.351
53917.205115,16.489,0.222
54113.486296,16.144,0.083
54113.503248,16.37,0.076
54113.516204,16.431,0.076
54147.403874,16.067,0.054
54147.415887,16.067,0.053
54147.427965,16.058,0.051
54147.440434,16.003,0.049
54147.452553,16.122,0.051
54157.387926,16.337,0.055
54157.399623,16.394,0.055
54157.41133,16.307,0.054
54157.423048,16.379,0.05
54157.434833,16.431,0.05
54175.379266,16.052,0.043
54175.389963,16.005,0.043
54175.400694,16.093,0.045
54175.411803,16.168,0.046
54198.318419,16.384,0.272
54198.328009,16.443,0.158
54198.356901,16.702,0.117
54476.470064,16.107,0.033
54476.482967,16.077,0.031
54476.495878,16.13,0.03
54476.50878,16.15,0.035
54484.467304,16.583,0.074
54484.480382,16.373,0.061
54484.493251,16.305,0.046
54484.506098,16.425,0.048
54484.51904,16.426,0.048
54485.472648,16.317,0.085
54485.485365,16.439,0.08
54485.498063,16.327,0.076
54485.510755,16.329,0.07
54485.523446,16.363,0.061
54509.401078,16.122,0.03
54509.413168,16.082,0.028
54509.425251,16.116,0.028
54509.437324,16.061,0.028
54509.449424,16.029,0.026
54532.389467,15.983,0.028
54532.40093,16.136,0.031
54532.412254,16.142,0.03
54532.423514,16.077,0.03
54532.434767,16.198,0.031
54538.369715,16.306,0.035
54538.38072,16.329,0.033
54538.402697,16.325,0.033
54538.413637,16.348,0.035
54568.351943,16.464,0.066
54568.362964,16.526,0.064
54568.373858,16.478,0.066
54568.384755,16.431,0.064
54568.395577,16.398,0.061
54587.301801,16.413,0.052
54587.312185,16.4,0.054
54587.322498,16.414,0.054
54587.332794,16.386,0.055
54587.343183,16.375,0.055
54595.251566,16.102,0.044
54595.271499,16.194,0.043
54595.281475,16.062,0.039
54598.199191,16.511,0.098
54598.209718,16.393,0.072
54598.220224,16.384,0.07
54598.230731,16.381,0.07
54598.241267,16.41,0.072
54619.21519,16.376,0.054
54619.225418,16.238,0.05
54619.235722,16.328,0.083
54619.245998,16.169,0.046
54619.256384,16.135,0.046
54622.21917,16.308,0.236
54622.230055,16.629,0.276
54622.250188,16.317,0.234
54622.260167,16.166,0.236
