mjd,m,merr
52684.433522,14.857,0.02
52684.463496,14.882,0.033
52693.418362,14.879,0.015
52693.434845,14.819,0.013
52693.450442,14.811,0.013
52693.465699,14.791,0.013
52693.481181,14.75,0.013
52721.366128,14.754,0.011
52721.379054,14.786,0.011
52721.391962,14.785,0.013
52721.404846,14.798,0.013
52721.417732,14.816,0.013
52750.290344,15.098,0.02
52750.300954,15.099,0.018
52750.311551,15.083,0.02
52750.322151,15.04,0.018
52750.332752,14.934,0.022
52781.266458,14.948,0.02
52781.277042,14.955,0.02
52781.287694,15.022,0.02
52781.298677,15.021,0.02
52781.310383,14.972,0.02
52801.218942,15.058,0.05
52801.249388,15.132,0.052
52809.221972,15.051,0.017
52809.231841,14.992,0.017
52809.241645,14.876,0.015
52809.251635,14.831,0.015
52809.261494,14.811,0.015
52830.174641,14.959,0.026
52830.184473,15.012,0.028
52830.194333,15.027,0.028
52830.204181,15.037,0.028
52830.213969,14.963,0.026
52843.164312,14.809,0.017
52843.174299,14.806,0.017
52843.233626,14.846,0.021
52843.243735,14.857,0.02
52843.253661,14.883,0.031
52843.263701,14.871,0.024
52872.138252,14.845,0.02
53038.44493,14.82,0.02
53038.457827,14.843,0.018
53038.470418,14.826,0.022
53038.483415,14.83,0.02
53038.500377,14.855,0.02
53045.3803,15.074,0.022
53045.391542,15.062,0.022
53045.40287,15.054,0.022
53045.414128,15.094,0.022
53045.425314,15.122,0.022
53096.328312,15.079,0.026
53096.338562,15.063,0.026
53096.348964,15.1,0.026
53096.359656,15.079,0.026
53096.370455,15.088,0.024
53108.306638,15.09,0.013
53108.317514,15.102,0.015
53108.328574,15.086,0.013
53108.339467,15.102,0.013
53108.350391,15.055,0.013
53125.290788,14.925,0.024
53125.300728,14.989,0.026
53125.310676,14.999,0.026
53125.320624,14.958,0.026
53125.330638,14.946,0.026
53134.248428,14.769,0.013
53134.257914,14.751,0.013
53134.267338,14.728,0.011
53134.276758,14.733,0.011
53134.286201,14.728,0.013
53155.252993,15.04,0.026
53155.261791,15.068,0.028
53155.270554,15.073,0.028
53155.279336,15.088,0.028
53155.288098,15.07,0.03
53163.264114,15.042,0.055
53193.251554,14.781,0.017
53193.261641,14.78,0.018
53214.162909,15.086,0.028
53214.194685,15.118,0.031
53244.134418,14.743,0.02
53244.144599,14.726,0.02
53244.154802,14.701,0.02
53244.164988,14.713,0.02
53244.175192,14.727,0.022
53362.512102,15.101,0.015
53362.526641,14.993,0.017
53362.540788,14.916,0.017
53390.410344,14.775,0.015
53390.423515,14.762,0.015
53390.439316,14.77,0.013
53390.452431,14.775,0.011
53390.465632,14.792,0.011
53400.430009,14.788,0.015
53400.442548,14.785,0.015
53400.467457,14.802,0.015
53429.336444,15.083,0.02
53429.347661,15.05,0.02
53429.358933,15.029,0.02
53429.370212,14.971,0.018
53429.381494,14.887,0.017
53461.33673,14.825,0.013
53461.347046,14.827,0.013
53461.357576,14.839,0.013
53461.367952,14.832,0.013
53461.379036,14.84,0.013
53489.31089,14.976,0.02
53489.32171,14.979,0.017
53489.333536,14.952,0.017
53489.345714,15.0,0.017
53535.220831,15.147,0.02
53535.230847,15.126,0.02
53535.240872,15.076,0.018
53535.250884,15.079,0.018
53535.260908,15.045,0.018
53599.144683,14.914,0.026
53599.157315,14.923,0.03
53599.182509,14.965,0.031
53599.195106,14.959,0.035
53607.128939,14.956,0.017
53607.140519,14.915,0.028
53607.151983,14.961,0.033
53607.163407,14.961,0.018
53725.472582,14.846,0.017
53725.485676,14.849,0.017
53725.498772,14.867,0.017
53725.512378,14.892,0.017
53725.526104,14.877,0.015
53755.409211,15.021,0.02
53755.422259,14.963,0.02
53755.435457,15.026,0.018
53755.448159,15.029,0.018
53755.461195,15.04,0.018
53775.433738,15.044,0.041
53803.352155,14.837,0.016
53803.3642,14.817,0.016
53803.376025,14.792,0.015
53803.388261,14.77,0.013
53803.400068,14.757,0.013
53807.367571,14.723,0.018
53807.379861,14.751,0.02
53807.391962,14.721,0.02
53833.268935,14.819,0.016
53833.280244,14.803,0.015
53833.291186,14.817,0.013
53833.301491,14.817,0.015
53833.312057,14.842,0.015
53858.293166,14.773,0.018
53858.303112,14.76,0.016
53858.313149,14.741,0.018
53858.323099,14.737,0.028
53864.247746,14.841,0.026
53864.266963,14.786,0.023
53864.276647,14.786,0.023
53864.286203,14.78,0.023
53876.259424,14.79,0.023
53876.270363,14.815,0.023
53876.292189,14.808,0.023
53905.217182,15.123,0.02
53905.227095,14.976,0.018
53905.236823,14.903,0.016
53905.246523,14.878,0.016
53905.26004,14.852,0.016
53934.170154,15.059,0.02
53934.180657,14.999,0.023
53934.191145,15.056,0.02
53934.201728,15.109,0.021
53934.212231,15.061,0.02
53955.151208,14.862,0.035
53955.163427,14.876,0.037
53955.175699,14.903,0.039
53955.187933,14.835,0.039
54108.449012,14.833,0.018
54108.461968,14.822,0.018
54108.474708,14.797,0.018
54108.487444,14.776,0.017
54108.500229,14.757,0.017
54139.387033,14.995,0.03
54139.398764,15.054,0.026
54167.347927,14.83,0.015
54167.359117,14.815,0.015
54167.370309,14.808,0.015
54167.381506,14.791,0.015
54524.391414,14.964,0.018
54524.402917,14.911,0.018
54524.414541,14.889,0.018
54524.426012,14.909,0.018
54524.438044,14.957,0.018
54540.345389,14.949,0.023
54540.356468,15.07,0.023
54540.367402,14.986,0.021
