mjd,m,merr
52667.469583,14.928,0.018
52667.484801,15.068,0.02
52667.499431,15.235,0.023
52667.514084,15.331,0.023
52667.528644,15.159,0.021
52676.436413,14.895,0.018
52676.451398,14.989,0.018
52676.466836,15.21,0.021
52676.482062,15.37,0.025
52676.482192,15.383,0.025
52676.497154,15.22,0.023
52707.439093,15.255,0.02
52707.439227,15.291,0.018
52707.452348,15.069,0.017
52707.45248,15.07,0.015
52707.46612,14.928,0.015
52707.466253,14.922,0.013
52707.480058,14.859,0.015
52707.480192,14.841,0.013
52707.493393,14.824,0.015
52707.493541,14.822,0.013
52710.378601,14.859,0.016
52710.391838,14.965,0.016
52710.404863,15.128,0.018
52710.417901,15.292,0.021
52710.431157,15.28,0.021
52711.368712,14.915,0.018
52711.381782,14.869,0.016
52711.408547,14.827,0.015
52711.422601,14.934,0.016
52734.31736,14.917,0.03
52734.3176,14.985,0.031
52734.317722,14.974,0.035
52738.30502,14.899,0.015
52738.305255,14.887,0.013
52738.316511,14.876,0.013
52738.316748,14.871,0.013
52738.328014,14.908,0.013
52738.328248,14.878,0.013
52738.33973,14.93,0.013
52738.340043,14.921,0.011
52738.351462,14.991,0.013
52738.351699,14.988,0.013
52755.264012,15.06,0.02
52755.27641,15.253,0.021
52755.276525,15.237,0.023
52755.288604,15.321,0.023
52755.288717,15.367,0.025
52755.300766,15.171,0.021
52755.300879,15.176,0.021
52755.312725,14.993,0.018
52768.266353,15.032,0.023
52768.278011,15.206,0.026
52768.289738,15.377,0.031
52768.301326,15.271,0.026
52768.312924,15.057,0.023
52769.270524,14.798,0.02
52769.30537,14.98,0.025
52769.316798,15.128,0.028
52793.257925,15.284,0.026
52793.268291,15.265,0.028
52793.279084,15.105,0.025
52793.289332,14.963,0.021
52793.299976,14.873,0.02
52794.222626,14.876,0.018
52794.232943,14.834,0.018
52794.24346,14.837,0.018
52794.264724,14.919,0.02
52819.209211,14.884,0.059
52819.219129,14.828,0.02
52819.219218,14.826,0.02
52824.177961,14.897,0.017
52824.17805,14.928,0.017
52824.178525,14.898,0.02
52824.187855,14.972,0.018
52824.187944,14.979,0.017
52824.18842,14.977,0.021
52824.197688,15.113,0.02
52824.197777,15.09,0.018
52824.19848,15.148,0.025
52824.207624,15.299,0.024
52824.207714,15.243,0.022
52824.208474,15.299,0.028
52824.217478,15.354,0.024
52824.217567,15.31,0.024
52824.218428,15.333,0.028
53002.508897,15.227,0.013
53002.523828,15.259,0.013
53006.460947,14.933,0.02
53006.461068,14.831,0.017
53006.473136,14.901,0.022
53006.473257,14.774,0.022
53006.497683,14.929,0.018
53006.497804,14.829,0.015
53006.509876,14.997,0.022
53006.509997,14.874,0.024
53033.455101,15.183,0.018
53033.455839,15.194,0.017
53033.467179,15.256,0.02
53033.467917,15.251,0.017
53033.479189,15.15,0.018
53033.479927,15.146,0.017
53033.491366,15.003,0.017
53033.492109,14.971,0.013
53033.503621,14.918,0.015
53033.50436,14.923,0.013
53053.414022,14.887,0.013
53053.425814,14.868,0.015
53053.437511,14.857,0.015
53053.449872,14.861,0.039
53053.461576,14.965,0.022
53054.44038,14.881,0.011
53054.456352,14.792,0.011
53054.468248,14.764,0.011
53054.481252,14.799,0.011
53054.493887,14.85,0.011
53064.36621,14.835,0.015
53064.414399,15.297,0.044
53064.415063,15.254,0.017
53079.369816,15.318,0.02
53079.381049,15.223,0.018
53079.392267,15.047,0.015
53079.403872,14.939,0.013
53079.414719,14.881,0.013
53080.393501,15.19,0.015
53080.404386,15.367,0.017
53080.415381,15.326,0.017
53080.426356,15.139,0.017
53080.437221,14.993,0.013
53089.336017,14.88,0.057
53089.336642,14.874,0.024
53092.376114,15.354,0.016
53092.378185,15.296,0.015
53092.385928,15.227,0.015
53092.38858,15.122,0.013
53092.39571,15.038,0.013
53092.398896,14.98,0.013
53092.405536,14.937,0.012
53092.409275,14.894,0.011
53092.415431,14.856,0.012
53092.419535,14.858,0.011
53110.297358,15.095,0.017
53110.308176,15.252,0.02
53110.318979,15.346,0.02
53110.32978,15.231,0.018
53110.340579,15.045,0.017
53115.30165,14.905,0.011
53115.312903,14.855,0.009
53115.324063,14.82,0.009
53115.335131,14.83,0.009
53115.346199,14.857,0.011
53116.314924,15.214,0.013
53116.325684,15.055,0.013
53119.297657,15.273,0.015
53119.299259,15.257,0.015
53119.308088,15.137,0.013
53119.309266,15.144,0.013
53119.318585,15.014,0.011
53119.329136,14.934,0.011
53119.330228,14.912,0.012
53119.339561,14.882,0.011
53119.340221,14.861,0.012
53138.254032,14.994,0.015
53138.263576,15.144,0.017
53138.273135,15.209,0.018
53138.282768,15.255,0.018
53138.292313,15.174,0.018
53139.251732,14.819,0.013
53139.261223,14.816,0.013
53139.27074,14.856,0.013
53139.28021,14.904,0.013
53139.289707,14.964,0.015
53149.246163,14.879,0.013
53149.251697,14.876,0.011
53149.254772,14.841,0.013
53149.260625,14.855,0.011
53149.2634,14.823,0.012
53149.269547,14.824,0.011
53149.272018,14.838,0.012
53149.278469,14.867,0.011
53149.280727,14.837,0.012
53149.287395,14.882,0.011
53166.245234,15.337,0.022
53166.254681,15.189,0.018
53166.26413,15.038,0.017
53166.273582,14.931,0.017
53166.283121,14.913,0.015
53169.22303,15.249,0.018
53169.232976,15.299,0.018
53169.242975,15.232,0.018
53169.252896,15.085,0.017
53169.262829,14.977,0.015
53447.360663,14.897,0.013
53447.360901,14.879,0.013
53447.392775,15.222,0.018
53447.393013,15.228,0.017
53447.403682,15.361,0.018
53447.40392,15.341,0.017
53468.432279,14.901,0.015
53468.442309,14.974,0.017
53468.454307,15.138,0.02
53468.463768,15.289,0.022
53478.369635,15.21,0.028
53478.369742,15.152,0.024
53478.379258,15.05,0.022
53478.379364,14.998,0.02
53478.388327,14.972,0.02
53478.388434,14.906,0.018
53478.397343,14.904,0.018
53478.39745,14.867,0.017
53478.406365,14.866,0.017
53478.406472,14.825,0.017
53496.253551,14.896,0.018
53496.253651,14.879,0.017
53496.263582,14.918,0.018
53496.263682,14.941,0.017
53496.273663,15.003,0.018
53496.273763,14.985,0.017
53496.283826,15.134,0.022
53496.283926,15.112,0.02
53496.29386,15.291,0.024
53496.29396,15.313,0.024
53503.328123,15.301,0.018
53503.328318,15.325,0.017
53503.337143,15.173,0.017
53503.337338,15.188,0.017
53503.34751,15.016,0.017
53503.347705,15.015,0.015
53503.358381,14.916,0.015
53503.358576,14.91,0.013
53503.367559,14.91,0.017
53503.367754,14.874,0.017
53527.216578,14.915,0.018
53527.216665,14.919,0.017
53527.226408,15.025,0.02
53527.226494,14.978,0.018
53527.23627,15.124,0.022
53527.236356,15.113,0.02
53527.24622,15.299,0.026
53527.246306,15.253,0.024
53527.256105,15.342,0.026
53527.256192,15.325,0.026
53790.409326,14.881,0.015
53790.421208,14.88,0.015
53790.43293,14.943,0.013
53790.445137,14.993,0.015
53790.457094,15.201,0.016
53791.417749,14.997,0.015
53817.32702,14.829,0.015
53817.338627,14.866,0.015
53817.350193,14.891,0.015
53817.362101,14.976,0.015
53845.299348,14.892,0.016
53845.310507,14.948,0.021
53845.321855,15.011,0.021
53845.333247,15.169,0.023
53845.344358,15.365,0.03
53850.295008,15.367,0.025
53850.305574,15.262,0.023
53850.316251,15.085,0.02
53850.326796,14.983,0.018
53850.337321,14.916,0.016
53884.22464,15.208,0.026
53884.225264,15.212,0.024
53884.236228,15.301,0.028
53884.23685,15.301,0.026
53884.247792,15.187,0.026
53884.248417,15.175,0.022
53884.259388,15.054,0.022
53884.260012,15.054,0.02
53884.270977,14.959,0.02
53884.271606,14.922,0.018
53901.22845,14.824,0.026
53901.228729,14.877,0.024
53901.248475,14.892,0.039
53901.248755,15.05,0.035
53901.258476,15.175,0.043
53911.225856,14.873,0.041
53911.226119,14.814,0.041
53911.235483,14.899,0.038
53937.184817,15.226,0.033
53937.185528,15.208,0.03
53937.194934,15.008,0.026
53937.195646,15.048,0.026
53937.2051,14.963,0.026
53937.205939,14.996,0.026
54155.414737,15.04,0.015
54155.414884,15.005,0.013
54155.426579,14.933,0.013
54155.426727,14.907,0.011
54155.438444,14.875,0.013
54155.438593,14.852,0.011
54155.450427,14.864,0.013
54155.462351,14.865,0.013
54155.462501,14.823,0.011
54174.375882,15.478,0.086
54174.386688,15.233,0.025
54174.397545,15.042,0.023
54174.40837,14.961,0.023
54174.419147,14.864,0.016
54180.337183,15.141,0.016
54180.347491,15.327,0.02
54180.357797,15.38,0.021
54180.368417,15.255,0.02
54180.378793,15.07,0.016
54180.378927,15.066,0.016
54200.31167,14.865,0.026
54200.311976,14.888,0.02
54200.321366,14.815,0.025
54200.321671,14.836,0.018
54200.330976,14.836,0.025
54200.331283,14.897,0.02
54200.340366,14.903,0.026
54200.340672,14.937,0.02
54200.34974,14.913,0.028
54200.350045,14.98,0.021
54477.466541,14.93,0.015
54477.492413,15.039,0.015
54477.505499,15.147,0.015
54539.371995,14.882,0.009
54539.37216,14.841,0.009
54539.382871,14.936,0.009
54539.383038,14.896,0.009
54539.393736,15.004,0.009
54539.393902,14.971,0.009
54539.404558,15.132,0.011
54539.404723,15.128,0.011
54539.415401,15.255,0.011
54539.415567,15.268,0.013
54558.294067,15.12,0.018
54558.294354,15.11,0.015
54558.305673,14.979,0.022
54558.305959,14.985,0.018
54558.317251,14.892,0.017
54558.31754,14.884,0.013
54558.328865,14.875,0.028
54558.329151,14.849,0.037
54558.340533,14.844,0.013
54558.34082,14.817,0.011
54568.295105,15.267,0.018
54568.295947,15.275,0.017
54568.306047,15.149,0.017
54568.306895,15.116,0.015
54568.317006,15.015,0.015
54568.317855,14.998,0.013
54568.327946,14.918,0.013
54568.328813,14.894,0.011
54568.338928,14.872,0.013
54568.339778,14.852,0.011
54580.297151,14.95,0.022
54580.297288,14.893,0.018
54580.307763,14.919,0.02
54580.307895,14.841,0.018
54580.318379,14.87,0.018
54580.318514,14.819,0.017
54580.328991,14.905,0.02
54580.329124,14.849,0.017
54580.339588,14.965,0.02
54580.339722,14.861,0.017
54588.294581,15.016,0.015
54588.295075,15.02,0.013
54588.305148,15.176,0.017
54588.305701,15.176,0.015
54588.315847,15.271,0.018
54588.316341,15.28,0.017
54588.326367,15.232,0.018
54588.32686,15.197,0.017
54588.336874,15.117,0.017
54588.337373,15.086,0.015
54590.249086,15.182,0.031
54590.259268,15.32,0.036
54590.269473,15.388,0.053
54590.279593,15.325,0.041
54590.289728,15.116,0.033
54597.256944,14.984,0.022
54597.257427,14.933,0.017
54597.267536,15.07,0.022
54597.268019,15.062,0.018
54597.278233,15.236,0.026
54597.278722,15.236,0.02
54597.288895,15.353,0.03
54597.289384,15.34,0.022
54597.299535,15.267,0.026
54597.300017,15.277,0.02
54611.257412,14.877,0.013
54611.257554,14.836,0.011
54611.267235,14.854,0.013
54611.267376,14.822,0.011
54611.277036,14.874,0.013
54611.277178,14.827,0.011
54611.286828,14.905,0.015
54611.286968,14.859,0.013
54611.296603,14.942,0.015
54611.296745,14.89,0.013
54620.221376,14.88,0.015
54620.221774,14.894,0.011
54620.231592,14.848,0.015
54620.231991,14.827,0.011
54620.241772,14.812,0.013
54620.242207,14.821,0.011
54620.251988,14.807,0.013
54620.252388,14.828,0.011
54620.262167,14.846,0.015
54620.262567,14.852,0.011
