mjd,m,merr
52670.502645,15.118,0.02
52670.517752,15.184,0.02
52670.532218,15.243,0.021
52676.441305,15.089,0.02
52676.457515,15.107,0.018
52676.472926,15.175,0.018
52676.492178,15.236,0.02
52676.510507,15.352,0.022
52701.450308,15.195,0.02
52701.469009,15.313,0.023
52701.483425,15.353,0.026
52701.499512,15.368,0.026
52701.514136,15.329,0.025
52708.439631,15.302,0.028
52708.452693,15.289,0.028
52708.465748,15.367,0.031
52708.478686,15.132,0.023
52708.478801,15.311,0.03
52708.491755,15.144,0.023
52708.49187,15.238,0.028
52729.356313,15.128,0.018
52729.36847,15.144,0.018
52729.392283,15.216,0.02
52729.40451,15.263,0.021
52732.374956,15.25,0.025
52732.37531,15.343,0.04
52737.394177,15.185,0.015
52737.406446,15.228,0.017
52737.419089,15.337,0.018
52737.431571,15.399,0.02
52756.260955,15.441,0.024
52756.272893,15.381,0.022
52756.284839,15.329,0.02
52756.296833,15.278,0.02
52756.308802,15.188,0.018
52761.266309,15.326,0.02
52761.278017,15.413,0.02
52761.289831,15.423,0.02
52761.301524,15.418,0.022
52761.313385,15.34,0.02
52768.269127,15.124,0.022
52768.281242,15.123,0.02
52768.293402,15.113,0.02
52768.305252,15.142,0.02
52768.317094,15.167,0.02
52792.270552,15.135,0.025
52792.28133,15.137,0.025
52792.292129,15.18,0.026
52792.302971,15.189,0.025
52792.313979,15.287,0.028
52793.258768,15.135,0.025
52793.269144,15.137,0.025
52793.279921,15.18,0.026
52793.290178,15.189,0.025
52793.300921,15.287,0.028
52816.219286,15.253,0.036
52816.229104,15.308,0.04
52816.238934,15.457,0.046
52816.248785,15.361,0.043
52816.258877,15.423,0.046
52819.216001,15.337,0.03
52823.188088,15.254,0.026
52823.198078,15.179,0.025
52823.208026,15.129,0.025
53000.512372,15.406,0.016
53032.457973,15.141,0.017
53032.470312,15.172,0.017
53032.482567,15.184,0.015
53032.494825,15.22,0.015
53032.507153,15.323,0.017
53054.439933,15.132,0.015
53054.455906,15.188,0.015
53054.467802,15.204,0.017
53054.480788,15.266,0.017
53054.493441,15.322,0.018
53062.417022,15.166,0.049
53062.428816,15.204,0.04
53080.393084,15.366,0.018
53080.40397,15.415,0.018
53080.414967,15.437,0.018
53080.425939,15.395,0.018
53080.436803,15.338,0.018
53087.398119,15.129,0.013
53087.408753,15.141,0.013
53087.419307,15.12,0.044
53111.294378,15.24,0.02
53111.305179,15.302,0.02
53111.316022,15.373,0.02
53111.326826,15.412,0.022
53111.337818,15.421,0.022
53118.342982,15.131,0.013
53118.35351,15.156,0.013
53139.251367,15.295,0.02
53139.260858,15.384,0.022
53139.270374,15.421,0.022
53139.279843,15.441,0.022
53139.289293,15.453,0.022
53148.287217,15.14,0.015
53148.29588,15.137,0.016
53148.304614,15.124,0.015
53148.314789,15.124,0.016
53148.325551,15.132,0.016
53169.22268,15.213,0.018
53169.232627,15.235,0.018
53169.242626,15.286,0.02
53169.252549,15.334,0.022
53169.262482,15.404,0.022
53175.220139,15.374,0.023
53175.229834,15.293,0.038
53175.239575,15.393,0.025
53404.50162,15.162,0.031
53404.514114,15.175,0.031
53404.526623,15.172,0.031
53404.539182,15.291,0.038
53440.482437,15.203,0.02
53440.493571,15.317,0.022
53440.504095,15.353,0.022
53469.341441,15.162,0.017
53469.351256,15.196,0.017
53469.360769,15.235,0.017
53469.370995,15.287,0.018
53504.283668,15.138,0.02
53504.292453,15.156,0.02
53504.302101,15.091,0.018
53504.313205,15.097,0.018
53504.322925,15.094,0.018
53530.217295,15.109,0.02
53530.227943,15.109,0.02
53530.238381,15.119,0.022
53530.250037,15.16,0.022
53530.260561,15.161,0.024
53556.175965,15.24,0.022
53556.197449,15.388,0.024
53556.207934,15.431,0.024
53556.218473,15.391,0.024
53797.363931,15.093,0.016
53797.376069,15.055,0.018
53797.388145,15.072,0.023
53797.400222,15.088,0.025
53797.412254,15.12,0.025
53815.395857,15.132,0.035
53815.406993,15.098,0.028
53815.418261,15.103,0.026
53815.429612,15.022,0.026
53815.440921,15.042,0.026
53833.324548,15.059,0.02
53833.344507,15.092,0.022
53833.35443,15.096,0.022
53833.364371,15.152,0.022
53846.291921,15.287,0.025
53846.302605,15.227,0.025
53846.313214,15.166,0.021
53846.323898,15.127,0.021
53846.334465,15.109,0.021
53905.173326,15.192,0.024
53905.183329,15.145,0.024
53905.193326,15.138,0.024
53905.203367,15.131,0.024
53910.174205,15.4,0.03
53910.184765,15.337,0.026
53910.195329,15.266,0.025
53910.205839,15.184,0.023
53910.216362,15.159,0.026
54113.487418,15.076,0.026
54113.504372,15.078,0.022
54113.517325,15.075,0.022
54147.405234,15.034,0.02
54147.417265,15.028,0.02
54147.429719,15.06,0.02
54147.441796,15.09,0.021
54147.453911,15.116,0.021
54156.384591,15.112,0.015
54156.402609,15.151,0.015
54156.414623,15.227,0.015
54156.426168,15.306,0.015
54156.437731,15.367,0.017
54175.380121,15.049,0.018
54175.390818,15.057,0.018
54175.401549,15.118,0.018
54175.41266,15.181,0.02
54175.423615,15.239,0.021
54484.469128,15.207,0.024
54484.481994,15.226,0.018
54484.494862,15.302,0.017
54484.507706,15.383,0.017
54484.520648,15.416,0.018
54533.413988,15.094,0.009
54533.425242,15.103,0.009
54533.436606,15.114,0.009
54539.372661,15.071,0.011
54539.394404,15.096,0.011
54539.416071,15.16,0.011
54567.296233,15.082,0.013
54567.307419,15.07,0.013
54567.318696,15.098,0.013
54567.329858,15.072,0.013
54567.341017,15.086,0.013
54568.353072,15.354,0.03
54568.364165,15.303,0.028
54568.374989,15.172,0.026
54568.385887,15.132,0.025
54568.396705,15.117,0.025
54587.302645,15.189,0.017
54587.31303,15.234,0.018
54587.323338,15.319,0.018
54587.333711,15.389,0.022
54587.344026,15.38,0.02
54595.292238,15.103,0.015
54595.302299,15.121,0.017
54595.312377,15.195,0.017
54595.322365,15.215,0.018
54619.215919,15.332,0.02
54619.226208,15.247,0.018
54619.246888,15.158,0.017
54619.257109,15.093,0.017
54622.220663,15.128,0.041
54622.231141,15.034,0.041
54622.24129,15.064,0.038
54622.251271,14.988,0.038
54622.261251,15.008,0.04
