mjd,m,merr
52652.528929,16.327,0.063
52681.35909,16.104,0.061
52681.403781,16.119,0.03
52696.414703,16.148,0.043
52696.428365,16.163,0.046
52723.409374,16.385,0.091
52752.295447,16.21,0.049
52752.307084,16.276,0.054
52752.317719,16.281,0.051
52752.328384,16.319,0.054
52752.339098,16.276,0.053
52772.255218,16.345,0.126
52772.266991,16.389,0.102
52800.221285,16.379,0.139
52800.231917,16.336,0.129
52800.252541,16.311,0.132
52800.262852,16.302,0.155
52810.222724,16.28,0.223
52810.23277,16.258,0.066
52810.252575,16.325,0.066
52812.234442,16.023,0.043
52812.244469,16.039,0.045
52812.254683,16.045,0.045
52812.264901,16.069,0.045
52812.274944,16.087,0.046
52827.176992,16.2,0.087
52827.187004,16.177,0.083
52839.171808,16.107,0.046
53023.45208,16.052,0.03
53023.464113,16.105,0.031
53023.476332,16.134,0.031
53023.488356,16.112,0.028
53023.500352,16.175,0.03
53035.420868,16.265,0.059
53035.433152,16.332,0.043
53035.445443,16.12,0.086
53035.457874,16.305,0.041
53035.47013,16.375,0.045
53037.472007,16.224,0.04
53037.484376,16.196,0.036
53037.49736,16.271,0.036
53037.51034,16.291,0.04
53037.522965,16.28,0.038
53049.392842,16.374,0.039
53049.404723,16.358,0.039
53049.416607,16.373,0.041
53049.428523,16.466,0.044
53049.440469,16.336,0.039
53107.289028,16.217,0.04
53107.299338,16.251,0.038
53107.309617,16.308,0.041
53107.319949,16.334,0.041
53107.330445,16.265,0.04
53136.24487,16.18,0.049
53136.253773,16.238,0.053
53136.262705,16.244,0.049
53136.271644,16.271,0.053
53136.280698,16.285,0.054
53154.248572,16.22,0.071
53154.256995,16.185,0.069
53154.265453,16.018,0.058
53154.273866,16.036,0.061
53154.282382,16.085,0.063
53164.220428,16.299,0.048
53164.230387,16.362,0.053
53164.240822,16.304,0.058
53164.250422,16.368,0.054
53164.260127,16.38,0.054
53194.203772,16.156,0.104
53194.213171,16.299,0.114
53243.131359,16.388,0.078
53243.141968,16.487,0.089
53243.152347,16.393,0.084
53243.162643,16.478,0.097
53243.173454,16.419,0.094
53358.482147,16.138,0.053
53358.496641,16.115,0.048
53358.511123,16.055,0.045
53358.525658,16.102,0.046
53422.398936,16.059,0.111
53422.410922,15.995,0.072
53422.422856,15.954,0.089
53422.435402,16.123,0.057
53422.447326,16.09,0.055
53450.345404,16.15,0.054
53450.356189,16.154,0.054
53450.367426,16.112,0.05
53450.378661,16.169,0.054
53474.356679,16.074,0.035
53474.367771,16.064,0.037
53474.378181,16.03,0.035
53474.389393,16.011,0.037
53521.256911,16.194,0.063
53521.26721,16.214,0.072
53521.277514,16.21,0.054
53521.287879,16.315,0.05
53521.29821,16.322,0.057
53538.22052,16.236,0.089
53538.230149,16.141,0.083
53538.239758,16.05,0.08
53538.249432,16.048,0.076
53538.259077,16.157,0.085
53583.161209,16.468,0.113
53583.172532,16.505,0.067
53583.183775,16.463,0.061
53583.195048,16.377,0.061
53583.20632,16.428,0.061
53605.136375,16.353,0.061
53605.147399,16.397,0.063
53605.158452,16.317,0.074
53605.169483,16.427,0.091
53605.180499,16.26,0.1
53728.472644,16.053,0.052
53728.486516,16.016,0.048
53728.499898,16.094,0.05
53728.513157,15.972,0.046
53728.526398,16.078,0.048
53742.481567,16.04,0.028
53742.494509,16.033,0.026
53742.507493,16.067,0.024
53742.520546,16.079,0.024
53742.533443,16.113,0.024
53772.42047,16.165,0.039
53772.433204,16.14,0.037
53772.445945,16.102,0.037
53772.458935,16.087,0.037
53772.471759,16.006,0.033
53807.341226,16.127,0.068
53807.352366,16.031,0.061
53807.363501,16.04,0.061
53807.374646,16.034,0.059
53824.381442,16.384,0.064
53824.393281,16.347,0.045
53824.405285,16.365,0.045
53824.416928,16.245,0.038
53843.309815,16.142,0.063
53843.321085,16.117,0.061
53843.332353,16.025,0.059
53843.343635,16.022,0.057
53843.354943,16.069,0.061
53855.291286,16.136,0.045
53855.30149,16.226,0.048
53855.312703,16.211,0.048
53855.323025,16.263,0.051
53855.333198,16.319,0.051
53878.28819,16.102,0.054
53878.298817,16.144,0.053
53878.309416,16.084,0.054
53878.319977,16.155,0.056
53878.330646,16.211,0.059
53892.219511,16.028,0.089
53892.229593,16.054,0.094
53892.239658,16.165,0.096
53892.249705,16.181,0.102
53892.259785,16.208,0.102
53903.234983,16.323,0.063
53903.244527,16.389,0.069
53903.254253,16.379,0.068
53903.263944,16.298,0.064
53903.273539,16.353,0.068
53917.217054,16.416,0.101
53917.226762,16.448,0.092
53917.236683,16.272,0.102
53917.256185,16.395,0.106
53932.184184,16.317,0.109
53932.218306,16.39,0.083
53944.173598,16.216,0.158
53944.195795,16.133,0.081
54086.438797,16.28,0.097
54086.452639,16.343,0.097
54086.465955,16.409,0.096
54086.480997,16.399,0.092
54086.494252,16.402,0.086
54109.447692,16.317,0.246
54109.471425,16.25,0.142
54109.483293,16.278,0.127
54169.332165,16.106,0.039
54169.343709,16.058,0.041
54169.354939,16.053,0.039
54169.366177,16.098,0.037
54169.37755,16.116,0.037
54186.327131,16.394,0.076
54186.337384,16.469,0.079
54186.347748,16.435,0.071
54186.357968,16.398,0.074
54186.368184,16.312,0.083
54200.322506,16.379,0.043
54200.333405,16.33,0.041
54200.343994,16.295,0.039
54200.354537,16.193,0.035
54200.364936,16.244,0.037
54209.266979,16.16,0.107
54209.276126,16.322,0.104
54209.284998,16.359,0.076
54209.293739,16.196,0.099
54209.302736,16.104,0.157
54217.254055,16.196,0.059
54217.262698,16.233,0.061
54217.27139,16.204,0.059
54217.280043,16.283,0.067
54217.288684,16.226,0.063
54218.274632,16.115,0.081
54218.283629,16.123,0.081
54218.292499,16.189,0.083
54218.30125,16.206,0.083
54218.310539,16.121,0.078
54509.391193,16.072,0.04
54509.403346,16.06,0.04
54509.415276,16.168,0.041
54509.427204,16.096,0.04
54509.439162,16.224,0.045
54536.330159,16.261,0.048
54536.341168,16.302,0.048
54536.352108,16.257,0.048
54536.363022,16.246,0.046
54536.373933,16.341,0.049
54555.260514,16.234,0.053
54555.283885,16.218,0.049
54555.295748,16.219,0.049
54560.307359,16.045,0.048
54560.319759,16.06,0.048
54560.331309,16.038,0.049
54560.342798,16.045,0.048
54560.354285,16.091,0.049
54583.292169,16.171,0.061
54583.307638,16.186,0.063
54583.320271,16.067,0.058
54583.331935,16.061,0.054
54583.343493,16.042,0.054
54614.222228,16.466,0.074
54614.232718,16.399,0.069
54614.243142,16.425,0.073
54614.253369,16.312,0.063
54614.263614,16.438,0.071
