mjd,m,merr
52652.461594,14.971,0.013
52652.476839,14.88,0.013
52652.495032,14.637,0.009
52652.525179,14.538,0.009
52664.424578,14.479,0.024
52722.409898,14.531,0.009
52722.42287,14.51,0.009
52722.436235,14.515,0.009
52722.449203,14.587,0.009
52722.462245,14.68,0.011
52751.318215,14.631,0.009
52751.329179,14.765,0.011
52751.339881,14.963,0.013
52751.351221,14.946,0.015
52751.363097,14.936,0.015
52800.221656,14.624,0.022
52800.231863,14.53,0.022
52800.241995,14.523,0.02
52800.252116,14.512,0.02
52800.26234,14.55,0.022
52810.224475,14.502,0.011
52810.234286,14.489,0.011
52810.244132,14.527,0.033
52812.227611,14.916,0.015
52812.237665,14.878,0.013
52812.247826,14.723,0.011
52812.257914,14.584,0.011
52812.267877,14.52,0.011
52839.171362,14.945,0.017
52839.181387,14.973,0.017
52839.191442,14.878,0.022
52990.471013,14.909,0.017
52990.52346,14.487,0.009
53023.410849,14.91,0.011
53023.423528,14.948,0.011
53023.436206,14.825,0.009
53023.448897,14.663,0.007
53023.461618,14.567,0.007
53046.411292,14.845,0.015
53046.4238,14.678,0.013
53046.43577,14.688,0.013
53046.447669,14.572,0.011
53046.460248,14.545,0.011
53107.300573,14.64,0.007
53107.311734,14.569,0.007
53107.322877,14.518,0.007
53107.333913,14.489,0.007
53107.344983,14.487,0.007
53127.292046,14.54,0.017
53127.302081,14.532,0.017
53127.312169,14.553,0.015
53127.322356,14.519,0.015
53127.332549,14.545,0.017
53136.248088,14.919,0.015
53136.257452,14.952,0.015
53136.266824,14.964,0.015
53136.276093,14.967,0.015
53136.285369,14.811,0.013
53154.253624,14.495,0.013
53154.262388,14.507,0.013
53154.2712,14.547,0.013
53154.280009,14.591,0.013
53154.288828,14.69,0.015
53164.224268,14.488,0.009
53164.234443,14.461,0.009
53164.244674,14.464,0.009
53164.254856,14.465,0.009
53164.265036,14.531,0.009
53181.23863,14.601,0.012
53181.248344,14.696,0.018
53181.267814,14.867,0.016
53194.197836,14.456,0.017
53194.207964,14.473,0.026
53194.218055,14.555,0.018
53359.493531,14.936,0.013
53359.50634,14.9,0.013
53359.519066,14.781,0.011
53359.532221,14.603,0.011
53421.406845,14.52,0.011
53421.419166,14.555,0.013
53421.432836,14.694,0.013
53421.447266,14.883,0.017
53421.459744,14.945,0.015
53430.436384,14.594,0.013
53430.459227,14.68,0.013
53430.470897,14.859,0.017
53491.306692,14.54,0.009
53491.316596,14.608,0.009
53491.326727,14.715,0.011
53491.33756,14.893,0.013
53491.347508,14.945,0.013
53537.223357,14.524,0.024
53566.213467,14.549,0.017
53566.224143,14.525,0.017
53566.234776,14.547,0.017
53566.245396,14.413,0.015
53566.256031,14.472,0.015
53610.131996,14.559,0.011
53610.154487,14.521,0.011
53610.165705,14.514,0.011
53757.444552,14.578,0.011
53757.457052,14.481,0.011
53757.47146,14.495,0.011
53757.484177,14.503,0.011
53757.496705,14.55,0.011
53773.42376,14.74,0.011
53773.436402,14.58,0.009
53773.448971,14.514,0.009
53773.461761,14.459,0.009
53773.47452,14.461,0.009
53826.337424,14.952,0.012
53826.348164,14.881,0.013
53827.35743,14.466,0.008
53827.368091,14.493,0.008
53827.379284,14.505,0.01
53827.389919,14.557,0.01
53827.400603,14.641,0.01
53856.276029,14.857,0.015
53856.285897,14.898,0.015
53856.295857,14.92,0.015
53856.30578,14.869,0.015
53856.315671,14.708,0.013
53877.271325,14.503,0.023
53877.282096,14.448,0.023
53877.292721,14.487,0.013
53877.30334,14.49,0.015
53877.313933,14.566,0.016
53904.22011,14.483,0.013
53904.229992,14.49,0.013
53904.239849,14.49,0.013
53904.249744,14.522,0.013
53904.259667,14.538,0.013
53933.171326,14.911,0.013
53933.182011,14.888,0.015
53933.192723,14.693,0.017
53933.203447,14.593,0.013
53933.214275,14.533,0.013
54098.439311,14.553,0.013
54098.452342,14.48,0.012
54098.464485,14.451,0.012
54098.476574,14.464,0.012
54098.48867,14.476,0.012
54124.400414,14.888,0.016
54124.413071,14.688,0.013
54124.426322,14.551,0.012
54124.45145,14.444,0.012
54140.399594,14.975,0.02
54140.411862,14.79,0.016
54140.424149,14.663,0.013
54140.436218,14.57,0.012
54140.448592,14.516,0.012
54158.401697,14.559,0.015
54158.412479,14.61,0.015
54158.423479,14.802,0.016
54158.434303,14.979,0.02
54188.319694,14.473,0.016
54188.329519,14.469,0.015
54188.339295,14.475,0.015
54188.349035,14.486,0.015
54188.358653,14.54,0.016
54198.327803,14.522,0.022
54198.337458,14.544,0.026
54198.347108,14.588,0.026
54210.268403,14.838,0.013
54210.277244,14.921,0.015
54210.28613,14.912,0.015
54210.295032,14.914,0.015
54210.30387,14.837,0.013
54218.271903,14.514,0.017
54218.280522,14.487,0.015
54218.289161,14.467,0.015
54218.297786,14.457,0.015
54218.306391,14.514,0.015
54481.4647,14.468,0.015
54481.490843,14.586,0.015
54481.503134,14.69,0.016
54498.393678,14.582,0.015
54498.406139,14.52,0.013
54498.417963,14.482,0.013
54498.429778,14.48,0.013
54498.441557,14.511,0.013
54526.390558,14.957,0.016
54526.401921,14.976,0.018
54526.413276,14.817,0.016
54526.424623,14.672,0.015
54526.436101,14.572,0.013
54537.349293,14.921,0.033
54537.360428,14.712,0.021
54537.371343,14.706,0.028
54559.302855,14.55,0.015
54559.314484,14.574,0.015
54559.326012,14.673,0.016
54559.337481,14.838,0.018
54559.348939,14.95,0.02
54569.295544,14.545,0.015
54569.306542,14.581,0.015
54569.317456,14.726,0.016
54569.328367,14.853,0.018
54569.339258,14.908,0.02
54585.285753,14.551,0.02
54585.296038,14.542,0.016
54585.30627,14.588,0.018
54585.316539,14.674,0.018
54585.32676,14.828,0.02
54618.21752,14.609,0.02
54618.227929,14.579,0.02
54618.238278,14.534,0.018
54618.248777,14.518,0.02
54618.25963,14.536,0.018
