mjd,m,merr
52652.460705,15.544,0.024
52652.475907,15.613,0.026
52652.494143,15.652,0.026
52652.50923,15.663,0.026
52652.524131,15.725,0.026
52664.423667,15.781,0.094
52722.409773,15.395,0.018
52722.422744,15.388,0.02
52722.436109,15.411,0.02
52722.449078,15.429,0.022
52722.462119,15.463,0.022
52751.318101,15.722,0.026
52751.329064,15.732,0.028
52751.339766,15.682,0.028
52751.351107,15.634,0.028
52751.362983,15.563,0.028
52800.220843,15.625,0.061
52800.231055,15.678,0.063
52800.241196,15.769,0.067
52800.251314,15.752,0.067
52800.261535,16.008,0.096
52810.223621,15.747,0.031
52810.233476,15.734,0.043
52812.226766,15.425,0.022
52812.236865,15.374,0.022
52812.246947,15.371,0.02
52812.257107,15.347,0.02
52812.267072,15.331,0.02
52839.171266,15.463,0.026
52839.181289,15.498,0.03
52839.191347,15.529,0.061
52990.470862,15.74,0.037
52990.484051,15.713,0.03
52990.497214,15.641,0.026
52990.510282,15.581,0.024
52990.52331,15.471,0.022
53023.410695,15.663,0.022
53023.423374,15.624,0.02
53023.436052,15.545,0.018
53023.448742,15.458,0.017
53023.461464,15.413,0.017
53046.410231,15.473,0.028
53046.422741,15.399,0.026
53046.434709,15.399,0.026
53046.446609,15.375,0.024
53046.459188,15.337,0.024
53107.299616,15.369,0.017
53107.310776,15.368,0.017
53107.321918,15.347,0.015
53107.332954,15.333,0.015
53107.344026,15.311,0.015
53127.250502,15.287,0.035
53127.260563,15.308,0.035
53127.270522,15.344,0.037
53127.280552,15.361,0.035
53127.290515,15.373,0.037
53136.247237,15.704,0.03
53136.256599,15.7,0.03
53136.265971,15.712,0.028
53136.275241,15.761,0.031
53136.284516,15.729,0.03
53154.252785,15.714,0.037
53154.261548,15.731,0.037
53154.27036,15.73,0.039
53154.27917,15.721,0.037
53154.28797,15.718,0.037
53164.223428,15.713,0.024
53164.233601,15.741,0.026
53164.243833,15.735,0.028
53164.254014,15.755,0.028
53164.264195,15.686,0.024
53181.237627,15.309,0.021
53181.267168,15.363,0.023
53194.197006,15.37,0.037
53194.217224,15.295,0.061
53359.491188,15.357,0.022
53359.503988,15.343,0.02
53359.516759,15.324,0.022
53359.529911,15.319,0.02
53421.358107,15.738,0.043
53421.381899,15.756,0.039
53421.393948,15.761,0.039
53421.405829,15.693,0.035
53430.425011,15.523,0.028
53430.436145,15.593,0.031
53430.447778,15.578,0.031
53430.458988,15.589,0.031
53430.470659,15.639,0.033
53491.256026,15.458,0.024
53491.268437,15.477,0.024
53491.281845,15.526,0.026
53491.29302,15.585,0.026
53491.306187,15.578,0.024
53537.222556,15.572,0.083
53537.232491,15.641,0.083
53566.213182,15.381,0.035
53566.223859,15.353,0.037
53566.234492,15.365,0.035
53566.245111,15.401,0.037
53566.255745,15.369,0.035
53610.131902,15.432,0.026
53610.143128,15.392,0.026
53610.154393,15.374,0.026
53610.165611,15.362,0.028
53757.39284,15.713,0.039
53757.405474,15.667,0.037
53757.418248,15.549,0.031
53757.43095,15.456,0.03
53757.443874,15.429,0.03
53773.422373,15.729,0.028
53773.435281,15.74,0.028
53773.447918,15.72,0.026
53773.460712,15.731,0.026
53773.473453,15.66,0.024
53826.337283,15.355,0.018
53826.348023,15.33,0.02
53827.35729,15.713,0.025
53827.36795,15.737,0.026
53827.379143,15.757,0.028
53827.389778,15.75,0.028
53827.400463,15.732,0.025
53835.291649,15.742,0.066
53856.275533,15.36,0.025
53856.285406,15.371,0.025
53856.295362,15.4,0.025
53856.305284,15.427,0.025
53856.315178,15.469,0.026
53877.270495,15.289,0.048
53877.281266,15.311,0.041
53877.291879,15.314,0.03
53877.302514,15.38,0.033
53877.313085,15.343,0.04
53904.219643,15.634,0.033
53904.22952,15.641,0.033
53904.23939,15.649,0.035
53904.249286,15.726,0.037
53904.259182,15.687,0.035
53933.171239,15.313,0.026
53933.181918,15.33,0.028
53933.192629,15.396,0.041
53933.203354,15.39,0.035
53933.214181,15.389,0.033
54098.438707,15.56,0.033
54098.451737,15.414,0.03
54098.463878,15.371,0.026
54098.475967,15.384,0.026
54098.488062,15.325,0.025
54124.412442,15.73,0.036
54124.425688,15.73,0.036
54124.438381,15.713,0.036
54124.450821,15.644,0.035
54140.399445,15.651,0.038
54140.411713,15.687,0.036
54140.423983,15.74,0.038
54140.436068,15.725,0.036
54140.448442,15.761,0.038
54158.390105,15.742,0.043
54158.40158,15.808,0.045
54158.412362,15.84,0.045
54158.423346,15.83,0.041
54158.434186,15.851,0.045
54188.319588,15.716,0.051
54188.329413,15.77,0.051
54188.33919,15.705,0.048
54188.348929,15.693,0.048
54188.358546,15.673,0.049
54198.327262,15.677,0.065
54210.268281,15.338,0.023
54210.277121,15.352,0.021
54210.286007,15.32,0.021
54210.29491,15.341,0.023
54210.303748,15.342,0.021
54218.271607,15.359,0.035
54218.280225,15.367,0.035
54218.288861,15.35,0.033
54218.29749,15.329,0.033
54218.306096,15.299,0.031
54481.452187,15.657,0.036
54481.464529,15.629,0.035
54481.490672,15.601,0.033
54481.502965,15.518,0.031
54498.392976,15.301,0.026
54498.405438,15.281,0.025
54498.417262,15.307,0.026
54498.429078,15.302,0.025
54498.440861,15.33,0.026
54526.389738,15.379,0.023
54526.401251,15.345,0.023
54526.41261,15.387,0.025
54526.423954,15.415,0.025
54526.435437,15.446,0.026
54537.326669,15.66,0.13
54537.337642,15.746,0.112
54537.348818,15.699,0.063
54537.359953,15.61,0.046
54537.370869,15.521,0.046
54559.302273,15.364,0.03
54559.313819,15.364,0.028
54559.325429,15.395,0.03
54559.3369,15.413,0.03
54559.348356,15.452,0.031
54569.295133,15.471,0.031
54569.30613,15.473,0.031
54569.317045,15.513,0.03
54569.327957,15.5,0.03
54569.338847,15.556,0.031
54585.285615,15.307,0.033
54585.295901,15.336,0.026
54585.306134,15.332,0.03
54585.316402,15.396,0.03
54585.326624,15.346,0.028
54599.255292,15.894,0.101
54599.273851,15.896,0.097
54599.283258,15.898,0.101
54618.217393,15.325,0.036
54618.227804,15.345,0.038
54618.238087,15.366,0.036
54618.248653,15.376,0.038
54618.259506,15.396,0.036
