mjd,m,merr
52653.462146,16.194,0.045
52653.476897,16.078,0.043
52653.49254,16.094,0.041
52653.50767,16.106,0.041
52653.523196,16.157,0.04
52684.43365,16.089,0.056
52684.448828,16.056,0.053
52684.478419,16.199,0.071
52693.391306,16.139,0.049
52693.405163,16.035,0.046
52693.418967,16.085,0.048
52693.432707,16.098,0.048
52693.446623,16.101,0.048
52721.357158,16.117,0.046
52721.369499,16.132,0.046
52721.382298,16.19,0.049
52721.394716,16.251,0.053
52721.406878,16.248,0.053
52750.296892,16.174,0.054
52750.308348,16.105,0.048
52750.319823,16.041,0.051
52750.331361,16.087,0.061
52750.342391,16.182,0.068
52781.267112,16.15,0.048
52781.277696,16.146,0.046
52781.288347,16.144,0.048
52781.299328,16.162,0.048
52781.31106,16.181,0.049
52801.219034,16.156,0.131
52801.229274,16.237,0.142
52801.239404,16.248,0.142
52801.24948,16.402,0.157
52801.259648,16.268,0.146
52809.222064,16.097,0.043
52809.231932,16.17,0.046
52809.241733,16.185,0.046
52809.251723,16.178,0.046
52809.261583,16.266,0.05
52830.174729,16.194,0.078
52830.18456,16.245,0.081
52830.194425,16.167,0.078
52830.204273,16.306,0.087
52830.214061,16.284,0.083
52842.173071,16.131,0.064
52842.193031,16.111,0.112
52988.424722,16.31,0.086
52988.442091,16.45,0.096
52988.462088,16.33,0.079
53008.486344,16.328,0.061
53008.5149,16.255,0.054
53038.445032,16.124,0.068
53038.457929,16.133,0.065
53038.470528,16.121,0.074
53038.483518,16.166,0.078
53038.500479,16.288,0.078
53045.380395,16.228,0.067
53045.391638,16.216,0.065
53045.402965,16.181,0.061
53045.414224,16.098,0.055
53045.42541,16.128,0.057
53096.328401,16.3,0.083
53096.338651,16.297,0.08
53096.349053,16.434,0.087
53096.359746,16.24,0.074
53096.370544,16.255,0.07
53108.306727,16.295,0.041
53108.317603,16.328,0.043
53108.328663,16.398,0.044
53108.339556,16.343,0.041
53108.35048,16.286,0.039
53125.290871,16.213,0.076
53125.30081,16.177,0.076
53125.310759,16.266,0.08
53125.320707,16.357,0.089
53125.33072,16.356,0.087
53134.248509,16.257,0.046
53134.257995,16.214,0.044
53134.267418,16.296,0.046
53134.276838,16.319,0.048
53134.286282,16.365,0.054
53155.25307,16.234,0.078
53155.261869,16.25,0.083
53155.270631,16.21,0.08
53155.279413,16.145,0.074
53155.288175,16.142,0.076
53163.264192,16.192,0.15
53193.251632,16.104,0.055
53193.261718,16.154,0.061
53214.162988,16.116,0.068
53214.194765,16.08,0.07
53244.134502,16.195,0.076
53244.144683,16.309,0.083
53244.154886,16.369,0.091
53244.165072,16.311,0.087
53244.175276,16.218,0.085
53362.511843,16.039,0.05
53362.512739,16.083,0.046
53362.526381,16.113,0.059
53362.527279,16.065,0.072
53362.540528,16.139,0.078
53362.541425,16.127,0.065
53390.410091,16.225,0.063
53390.410963,16.157,0.052
53390.423263,16.103,0.057
53390.424134,16.122,0.05
53390.439064,16.048,0.046
53390.439935,16.109,0.043
53390.452179,16.068,0.044
53390.453049,16.11,0.041
53390.465315,16.094,0.044
53390.466251,16.118,0.041
53400.42976,16.301,0.067
53400.43062,16.194,0.055
53400.442299,16.183,0.057
53400.443155,16.156,0.052
53400.454773,16.301,0.067
53400.45563,16.08,0.048
53400.468066,16.068,0.05
53423.400912,16.227,0.109
53429.336191,16.17,0.063
53429.337061,16.154,0.055
53429.347409,16.281,0.07
53429.348326,16.162,0.055
53429.358681,16.286,0.068
53429.359555,16.252,0.059
53429.369959,16.25,0.067
53429.370828,16.354,0.065
53429.381243,16.277,0.067
53429.382112,16.337,0.063
53460.348031,16.433,0.237
53461.33683,16.142,0.041
53461.347146,16.151,0.043
53461.357694,16.206,0.044
53461.368052,16.247,0.046
53461.379139,16.323,0.05
53481.30642,16.24,0.078
53481.318308,16.278,0.078
53481.329369,16.262,0.078
53481.339508,16.201,0.072
53481.34974,16.305,0.081
53489.310612,16.347,0.072
53489.310994,16.3,0.068
53489.321195,16.325,0.059
53489.333433,16.214,0.052
53489.33364,16.289,0.05
53489.34561,16.236,0.054
53489.345816,16.241,0.052
53535.220907,16.142,0.048
53535.230924,16.123,0.048
53535.240948,16.125,0.048
53535.250964,16.132,0.05
53535.260987,16.2,0.054
53563.17436,16.185,0.054
53599.144784,16.059,0.07
53599.157412,16.161,0.087
53599.182609,16.251,0.093
53599.19521,16.252,0.107
53607.140621,15.96,0.076
53725.472449,16.227,0.063
53725.472714,16.17,0.054
53725.485542,16.229,0.061
53725.485809,16.142,0.052
53725.498638,16.261,0.061
53725.498905,16.192,0.054
53725.512244,16.299,0.063
53725.512515,16.282,0.055
53725.52597,16.3,0.059
53725.526238,16.354,0.057
53755.40908,16.462,0.085
53755.40934,16.26,0.063
53755.422129,16.363,0.078
53755.422388,16.314,0.067
53755.435326,16.51,0.087
53755.435585,16.319,0.065
53755.448027,16.402,0.076
53755.44829,16.395,0.068
53755.461064,16.304,0.068
53755.461323,16.262,0.059
53775.421426,16.123,0.105
53775.434412,16.125,0.102
53775.446406,16.851,0.194
53775.447354,16.256,0.098
53775.469213,16.324,0.116
53775.473122,16.178,0.098
53803.352284,16.116,0.053
53803.364329,16.169,0.054
53803.376154,16.196,0.054
53803.388389,16.277,0.054
53803.400197,16.179,0.048
53807.367703,16.156,0.073
53807.379991,16.113,0.069
53807.392093,16.164,0.079
53858.293371,16.174,0.056
53858.303322,16.153,0.051
53858.313355,16.244,0.058
53858.323306,16.127,0.096
53864.247848,16.437,0.111
53864.257461,16.278,0.092
53864.276749,16.199,0.089
53864.286305,16.186,0.087
53906.221021,16.125,0.064
53906.232042,16.063,0.068
53906.25337,16.447,0.249
53906.266142,16.095,0.158
53934.170257,16.097,0.053
53934.180758,16.109,0.056
53934.191246,16.189,0.054
53934.201829,16.233,0.054
53934.212333,16.224,0.059
53955.151697,16.406,0.141
53955.163917,16.331,0.133
53955.175389,16.634,0.185
53955.176173,16.292,0.135
53955.187623,16.84,0.246
53955.188404,16.321,0.146
53955.199715,17.156,0.333
53955.200496,16.185,0.135
54079.427025,17.492,0.357
54079.438865,17.141,0.229
54079.450702,16.846,0.179
54079.462609,16.708,0.146
54079.474453,16.599,0.128
54108.448877,16.47,0.089
54108.449138,16.188,0.065
54108.461833,16.651,0.113
54108.462094,16.241,0.072
54108.474572,16.691,0.122
54108.474834,16.304,0.078
54108.487308,16.68,0.111
54108.487569,16.378,0.078
54108.500094,16.544,0.094
54108.500354,16.358,0.072
54139.387164,16.159,0.081
54139.398896,16.172,0.067
54139.410739,16.191,0.093
54139.42247,16.137,0.078
54139.434268,16.27,0.104
54167.348064,16.171,0.054
54167.359253,16.263,0.059
54167.370444,16.306,0.059
54167.381641,16.323,0.059
54464.45397,16.333,0.066
54464.466522,16.307,0.063
54464.479061,16.151,0.054
54464.491597,16.116,0.053
54464.504282,16.111,0.053
54484.451314,16.148,0.063
54484.46342,16.243,0.064
54484.475596,16.247,0.064
54484.48826,16.273,0.064
54484.501491,16.133,0.053
54495.459292,16.123,0.048
54495.471342,16.105,0.046
54495.483386,16.096,0.046
54495.495425,16.139,0.048
54495.507436,16.136,0.048
54523.38955,16.12,0.041
54523.40122,16.094,0.04
54523.413036,16.128,0.04
54523.424698,16.077,0.04
54523.436315,16.171,0.041
54540.334588,16.343,0.053
54540.345561,16.271,0.049
54540.356641,16.221,0.041
54540.367575,16.138,0.041
54540.378604,16.111,0.04
54554.3111,16.183,0.04
54554.322979,16.06,0.036
54554.33498,16.074,0.036
54554.346846,16.017,0.035
54554.35877,15.985,0.033
54572.297406,16.061,0.056
54572.308317,16.117,0.058
54572.31992,16.212,0.081
54587.295474,15.987,0.064
54587.305579,16.114,0.071
54587.315728,16.095,0.071
54587.326198,16.179,0.076
54587.336361,16.188,0.078
54620.219343,16.134,0.059
54620.229592,16.136,0.058
54620.239801,16.082,0.058
54620.249946,16.117,0.058
54620.260088,16.024,0.056
