mjd,m,merr
52653.462146,15.627,0.03
52653.476897,15.526,0.03
52653.49254,15.428,0.025
52653.50767,15.412,0.023
52653.523196,15.392,0.021
52684.43365,15.367,0.031
52684.448828,15.389,0.031
52684.478419,15.479,0.04
52693.391306,15.46,0.028
52693.405163,15.572,0.028
52693.418967,15.632,0.031
52693.432707,15.733,0.031
52693.433553,15.699,0.031
52693.446623,15.756,0.035
52721.357158,15.525,0.026
52721.358005,15.524,0.026
52721.369499,15.61,0.03
52721.370671,15.583,0.028
52721.382298,15.697,0.031
52721.383146,15.707,0.031
52721.394716,15.833,0.033
52721.395564,15.778,0.033
52721.406878,15.732,0.031
52721.407723,15.619,0.03
52750.296892,15.589,0.031
52750.297741,15.544,0.031
52750.308348,15.644,0.031
52750.309196,15.644,0.031
52750.319823,15.721,0.04
52750.32067,15.692,0.036
52750.331361,15.718,0.045
52750.332208,15.781,0.048
52750.342391,15.714,0.045
52750.343237,15.723,0.04
52781.267112,15.754,0.033
52781.277696,15.668,0.031
52781.288347,15.552,0.028
52781.299328,15.541,0.028
52781.31106,15.467,0.026
52801.219034,15.577,0.072
52801.229274,15.561,0.076
52801.239404,15.527,0.076
52801.24948,15.724,0.083
52809.222064,15.662,0.028
52809.231932,15.596,0.028
52809.241733,15.552,0.026
52809.251723,15.518,0.024
52809.261583,15.493,0.026
52830.174729,15.588,0.044
52830.18456,15.737,0.052
52830.194425,15.732,0.052
52830.204273,15.687,0.05
52830.214061,15.582,0.046
52842.173159,15.48,0.038
52842.193118,15.474,0.062
52872.13852,15.532,0.036
52988.424722,15.773,0.054
52988.442091,15.744,0.049
52988.462088,15.544,0.04
53038.445032,15.546,0.041
53038.457929,15.649,0.041
53038.483518,15.846,0.054
53038.500479,15.663,0.043
53045.380395,15.522,0.035
53045.391638,15.559,0.035
53045.402965,15.607,0.035
53045.414224,15.651,0.037
53045.42541,15.702,0.039
53096.328401,15.562,0.043
53096.338651,15.723,0.046
53096.349053,15.779,0.048
53096.359746,15.761,0.046
53096.370544,15.736,0.044
53108.306727,15.621,0.022
53108.317603,15.55,0.02
53108.328663,15.505,0.02
53108.339556,15.471,0.018
53108.35048,15.481,0.02
53125.290871,15.757,0.05
53125.30081,15.752,0.052
53125.310759,15.706,0.046
53125.320707,15.636,0.044
53125.33072,15.557,0.043
53134.248509,15.708,0.03
53134.257995,15.628,0.026
53134.267418,15.619,0.026
53134.276838,15.52,0.024
53134.286282,15.495,0.024
53155.25307,15.651,0.046
53155.261869,15.616,0.046
53155.270631,15.538,0.043
53155.279413,15.535,0.043
53155.288175,15.508,0.041
53163.264192,15.459,0.074
53193.251632,15.756,0.039
53193.261718,15.607,0.037
53214.162988,15.508,0.039
53214.194765,15.559,0.046
53244.134502,15.646,0.046
53244.144683,15.676,0.046
53244.154886,15.74,0.052
53244.165072,15.746,0.052
53244.175276,15.728,0.054
53362.512739,15.702,0.031
53362.541425,15.647,0.044
53390.410963,15.505,0.028
53390.424134,15.53,0.03
53390.439935,15.576,0.026
53390.453049,15.685,0.026
53390.466251,15.771,0.03
53400.43062,15.601,0.031
53400.443155,15.584,0.031
53400.45563,15.504,0.028
53400.468066,15.467,0.031
53423.400912,15.673,0.068
53429.337061,15.813,0.039
53429.348326,15.773,0.039
53429.359555,15.672,0.035
53429.370828,15.6,0.031
53429.382112,15.554,0.031
53461.33683,15.504,0.024
53461.347146,15.571,0.024
53461.357694,15.596,0.026
53461.368052,15.705,0.028
53461.379139,15.805,0.031
53489.310994,15.707,0.039
53489.33364,15.807,0.035
53489.345816,15.744,0.031
53535.220907,15.525,0.028
53535.230924,15.5,0.028
53535.240948,15.536,0.03
53535.250964,15.594,0.03
53535.260987,15.624,0.031
53563.17436,15.485,0.03
53599.144784,15.636,0.052
53599.157412,15.552,0.052
53599.182609,15.404,0.044
53599.19521,15.524,0.052
53607.129034,15.562,0.028
53607.140621,15.441,0.046
53607.163502,15.505,0.039
53725.472714,15.607,0.031
53725.485809,15.576,0.031
53725.498905,15.547,0.028
53725.512515,15.535,0.028
53725.526238,15.604,0.028
53755.40934,15.571,0.033
53755.422388,15.515,0.031
53755.435585,15.496,0.03
53755.44829,15.503,0.03
53755.461323,15.56,0.031
53775.421426,15.514,0.067
53775.434412,15.507,0.059
53775.447354,15.581,0.05
53775.473122,15.676,0.065
53803.352284,15.58,0.031
53803.364329,15.492,0.03
53803.376154,15.511,0.028
53803.388389,15.49,0.028
53803.400197,15.584,0.028
53807.367703,15.482,0.04
53807.379991,15.507,0.04
53807.392093,15.693,0.051
53858.293371,15.58,0.03
53858.303322,15.586,0.028
53858.313355,15.627,0.031
53858.323306,15.751,0.059
53906.221021,15.531,0.038
53906.232042,15.572,0.045
53906.25337,15.742,0.106
53906.266142,15.774,0.101
53934.170257,15.466,0.031
53934.180758,15.526,0.035
53934.191246,15.59,0.033
53934.201829,15.641,0.033
53934.212333,15.745,0.038
53955.151697,15.528,0.063
53955.163917,15.502,0.063
53955.176173,15.532,0.067
53955.188404,15.665,0.078
53955.200496,15.732,0.085
54108.449138,15.575,0.037
54108.462094,15.678,0.041
54108.474834,15.803,0.046
54108.487569,15.808,0.044
54108.500354,15.678,0.037
54139.387164,15.648,0.052
54139.398896,15.729,0.046
54139.410739,15.743,0.059
54139.42247,15.684,0.052
54167.33685,15.585,0.074
54167.348064,15.758,0.035
54167.359253,15.727,0.035
54167.370444,15.636,0.031
54167.381641,15.487,0.03
54464.466522,15.635,0.03
54464.479061,15.596,0.028
54464.491597,15.535,0.028
54464.504282,15.483,0.026
54495.471342,15.566,0.03
54495.495425,15.702,0.033
54523.38955,15.478,0.025
54523.40122,15.541,0.026
54523.413036,15.603,0.026
54523.424698,15.685,0.028
54523.436315,15.746,0.03
54540.356641,15.583,0.026
54540.367575,15.504,0.026
54540.378604,15.461,0.025
54554.3111,15.45,0.023
54554.322979,15.495,0.023
54554.33498,15.59,0.025
54554.346846,15.673,0.026
54554.35877,15.746,0.03
54572.297406,15.449,0.035
54572.308317,15.449,0.033
54620.219343,15.601,0.033
54620.229592,15.536,0.031
54620.239801,15.485,0.031
54620.249946,15.463,0.031
54620.260088,15.518,0.031
