mjd,m,merr
52676.443135,15.208,0.02
52676.459351,15.016,0.02
52676.474769,14.874,0.015
52676.494022,14.822,0.013
52676.512351,14.82,0.013
52707.382556,14.844,0.015
52707.395653,14.813,0.015
52707.408734,14.823,0.015
52707.422421,14.866,0.016
52707.43597,14.948,0.016
52710.379941,15.216,0.021
52710.393143,15.051,0.018
52710.406167,14.908,0.016
52710.419205,14.85,0.016
52710.432457,14.824,0.015
52737.380879,14.907,0.011
52737.394992,14.827,0.011
52737.407266,14.788,0.011
52737.419909,14.787,0.011
52737.432391,14.814,0.011
52756.264233,14.855,0.018
52756.276373,14.84,0.016
52756.288651,14.811,0.016
52756.300884,14.84,0.016
52756.313146,14.927,0.018
52761.266725,15.006,0.018
52761.27964,15.222,0.021
52761.291793,15.235,0.021
52761.303698,15.087,0.02
52761.315593,14.938,0.02
52768.267341,15.092,0.025
52768.279082,14.947,0.021
52768.290648,14.855,0.02
52768.302227,14.805,0.018
52792.270986,14.971,0.021
52792.28122,14.979,0.02
52792.292018,15.018,0.02
52792.292564,15.001,0.023
52792.30286,14.984,0.018
52792.303404,14.992,0.021
52793.259198,14.971,0.021
52793.269046,14.979,0.02
52793.279825,15.018,0.02
52793.28029,15.001,0.023
52793.290081,14.984,0.018
52793.290545,14.992,0.021
52819.216645,14.766,0.018
52824.178977,14.841,0.013
52824.179259,14.859,0.016
52824.188875,14.893,0.015
52824.189154,14.862,0.018
52824.199215,14.917,0.018
52824.208927,15.0,0.016
52824.209207,15.012,0.02
52824.218884,15.08,0.018
52824.219165,15.162,0.023
53033.456577,15.244,0.018
53033.468655,15.179,0.017
53033.480664,15.023,0.015
53033.492915,14.941,0.013
53033.505105,14.827,0.013
53054.440821,14.89,0.011
53054.456793,15.006,0.013
53054.468689,15.164,0.015
53054.481694,15.264,0.017
53054.494329,15.165,0.015
53062.415176,14.915,0.046
53062.438051,15.02,0.061
53062.449456,15.138,0.05
53080.394231,14.806,0.011
53080.405113,14.852,0.011
53080.416108,14.942,0.013
53080.427082,15.092,0.015
53080.437947,15.243,0.017
53087.397826,15.165,0.013
53087.409066,15.23,0.013
53087.441836,14.877,0.021
53089.345811,14.895,0.012
53089.391553,14.868,0.023
53111.295164,14.8,0.013
53111.305966,14.848,0.013
53111.316807,14.922,0.015
53111.327615,15.085,0.015
53111.338606,15.253,0.018
53119.298109,14.988,0.011
53119.308542,15.133,0.013
53119.319039,15.226,0.013
53119.329588,15.198,0.013
53119.340022,15.072,0.011
53139.252097,14.841,0.013
53139.261585,14.81,0.013
53139.271102,14.805,0.013
53139.280573,14.813,0.013
53139.29007,14.85,0.013
53149.252086,14.863,0.011
53149.261017,14.823,0.011
53149.269937,14.804,0.011
53149.278859,14.776,0.009
53149.287785,14.814,0.011
53169.223373,15.249,0.018
53169.233319,15.169,0.017
53169.24332,15.044,0.015
53169.25324,14.921,0.015
53169.263173,14.867,0.015
53440.483689,15.027,0.017
53440.494826,15.172,0.018
53440.506043,15.246,0.02
53478.370875,15.253,0.026
53478.379899,15.206,0.024
53478.388969,15.008,0.02
53478.39799,14.92,0.018
53478.407008,14.864,0.017
53496.295144,14.793,0.015
53496.305253,14.832,0.015
53496.315362,14.893,0.015
53496.325414,14.963,0.017
53496.335649,15.122,0.018
53527.217554,14.887,0.017
53527.227395,14.959,0.018
53527.237242,15.107,0.02
53527.247194,15.247,0.022
53527.257077,15.298,0.024
53791.418503,14.936,0.015
53791.430372,15.126,0.016
53791.44225,15.282,0.018
53791.454197,15.164,0.018
53791.466135,14.987,0.015
53815.396568,15.108,0.035
53815.40771,14.941,0.031
53815.418971,14.867,0.02
53815.430322,14.816,0.02
53815.441638,14.781,0.02
53817.328563,14.815,0.013
53817.340168,14.785,0.013
53817.351722,14.798,0.013
53817.363652,14.846,0.013
53846.293298,15.093,0.018
53846.303963,14.957,0.016
53846.314607,14.846,0.015
53846.325255,14.788,0.015
53846.335919,14.781,0.015
53850.296392,14.858,0.016
53850.307104,14.961,0.018
53850.317687,15.097,0.02
53850.32818,15.222,0.021
53850.338706,15.199,0.021
53884.226108,14.837,0.017
53884.237695,14.901,0.018
53884.249266,14.985,0.018
53884.260856,15.133,0.022
53884.272476,15.259,0.024
53901.22988,15.08,0.03
53901.239901,15.208,0.037
53901.259902,15.137,0.041
53911.236834,15.138,0.043
53911.256426,15.383,0.071
53911.266117,15.201,0.056
54155.41636,15.198,0.015
54155.428201,15.282,0.017
54155.440073,15.172,0.015
54155.452058,15.009,0.013
54155.463989,14.904,0.011
54156.386056,14.829,0.011
54156.404205,14.893,0.009
54156.416088,14.983,0.011
54156.427638,15.131,0.011
54156.439202,15.269,0.013
54174.376692,14.861,0.043
54174.387502,14.885,0.02
54174.398358,14.964,0.025
54174.409183,15.119,0.03
54174.41996,15.26,0.021
54175.446308,15.199,0.021
54180.338649,14.881,0.013
54180.348962,14.943,0.015
54180.359262,15.09,0.016
54180.369884,15.198,0.018
54180.380257,15.242,0.02
54200.313197,14.825,0.02
54200.32289,14.801,0.018
54200.332505,14.8,0.018
54200.34189,14.859,0.02
54200.351262,14.89,0.02
54477.46781,14.888,0.011
54477.480758,15.037,0.013
54477.493682,15.181,0.013
54477.506766,15.15,0.013
54484.470735,15.232,0.02
54484.483597,15.026,0.013
54484.496463,14.882,0.011
54484.509307,14.817,0.009
54484.522245,14.79,0.009
54539.373278,14.836,0.009
54539.384154,14.867,0.009
54539.395022,14.931,0.009
54539.405844,15.064,0.011
54539.416688,15.235,0.013
54567.296921,15.169,0.015
54567.308109,15.007,0.013
54567.319389,14.905,0.011
54567.330546,14.862,0.011
54567.341707,14.81,0.009
54568.354212,14.804,0.018
54568.365311,14.809,0.018
54568.376127,14.845,0.018
54568.387025,14.893,0.02
54568.397843,14.954,0.02
54580.297956,14.919,0.02
54580.308557,15.043,0.022
54580.319174,15.181,0.022
54580.329787,15.251,0.024
54580.340384,15.202,0.022
54588.296056,15.185,0.015
54588.306689,15.3,0.017
54588.317319,15.232,0.017
54588.327839,15.081,0.015
54588.338357,14.968,0.013
54589.297264,14.971,0.013
54589.307867,15.106,0.015
54589.318411,15.243,0.015
54589.32897,15.255,0.017
54589.339487,15.088,0.015
54590.291123,14.828,0.025
54590.301021,14.843,0.026
54590.311123,14.925,0.033
54590.331131,15.205,0.054
54597.258391,14.88,0.017
54597.268987,14.947,0.017
54597.279761,15.06,0.018
54597.290386,15.199,0.02
54597.301079,15.225,0.02
54611.25882,14.97,0.011
54611.268641,14.884,0.013
54611.27844,14.824,0.011
54611.288221,14.814,0.013
54611.298015,14.793,0.013
54620.222637,15.272,0.017
54620.232803,15.239,0.015
54620.243014,15.068,0.013
54620.253216,14.96,0.013
54620.263386,14.913,0.013
