mjd,m,merr
52676.441791,15.35,0.024
52676.458004,15.353,0.024
52676.473416,15.332,0.022
52676.492671,15.364,0.024
52676.510999,15.378,0.024
52707.382197,15.406,0.025
52707.395295,15.388,0.025
52707.408373,15.419,0.025
52707.422063,15.422,0.025
52707.435612,15.436,0.025
52710.379826,15.024,0.018
52710.393028,15.072,0.018
52710.406053,15.091,0.018
52710.41909,15.12,0.018
52710.432342,15.128,0.02
52737.380344,14.876,0.013
52737.394641,14.944,0.013
52737.406913,14.981,0.015
52737.419557,15.006,0.015
52737.43204,15.053,0.015
52756.263892,14.893,0.015
52756.27603,14.799,0.016
52756.288312,14.959,0.016
52756.300541,14.973,0.016
52756.312527,15.006,0.018
52761.266383,15.134,0.02
52761.279299,15.17,0.021
52761.291451,15.224,0.021
52761.303358,15.2,0.021
52761.315253,15.246,0.026
52768.269471,15.088,0.022
52768.281593,15.113,0.022
52768.29375,15.128,0.02
52768.305603,15.166,0.022
52768.317451,15.178,0.022
52792.270441,15.327,0.028
52792.28122,15.398,0.031
52792.292018,15.393,0.031
52792.30286,15.405,0.03
52792.313869,15.366,0.03
52793.25867,15.327,0.028
52793.269046,15.398,0.031
52793.279825,15.393,0.031
52793.290081,15.405,0.03
52793.300822,15.366,0.03
52819.216362,15.264,0.033
52824.178977,15.416,0.03
52824.188875,15.393,0.03
52824.198934,15.468,0.033
52824.208927,15.43,0.031
52824.218884,15.408,0.03
53033.455744,15.381,0.022
53033.467821,15.404,0.022
53033.479832,15.406,0.022
53033.492014,15.401,0.022
53033.504265,15.425,0.022
53054.440267,15.32,0.017
53054.456239,15.326,0.018
53054.468134,15.37,0.018
53054.481139,15.369,0.018
53054.493774,15.385,0.018
53062.414295,14.963,0.044
53062.437083,15.049,0.026
53062.448575,15.032,0.052
53080.393711,15.3,0.017
53080.404595,15.329,0.018
53080.415588,15.333,0.018
53080.426564,15.363,0.02
53080.437428,15.34,0.018
53087.397639,15.237,0.013
53087.40888,15.262,0.015
53087.44165,15.356,0.036
53089.390868,14.899,0.015
53111.294671,15.371,0.024
53111.305474,15.394,0.022
53111.316316,15.378,0.022
53111.327122,15.399,0.022
53111.338113,15.389,0.022
53119.297958,15.246,0.015
53119.308392,15.26,0.015
53119.318888,15.278,0.015
53119.329437,15.296,0.015
53119.339871,15.337,0.017
53139.251639,15.089,0.018
53139.261131,15.101,0.018
53139.270647,15.124,0.017
53139.280117,15.148,0.018
53139.289613,15.16,0.017
53149.251957,15.438,0.018
53149.260887,15.434,0.018
53149.269807,15.492,0.02
53149.278729,15.501,0.018
53149.287655,15.528,0.02
53169.222941,15.393,0.022
53169.232888,15.414,0.022
53169.242886,15.407,0.022
53169.252808,15.404,0.022
53169.262741,15.417,0.024
53440.483063,15.097,0.018
53440.494197,15.135,0.018
53440.50473,15.144,0.02
53478.370769,15.175,0.024
53478.379793,15.167,0.026
53478.388863,15.216,0.026
53478.397885,15.29,0.026
53478.406902,15.278,0.024
53496.254154,15.312,0.026
53496.264184,15.304,0.026
53496.274265,15.332,0.024
53496.284433,15.348,0.024
53496.294469,15.369,0.026
53527.216933,15.357,0.028
53527.22677,15.374,0.028
53527.236619,15.374,0.028
53527.246569,15.376,0.028
53527.256455,15.381,0.028
53791.418036,15.043,0.016
53791.429942,15.076,0.016
53791.441818,15.086,0.016
53791.453765,15.11,0.018
53791.465708,15.156,0.018
53815.418611,15.349,0.033
53815.429962,15.409,0.035
53815.441275,15.415,0.037
53817.327585,14.87,0.013
53817.339185,14.984,0.013
53817.350747,14.94,0.013
53817.362656,15.038,0.013
53846.292438,15.384,0.02
53846.303122,15.394,0.02
53846.313767,15.381,0.02
53846.324416,15.41,0.02
53846.334981,15.448,0.02
53850.296297,14.782,0.016
53850.307008,14.839,0.016
53850.317591,14.958,0.018
53850.328084,14.913,0.018
53850.338612,14.934,0.018
53884.226016,15.572,0.033
53884.237602,15.555,0.031
53884.249171,15.486,0.031
53884.260764,15.303,0.026
53884.27238,14.967,0.02
53901.22904,15.148,0.035
53911.197259,15.17,0.096
53911.226391,15.448,0.068
53911.23602,15.386,0.063
54155.415315,15.155,0.015
54155.427155,15.186,0.017
54155.439023,15.194,0.017
54155.451007,15.231,0.017
54155.462934,15.235,0.017
54156.385324,14.814,0.011
54156.403341,14.86,0.011
54156.415354,14.917,0.011
54156.426903,14.945,0.011
54156.438466,14.98,0.011
54174.387372,15.259,0.028
54174.398229,15.253,0.031
54174.409053,15.25,0.043
54174.41983,15.287,0.025
54175.425652,15.155,0.015
54175.433807,15.17,0.02
54175.43651,15.184,0.017
54175.446308,15.246,0.02
54175.447397,15.219,0.017
54175.457165,15.227,0.021
54175.458452,15.236,0.017
54175.468004,15.25,0.021
54175.469349,15.282,0.018
54175.478839,15.297,0.021
54180.337717,15.233,0.02
54180.348024,15.279,0.02
54180.358328,15.306,0.02
54180.368952,15.326,0.021
54180.379324,15.33,0.023
54200.312276,15.192,0.026
54200.321972,15.203,0.026
54200.331589,15.171,0.025
54200.340973,15.209,0.026
54200.350343,15.29,0.026
54477.467178,15.506,0.022
54477.480129,15.525,0.022
54477.493051,15.484,0.018
54477.506139,15.362,0.017
54484.470132,15.348,0.028
54484.482997,15.496,0.024
54484.495863,15.525,0.02
54484.508709,15.502,0.02
54484.521647,15.496,0.02
54539.372493,15.14,0.011
54539.38337,15.174,0.011
54539.394233,15.197,0.011
54539.405056,15.229,0.011
54539.4159,15.255,0.013
54567.296638,14.723,0.011
54567.307825,14.538,0.009
54567.319105,14.559,0.009
54567.330262,14.578,0.009
54567.341425,14.644,0.009
54568.354066,15.239,0.028
54568.365165,15.002,0.023
54568.375981,14.708,0.02
54568.386879,14.495,0.016
54568.397697,14.499,0.016
54580.308423,14.604,0.015
54580.319041,14.649,0.015
54580.329653,14.677,0.017
54580.34025,14.727,0.017
54588.295927,15.459,0.02
54588.306559,15.507,0.022
54588.31719,15.531,0.022
54588.327711,15.565,0.024
54588.338228,15.54,0.022
54597.258259,15.166,0.024
54597.268855,15.211,0.024
54597.279627,15.231,0.024
54597.290252,15.241,0.024
54597.300942,15.287,0.024
54611.257936,15.079,0.013
54611.267759,15.085,0.015
54611.277561,15.09,0.015
54611.287347,15.121,0.017
54611.297128,15.153,0.018
54620.222539,15.497,0.022
54620.232704,15.514,0.022
54620.242916,15.582,0.024
54620.253119,15.504,0.022
54620.263288,15.415,0.02
