mjd,m,merr
52652.4851,14.491,0.012
52652.500255,14.441,0.01
52652.515462,14.437,0.01
52652.530458,14.41,0.01
52681.360604,14.879,0.018
52681.375273,14.796,0.015
52681.390781,14.701,0.018
52681.406052,14.593,0.016
52681.420712,14.53,0.012
52723.36359,14.442,0.013
52752.2897,14.444,0.009
52752.299906,14.451,0.009
52752.310096,14.494,0.009
52752.320293,14.517,0.011
52752.330522,14.563,0.011
52772.269308,14.465,0.018
52772.29317,14.536,0.02
52787.225205,14.71,0.013
52787.236184,14.618,0.013
52787.246948,14.538,0.012
52787.257889,14.508,0.012
52787.268693,14.463,0.012
52800.222487,14.404,0.025
52810.223819,14.697,0.015
52810.233858,14.796,0.018
52812.235532,14.451,0.012
52812.245557,14.431,0.012
52812.255775,14.429,0.012
52812.266007,14.483,0.012
52812.276033,14.527,0.013
52840.16665,14.552,0.013
52840.176602,14.545,0.013
52840.186554,14.483,0.011
52840.196515,14.474,0.011
52840.20649,14.445,0.011
53023.453082,14.733,0.01
53023.47733,14.582,0.008
53035.473527,14.6,0.009
53035.486285,14.518,0.009
53035.49897,14.474,0.009
53035.511695,14.446,0.009
53035.524917,14.402,0.007
53037.485383,14.491,0.008
53037.498367,14.547,0.008
53037.523974,14.75,0.01
53049.393509,14.466,0.009
53049.40539,14.433,0.009
53049.417272,14.431,0.009
53049.429189,14.41,0.009
53049.441135,14.419,0.009
53136.254745,14.473,0.012
53154.249502,14.715,0.018
53164.221385,14.427,0.01
53242.143239,14.59,0.015
53242.153766,14.627,0.016
53242.163728,14.696,0.018
53243.131942,14.755,0.018
53243.142552,14.755,0.018
53243.15293,14.673,0.018
53243.163224,14.598,0.016
53243.174037,14.565,0.016
53445.461612,14.625,0.009
53445.462831,14.633,0.009
53445.47308,14.739,0.009
53445.474273,14.738,0.009
53445.485182,14.806,0.011
53445.486645,14.824,0.011
53445.496985,14.823,0.011
53445.498194,14.799,0.011
53474.358661,14.475,0.009
53474.368398,14.507,0.009
53474.378832,14.562,0.011
53474.389993,14.636,0.011
53521.257497,14.844,0.017
53521.267797,14.827,0.017
53521.278101,14.771,0.015
53521.288471,14.666,0.011
53521.298801,14.574,0.011
53538.221449,14.694,0.024
53538.231072,14.59,0.02
53538.240696,14.545,0.02
53538.250358,14.47,0.018
53538.260001,14.47,0.018
53553.181731,14.487,0.013
53553.192426,14.533,0.013
53553.202967,14.562,0.013
53553.213515,14.632,0.013
53553.224126,14.728,0.015
53583.161911,14.587,0.017
53583.173237,14.51,0.011
53583.184478,14.484,0.011
53583.195751,14.424,0.011
53742.482618,14.786,0.009
53742.495558,14.7,0.009
53742.508634,14.598,0.007
53742.521597,14.545,0.007
53742.534494,14.481,0.007
53772.421996,14.456,0.011
53772.434891,14.418,0.009
53772.447843,14.397,0.009
53772.460571,14.459,0.009
53772.473294,14.435,0.009
53786.441783,14.735,0.012
53786.455192,14.733,0.012
53786.468356,14.643,0.012
53786.481654,14.56,0.01
53807.342229,14.497,0.015
53807.353369,14.543,0.015
53807.364508,14.628,0.017
53807.375769,14.695,0.02
53824.382746,14.49,0.013
53824.394592,14.463,0.01
53824.406609,14.424,0.01
53843.311004,14.486,0.015
53843.322269,14.56,0.017
53843.333541,14.619,0.017
53843.344822,14.686,0.018
53843.356127,14.797,0.02
53855.292154,14.414,0.01
53855.302355,14.425,0.012
53855.313569,14.471,0.012
53855.32389,14.511,0.012
53855.334065,14.602,0.012
53878.289052,14.44,0.013
53878.299669,14.433,0.013
53878.31027,14.43,0.013
53878.32083,14.458,0.013
53878.3315,14.485,0.013
53903.235748,14.386,0.012
53903.245298,14.36,0.012
53903.255044,14.368,0.012
53903.264711,14.387,0.013
53903.27431,14.424,0.013
53917.217836,14.692,0.021
53917.227536,14.778,0.023
53917.237458,14.758,0.025
53917.247212,14.735,0.028
53917.25696,14.624,0.023
53932.185188,14.385,0.041
53932.195815,14.432,0.043
53932.206648,14.378,0.026
53932.217385,14.479,0.018
54086.439941,14.485,0.021
54086.453778,14.639,0.023
54086.467083,14.787,0.023
54086.482137,14.829,0.023
54086.495389,14.697,0.02
54109.484322,14.651,0.03
54169.333138,14.464,0.011
54169.344682,14.425,0.011
54169.355963,14.379,0.011
54169.367155,14.369,0.009
54169.378526,14.363,0.009
54186.328335,14.405,0.012
54186.338719,14.403,0.013
54186.348953,14.444,0.012
54186.359173,14.501,0.013
54186.369387,14.519,0.016
54201.329829,14.443,0.007
54201.339922,14.407,0.007
54201.349951,14.394,0.007
54201.359734,14.395,0.007
54201.369817,14.404,0.007
54209.304192,14.477,0.036
54209.312942,14.482,0.028
54209.321947,14.48,0.018
54209.33102,14.441,0.025
54209.339887,14.412,0.015
54217.254885,14.801,0.017
54217.263526,14.782,0.017
54217.272218,14.721,0.017
54217.280873,14.662,0.015
54217.28951,14.601,0.015
54218.275482,14.373,0.016
54218.28448,14.39,0.016
54218.293351,14.355,0.016
54218.302389,14.355,0.016
54218.311389,14.386,0.016
54508.420413,14.375,0.012
54508.432552,14.366,0.012
54508.444469,14.426,0.012
54508.456622,14.432,0.012
54508.468907,14.516,0.012
54543.352904,14.723,0.025
54543.364874,14.688,0.023
54543.376035,14.587,0.021
54543.386898,14.531,0.02
54555.297208,14.493,0.015
54555.311816,14.575,0.016
54555.335337,14.777,0.018
54555.346941,14.818,0.02
54561.319652,14.333,0.007
54583.293288,14.515,0.018
54583.308762,14.631,0.02
54583.321368,14.738,0.021
54583.333028,14.725,0.021
54583.34459,14.655,0.021
54614.223254,14.399,0.016
54614.233726,14.342,0.015
54614.244141,14.311,0.015
54614.25437,14.324,0.015
54614.264751,14.307,0.015
