mjd,m,merr
52676.442775,15.126,0.02
52676.458988,15.143,0.02
52676.474402,15.199,0.02
52676.493656,15.249,0.02
52676.511982,15.291,0.022
52701.451617,15.434,0.026
52701.470312,15.371,0.025
52701.484725,15.29,0.025
52701.500819,15.227,0.021
52701.515489,15.158,0.021
52708.440816,15.354,0.025
52708.453881,15.367,0.025
52708.466937,15.411,0.026
52708.479996,15.413,0.026
52708.493061,15.408,0.028
52729.357493,15.316,0.021
52729.369649,15.251,0.02
52729.381559,15.155,0.02
52729.393465,15.145,0.02
52729.40569,15.108,0.02
52732.364087,15.361,0.025
52732.376124,15.328,0.025
52732.388164,15.266,0.023
52732.400401,15.201,0.021
52732.412447,15.128,0.021
52737.381661,15.388,0.018
52737.39547,15.367,0.018
52737.407746,15.358,0.018
52737.42039,15.294,0.018
52737.432948,15.226,0.018
52756.261957,15.116,0.018
52756.273901,15.088,0.018
52756.285843,15.053,0.017
52756.29787,15.056,0.017
52756.309806,15.039,0.017
52761.267438,15.27,0.018
52761.279125,15.221,0.018
52761.29094,15.119,0.017
52761.302635,15.121,0.017
52761.314539,15.101,0.018
52768.27018,15.386,0.028
52768.282284,15.395,0.028
52768.294429,15.381,0.026
52768.306291,15.3,0.024
52768.318186,15.257,0.022
52789.268526,15.086,0.02
52789.279224,15.078,0.02
52789.289756,15.116,0.02
52791.273795,15.073,0.023
52791.285259,15.069,0.02
52791.319164,15.114,0.026
52816.220097,15.339,0.04
52816.229916,15.341,0.043
52816.239746,15.362,0.045
52816.249599,15.342,0.043
52816.259689,15.419,0.046
52819.217499,15.232,0.026
52819.227431,15.258,0.026
52819.237359,15.266,0.026
52819.247313,15.274,0.026
52819.257268,15.285,0.026
52823.17882,15.121,0.043
52823.188899,15.111,0.023
52823.198888,15.107,0.023
52823.208838,15.123,0.025
53032.45929,15.095,0.017
53032.471629,15.095,0.017
53032.483884,15.143,0.015
53032.496143,15.171,0.015
53032.508471,15.204,0.017
53054.419016,15.419,0.021
53054.430867,15.419,0.02
53054.442729,15.394,0.02
53054.45476,15.375,0.02
53054.466738,15.33,0.018
53062.418222,15.307,0.049
53062.430017,15.401,0.063
53062.441846,15.369,0.04
53080.345339,15.187,0.018
53080.356591,15.121,0.016
53080.367784,15.106,0.016
53080.37906,15.143,0.016
53080.390459,15.071,0.015
53111.305507,15.056,0.016
53111.316846,14.981,0.016
53111.327655,15.056,0.016
53111.338944,15.024,0.016
53111.350088,15.087,0.016
53118.312031,15.097,0.012
53118.32274,15.08,0.012
53118.333311,15.052,0.012
53118.343897,14.995,0.012
53118.354426,15.012,0.012
53139.250606,15.11,0.018
53139.260402,15.113,0.018
53139.269924,15.164,0.018
53139.279433,15.175,0.018
53139.288889,15.198,0.018
53148.287995,14.964,0.015
53148.296657,14.974,0.015
53148.305394,14.958,0.015
53148.315569,14.992,0.015
53148.326329,15.065,0.016
53168.220297,15.306,0.024
53168.23044,15.34,0.024
53168.240516,15.351,0.022
53168.250615,15.347,0.024
53168.260692,15.392,0.026
53175.220885,15.181,0.028
53175.23058,15.244,0.031
53175.240322,15.244,0.02
53175.250637,15.274,0.025
53175.261165,15.311,0.023
53404.503019,15.095,0.031
53469.332938,15.059,0.015
53469.342574,15.046,0.015
53469.352394,15.031,0.015
53469.361937,15.046,0.015
53469.372423,15.057,0.017
53504.284362,15.01,0.018
53504.29315,15.027,0.018
53504.302794,15.015,0.018
53504.313897,15.041,0.018
53504.323616,15.077,0.018
53530.21839,15.168,0.022
53530.228964,15.2,0.022
53530.239474,15.233,0.024
53530.251065,15.292,0.024
53530.261605,15.291,0.026
53556.177032,15.372,0.024
53556.187634,15.39,0.024
53556.198488,15.404,0.024
53556.208988,15.405,0.024
53556.219529,15.403,0.024
53797.365083,15.413,0.021
53797.377229,15.331,0.021
53797.389296,15.351,0.036
53797.401378,15.397,0.081
53797.413421,15.232,0.033
53815.39706,15.331,0.048
53815.419463,15.338,0.033
53815.430815,15.305,0.033
53815.442132,15.382,0.041
53833.325495,15.296,0.026
53833.335529,15.24,0.026
53833.345456,15.205,0.024
53833.355383,15.164,0.024
53833.365317,15.137,0.022
53846.293621,15.284,0.025
53846.304287,15.274,0.025
53846.314929,15.34,0.025
53846.325577,15.33,0.025
53846.336241,15.371,0.026
53890.208869,15.07,0.026
53890.258321,15.164,0.028
53890.273628,15.194,0.03
53905.214568,15.233,0.026
53905.224608,15.198,0.026
53905.234603,15.151,0.026
53905.244596,15.141,0.026
53905.254691,15.093,0.024
53910.175278,15.378,0.028
53910.185893,15.368,0.028
53910.196413,15.423,0.03
53910.206914,15.374,0.028
53910.217427,15.38,0.03
54113.476262,15.119,0.03
54113.488795,15.108,0.028
54113.506163,15.083,0.026
54113.519025,15.039,0.024
54147.454966,15.025,0.02
54147.46693,15.044,0.021
54147.478768,15.023,0.02
54147.4916,15.014,0.02
54147.503504,15.084,0.02
54157.390402,15.398,0.024
54157.402101,15.374,0.022
54157.413819,15.323,0.02
54157.425538,15.296,0.018
54157.437327,15.291,0.017
54175.381556,15.124,0.018
54175.392284,15.136,0.02
54175.40342,15.188,0.02
54175.414097,15.2,0.02
54175.425054,15.228,0.02
54484.497299,15.327,0.018
54484.523083,15.296,0.018
54485.513307,15.243,0.03
54485.526014,15.299,0.024
54533.392475,14.975,0.009
54533.403779,15.038,0.009
54533.415321,15.052,0.009
54533.437943,15.149,0.009
54539.373947,15.016,0.011
54539.384822,15.002,0.011
54539.395686,15.036,0.011
54539.406511,15.002,0.011
54539.417358,15.034,0.011
54567.297368,15.021,0.013
54567.308554,15.04,0.013
54567.319836,15.05,0.013
54567.33099,15.09,0.013
54567.34215,15.119,0.013
54568.35478,15.176,0.025
54568.365881,15.185,0.025
54568.376694,15.184,0.025
54568.387594,15.249,0.026
54568.398413,15.272,0.026
54587.30363,15.39,0.02
54587.314018,15.35,0.02
54587.324321,15.301,0.018
54587.334692,15.269,0.02
54587.345007,15.217,0.018
54595.29318,15.336,0.018
54595.303253,15.338,0.018
54595.313324,15.35,0.018
54595.323298,15.407,0.022
54595.33326,15.404,0.024
54619.216761,15.419,0.026
54619.227051,15.373,0.024
54619.237292,15.359,0.035
54619.24773,15.28,0.018
54619.257953,15.234,0.018
54622.221896,15.425,0.053
54622.231992,15.427,0.053
54622.242141,15.412,0.049
54622.252124,15.366,0.051
54622.2621,15.356,0.048
