mjd,m,merr
52653.46353,16.216,0.046
52653.478283,16.293,0.053
52653.493926,16.395,0.051
52653.509056,16.44,0.053
52653.524578,16.522,0.054
52684.435176,16.347,0.069
52684.450354,16.364,0.071
52684.465152,16.679,0.14
52684.479946,16.488,0.099
52693.419982,16.966,0.093
52693.436568,16.989,0.094
52693.452046,17.02,0.096
52693.467355,17.051,0.104
52693.482856,16.968,0.096
52721.367765,16.989,0.089
52721.380668,16.985,0.087
52721.39359,17.119,0.1
52721.406475,17.065,0.096
52721.419367,17.187,0.107
52750.291741,16.985,0.122
52750.302353,16.989,0.096
52750.31295,17.056,0.118
52750.323551,17.111,0.135
52750.334151,16.786,0.13
52781.268086,17.005,0.101
52781.278666,17.107,0.109
52781.289335,17.086,0.107
52781.300301,17.075,0.106
52781.31204,16.999,0.099
52801.220108,16.855,0.252
52801.230356,17.068,0.305
52801.240484,16.911,0.261
52801.250564,16.951,0.281
52801.260727,17.153,0.318
52809.223141,17.19,0.111
52809.233006,17.136,0.111
52809.242817,17.112,0.105
52809.252806,16.989,0.093
52809.26266,16.731,0.105
52830.175808,16.972,0.165
52830.185637,17.035,0.176
52830.19553,16.959,0.163
52830.205364,17.028,0.168
52830.215134,17.046,0.178
52843.165901,17.011,0.106
52843.175884,16.96,0.106
52843.224963,17.103,0.129
52843.235218,17.09,0.143
52843.24533,17.069,0.133
52843.255327,17.191,0.169
52843.265293,17.043,0.162
52873.138093,17.128,0.122
52873.15019,17.318,0.153
52873.162195,17.19,0.14
52873.174409,17.134,0.161
52873.186491,17.113,0.2
52897.118869,16.509,0.072
52897.130608,16.581,0.078
52897.14234,16.622,0.085
52897.154078,16.604,0.093
52897.166047,16.678,0.118
52988.425945,16.422,0.102
52988.449384,16.545,0.109
52988.463347,16.784,0.124
53038.446373,16.184,0.072
53038.45927,16.262,0.078
53038.471868,16.35,0.087
53038.501827,16.271,0.076
53045.381554,16.959,0.135
53045.392797,16.882,0.122
53045.404125,16.868,0.118
53045.415385,16.88,0.117
53045.426571,17.019,0.135
53096.329486,16.506,0.1
53096.339738,16.466,0.094
53096.35014,16.627,0.102
53096.360905,16.653,0.105
53096.371631,16.679,0.104
53108.307823,16.925,0.07
53108.318692,16.916,0.07
53108.32975,16.954,0.074
53108.340642,16.989,0.074
53108.351569,16.908,0.068
53125.291957,16.731,0.124
53125.3019,16.81,0.133
53125.311846,16.928,0.146
53125.321841,17.764,0.344
53125.331808,17.019,0.154
53134.249487,17.0,0.091
53134.258973,17.002,0.091
53134.268397,17.012,0.087
53134.277819,17.051,0.093
53134.287263,17.052,0.098
53155.25401,16.976,0.148
53155.262803,16.93,0.15
53155.271568,16.86,0.139
53155.280348,16.931,0.15
53155.289112,16.91,0.152
53163.265141,16.886,0.285
53193.252567,16.136,0.059
53193.262655,16.235,0.068
53214.195779,17.058,0.178
53244.135525,17.01,0.157
53244.145706,16.968,0.152
53244.15591,16.829,0.139
53244.166096,16.995,0.165
53244.1763,16.948,0.163
53362.513898,16.133,0.046
53362.542585,16.267,0.059
53390.467752,16.437,0.054
53390.480458,16.476,0.055
53390.493133,16.554,0.057
53390.50585,16.593,0.059
53390.519009,16.549,0.063
53400.431793,16.887,0.105
53400.444262,16.962,0.113
53400.456737,16.938,0.105
53400.469173,17.888,0.315
53400.481604,17.11,0.142
53429.383236,16.921,0.109
53429.394517,16.899,0.107
53429.405818,16.986,0.115
53429.417098,16.997,0.115
53429.428389,17.169,0.133
53461.338053,16.944,0.085
53461.34839,17.034,0.093
53461.358919,16.995,0.091
53461.369279,17.032,0.094
53461.380366,17.053,0.098
53489.312139,17.068,0.146
53489.34686,17.037,0.109
53535.221926,17.215,0.13
53535.231939,17.135,0.124
53535.24197,17.108,0.118
53535.251985,17.029,0.111
53535.262011,17.109,0.117
53563.175414,17.917,0.327
53599.146099,17.019,0.178
53599.158712,17.16,0.22
53599.171308,17.15,0.22
53599.183904,17.124,0.216
53599.196507,17.141,0.237
53607.141799,16.257,0.078
53607.153241,16.24,0.096
53607.16467,16.37,0.083
53725.47418,16.836,0.102
53725.487274,16.856,0.102
53725.500371,16.912,0.105
53725.513982,16.908,0.102
53725.527704,16.994,0.104
53755.462754,16.913,0.109
53755.47554,17.037,0.12
53755.488299,17.007,0.115
53755.501305,16.948,0.107
53755.514059,16.884,0.102
53775.422648,16.283,0.13
53775.435634,16.34,0.124
53775.448617,16.297,0.094
53775.470559,16.686,0.185
53775.474343,16.384,0.137
53803.353541,16.73,0.089
53803.365591,16.653,0.083
53803.377406,16.922,0.101
53803.389645,16.731,0.084
53803.401453,16.833,0.086
53807.369105,16.247,0.078
53807.381394,16.299,0.081
53829.337106,16.945,0.454
53829.347688,16.919,0.49
53829.358269,16.959,0.521
53833.313367,16.756,0.078
53833.324972,16.888,0.087
53833.336431,16.904,0.084
53833.347352,16.846,0.081
53833.358774,16.842,0.079
53858.294496,16.94,0.091
53858.304468,17.023,0.099
53858.314485,16.963,0.137
53858.334383,16.867,0.226
53876.260528,16.945,0.066
53876.271469,17.151,0.097
53876.293291,16.885,0.063
53905.218234,17.054,0.104
53905.228148,17.134,0.111
53905.237878,17.189,0.12
53905.247574,17.07,0.107
53905.261097,17.317,0.14
53934.171086,17.148,0.134
53934.181591,16.974,0.124
53934.192084,17.077,0.119
53934.202662,17.063,0.117
53934.213167,17.2,0.134
53955.152864,16.866,0.215
53955.165044,16.782,0.209
53955.177327,16.986,0.252
53955.189541,16.768,0.215
53955.201638,16.915,0.261
53991.111649,16.582,0.111
53991.124045,16.55,0.099
53991.135766,16.477,0.078
53991.147608,16.7,0.102
53991.159533,16.663,0.102
53992.143231,16.496,0.069
54108.450571,17.023,0.142
54108.463523,17.009,0.152
54108.476262,17.029,0.157
54108.489051,16.96,0.133
54108.501782,17.057,0.137
54139.388217,16.96,0.165
54139.399951,17.1,0.174
54139.423528,16.832,0.155
54167.337922,16.821,0.113
54167.349135,16.918,0.105
54167.360321,16.921,0.104
54167.37151,16.929,0.104
54167.382707,17.008,0.111
54484.465004,16.402,0.073
54484.489842,16.46,0.071
54484.503079,16.556,0.074
54496.481471,16.898,0.089
54496.493745,16.881,0.091
54496.505542,16.866,0.086
54496.517678,16.945,0.089
54496.529835,17.067,0.099
54524.404709,16.976,0.094
54524.428134,17.016,0.092
54524.439823,17.046,0.094
54572.298743,16.585,0.083
54572.309656,16.899,0.114
54572.321261,16.838,0.107
54587.29647,17.401,0.096
54587.316784,17.619,0.116
54620.220337,16.477,0.061
54620.230643,16.492,0.059
54620.240796,16.674,0.071
54620.250941,16.758,0.076
54620.261083,16.648,0.069
