mjd,m,merr
52676.444423,15.73,0.035
52676.460583,15.613,0.046
52676.476001,15.731,0.031
52676.495254,15.737,0.031
52676.513583,15.67,0.03
52701.452445,15.537,0.028
52701.471135,15.562,0.03
52701.485551,15.524,0.033
52701.501643,15.672,0.033
52701.516316,15.709,0.035
52708.44188,15.335,0.025
52708.454948,15.302,0.025
52708.468004,15.209,0.023
52708.481071,15.263,0.025
52708.494132,15.307,0.025
52729.358564,15.699,0.03
52729.370719,15.714,0.031
52729.382626,15.672,0.03
52729.39453,15.653,0.03
52729.406756,15.577,0.03
52732.365147,15.66,0.033
52732.377223,15.676,0.033
52732.38922,15.686,0.035
52732.401458,15.713,0.036
52732.413505,15.785,0.036
52737.383599,15.508,0.02
52737.396752,15.531,0.022
52737.408923,15.58,0.022
52737.421754,15.599,0.022
52737.434307,15.651,0.026
52756.312438,15.342,0.024
52756.324402,15.374,0.022
52756.336286,15.435,0.024
52756.348193,15.446,0.024
52756.360131,15.488,0.024
52768.271316,15.683,0.035
52768.283756,15.658,0.035
52768.295644,15.687,0.033
52768.307434,15.685,0.031
52768.319409,15.674,0.031
52792.271756,15.344,0.03
52792.282534,15.357,0.03
52792.29337,15.381,0.031
52792.304171,15.411,0.031
52792.315174,15.441,0.031
52793.259856,15.344,0.03
52793.270184,15.357,0.03
52793.280951,15.381,0.031
52793.291219,15.411,0.031
52793.301945,15.441,0.031
52819.21852,15.705,0.037
52819.228445,15.686,0.037
52819.238372,15.715,0.037
52819.248316,15.617,0.035
52819.25828,15.504,0.031
52824.220672,15.623,0.036
52824.240545,15.656,0.049
52824.250458,15.648,0.045
52824.260496,15.669,0.064
53032.460487,15.625,0.026
53032.472826,15.612,0.026
53032.485082,15.586,0.022
53032.497372,15.524,0.02
53032.509668,15.401,0.02
53054.46812,15.687,0.025
53054.479867,15.718,0.025
53054.491804,15.691,0.025
53054.503609,15.67,0.023
53054.515422,15.632,0.023
53062.416413,15.406,0.052
53062.427805,15.432,0.083
53080.392057,15.286,0.018
53080.403108,15.279,0.018
53080.414232,15.355,0.02
53080.425424,15.374,0.021
53080.436622,15.362,0.02
53087.399235,15.687,0.02
53087.410473,15.592,0.02
53087.443248,15.319,0.016
53089.346882,15.58,0.043
53089.392625,15.926,0.054
53091.379104,15.655,0.02
53091.379705,15.571,0.018
53091.388859,15.637,0.02
53091.389979,15.637,0.02
53091.398756,15.66,0.021
53091.400254,15.587,0.02
53091.408582,15.676,0.021
53091.41057,15.55,0.02
53091.418422,15.735,0.021
53091.420859,15.635,0.02
53111.306529,15.443,0.025
53111.317877,15.446,0.023
53111.3287,15.477,0.023
53111.339991,15.566,0.025
53111.351118,15.554,0.025
53118.312758,15.315,0.015
53118.323484,15.335,0.015
53118.334071,15.293,0.015
53118.344623,15.3,0.015
53118.355153,15.309,0.015
53139.25156,15.7,0.03
53139.261355,15.686,0.03
53139.270892,15.674,0.028
53139.280502,15.604,0.026
53139.289844,15.569,0.025
53148.288615,15.472,0.021
53148.297274,15.526,0.021
53148.306012,15.593,0.023
53148.31619,15.643,0.025
53148.326963,15.594,0.025
53168.221241,15.328,0.022
53168.231383,15.392,0.024
53168.241459,15.393,0.022
53168.251559,15.388,0.024
53168.261635,15.432,0.028
53175.221478,15.638,0.036
53175.240915,15.468,0.025
53175.25123,15.379,0.025
53175.261757,15.36,0.026
53404.504393,15.402,0.043
53404.516888,15.455,0.045
53404.529413,15.45,0.046
53469.334006,15.507,0.022
53469.343608,15.546,0.022
53469.353432,15.521,0.022
53469.362971,15.618,0.024
53469.373592,15.656,0.026
53504.285474,15.579,0.03
53504.294258,15.62,0.031
53504.304219,15.636,0.031
53504.314981,15.635,0.031
53504.324707,15.677,0.031
53530.219952,15.317,0.026
53530.230036,15.348,0.026
53530.240427,15.32,0.026
53530.252017,15.271,0.024
53530.262556,15.261,0.026
53556.178164,15.674,0.03
53556.188786,15.682,0.03
53556.199618,15.719,0.031
53556.21012,15.75,0.031
53556.220657,15.732,0.031
53797.366371,15.346,0.02
53797.378514,15.335,0.023
53797.390578,15.338,0.028
53797.414704,15.309,0.028
53815.409402,15.322,0.048
53815.42066,15.295,0.048
53815.432206,15.421,0.035
53815.443338,15.458,0.041
53833.32658,15.296,0.026
53833.336617,15.31,0.026
53833.346538,15.312,0.026
53833.35647,15.346,0.026
53833.366401,15.338,0.026
53846.294674,15.383,0.026
53846.305335,15.447,0.026
53846.315973,15.457,0.026
53846.326637,15.498,0.026
53846.337285,15.482,0.026
53890.211976,15.543,0.04
53890.229176,15.488,0.04
53890.245255,15.288,0.033
53890.259863,15.292,0.031
53890.275118,15.272,0.033
53905.215564,15.253,0.028
53905.225602,15.243,0.028
53905.235594,15.308,0.03
53905.245606,15.323,0.03
53905.255683,15.317,0.031
53910.218395,15.664,0.038
53910.228239,15.518,0.035
53910.238049,15.468,0.031
53910.247815,15.433,0.031
53910.257585,15.375,0.031
54147.456174,15.669,0.035
54147.468139,15.739,0.036
54147.480977,15.7,0.035
54147.492808,15.706,0.035
54147.50471,15.73,0.033
54157.438574,15.299,0.017
54157.45029,15.311,0.015
54157.462004,15.319,0.017
54157.473753,15.343,0.017
54157.485493,15.342,0.015
54175.382704,15.34,0.021
54175.393434,15.342,0.023
54175.404565,15.306,0.021
54175.41524,15.304,0.021
54175.426205,15.342,0.021
54198.360156,15.654,0.097
54484.486883,15.728,0.028
54484.499753,15.702,0.024
54484.51259,15.693,0.024
54484.52553,15.614,0.02
54485.514583,15.776,0.041
54485.527289,15.726,0.031
54533.39362,15.272,0.011
54533.404926,15.302,0.011
54533.416465,15.227,0.011
54533.427719,15.252,0.011
54533.439087,15.262,0.011
54539.375544,15.681,0.018
54539.386421,15.703,0.018
54539.39728,15.699,0.018
54539.408102,15.674,0.018
54539.418955,15.69,0.018
54567.298494,15.328,0.017
54567.309682,15.294,0.017
54567.320956,15.274,0.015
54567.332122,15.26,0.015
54567.343291,15.309,0.015
54568.356198,15.308,0.026
54568.3673,15.302,0.026
54568.378202,15.324,0.028
54568.389016,15.315,0.026
54568.399832,15.377,0.028
54587.304807,15.346,0.018
54587.315115,15.341,0.018
54587.325416,15.342,0.017
54587.335796,15.29,0.018
54587.346104,15.306,0.017
54595.294225,15.715,0.026
54595.304321,15.699,0.026
54595.314379,15.709,0.024
54595.324343,15.715,0.028
54595.334309,15.747,0.035
54619.217705,15.246,0.02
54619.228001,15.351,0.02
54619.23824,15.326,0.024
54619.248673,15.361,0.018
54619.258896,15.4,0.018
54622.222872,15.312,0.048
54622.232959,15.369,0.048
54622.243108,15.338,0.046
54622.26307,15.258,0.043
