mjd,m,merr
52653.463908,14.988,0.016
52653.478659,14.908,0.016
52653.494304,14.873,0.015
52653.509433,14.851,0.013
52653.524955,14.837,0.013
52684.435558,14.845,0.02
52684.480327,15.047,0.033
52693.420268,14.993,0.017
52693.436853,14.911,0.015
52693.452332,14.845,0.015
52693.467641,14.829,0.015
52693.483149,14.801,0.015
52721.368046,14.808,0.013
52721.38095,14.845,0.013
52721.393872,14.869,0.015
52721.406757,14.941,0.015
52721.419647,15.015,0.017
52750.291974,14.957,0.02
52750.302586,14.985,0.017
52750.313184,15.061,0.018
52750.323784,15.081,0.022
52750.334384,15.086,0.03
52781.268953,14.865,0.016
52781.279529,14.872,0.016
52781.290218,14.828,0.016
52781.301171,14.783,0.016
52781.312911,14.812,0.016
52801.220378,15.03,0.05
52801.230626,15.029,0.05
52801.240757,14.927,0.046
52801.25083,14.861,0.043
52801.260998,14.86,0.041
52809.223414,14.849,0.015
52809.233274,14.887,0.015
52809.243085,14.935,0.017
52809.253076,15.023,0.017
52809.262931,15.042,0.024
52830.176079,14.795,0.022
52830.185906,14.762,0.022
52830.195805,14.779,0.024
52830.205631,14.829,0.024
52830.215411,14.877,0.026
52845.164249,15.001,0.034
52845.174068,14.947,0.021
52845.183887,14.987,0.021
52845.193798,15.104,0.021
52845.203615,15.131,0.022
52873.138536,14.947,0.018
52873.150634,14.898,0.017
52873.162636,14.851,0.017
52873.174851,14.891,0.021
52873.186934,14.847,0.024
52897.118963,15.031,0.02
52897.130702,14.978,0.018
52897.142433,14.903,0.018
52897.154172,14.846,0.02
52897.166141,14.814,0.022
52988.464145,15.139,0.03
53038.460201,14.859,0.028
53038.472802,14.939,0.024
53045.381844,15.031,0.024
53045.393087,15.002,0.024
53045.404415,15.013,0.022
53045.415676,14.918,0.02
53045.426861,14.829,0.02
53096.329787,14.694,0.02
53096.34001,14.702,0.02
53096.350412,14.695,0.018
53096.361177,14.693,0.018
53096.371902,14.706,0.018
53108.308093,14.783,0.013
53108.318962,14.855,0.013
53108.33002,14.929,0.013
53108.340912,14.959,0.013
53108.351839,15.037,0.015
53125.292707,14.94,0.024
53125.302649,15.012,0.026
53125.312596,15.067,0.026
53125.322591,15.082,0.03
53125.332559,15.044,0.026
53134.249735,14.943,0.015
53134.25922,14.897,0.015
53134.268644,14.845,0.015
53134.278065,14.803,0.013
53134.287509,14.792,0.015
53155.254245,14.876,0.022
53155.263036,14.827,0.024
53155.271801,14.826,0.022
53155.280581,14.797,0.022
53155.289345,14.777,0.022
53163.234857,14.813,0.065
53163.255217,14.992,0.067
53163.265379,15.005,0.048
53193.2528,14.783,0.018
53193.26289,14.796,0.018
53214.164192,15.074,0.031
53214.196021,14.892,0.026
53244.135781,14.783,0.02
53244.145962,14.776,0.02
53244.156166,14.772,0.022
53244.166353,14.804,0.022
53244.176558,14.819,0.024
53362.514415,14.722,0.015
53362.528956,14.715,0.022
53362.543102,14.777,0.026
53390.468509,14.933,0.017
53400.432289,14.837,0.018
53400.444756,14.821,0.017
53400.457231,14.795,0.017
53461.338377,14.999,0.017
53461.348712,15.056,0.017
53461.359227,15.043,0.017
53461.369587,14.985,0.017
53461.380673,14.912,0.017
53489.301941,14.733,0.013
53489.312553,14.745,0.017
53489.347273,14.79,0.015
53535.222469,14.991,0.018
53535.232484,15.058,0.018
53535.24252,15.074,0.02
53535.252527,15.066,0.018
53535.262553,15.011,0.018
53563.175608,14.8,0.017
53563.217979,14.825,0.035
53599.146795,14.716,0.022
53599.159409,14.755,0.024
53599.184601,14.764,0.024
53599.197202,14.839,0.028
53607.142097,14.994,0.024
53607.153536,14.893,0.028
53635.104691,14.751,0.02
53635.115173,14.8,0.017
53635.125708,14.845,0.017
53635.136132,14.884,0.017
53635.146539,15.014,0.022
53725.474729,14.853,0.018
53725.487862,14.893,0.018
53725.500909,15.017,0.02
53725.514514,15.025,0.02
53725.528254,14.971,0.018
53755.463277,14.752,0.017
53755.47606,14.717,0.017
53755.48882,14.727,0.017
53755.501826,14.758,0.017
53755.514582,14.786,0.017
53775.449166,14.766,0.026
53803.353922,14.788,0.016
53803.365974,14.779,0.016
53803.377968,14.786,0.016
53803.390026,14.854,0.016
53803.401834,14.934,0.016
53807.370006,14.761,0.021
53807.382291,14.784,0.023
53829.326955,14.894,0.016
53829.337584,14.853,0.013
53829.348166,14.856,0.015
53829.358745,14.809,0.015
53833.313848,15.055,0.018
53833.325521,15.0,0.018
53833.336921,14.991,0.016
53833.347839,14.912,0.015
53833.359257,14.796,0.015
53858.294696,14.839,0.015
53858.30467,14.893,0.015
53858.314687,14.992,0.028
53858.334585,15.135,0.04
53876.260684,14.846,0.016
53876.271624,14.801,0.016
53876.282575,14.93,0.021
53876.293445,14.999,0.018
53905.218868,15.017,0.018
53905.228782,14.944,0.016
53905.238509,14.886,0.016
53905.248209,14.85,0.016
53905.261733,14.819,0.015
53933.171507,14.819,0.01
53933.182126,14.86,0.012
53933.192449,14.847,0.01
53933.20276,14.915,0.013
53933.213077,14.968,0.013
53955.15306,14.78,0.031
53955.165232,14.804,0.033
53955.177516,14.821,0.035
53955.189729,14.832,0.037
53955.201833,14.896,0.041
53991.111877,14.803,0.021
53991.124273,14.819,0.02
53991.135993,14.832,0.016
53991.147836,14.897,0.018
53992.143688,14.884,0.018
54108.451096,14.779,0.02
54108.464047,14.772,0.02
54108.476786,14.738,0.02
54108.489575,14.771,0.02
54108.502331,14.788,0.018
54139.389761,14.795,0.031
54139.401492,14.85,0.033
54139.413044,14.901,0.036
54139.425771,14.953,0.025
54139.437771,15.011,0.035
54484.46532,14.805,0.021
54524.394057,14.916,0.018
54524.405697,14.852,0.02
54524.41718,14.821,0.018
54524.429119,14.81,0.018
54524.440811,14.792,0.016
54539.366329,14.834,0.018
54539.377177,14.809,0.018
54539.387847,14.806,0.018
54539.398609,14.814,0.018
54539.410548,14.831,0.018
54571.298588,14.824,0.023
54571.3209,14.857,0.023
