mjd,m,merr
52676.456043,14.543,0.013
52676.486569,14.583,0.013
52676.502409,14.706,0.015
52707.43883,14.519,0.013
52707.452003,14.566,0.013
52707.46511,14.592,0.013
52707.465859,14.759,0.016
52707.478592,14.707,0.015
52707.478978,14.864,0.018
52707.492237,14.831,0.016
52707.492598,14.903,0.018
52710.382337,14.527,0.013
52710.382452,14.756,0.018
52710.395532,14.508,0.012
52710.395647,14.705,0.016
52710.408555,14.555,0.013
52710.40867,14.771,0.016
52710.421652,14.651,0.013
52710.421767,14.838,0.018
52710.434846,14.799,0.015
52734.320462,14.648,0.063
52737.397099,14.679,0.011
52737.4221,14.812,0.013
52756.277852,14.841,0.016
52756.29011,14.748,0.016
52756.30235,14.61,0.015
52756.314608,14.537,0.013
52768.268919,14.692,0.018
52768.280635,14.789,0.02
52768.292202,14.822,0.018
52768.30378,14.749,0.016
52768.31582,14.61,0.015
52794.225022,14.688,0.016
52794.23532,14.632,0.015
52794.245764,14.557,0.015
52794.256322,14.525,0.013
52794.267079,14.501,0.015
52819.218343,14.555,0.013
52819.228268,14.546,0.013
52819.238195,14.545,0.013
52819.248138,14.589,0.013
52819.258102,14.627,0.015
52824.221126,14.675,0.016
52824.241001,14.821,0.023
52824.25091,14.809,0.021
52824.26095,14.678,0.028
53033.457961,14.52,0.011
53033.470039,14.588,0.011
53033.482049,14.678,0.011
53033.494374,14.791,0.013
53033.506489,14.82,0.013
53080.395791,14.775,0.011
53080.406679,14.678,0.011
53080.417671,14.609,0.009
53089.392351,14.592,0.017
53089.402699,14.562,0.018
53089.413136,14.586,0.013
53096.375439,14.658,0.017
53096.385574,14.747,0.018
53096.395611,14.827,0.018
53096.405648,14.851,0.018
53096.415767,14.738,0.017
53111.296646,14.535,0.011
53111.307513,14.536,0.011
53111.318282,14.552,0.011
53111.32909,14.587,0.011
53111.340082,14.686,0.011
53119.310217,14.562,0.007
53119.341695,14.63,0.009
53138.24824,14.719,0.013
53138.257771,14.611,0.011
53138.267348,14.568,0.011
53138.276938,14.529,0.011
53138.286517,14.518,0.011
53139.253512,14.559,0.011
53139.272471,14.734,0.013
53139.28194,14.825,0.013
53139.291437,14.804,0.013
53149.262461,14.608,0.009
53149.27138,14.649,0.009
53149.280303,14.762,0.009
53149.289268,14.805,0.011
53169.224709,14.727,0.013
53169.234671,14.661,0.011
53169.24462,14.583,0.011
53169.254537,14.535,0.011
53169.26456,14.546,0.011
53478.372512,14.737,0.017
53478.381519,14.685,0.015
53478.390588,14.627,0.015
53478.399613,14.588,0.013
53478.408631,14.564,0.013
53496.296881,14.645,0.013
53496.307008,14.568,0.013
53496.317144,14.558,0.011
53496.327138,14.529,0.011
53496.337372,14.57,0.011
53527.218358,14.585,0.013
53527.228222,14.672,0.015
53527.238049,14.763,0.015
53527.247993,14.792,0.017
53527.257871,14.803,0.017
53791.42039,14.736,0.013
53791.432263,14.623,0.012
53791.444149,14.551,0.01
53791.468037,14.498,0.012
53815.409752,14.758,0.028
53815.421011,14.84,0.031
53817.341428,14.698,0.013
53817.352981,14.629,0.012
53817.36491,14.551,0.012
53846.29445,14.798,0.015
53846.305113,14.826,0.016
53846.31575,14.712,0.015
53846.326417,14.614,0.013
53846.337065,14.561,0.012
53850.29828,14.815,0.016
53850.308977,14.797,0.016
53850.319576,14.72,0.015
53850.330089,14.631,0.013
53850.340909,14.575,0.013
53884.275618,14.531,0.013
53884.287193,14.523,0.013
53884.298767,14.561,0.013
53884.310384,14.641,0.015
53884.321937,14.726,0.015
53901.230885,14.558,0.02
53901.260932,14.53,0.03
53911.237886,14.638,0.033
53911.247711,14.575,0.045
53911.257419,14.555,0.025
53911.2671,14.533,0.03
53954.14501,14.518,0.026
53954.167993,14.623,0.03
53954.17942,14.698,0.033
54155.417673,14.608,0.009
54155.441393,14.829,0.011
54155.453378,14.854,0.013
54156.387647,14.806,0.013
54156.405797,14.836,0.011
54156.417679,14.715,0.011
54156.429234,14.643,0.009
54156.440797,14.576,0.009
54174.389548,14.649,0.018
54174.400405,14.761,0.043
54174.411228,14.898,0.038
54174.422094,14.799,0.015
54180.382155,14.561,0.012
54180.402936,14.715,0.015
54180.413419,14.781,0.015
54180.423814,14.81,0.015
54200.314313,14.677,0.016
54200.324011,14.795,0.018
54200.333608,14.813,0.018
54200.342998,14.755,0.018
54200.352386,14.669,0.016
54484.475236,14.752,0.015
54484.488093,14.724,0.011
54484.500961,14.817,0.011
54484.513801,14.866,0.013
54484.526739,14.829,0.011
54539.386884,14.74,0.007
54539.408565,14.839,0.009
54567.310097,14.752,0.011
54567.321369,14.864,0.011
54567.343702,14.732,0.009
54568.356903,14.658,0.018
54568.378905,14.837,0.02
54580.299917,14.776,0.02
54580.310511,14.689,0.018
54580.321132,14.611,0.017
54580.331736,14.598,0.017
54580.342332,14.575,0.015
54590.292432,14.853,0.026
54590.302118,14.868,0.033
54590.31222,14.726,0.03
54590.332259,14.585,0.038
54597.302647,14.533,0.013
54597.313121,14.548,0.013
54597.323587,14.607,0.013
54597.333998,14.665,0.013
54597.344412,14.742,0.015
54611.259994,14.823,0.011
54611.269807,14.797,0.011
54611.279611,14.733,0.011
54611.289383,14.655,0.011
54611.299182,14.597,0.011
54620.264968,14.549,0.013
54620.275119,14.553,0.015
54620.285343,14.537,0.018
54620.295468,14.598,0.017
54620.305677,14.688,0.024
