mjd,m,merr
52676.441446,16.678,0.116
52676.456889,16.698,0.111
52676.471964,16.666,0.102
52676.487216,16.474,0.089
52676.503055,16.647,0.099
52707.439068,16.669,0.078
52707.439668,16.561,0.078
52707.452839,16.521,0.078
52707.465737,16.66,0.076
52707.466335,16.898,0.104
52707.478856,16.713,0.079
52707.479458,16.803,0.096
52707.493075,16.818,0.099
52711.37254,17.067,0.134
52711.385612,16.935,0.111
52711.399262,16.846,0.099
52711.399377,16.761,0.107
52711.413009,16.633,0.076
52711.413125,16.672,0.092
52711.426426,16.603,0.066
52734.321292,16.448,0.342
52737.384547,16.771,0.063
52737.397329,16.734,0.061
52737.409539,16.884,0.074
52737.42233,16.875,0.074
52737.434886,16.921,0.078
52756.266041,16.653,0.081
52756.278098,16.631,0.081
52756.290336,16.395,0.064
52756.302575,16.607,0.076
52756.328146,16.821,0.153
52756.340139,16.492,0.124
52769.284491,16.979,0.142
52769.307922,17.052,0.162
52769.319404,16.863,0.132
52794.225387,16.505,0.079
52794.235914,16.492,0.073
52794.246195,16.704,0.092
52794.25669,16.601,0.079
52794.267451,16.664,0.094
52819.219071,16.902,0.113
52819.228994,16.651,0.087
52819.238924,16.682,0.091
52819.248862,16.788,0.098
52819.25883,16.747,0.096
52824.220983,16.684,0.078
52824.24095,16.706,0.102
52824.250926,16.508,0.074
53033.458733,16.989,0.098
53033.47078,17.486,0.148
53033.48279,17.811,0.189
53033.495114,17.748,0.176
53033.507231,17.426,0.131
53064.406687,16.703,0.107
53064.418087,16.548,0.089
53080.39652,16.688,0.059
53080.407456,16.644,0.057
53080.4184,16.608,0.054
53080.429375,16.756,0.067
53080.440296,16.702,0.061
53089.392664,16.596,0.142
53089.403012,16.59,0.093
53089.41345,17.129,0.155
53096.375529,16.822,0.122
53096.385663,16.824,0.122
53096.3957,16.858,0.124
53096.405754,16.82,0.117
53096.415856,16.901,0.126
53111.297041,16.787,0.087
53111.307908,16.775,0.08
53111.318676,16.736,0.076
53111.340477,16.659,0.068
53119.30206,16.651,0.053
53119.312733,16.549,0.046
53119.322762,16.626,0.053
53119.34299,16.682,0.053
53139.253877,16.814,0.08
53139.26332,16.75,0.074
53139.272835,16.759,0.072
53139.282305,16.722,0.067
53139.291803,16.694,0.065
53149.248521,16.702,0.064
53149.257147,16.776,0.068
53149.265793,16.707,0.061
53149.274376,16.758,0.063
53149.283106,16.816,0.066
53169.225055,16.752,0.068
53169.235017,16.673,0.065
53169.244966,16.747,0.072
53169.254884,16.765,0.068
53169.264906,16.71,0.07
53478.372744,16.767,0.1
53478.381742,16.708,0.093
53478.390804,16.652,0.087
53478.399829,16.784,0.094
53478.408847,16.713,0.085
53496.297285,16.814,0.094
53496.307465,17.0,0.107
53496.317548,16.833,0.091
53496.32755,16.868,0.091
53496.337774,16.838,0.089
53527.218887,16.629,0.081
53527.228758,16.605,0.08
53527.238582,16.614,0.08
53527.248527,16.636,0.081
53527.258402,16.66,0.085
53791.468916,16.715,0.071
53791.480748,16.756,0.081
53791.504775,16.72,0.074
53815.398848,16.394,0.109
53815.443923,16.377,0.091
53817.330661,16.711,0.079
53817.342263,16.743,0.078
53817.35382,16.724,0.074
53817.365752,16.665,0.069
53846.295313,16.638,0.076
53846.305975,16.739,0.084
53846.316589,16.698,0.078
53846.32727,16.733,0.076
53850.29847,16.919,0.104
53850.309168,16.738,0.086
53850.319767,16.722,0.086
53850.330279,16.694,0.081
53850.3411,16.682,0.083
53884.27581,16.707,0.087
53884.287387,16.601,0.078
53884.29896,16.656,0.085
53884.310579,16.603,0.08
53884.322131,16.706,0.087
53901.231642,16.722,0.135
53901.241666,17.051,0.27
53901.26168,17.707,0.429
53911.238612,17.021,0.313
53911.258143,16.746,0.17
53911.267807,16.352,0.162
53954.145208,16.842,0.211
53954.156692,16.492,0.152
53954.16819,16.634,0.175
53954.179618,16.786,0.21
54155.418569,16.773,0.067
54155.430417,16.735,0.063
54155.442291,16.72,0.063
54155.454307,16.69,0.061
54155.466213,16.708,0.061
54156.388534,16.802,0.068
54156.406679,16.893,0.065
54156.418564,17.059,0.074
54156.430121,17.2,0.083
54156.441688,17.367,0.098
54174.389811,16.733,0.124
54174.411493,16.487,0.083
54174.422358,16.645,0.078
54180.382956,16.481,0.059
54180.393296,16.546,0.069
54180.403783,16.719,0.087
54180.414215,16.612,0.074
54180.424611,16.642,0.076
54200.315122,16.796,0.112
54200.324822,16.78,0.106
54200.334423,16.801,0.111
54200.343807,16.788,0.106
54200.353239,16.855,0.117
54478.478768,16.983,0.137
54478.49186,16.677,0.05
54478.504959,16.712,0.048
54478.518034,16.824,0.085
54544.326387,16.661,0.111
54544.336971,16.544,0.094
54544.347557,16.611,0.1
54544.358123,16.554,0.091
54544.368995,16.604,0.094
54568.298982,16.815,0.074
54568.309916,16.93,0.081
54568.32089,16.85,0.07
54568.331846,17.017,0.081
54568.342807,17.038,0.08
54580.300172,16.75,0.118
54580.310766,16.711,0.113
54580.321389,16.764,0.118
54580.331991,16.894,0.137
54580.342585,16.835,0.109
54588.298244,16.662,0.061
54588.308873,16.724,0.065
54588.319494,16.777,0.067
54588.330008,16.657,0.063
54588.340562,16.587,0.057
54590.293163,16.186,0.076
54590.333191,15.971,0.094
54597.303237,16.713,0.08
54597.31371,16.712,0.076
54597.32417,16.842,0.083
54597.334584,16.746,0.074
54597.345005,16.696,0.072
54611.260769,16.8,0.057
54611.27057,16.736,0.061
54611.280377,16.724,0.063
54611.290148,16.718,0.067
54611.299944,16.761,0.07
54620.265363,16.713,0.063
54620.275513,16.819,0.074
54620.285737,16.749,0.07
54620.295866,16.806,0.113
54620.306071,16.866,0.207
