mjd,m,merr
52711.389807,15.827,0.033
52711.404214,15.756,0.03
52711.418615,15.84,0.03
52711.433031,15.845,0.026
52711.447158,15.988,0.03
52738.356166,15.817,0.024
52738.380429,15.786,0.026
52738.3919,15.846,0.028
52738.403461,15.891,0.028
52739.354833,15.844,0.038
52739.367729,15.797,0.035
52739.379066,15.771,0.035
52739.390379,15.764,0.035
52739.401709,15.908,0.038
52755.316822,15.81,0.038
52755.328977,15.922,0.041
52755.341739,16.047,0.046
52755.3541,16.367,0.059
52755.366898,16.396,0.059
52769.277923,16.37,0.067
52769.290667,16.279,0.061
52769.31437,15.93,0.046
52794.225943,16.233,0.056
52794.236471,16.35,0.063
52794.246748,16.341,0.064
52794.257248,16.133,0.049
52794.268011,15.956,0.046
52819.222555,15.986,0.053
52819.232401,15.893,0.048
52819.242236,15.891,0.048
52819.252057,15.837,0.046
52819.261893,15.796,0.045
52824.221613,16.28,0.05
52824.241496,15.922,0.054
52824.251478,15.864,0.043
52824.261542,15.927,0.098
53033.459567,15.779,0.03
53033.471612,15.88,0.031
53033.495954,15.997,0.033
53033.508064,16.23,0.041
53053.466481,16.315,0.104
53053.482321,16.011,0.055
53053.494114,15.916,0.041
53053.508244,15.823,0.043
53064.348198,16.154,0.045
53064.360112,16.401,0.053
53064.371693,16.437,0.051
53079.430223,16.231,0.039
53079.452133,15.887,0.03
53079.462903,15.842,0.028
53092.335849,16.431,0.045
53092.345802,16.15,0.033
53092.355644,16.022,0.03
53092.375379,15.837,0.023
53110.322779,15.817,0.03
53110.344394,15.807,0.028
53121.299539,16.459,0.045
53121.309787,16.283,0.041
53121.320063,16.067,0.028
53121.342824,15.849,0.026
53122.34654,15.832,0.026
53122.3476,15.82,0.026
53122.357918,15.818,0.028
53122.36709,15.74,0.025
53122.368426,15.736,0.024
53122.377306,15.814,0.025
53122.378781,15.799,0.024
53122.387616,15.871,0.026
53122.389406,15.844,0.026
53123.350846,15.867,0.028
53123.361203,15.831,0.028
53123.371437,15.849,0.025
53123.381822,15.815,0.025
53123.392026,15.873,0.028
53138.316539,15.884,0.03
53166.248746,15.838,0.031
53166.258195,15.84,0.031
53177.226254,16.413,0.046
53177.235925,16.444,0.045
53177.24541,16.214,0.036
53177.254886,16.006,0.031
53177.264356,15.918,0.026
53414.455308,15.792,0.028
53437.476824,15.954,0.03
53437.489944,15.837,0.03
53437.501146,15.769,0.026
53437.512422,15.771,0.028
53447.407544,15.808,0.026
53447.418479,15.796,0.026
53447.42879,15.782,0.03
53447.439088,15.899,0.126
53447.449399,15.968,0.105
53468.43629,16.275,0.044
53468.44846,16.016,0.037
53468.458316,15.909,0.033
53468.468306,15.845,0.031
53478.41,15.805,0.033
53478.41906,15.875,0.035
53478.428351,15.923,0.037
53478.437967,16.067,0.043
53478.447054,16.246,0.052
53496.2984,15.911,0.039
53496.308581,15.841,0.035
53496.318676,15.819,0.033
53496.328715,15.807,0.033
53496.338923,15.812,0.033
53503.372969,15.842,0.048
53503.381696,15.894,0.043
53503.390982,15.975,0.046
53503.39968,16.094,0.065
53503.40837,16.469,0.13
53527.229291,16.244,0.054
53527.239182,16.468,0.067
53527.249093,16.428,0.065
53527.258941,16.149,0.05
53579.160082,16.409,0.089
53579.171445,16.395,0.057
53579.182862,16.116,0.044
53579.194179,15.92,0.039
53579.205517,15.872,0.037
53790.413779,15.751,0.031
53790.425669,15.823,0.038
53790.437389,15.822,0.03
53790.449624,15.971,0.035
53790.46162,16.149,0.04
53817.343102,15.947,0.036
53817.354665,15.86,0.033
53817.366598,15.797,0.03
53845.303598,15.951,0.043
53845.314864,15.895,0.043
53845.326095,15.749,0.038
53845.33747,15.766,0.038
53845.34874,15.785,0.049
53850.298956,16.367,0.061
53850.309674,16.066,0.046
53850.320258,15.914,0.04
53850.330766,15.876,0.038
53850.341586,15.772,0.033
53884.276323,16.317,0.057
53884.287899,16.253,0.052
53884.299473,16.014,0.044
53884.311095,15.897,0.039
53884.322643,15.841,0.037
53901.242231,15.976,0.083
53901.252222,16.001,0.115
53901.262261,15.838,0.074
53911.239156,16.496,0.244
53911.249042,16.265,0.132
53911.25868,16.165,0.116
53911.268338,16.017,0.094
53937.178237,16.078,0.058
53937.188365,16.129,0.061
53937.198502,16.472,0.083
53937.208782,16.46,0.083
53954.14561,16.35,0.117
53954.168585,15.899,0.086
53954.180015,15.884,0.086
54155.419461,16.34,0.043
54155.431306,16.087,0.033
54155.443179,15.91,0.028
54155.4552,15.828,0.026
54155.467104,15.777,0.024
54174.412717,15.756,0.036
54174.423585,15.812,0.038
54180.383751,16.052,0.04
54180.39409,15.9,0.038
54180.404576,15.852,0.036
54180.41501,15.79,0.033
54180.425405,15.756,0.031
54200.31572,16.293,0.068
54200.325432,16.008,0.053
54200.335046,15.986,0.049
54200.34441,15.84,0.045
54200.353836,15.776,0.043
54544.327563,15.863,0.048
54544.338147,15.77,0.043
54544.348727,15.746,0.039
54544.359356,15.755,0.039
54544.370179,15.737,0.037
54558.299855,15.833,0.054
54558.311448,15.992,0.135
54558.334741,16.276,0.187
54568.299696,15.835,0.028
54568.310632,15.791,0.028
54568.321614,15.796,0.026
54568.332559,15.863,0.028
54568.34352,15.95,0.028
54580.311933,16.013,0.05
54580.322556,15.833,0.043
54580.33316,15.787,0.048
54580.343748,15.805,0.05
54589.302186,16.168,0.031
54589.312744,16.367,0.037
54589.323295,16.339,0.035
54589.333816,16.087,0.03
54590.293894,15.955,0.063
54590.303668,16.144,0.073
54590.323887,16.202,0.177
54590.333918,16.233,0.112
54611.261541,16.454,0.043
54611.271338,16.315,0.041
54611.281143,16.068,0.033
54611.290908,15.936,0.031
54611.300707,15.878,0.031
54621.258482,15.898,0.028
54621.26869,15.973,0.03
54621.278845,16.113,0.035
54621.289009,16.4,0.043
54621.299174,16.44,0.048
