mjd,m,merr
52652.486381,15.948,0.04
52652.501532,16.001,0.04
52652.516743,16.132,0.043
52681.422277,16.034,0.041
52681.437505,16.097,0.041
52681.452389,16.11,0.04
52681.467118,16.136,0.041
52681.481853,16.184,0.049
52723.41265,16.38,0.056
52723.412765,16.054,0.056
52752.299435,16.059,0.046
52752.310259,16.153,0.048
52752.320896,16.074,0.045
52752.331651,16.128,0.046
52752.342331,16.18,0.048
52772.376576,16.411,0.112
52800.223691,16.293,0.119
52800.234238,16.393,0.127
52800.244567,16.386,0.132
52810.224911,16.059,0.046
52810.234948,16.04,0.048
52810.244868,16.045,0.054
52812.236624,16.251,0.053
52812.246645,16.176,0.049
52812.256883,16.092,0.046
52812.267113,16.111,0.048
52812.277121,16.072,0.046
52840.16782,16.147,0.05
52840.177779,16.156,0.046
52840.187743,16.138,0.048
52840.197691,16.177,0.05
52840.207672,16.121,0.048
52872.137578,16.292,0.096
53023.454646,16.025,0.033
53023.466695,16.143,0.033
53023.478892,16.068,0.031
53023.490914,16.188,0.033
53023.502985,16.096,0.03
53035.473897,16.531,0.054
53035.486043,16.573,0.056
53035.498289,16.592,0.059
53035.510464,16.66,0.064
53035.522687,16.508,0.053
53037.486965,16.22,0.04
53037.525557,16.405,0.045
53049.394953,16.433,0.05
53049.406832,16.428,0.05
53049.418713,16.421,0.05
53049.430631,16.472,0.052
53049.443296,16.522,0.054
53107.290838,16.333,0.046
53107.301148,16.308,0.045
53107.311428,16.392,0.048
53107.321754,16.406,0.048
53107.332258,16.424,0.048
53154.250503,16.085,0.061
53154.258991,16.138,0.063
53154.267375,15.979,0.053
53154.275791,16.049,0.056
53154.284327,16.094,0.061
53164.222531,16.532,0.061
53164.232352,16.611,0.066
53164.242771,16.51,0.071
53164.252404,16.637,0.076
53164.262225,16.662,0.073
53194.223907,16.525,0.112
53194.24334,16.086,0.091
53194.252488,16.615,0.104
53243.133197,16.318,0.071
53243.143809,16.404,0.081
53243.154186,16.399,0.086
53243.16448,16.522,0.097
53243.17529,16.292,0.083
53422.401715,16.527,0.167
53422.41367,17.351,0.296
53422.450071,16.43,0.072
53450.381456,16.379,0.065
53450.392038,16.383,0.065
53450.402579,16.365,0.065
53450.423687,16.417,0.065
53474.359982,16.102,0.039
53474.369946,16.053,0.039
53474.38159,16.121,0.039
53474.392298,16.159,0.041
53521.258788,16.265,0.063
53521.269088,16.485,0.081
53521.279389,16.502,0.065
53521.2898,16.425,0.057
53521.300084,16.446,0.065
53538.222452,16.036,0.074
53538.232076,16.101,0.072
53538.241699,16.082,0.074
53538.251364,16.209,0.089
53538.261005,16.194,0.089
53583.163132,16.149,0.054
53583.174455,16.103,0.044
53583.185701,16.068,0.043
53583.196975,16.091,0.043
53583.208257,16.104,0.044
53605.138854,16.38,0.059
53605.149886,16.217,0.054
53605.160923,16.149,0.055
53605.171959,16.04,0.061
53772.476095,16.171,0.043
53772.489102,16.187,0.046
53772.501757,16.258,0.05
53772.514643,16.257,0.05
53772.527461,16.415,0.054
53786.430251,16.168,0.063
53786.443419,16.176,0.045
53786.456823,16.237,0.049
53786.469985,16.156,0.043
53786.483282,16.26,0.049
53824.384202,16.062,0.063
53824.396044,16.022,0.035
53824.40808,16.051,0.033
53824.419707,17.753,0.472
53829.367708,16.131,0.068
53829.378519,16.084,0.106
53829.401138,16.273,0.092
53829.409338,16.367,0.144
53829.412468,16.31,0.147
53829.43028,16.242,0.203
53831.377837,16.038,0.035
53831.387612,16.027,0.031
53831.397394,16.014,0.037
53831.407165,16.066,0.033
53831.416954,16.024,0.033
53832.392943,16.048,0.037
53832.402962,16.017,0.035
53832.412985,15.954,0.031
53843.312298,16.166,0.067
53843.323566,16.234,0.072
53843.334834,16.23,0.074
53843.346119,16.149,0.07
53843.357426,16.336,0.085
53855.293314,16.463,0.064
53855.303517,16.442,0.064
53855.314728,16.473,0.066
53855.325062,16.469,0.064
53855.335223,16.519,0.064
53878.290614,16.448,0.073
53878.301233,16.433,0.073
53878.311826,16.434,0.074
53878.322385,16.494,0.078
53878.333122,16.43,0.073
53892.221665,16.152,0.096
53892.261942,16.267,0.105
53903.237107,16.184,0.058
53903.246693,16.175,0.056
53903.256492,16.083,0.051
53903.266113,16.146,0.056
53903.275686,16.139,0.056
53917.228914,16.115,0.069
53917.23884,16.323,0.106
53917.248597,16.121,0.078
53917.258339,16.159,0.078
53932.197256,16.067,0.094
53932.218896,16.06,0.07
54109.486158,16.067,0.114
54169.380266,16.395,0.054
54169.39132,16.349,0.052
54169.402416,16.379,0.052
54169.413632,16.376,0.054
54169.424734,16.548,0.067
54186.329666,16.165,0.061
54186.340054,16.105,0.059
54186.35029,16.063,0.051
54186.360508,16.013,0.056
54186.370728,16.122,0.079
54200.325063,16.021,0.031
54200.346389,16.083,0.033
54200.356881,16.144,0.035
54200.36733,16.143,0.037
54209.305268,16.121,0.094
54209.314067,16.175,0.107
54209.323018,16.133,0.064
54209.332095,16.102,0.092
54209.340957,16.078,0.101
54217.25622,16.319,0.07
54217.273556,16.178,0.068
54217.282205,16.327,0.078
54217.290844,16.4,0.074
54218.276826,16.305,0.101
54218.285818,16.322,0.101
54218.294692,16.439,0.102
54218.303733,16.494,0.104
54218.313172,16.599,0.116
54509.394056,16.488,0.059
54509.406126,16.442,0.056
54509.418057,16.296,0.051
54509.429987,16.246,0.048
54509.441949,16.137,0.043
54536.376602,16.003,0.04
54536.387478,16.127,0.041
54536.398338,16.1,0.041
54536.409194,16.121,0.041
54536.420173,16.183,0.045
54543.342782,16.034,0.074
54543.354318,15.987,0.073
54543.366283,16.044,0.073
54543.377442,15.974,0.073
54543.388667,16.0,0.073
54555.299174,16.262,0.064
54555.313713,16.381,0.068
54555.325467,16.409,0.071
54555.337236,16.463,0.074
54555.348942,16.53,0.079
54561.298491,16.548,0.081
54561.309921,16.467,0.066
54561.321289,16.537,0.066
54561.332654,16.492,0.066
54561.344139,16.576,0.068
54583.294836,16.6,0.096
54583.310133,16.686,0.102
54583.322983,16.535,0.089
54583.334272,16.576,0.086
54583.345854,16.625,0.094
54614.265915,16.15,0.058
54614.276219,16.196,0.061
54614.286558,16.262,0.064
54614.296946,16.303,0.068
54614.307231,16.294,0.068
