mjd,m,merr
52653.465326,15.061,0.018
52653.480037,14.99,0.018
52653.49569,14.78,0.013
52653.511572,14.67,0.012
52653.526337,14.591,0.012
52684.437228,14.639,0.016
52684.452128,14.717,0.018
52684.46693,14.897,0.028
52693.421762,14.56,0.011
52693.438388,14.556,0.011
52693.453843,14.595,0.011
52693.469255,14.633,0.013
52693.484658,14.741,0.013
52721.369538,14.65,0.011
52721.382448,14.592,0.011
52721.421133,14.597,0.011
52750.293258,14.568,0.015
52750.303871,14.572,0.011
52750.314469,14.606,0.013
52750.325068,14.68,0.015
52750.335669,14.725,0.013
52781.269814,14.899,0.02
52781.280393,14.853,0.018
52781.291085,14.797,0.018
52781.302654,14.795,0.018
52781.313786,14.766,0.018
52801.221461,14.679,0.031
52801.231697,14.763,0.033
52801.24184,14.849,0.037
52801.251907,14.992,0.041
52801.262071,15.076,0.043
52809.224491,15.008,0.017
52809.234357,14.854,0.015
52809.244163,14.74,0.013
52809.254156,14.667,0.013
52830.216483,14.603,0.018
52830.226406,14.584,0.018
52830.236358,14.593,0.018
52830.246285,14.622,0.018
52830.256174,14.696,0.02
52845.175484,14.681,0.015
52845.185397,14.64,0.015
52845.195211,14.624,0.014
52845.205031,14.568,0.014
52897.120002,14.85,0.015
52897.131743,14.7,0.015
52897.14347,14.645,0.013
52897.155226,14.611,0.015
52897.16718,14.576,0.017
53008.489404,14.788,0.016
53008.503866,14.97,0.018
53008.51852,15.174,0.02
53045.383004,14.723,0.017
53045.39425,14.673,0.017
53045.405578,14.622,0.015
53045.41684,14.611,0.015
53045.428023,14.597,0.015
53096.330871,14.589,0.017
53096.341096,14.604,0.017
53096.351496,14.641,0.017
53096.362262,14.704,0.017
53096.372987,14.803,0.018
53108.309169,14.954,0.013
53108.320045,15.019,0.013
53108.331103,14.975,0.013
53108.341999,14.839,0.011
53108.352926,14.708,0.011
53125.293631,15.103,0.026
53125.303572,14.971,0.024
53125.313519,14.821,0.02
53125.323514,14.731,0.018
53125.333482,14.645,0.017
53134.288487,14.909,0.015
53134.298047,15.01,0.017
53134.307546,15.005,0.018
53134.31709,14.938,0.018
53134.326589,14.83,0.017
53155.255178,15.047,0.024
53155.263969,14.89,0.022
53155.272734,14.764,0.02
53155.281513,14.708,0.018
53155.290278,14.662,0.018
53163.256166,14.612,0.05
53163.266326,14.589,0.03
53193.243634,14.521,0.022
53193.253735,14.634,0.015
53193.263826,14.678,0.017
53244.136803,14.608,0.017
53244.146984,14.607,0.017
53244.157188,14.694,0.018
53244.167377,14.746,0.02
53362.515449,15.037,0.018
53362.529991,14.831,0.02
53390.469637,15.09,0.017
53390.482343,14.959,0.015
53390.495036,14.819,0.013
53390.507733,14.769,0.011
53390.520896,14.67,0.011
53400.433277,14.788,0.017
53400.445741,14.677,0.015
53400.458216,14.633,0.013
53400.483084,14.585,0.013
53429.384743,14.686,0.015
53429.396024,14.698,0.015
53429.407322,14.775,0.015
53429.41861,14.91,0.017
53429.429897,15.088,0.02
53461.339607,14.637,0.011
53461.349942,14.713,0.013
53461.360459,14.827,0.013
53461.370816,14.956,0.015
53461.381919,15.024,0.017
53489.303073,14.647,0.013
53489.313726,14.687,0.017
53489.349244,15.126,0.02
53535.223343,14.932,0.017
53535.233362,14.789,0.015
53535.243395,14.678,0.013
53535.2534,14.627,0.013
53535.263425,14.59,0.013
53563.230003,14.523,0.02
53563.240615,14.533,0.013
53563.251201,14.56,0.013
53563.261775,14.507,0.013
53599.147907,14.636,0.018
53599.160516,14.583,0.018
53599.173116,14.559,0.018
53599.185714,14.562,0.018
53599.198313,14.573,0.02
53607.143261,14.562,0.013
53635.105934,14.607,0.013
53635.116503,14.637,0.013
53635.126951,14.708,0.013
53635.137379,14.797,0.015
53725.476197,14.951,0.018
53725.489348,15.094,0.02
53725.50273,15.048,0.018
53725.515985,14.886,0.017
53725.529723,14.742,0.013
53755.464712,14.96,0.018
53755.477497,14.805,0.015
53755.490367,14.691,0.015
53755.503263,14.645,0.013
53755.516018,14.603,0.013
53775.437481,14.751,0.022
53775.45026,14.894,0.026
53775.476017,15.044,0.033
53803.355191,14.624,0.015
53803.367244,14.601,0.013
53803.379279,14.621,0.013
53803.391286,14.649,0.013
53803.403135,14.7,0.013
53829.328081,14.636,0.013
53829.349291,14.584,0.015
53829.359866,14.608,0.015
53833.315006,14.581,0.012
53833.338303,14.622,0.012
53833.348997,14.646,0.012
53833.360409,14.687,0.012
53858.295832,15.031,0.02
53858.305941,15.124,0.021
53858.315861,15.205,0.048
53864.298561,14.802,0.025
53864.308174,14.708,0.023
53864.318013,14.623,0.021
53864.327722,14.641,0.02
53876.26173,14.574,0.015
53876.272675,14.557,0.018
53876.283616,14.602,0.018
53876.294479,14.653,0.016
53905.219609,14.937,0.016
53905.229522,15.037,0.018
53905.239247,15.039,0.018
53905.248947,14.945,0.016
53905.262473,14.783,0.015
53933.214037,15.095,0.028
53933.22431,14.974,0.026
53933.234644,14.829,0.025
53933.245027,14.745,0.02
53933.255308,14.677,0.018
53955.154308,14.663,0.026
53955.166494,14.712,0.028
53955.178743,14.774,0.03
53955.190977,14.91,0.037
53955.20306,15.059,0.043
53991.113146,14.828,0.023
53991.125538,15.019,0.026
53991.137258,14.997,0.023
53991.149105,14.904,0.021
53991.161028,14.759,0.02
53992.144955,14.678,0.026
54108.452671,14.606,0.017
54108.465485,14.633,0.018
54108.478228,14.689,0.018
54108.491016,14.819,0.018
54108.50377,14.984,0.02
54139.391,15.043,0.036
54139.402722,14.925,0.033
54139.414279,14.828,0.036
54139.427004,14.642,0.02
54139.439004,14.586,0.025
54157.387993,14.744,0.015
54157.39931,14.858,0.016
54157.410265,15.014,0.018
54157.42123,15.008,0.018
54157.432191,14.955,0.016
54483.467708,14.668,0.02
54483.480002,14.644,0.018
54483.492048,14.561,0.018
54483.504197,14.567,0.016
54524.395222,15.147,0.021
54524.406861,14.996,0.021
54524.41834,14.841,0.018
54524.430281,14.697,0.016
54524.441975,14.638,0.015
54539.367658,15.151,0.021
54539.378503,15.095,0.02
54539.389177,14.924,0.018
54539.399937,14.787,0.016
54539.411892,14.662,0.015
54571.299747,14.922,0.023
54571.310934,15.038,0.026
54571.322057,14.993,0.025
54571.332918,14.858,0.023
54571.34379,14.745,0.021
54620.262423,14.699,0.021
54620.272768,14.65,0.021
54620.283579,14.612,0.02
54620.293756,14.582,0.02
54620.303944,14.595,0.02
