mjd,m,merr
52693.421472,15.448,0.026
52693.438095,15.482,0.026
52693.45355,15.533,0.028
52693.468961,15.562,0.03
52693.484364,15.649,0.03
52721.369253,15.618,0.028
52721.382162,15.539,0.024
52721.395085,15.523,0.024
52721.407966,15.505,0.024
52721.420847,15.501,0.024
52750.293026,15.731,0.041
52750.303639,15.705,0.031
52750.314237,15.694,0.037
52750.324836,15.751,0.039
52750.335435,15.754,0.033
52781.269166,15.515,0.028
52781.279741,15.488,0.026
52781.290431,15.548,0.028
52781.301383,15.517,0.028
52781.313126,15.543,0.028
52801.221367,15.615,0.081
52801.231608,15.525,0.08
52801.241748,15.502,0.076
52801.251816,15.596,0.083
52801.261979,15.454,0.068
52809.224398,15.629,0.028
52809.234265,15.581,0.028
52809.244071,15.567,0.028
52809.254066,15.572,0.026
52830.177076,15.688,0.052
52830.186892,15.713,0.054
52830.196792,15.692,0.052
52830.206618,15.79,0.054
52830.216392,15.733,0.052
52843.167202,15.737,0.039
52843.177119,15.747,0.041
52843.226207,15.842,0.043
52843.236456,15.871,0.048
52843.246567,15.812,0.048
52843.256573,15.829,0.049
52843.266578,15.786,0.048
52872.141259,15.509,0.034
52872.164398,15.52,0.14
52897.119813,15.533,0.03
52897.13155,15.476,0.03
52897.143281,15.478,0.03
52897.15502,15.467,0.035
52897.16699,15.483,0.039
53038.447815,15.464,0.041
53038.460714,15.46,0.046
53038.473315,15.496,0.041
53038.486302,15.47,0.05
53045.382811,15.784,0.046
53045.394055,15.711,0.044
53045.405383,15.616,0.039
53045.416646,15.538,0.037
53045.427828,15.5,0.035
53096.330781,15.483,0.041
53096.341006,15.529,0.041
53096.351406,15.604,0.041
53096.362171,15.634,0.043
53096.372896,15.618,0.041
53108.30908,15.47,0.02
53108.319955,15.508,0.02
53108.331012,15.491,0.02
53108.341908,15.526,0.02
53108.352835,15.517,0.02
53125.293129,15.514,0.041
53125.30307,15.478,0.041
53125.313017,15.489,0.039
53125.323012,15.485,0.039
53125.33298,15.447,0.037
53134.288405,15.558,0.028
53134.297965,15.515,0.028
53134.307465,15.487,0.028
53134.317007,15.479,0.03
53134.326507,15.465,0.03
53155.2551,15.804,0.052
53155.263891,15.786,0.054
53155.272656,15.789,0.054
53155.281435,15.763,0.052
53155.290201,15.781,0.055
53163.266246,15.796,0.111
53193.243556,15.572,0.054
53193.253655,15.624,0.037
53193.263747,15.72,0.043
53214.196904,15.494,0.054
53244.146897,15.825,0.054
53244.157102,15.718,0.05
53244.16729,15.721,0.052
53244.177493,15.632,0.048
53362.515319,15.471,0.028
53362.529861,15.479,0.052
53390.469512,15.732,0.03
53390.482218,15.668,0.028
53390.49491,15.581,0.026
53390.507607,15.54,0.024
53390.52077,15.571,0.026
53400.433154,15.771,0.041
53400.445616,15.791,0.041
53400.458092,15.801,0.039
53400.48296,15.792,0.041
53429.384617,15.503,0.031
53429.395898,15.58,0.033
53429.407197,15.623,0.035
53429.418483,15.616,0.033
53429.429771,15.658,0.035
53461.3394,15.501,0.026
53461.349735,15.518,0.026
53461.360253,15.469,0.024
53461.37061,15.44,0.024
53461.381712,15.425,0.024
53489.302763,15.819,0.035
53489.313418,15.871,0.078
53489.337369,15.766,0.037
53489.348863,15.685,0.033
53535.222944,15.429,0.028
53535.232963,15.49,0.028
53535.242997,15.47,0.028
53535.253001,15.447,0.026
53535.263027,15.512,0.028
53563.229712,15.561,0.044
53563.240323,15.51,0.033
53563.250908,15.491,0.03
53563.261483,15.464,0.03
53599.1474,15.585,0.05
53599.16001,15.637,0.057
53599.172607,15.66,0.057
53599.185207,15.71,0.059
53599.197805,15.716,0.067
53607.131557,15.684,0.07
53607.143164,15.693,0.041
53607.154607,15.729,0.055
53607.166035,15.767,0.046
53607.177455,15.766,0.098
53635.105593,15.493,0.035
53635.11607,15.457,0.028
53635.12661,15.435,0.028
53635.13704,15.444,0.03
53635.147446,15.539,0.037
53725.475795,15.851,0.044
53725.488946,15.815,0.041
53725.502327,15.802,0.039
53725.515583,15.747,0.037
53725.529321,15.711,0.035
53755.464319,15.668,0.037
53755.477102,15.714,0.037
53755.489974,15.761,0.039
53755.502868,15.77,0.039
53755.515625,15.762,0.037
53775.424143,15.418,0.055
53775.43714,15.485,0.052
53775.450122,15.473,0.052
53775.475879,15.637,0.059
53803.354813,15.805,0.041
53803.366865,15.743,0.038
53803.378903,15.653,0.035
53803.390912,15.637,0.033
53803.402758,15.592,0.03
53807.370937,15.679,0.048
53807.382943,15.612,0.046
53829.32776,15.768,0.167
53829.33839,15.779,0.185
53829.34897,15.782,0.188
53829.359547,15.776,0.175
53833.314682,15.734,0.031
53833.326507,15.783,0.035
53833.337978,15.8,0.033
53833.34867,15.789,0.033
53833.360086,15.783,0.031
53858.295524,15.557,0.028
53858.305637,15.562,0.03
53858.315552,15.688,0.091
53876.261571,15.469,0.018
53876.272517,15.463,0.02
53876.28346,15.644,0.04
53876.29432,15.467,0.018
53905.219287,15.847,0.036
53905.229201,15.774,0.035
53905.238933,15.724,0.033
53905.248627,15.691,0.031
53905.262152,15.598,0.03
53934.214418,15.731,0.036
53934.225762,15.739,0.043
53934.240502,15.757,0.046
53934.251119,15.832,0.046
53934.261657,15.802,0.059
53955.153808,15.534,0.063
53955.165993,15.568,0.067
53955.178258,15.648,0.072
53955.190492,15.554,0.07
53955.202574,15.703,0.081
53991.112799,15.583,0.041
53991.125193,15.564,0.04
53991.136913,15.495,0.033
53991.148758,15.497,0.033
53991.160681,15.426,0.033
53992.144608,15.558,0.038
53992.156691,15.653,0.074
54108.452272,15.451,0.035
54108.465087,15.478,0.039
54108.477831,15.439,0.037
54108.490617,15.511,0.037
54139.389805,15.778,0.061
54139.401651,15.732,0.063
54139.413378,15.701,0.065
54139.425117,15.647,0.048
54139.436922,15.593,0.061
54167.384305,15.698,0.035
54167.395634,15.743,0.048
54167.406797,15.709,0.039
54167.41793,15.807,0.041
54167.429062,15.729,0.039
54484.466425,15.621,0.038
54524.394723,15.548,0.028
54524.406362,15.643,0.035
54524.417842,15.63,0.031
54524.429783,15.643,0.031
54524.441476,15.693,0.031
54540.381555,15.471,0.025
54540.392389,15.484,0.025
54540.403268,15.486,0.025
54540.414138,15.5,0.025
54540.424929,15.549,0.025
54572.299929,15.803,0.046
54572.310843,15.69,0.041
54572.322447,15.781,0.054
54587.297726,15.725,0.026
54587.307872,15.718,0.025
54587.338592,15.697,0.025
54620.221478,15.472,0.031
54620.231778,15.489,0.031
54620.241909,15.53,0.031
54620.252059,15.609,0.033
54620.262199,15.611,0.033
