mjd,m,merr
52666.471015,15.246,0.02
52666.485476,15.284,0.018
52666.49993,15.426,0.02
52666.514465,15.683,0.028
52666.528936,15.818,0.033
52680.499776,15.782,0.031
52680.514489,15.738,0.031
52680.529198,15.494,0.025
52698.444336,15.228,0.018
52698.457962,15.284,0.018
52698.471319,15.369,0.02
52698.484595,15.593,0.024
52698.498048,15.83,0.03
52712.378773,15.24,0.022
52712.391972,15.22,0.02
52712.405198,15.245,0.02
52712.418724,15.284,0.02
52712.432054,15.331,0.02
52725.446323,15.184,0.018
52725.45834,15.241,0.02
52725.47095,15.281,0.02
52725.482741,15.382,0.02
52725.4831,15.383,0.023
52754.322019,15.221,0.017
52754.333965,15.25,0.017
52754.345944,15.294,0.018
52754.357915,15.425,0.02
52754.369892,15.649,0.024
52770.268214,15.306,0.03
52770.279783,15.281,0.028
52770.291265,15.244,0.026
52770.303115,15.195,0.025
52770.314682,15.236,0.026
52820.222457,15.697,0.031
52820.232352,15.52,0.028
52820.242353,15.39,0.024
52820.252309,15.302,0.022
52820.262193,15.249,0.022
52825.22068,15.342,0.025
52825.220955,15.312,0.031
52825.230787,15.281,0.021
52825.231062,15.29,0.028
52825.240899,15.221,0.021
52825.241178,15.232,0.028
52825.250952,15.224,0.021
52825.251229,15.204,0.026
52825.261554,15.211,0.02
52825.261834,15.209,0.026
52849.161651,15.188,0.02
52849.172156,15.215,0.02
52849.182551,15.238,0.02
52849.194448,15.249,0.022
52849.205127,15.344,0.026
52886.122146,15.205,0.035
53034.453443,15.52,0.03
53034.465336,15.37,0.025
53034.477165,15.263,0.023
53034.489192,15.175,0.02
53034.501043,15.157,0.02
53052.399224,15.326,0.018
53052.411034,15.476,0.02
53052.422762,15.73,0.026
53052.434587,15.851,0.028
53052.446884,15.875,0.03
53065.39269,15.222,0.017
53065.403955,15.206,0.017
53065.415227,15.251,0.017
53065.42676,15.277,0.017
53065.438125,15.378,0.026
53079.387767,15.224,0.018
53079.39891,15.244,0.018
53079.420629,15.47,0.021
53079.431837,15.672,0.026
53094.326702,15.538,0.02
53094.336223,15.733,0.023
53094.346281,15.781,0.023
53094.355981,15.772,0.023
53094.365476,15.688,0.02
53110.300565,15.261,0.02
53110.311168,15.381,0.021
53110.321779,15.522,0.025
53110.332471,15.653,0.026
53110.343117,15.668,0.026
53122.295275,15.781,0.025
53122.307953,15.635,0.021
53122.318191,15.421,0.018
53122.328369,15.307,0.016
53122.33852,15.255,0.015
53138.2569,15.42,0.021
53138.266409,15.592,0.025
53138.27587,15.677,0.026
53138.285315,15.718,0.028
53138.294881,15.589,0.025
53153.25278,15.221,0.018
53153.261392,15.221,0.018
53153.270672,15.229,0.018
53153.279332,15.266,0.018
53153.287903,15.293,0.02
53154.246253,15.589,0.041
53154.249165,15.616,0.035
53154.249258,15.618,0.033
53154.254685,15.761,0.046
53154.25806,15.821,0.041
53154.258153,15.818,0.041
53154.263157,15.82,0.049
53154.26687,15.804,0.041
53154.266963,15.869,0.043
53154.271544,15.814,0.048
53154.275681,15.783,0.041
53154.275774,15.762,0.039
53154.280072,15.742,0.045
53154.284476,15.748,0.039
53154.284569,15.697,0.035
53166.22396,15.707,0.033
53166.233716,15.671,0.031
53166.243369,15.508,0.028
53166.253071,15.398,0.025
53166.262771,15.299,0.023
53178.22257,15.256,0.015
53178.241461,15.144,0.03
53178.251103,15.138,0.028
53471.367455,15.268,0.02
53471.377864,15.342,0.02
53471.387607,15.457,0.022
53471.398124,15.661,0.028
53471.407946,15.752,0.03
53501.313764,15.261,0.02
53501.326881,15.314,0.02
53501.342031,15.473,0.026
53501.353993,15.675,0.03
53501.364843,15.789,0.033
53523.269857,15.723,0.028
53523.280289,15.573,0.024
53523.290607,15.414,0.02
53523.301058,15.335,0.02
53523.311404,15.275,0.017
53551.22314,15.51,0.026
53551.233099,15.388,0.024
53551.24303,15.311,0.022
53551.253043,15.265,0.022
53551.263086,15.204,0.02
53580.160485,15.293,0.028
53580.171877,15.254,0.02
53580.183282,15.312,0.022
53580.194679,15.405,0.057
53580.206086,15.518,0.037
53788.422707,15.49,0.025
53788.435229,15.349,0.02
53788.473021,15.226,0.018
53813.427605,15.371,0.035
53813.439048,15.291,0.031
53813.450515,15.215,0.03
53813.461956,15.185,0.028
53813.473392,15.174,0.028
53820.351297,15.422,0.043
53820.362633,15.591,0.109
53845.300707,15.232,0.024
53845.311753,15.265,0.028
53845.32268,15.308,0.028
53845.333647,15.412,0.028
53845.344993,15.58,0.035
53852.297228,15.252,0.025
53852.307809,15.244,0.025
53852.318535,15.328,0.026
53852.340261,15.601,0.033
53881.271149,15.26,0.024
53881.282187,15.228,0.024
53881.293236,15.197,0.026
53881.304291,15.219,0.024
53881.315389,15.214,0.024
53887.223806,15.238,0.028
53887.234227,15.274,0.03
53887.244393,15.37,0.03
53887.25464,15.488,0.033
53887.264829,15.687,0.038
53902.223641,15.333,0.03
53902.233454,15.29,0.028
53902.24328,15.245,0.026
53902.253399,15.206,0.028
53902.26336,15.201,0.026
53914.221715,15.194,0.046
54144.399667,15.28,0.026
54144.41155,15.231,0.025
54144.423704,15.183,0.023
54144.435674,15.187,0.023
54144.447547,15.191,0.023
54153.40379,15.21,0.028
54153.427451,15.18,0.028
54153.439172,15.156,0.036
54208.301693,15.753,0.035
54208.310325,15.728,0.035
54208.318926,15.65,0.033
54208.327699,15.444,0.026
54208.336694,15.349,0.023
54559.300146,15.609,0.018
54559.311799,15.405,0.015
54559.323452,15.294,0.013
54559.335212,15.241,0.011
54559.3469,15.181,0.011
54581.302017,15.398,0.03
54581.312581,15.53,0.033
54581.323215,15.683,0.037
54581.333789,15.688,0.039
54581.344329,15.553,0.033
54592.286119,15.22,0.028
54592.295856,15.23,0.028
54592.305596,15.278,0.03
54592.315495,15.332,0.031
54592.325508,15.513,0.035
