mjd,m,merr
52665.460904,14.895,0.015
52665.475202,14.905,0.015
52665.4895,14.968,0.015
52665.503904,14.977,0.015
52665.518225,14.981,0.015
52677.457082,14.737,0.013
52677.471348,14.748,0.013
52677.485634,14.759,0.015
52677.499958,14.769,0.013
52677.514243,14.773,0.013
52706.441299,15.097,0.016
52706.456665,15.09,0.016
52706.471052,15.102,0.016
52706.485975,15.099,0.016
52706.499636,15.118,0.018
52724.36753,14.759,0.011
52724.379101,14.763,0.011
52724.390654,14.778,0.011
52724.402226,14.782,0.011
52724.413829,14.791,0.011
52753.320903,15.08,0.017
52753.332916,15.069,0.015
52753.344945,15.077,0.015
52753.35698,15.085,0.015
52753.369059,15.078,0.015
52761.316851,15.137,0.017
52761.328654,15.133,0.017
52761.340373,15.153,0.017
52761.352261,15.156,0.017
52761.364069,15.147,0.018
52771.272105,14.752,0.018
52771.284216,14.774,0.018
52771.295882,14.785,0.018
52771.307557,14.802,0.018
52771.319323,14.809,0.018
52787.268157,14.917,0.013
52787.278891,14.989,0.013
52787.289492,14.991,0.015
52787.300132,14.978,0.015
52787.310867,15.015,0.015
52797.234325,15.11,0.02
52797.244306,15.136,0.02
52797.254277,15.144,0.022
52797.264256,15.143,0.022
52811.224616,15.066,0.018
52811.234412,15.088,0.018
52811.244259,15.121,0.018
52811.25404,15.09,0.018
52811.263806,15.135,0.018
52826.220251,14.877,0.017
52826.230169,14.891,0.017
52826.240064,14.909,0.018
52826.249941,14.964,0.018
52826.259889,14.923,0.018
52842.17843,15.028,0.022
52842.188956,15.061,0.024
52847.165397,15.111,0.024
52847.185785,15.119,0.022
52847.19592,15.143,0.022
52847.206535,15.169,0.022
53034.462697,14.884,0.015
53034.475164,14.883,0.015
53034.487534,14.924,0.015
53034.500089,14.96,0.015
53034.512453,14.913,0.015
53050.390426,14.95,0.033
53050.402146,14.962,0.02
53050.413829,15.01,0.013
53050.425648,15.024,0.013
53050.43729,15.03,0.013
53078.339546,14.972,0.015
53078.350334,14.982,0.015
53094.389409,15.051,0.011
53094.400009,15.006,0.011
53094.41036,15.024,0.011
53094.420737,15.12,0.011
53094.430999,15.123,0.011
53109.300353,14.83,0.011
53109.311064,14.826,0.013
53109.321773,14.863,0.013
53109.332626,14.865,0.013
53109.343427,14.863,0.013
53110.345508,14.834,0.013
53110.356181,14.807,0.012
53110.367425,14.764,0.012
53110.378771,14.736,0.012
53110.389235,14.744,0.012
53111.346411,15.092,0.015
53111.357232,15.074,0.015
53111.367956,15.066,0.015
53111.378711,15.084,0.015
53111.38945,15.093,0.015
53112.357804,14.853,0.011
53112.36846,14.87,0.011
53112.379263,14.873,0.013
53112.389975,14.886,0.013
53113.402461,14.79,0.03
53114.357794,15.047,0.01
53114.357975,15.121,0.01
53114.368861,15.079,0.01
53114.369041,15.115,0.01
53114.380798,15.076,0.01
53114.380978,15.121,0.01
53114.393613,15.13,0.01
53114.405084,15.094,0.01
53114.405264,15.146,0.01
53115.356173,14.85,0.009
53115.367183,14.874,0.009
53115.378198,14.871,0.009
53115.389206,14.891,0.009
53115.400037,14.848,0.009
53115.400212,14.887,0.009
53137.25326,14.806,0.013
53137.263112,14.803,0.013
53137.272928,14.829,0.013
53137.282747,14.814,0.013
53137.292533,14.832,0.013
53165.225707,14.77,0.035
53165.235708,14.753,0.013
53165.245708,14.771,0.013
53165.255805,14.762,0.013
53165.265801,14.796,0.013
53242.134767,14.897,0.018
53242.14457,14.909,0.018
53242.154379,14.923,0.02
53242.164184,14.927,0.02
53242.173993,14.937,0.022
53442.320746,14.779,0.013
53442.331573,14.778,0.013
53442.342412,14.807,0.013
53442.353246,14.806,0.013
53442.364348,14.822,0.013
53473.440444,14.848,0.015
53473.450145,14.862,0.015
53473.459802,14.839,0.015
53500.299686,14.904,0.013
53500.312125,14.901,0.013
53500.322576,14.972,0.015
53500.333086,14.99,0.015
53500.344177,15.014,0.015
53528.230304,14.825,0.017
53528.241146,14.84,0.017
53528.251688,14.856,0.017
53528.262504,14.875,0.017
53528.272866,14.857,0.017
53539.22237,14.859,0.028
53539.231947,14.868,0.03
53539.241544,14.881,0.03
53539.2511,14.873,0.028
53539.260658,14.888,0.03
53552.225894,15.054,0.018
53552.235834,15.081,0.02
53552.245772,14.994,0.02
53552.255784,15.1,0.02
53552.265729,15.088,0.02
53582.18663,15.128,0.02
53582.197877,15.141,0.022
53582.209102,15.13,0.024
53770.493516,14.761,0.011
53770.506716,14.762,0.011
53770.519788,14.769,0.011
53787.434692,15.003,0.015
53787.447537,14.865,0.013
53787.46063,14.82,0.013
53787.47349,14.796,0.013
53813.417167,14.962,0.026
53813.428308,15.043,0.026
53813.439325,14.943,0.026
53813.450343,14.981,0.028
53813.461463,14.992,0.028
53823.307483,15.178,0.016
53823.318354,15.16,0.016
53823.329246,15.176,0.016
53823.34033,15.152,0.016
53823.351356,15.081,0.015
53844.288494,14.864,0.017
53844.298772,14.878,0.017
53844.309258,14.871,0.017
53844.319708,14.871,0.018
53844.329973,14.891,0.02
53853.296022,14.758,0.016
53853.306837,14.759,0.016
53853.317367,14.779,0.015
53853.327787,14.769,0.016
53853.338211,14.79,0.016
53883.264463,14.88,0.02
53883.274816,14.869,0.02
53883.295481,14.907,0.02
53887.276516,15.125,0.022
53887.287501,15.056,0.022
53887.298484,14.922,0.02
53887.309525,14.85,0.018
53887.32058,14.813,0.018
53902.230906,14.939,0.021
53902.241109,14.942,0.02
53902.251138,14.948,0.021
53902.261997,14.937,0.021
53902.273279,15.054,0.025
53931.179919,14.797,0.021
53931.190157,14.773,0.021
53931.200279,14.738,0.021
53931.210331,14.732,0.021
53931.22041,14.741,0.021
53971.135226,15.008,0.048
53971.146275,15.1,0.028
53971.157285,15.029,0.031
53971.167908,15.112,0.031
53971.178558,15.077,0.03
54110.462573,14.849,0.038
54110.475227,14.881,0.031
54110.487905,14.906,0.036
54121.450631,14.933,0.018
54121.462921,15.004,0.017
54121.475169,14.992,0.017
54121.487838,15.009,0.015
54121.500081,15.038,0.015
54155.414243,14.83,0.015
54155.426259,14.834,0.015
54155.43793,14.844,0.015
54155.449836,14.854,0.015
54155.461984,14.858,0.016
54206.31733,15.168,0.02
54206.326643,15.145,0.018
54206.33598,15.185,0.02
54206.345508,15.167,0.02
54206.354874,15.113,0.018
54529.331553,14.863,0.021
54529.342767,14.886,0.021
54529.353956,14.888,0.021
54529.365249,14.902,0.02
54529.37639,14.919,0.02
54562.290408,14.885,0.03
54562.301854,14.913,0.031
54574.294328,14.781,0.02
54574.305002,14.783,0.02
54574.315678,14.779,0.02
54574.32636,14.798,0.02
54574.337047,14.806,0.02
54582.297936,14.857,0.015
54582.308515,14.852,0.015
54582.319085,14.866,0.015
54582.329655,14.873,0.017
54582.340285,14.872,0.017
54613.253796,14.755,0.011
54613.263843,14.77,0.011
54613.274,14.785,0.011
54613.284317,14.794,0.011
54613.294423,14.794,0.013
