mjd,m,merr
52665.460782,15.32,0.02
52665.475078,15.292,0.018
52665.489377,15.273,0.018
52665.503782,15.262,0.018
52665.518102,15.306,0.018
52677.456959,15.464,0.024
52677.471225,15.414,0.022
52677.485512,15.324,0.024
52677.499837,15.279,0.018
52677.51412,15.281,0.018
52706.441064,15.225,0.02
52706.45643,15.291,0.02
52706.470815,15.337,0.021
52706.48574,15.437,0.023
52706.499401,15.477,0.025
52724.36741,15.496,0.018
52724.378981,15.531,0.018
52724.390534,15.524,0.02
52724.402106,15.488,0.018
52724.413709,15.399,0.018
52753.321128,15.444,0.02
52753.333142,15.423,0.02
52753.34517,15.35,0.018
52753.357205,15.312,0.018
52753.369285,15.276,0.017
52758.318398,15.466,0.018
52758.33059,15.549,0.018
52758.34254,15.547,0.018
52758.35448,15.499,0.018
52758.366464,15.42,0.018
52771.272216,15.312,0.028
52771.284363,15.33,0.028
52771.295995,15.354,0.03
52771.30767,15.402,0.031
52771.319434,15.464,0.031
52787.268261,15.547,0.02
52787.278996,15.451,0.02
52787.289602,15.407,0.02
52787.300237,15.366,0.02
52787.310974,15.339,0.018
52797.26571,15.289,0.024
52797.275752,15.311,0.026
52797.285777,15.341,0.024
52797.295852,15.403,0.026
52797.3059,15.44,0.026
52811.224706,15.291,0.02
52811.234503,15.292,0.02
52811.244348,15.321,0.02
52811.254131,15.332,0.022
52811.263896,15.348,0.022
52826.220341,15.405,0.024
52826.230257,15.444,0.024
52826.240155,15.506,0.026
52826.250033,15.552,0.028
52826.25998,15.563,0.028
52842.178523,15.553,0.033
52842.189043,15.498,0.039
52847.16531,15.346,0.028
52847.185698,15.439,0.028
52847.195833,15.506,0.03
52847.206448,15.537,0.031
53034.462592,15.298,0.02
53034.475058,15.311,0.018
53034.487429,15.364,0.018
53034.499984,15.377,0.018
53034.512348,15.462,0.02
53050.390531,15.261,0.037
53050.40225,15.317,0.024
53050.413933,15.369,0.017
53050.425753,15.394,0.015
53050.437394,15.482,0.018
53078.339645,15.327,0.018
53078.350433,15.357,0.018
53094.410178,15.248,0.011
53094.420555,15.28,0.011
53094.430817,15.324,0.011
53095.37109,15.284,0.018
53095.380767,15.273,0.018
53095.390482,15.284,0.018
53095.400228,15.307,0.018
53095.410154,15.338,0.018
53109.300261,15.397,0.018
53109.310972,15.354,0.017
53109.321681,15.324,0.017
53109.332534,15.286,0.017
53109.343335,15.274,0.017
53137.253175,15.359,0.02
53137.263028,15.334,0.02
53137.272843,15.272,0.018
53137.282662,15.28,0.018
53137.292448,15.296,0.018
53165.235622,15.274,0.022
53165.245622,15.285,0.02
53165.255719,15.294,0.018
53165.265716,15.344,0.02
53242.135667,15.39,0.028
53242.145767,15.404,0.031
53242.156292,15.425,0.033
53242.166251,15.486,0.036
53242.176216,15.419,0.036
53442.320862,15.588,0.024
53442.331688,15.592,0.024
53442.342528,15.55,0.022
53442.353362,15.495,0.02
53442.364464,15.415,0.018
53473.440545,15.31,0.018
53473.450247,15.307,0.02
53473.459904,15.353,0.02
53500.299889,15.505,0.02
53500.31251,15.574,0.022
53500.322788,15.637,0.024
53500.333303,15.601,0.024
53500.344379,15.53,0.022
53501.305645,15.586,0.026
53501.319198,15.535,0.024
53501.335387,15.433,0.022
53501.348325,15.378,0.022
53501.359213,15.352,0.02
53502.316677,15.42,0.024
53502.333404,15.329,0.022
53502.347924,15.312,0.02
53502.359588,15.302,0.02
53502.369987,15.312,0.02
53503.320099,15.311,0.017
53503.330066,15.299,0.017
53503.339072,15.3,0.017
53503.349455,15.328,0.017
53503.360311,15.353,0.018
53528.23038,15.416,0.026
53528.241304,15.523,0.03
53528.25176,15.556,0.028
53528.262578,15.598,0.03
53528.272939,15.541,0.028
53539.222292,15.315,0.041
53539.23187,15.338,0.041
53539.241466,15.306,0.041
53539.251022,15.321,0.041
53539.260581,15.332,0.041
53553.22662,15.372,0.026
53553.236976,15.379,0.026
53553.247403,15.434,0.026
53553.257759,15.467,0.026
53553.268125,15.541,0.028
53570.173942,15.504,0.05
53570.184537,15.553,0.054
53570.195146,15.535,0.052
53570.205743,15.446,0.05
53570.216352,15.418,0.05
53576.17073,15.448,0.022
53576.192599,15.556,0.033
53576.203539,15.569,0.039
53576.214503,15.494,0.03
53582.186741,15.538,0.028
53582.197971,15.572,0.031
53582.209201,15.584,0.035
53771.521326,15.331,0.063
53771.534329,15.394,0.059
53786.415759,15.517,0.031
53786.427868,15.554,0.037
53786.440029,15.538,0.028
53786.452067,15.517,0.026
53813.418019,15.498,0.039
53813.42916,15.447,0.037
53813.440178,15.416,0.035
53813.451215,15.345,0.033
53813.462318,15.345,0.033
53823.308158,15.556,0.021
53823.319021,15.55,0.021
53823.32991,15.49,0.02
53823.340999,15.42,0.018
53823.352016,15.38,0.018
53844.288606,15.477,0.026
53844.298883,15.447,0.028
53844.30937,15.382,0.026
53844.319819,15.336,0.028
53844.330084,15.33,0.028
53853.296692,15.289,0.025
53853.307502,15.35,0.026
53853.318032,15.348,0.025
53853.328453,15.383,0.026
53853.338878,15.437,0.028
53883.26455,15.527,0.03
53883.274903,15.519,0.03
53883.295568,15.386,0.026
53883.305883,15.374,0.026
53887.277168,15.393,0.028
53887.288151,15.442,0.03
53887.299139,15.538,0.031
53887.310174,15.579,0.033
53887.321232,15.566,0.033
53902.231487,15.42,0.028
53902.24172,15.488,0.03
53902.251736,15.588,0.033
53902.262595,15.574,0.035
53902.273877,15.622,0.038
53931.179835,15.561,0.038
53931.190073,15.564,0.036
53931.200191,15.501,0.036
53931.220328,15.394,0.036
53971.135424,15.497,0.066
53971.146472,15.558,0.038
53971.157483,15.569,0.041
53971.168106,15.535,0.04
53971.178756,15.499,0.038
54110.476034,15.3,0.041
54110.488727,15.289,0.051
54110.501412,15.299,0.068
54121.451418,15.587,0.024
54121.463704,15.476,0.022
54121.475952,15.438,0.018
54121.488621,15.368,0.017
54121.500862,15.342,0.017
54155.415,15.451,0.025
54155.427021,15.375,0.021
54155.438689,15.355,0.021
54155.450602,15.316,0.021
54155.462749,15.311,0.02
54206.31721,15.312,0.02
54206.326523,15.305,0.02
54206.33586,15.297,0.02
54206.345387,15.313,0.021
54206.354754,15.37,0.021
54529.331234,15.378,0.028
54529.342621,15.42,0.028
54529.353809,15.445,0.028
54529.365103,15.508,0.03
54529.376244,15.575,0.03
54562.266012,15.317,0.033
54562.278646,15.299,0.03
54562.290565,15.274,0.03
54562.302012,15.325,0.03
54574.294203,15.311,0.031
54574.304878,15.322,0.031
54574.31555,15.293,0.031
54574.326235,15.371,0.033
54574.336921,15.385,0.031
54582.298552,15.392,0.02
54582.30913,15.41,0.022
54582.319701,15.498,0.024
54582.330271,15.567,0.028
54582.340901,15.551,0.028
54613.25431,15.376,0.018
54613.264356,15.337,0.018
54613.27451,15.299,0.017
54613.284829,15.286,0.015
54613.294937,15.303,0.017
