mjd,m,merr
52681.452636,14.57,0.008
52681.453529,14.654,0.013
52681.482991,14.717,0.016
52723.365955,14.992,0.017
52752.291968,14.559,0.011
52752.302164,14.582,0.011
52752.312356,14.607,0.011
52752.322552,14.635,0.011
52752.332873,14.679,0.011
52772.366162,14.622,0.021
52772.377699,14.603,0.02
52787.270441,14.633,0.013
52787.281272,14.58,0.013
52787.292195,14.537,0.013
52787.303024,14.536,0.013
52787.313834,14.535,0.013
52800.224063,14.738,0.028
52800.234606,14.701,0.028
52800.244939,14.628,0.026
52800.255233,14.611,0.026
52810.225294,14.838,0.018
52810.235327,14.976,0.021
52810.245233,15.076,0.023
52812.23699,14.61,0.013
52812.247013,14.564,0.013
52812.257257,14.531,0.013
52812.267479,14.507,0.012
52812.27749,14.516,0.013
52840.16854,14.566,0.011
52840.178505,14.579,0.011
52840.188466,14.63,0.013
52840.198415,14.654,0.013
52840.208395,14.75,0.015
52872.138149,14.739,0.018
53023.455645,14.669,0.01
53023.467705,14.609,0.008
53023.479882,14.578,0.008
53023.491908,14.568,0.008
53023.503981,14.58,0.008
53035.475848,14.569,0.009
53035.501253,14.592,0.009
53035.513933,14.618,0.009
53037.475592,14.73,0.01
53037.487958,14.845,0.012
53037.500942,14.952,0.012
53037.513926,15.074,0.013
53037.526554,15.026,0.012
53049.395619,14.641,0.009
53049.407497,14.589,0.009
53049.419379,14.527,0.009
53049.431298,14.541,0.009
53049.443964,14.57,0.009
53107.291408,14.561,0.01
53107.301715,14.562,0.01
53107.311992,14.581,0.01
53107.322323,14.571,0.01
53107.332828,14.596,0.01
53136.2832,14.592,0.012
53136.300607,14.533,0.012
53136.309341,14.538,0.012
53136.318068,14.539,0.012
53154.251006,14.868,0.02
53154.259493,14.773,0.018
53154.267881,14.696,0.016
53154.276295,14.655,0.015
53154.284831,14.602,0.015
53164.22304,14.591,0.012
53164.232858,14.65,0.012
53164.243291,14.688,0.013
53164.252969,14.76,0.013
53164.262731,14.9,0.015
53194.215182,14.589,0.026
53194.224387,14.648,0.018
53194.23394,14.679,0.033
53194.243821,14.789,0.02
53194.252968,14.831,0.02
53243.133774,14.56,0.013
53243.144386,14.519,0.015
53243.154764,14.508,0.016
53243.165058,14.513,0.016
53243.175867,14.591,0.016
53474.360588,14.783,0.011
53474.37055,14.912,0.013
53474.382215,14.985,0.013
53474.393241,14.89,0.017
53474.406686,14.775,0.039
53521.259383,14.767,0.015
53521.269682,14.661,0.017
53521.279986,14.597,0.011
53521.300679,14.543,0.011
53538.222957,14.679,0.022
53538.232581,14.818,0.022
53538.242204,14.923,0.024
53538.25187,14.967,0.026
53538.261511,14.917,0.026
53583.163956,14.982,0.015
53583.175276,14.838,0.013
53583.186524,14.735,0.013
53583.197795,14.629,0.011
53772.477352,14.96,0.013
53772.490359,14.991,0.015
53772.503097,14.942,0.013
53772.515903,14.787,0.011
53786.431215,14.997,0.02
53786.444378,14.922,0.015
53786.457784,14.763,0.013
53786.470946,14.664,0.012
53786.484248,14.583,0.012
53807.389508,14.622,0.017
53824.468151,14.603,0.01
53843.313164,14.893,0.022
53843.324431,14.923,0.022
53843.335694,14.84,0.02
53843.346987,14.773,0.018
53843.358289,14.639,0.018
53851.288703,14.83,0.015
53851.299129,14.716,0.013
53851.309351,14.647,0.013
53851.319977,14.571,0.013
53851.330872,14.532,0.011
53855.294201,14.765,0.015
53855.304378,14.863,0.015
53855.315592,14.94,0.016
53855.325929,14.991,0.016
53855.33609,14.867,0.015
53878.291395,14.574,0.015
53878.302011,14.676,0.015
53878.312603,14.762,0.016
53878.323162,14.927,0.018
53878.3339,15.001,0.02
53903.2377,14.584,0.013
53903.24731,14.591,0.013
53903.257091,14.607,0.015
53903.266714,14.674,0.015
53903.276318,14.76,0.016
53917.219831,14.724,0.025
53917.229517,14.845,0.03
53917.239445,14.97,0.028
53917.249201,14.938,0.025
53917.258944,14.886,0.025
53932.197711,14.672,0.024
53932.21935,14.612,0.026
54109.439496,14.756,0.051
54109.463227,14.781,0.045
54109.475089,14.868,0.041
54169.381235,14.586,0.009
54169.392295,14.577,0.009
54169.403394,14.567,0.009
54169.414611,14.595,0.009
54169.425715,14.632,0.011
54186.330465,15.068,0.023
54186.340867,14.979,0.021
54186.351089,14.884,0.018
54186.361304,14.758,0.018
54186.371524,14.741,0.023
54201.332061,14.599,0.007
54201.342163,14.616,0.007
54201.351998,14.647,0.007
54201.361787,14.69,0.007
54201.372044,14.78,0.007
54209.306102,14.684,0.035
54209.314901,14.711,0.026
54209.323851,14.791,0.021
54209.332931,14.92,0.035
54209.341796,15.008,0.035
54217.291688,15.093,0.022
54217.30043,15.062,0.02
54217.309267,14.925,0.018
54217.317993,14.773,0.017
54217.326703,14.756,0.015
54218.314072,14.669,0.02
54218.3229,14.658,0.018
54218.332188,14.592,0.018
54218.341158,14.549,0.018
54218.350225,14.559,0.018
54508.422909,15.003,0.016
54508.435053,15.021,0.016
54508.446969,14.89,0.016
54508.459118,14.773,0.013
54508.471407,14.665,0.013
54543.38951,14.626,0.021
54543.400297,14.67,0.021
54543.412517,14.779,0.023
54543.423132,14.904,0.025
54543.433966,15.035,0.028
54555.299758,14.824,0.016
54555.3143,14.701,0.015
54555.326054,14.647,0.015
54555.337822,14.587,0.015
54555.349528,14.597,0.015
54561.299475,14.797,0.021
54561.310903,14.675,0.018
54561.322272,14.626,0.018
54561.333635,14.604,0.018
54561.345119,14.538,0.016
54583.296154,14.873,0.023
54583.310905,15.028,0.026
54583.323847,15.003,0.025
54583.335008,14.878,0.023
54583.346586,14.77,0.021
54614.266584,14.895,0.023
54614.276973,14.985,0.023
54614.287228,14.956,0.023
54614.297615,14.87,0.021
54614.3079,14.736,0.02
