mjd,m,merr
52722.414207,15.868,0.03
52722.427104,15.822,0.03
52722.440111,15.796,0.03
52722.453042,15.75,0.03
52722.466219,15.71,0.028
52751.321644,15.69,0.026
52751.332607,15.724,0.03
52751.343324,15.732,0.03
52751.354656,15.78,0.031
52751.366533,15.783,0.033
53008.468705,15.577,0.037
53008.4813,15.603,0.035
53008.493836,15.592,0.033
53008.506453,15.607,0.031
53008.519047,15.592,0.031
53038.458934,15.887,0.048
53038.471293,15.833,0.046
53038.496828,15.918,0.048
53045.434849,15.861,0.043
53045.459377,15.73,0.036
53096.321992,15.639,0.043
53096.341278,15.586,0.038
53096.360726,15.525,0.035
53125.290794,15.923,0.053
53125.300445,15.899,0.051
53125.310221,15.94,0.051
53125.329832,15.848,0.048
53134.283032,15.536,0.023
53134.292053,15.587,0.025
53134.301101,15.611,0.026
53134.310067,15.645,0.031
53134.318913,15.676,0.033
53155.256325,15.518,0.038
53155.264667,15.49,0.04
53155.281471,15.586,0.041
53155.289705,15.522,0.041
53163.252581,15.593,0.078
53163.262244,15.537,0.054
53169.234676,15.882,0.04
53169.244137,15.874,0.043
53169.253488,15.9,0.036
53169.262876,15.887,0.033
53193.221342,15.91,0.046
53193.23061,15.829,0.054
53193.258542,15.899,0.045
53244.133554,15.941,0.048
53244.144048,15.977,0.053
53244.154512,15.882,0.051
53244.165178,15.854,0.048
53244.176771,15.86,0.049
53421.409807,15.728,0.039
53421.422137,15.757,0.039
53421.435801,15.785,0.039
53421.450233,15.828,0.05
53421.462715,15.828,0.041
53430.428609,15.522,0.03
53430.439763,15.494,0.03
53430.451379,15.507,0.03
53430.462596,15.504,0.03
53430.47426,15.546,0.03
53480.276955,15.788,0.054
53480.286009,15.779,0.05
53480.295179,15.858,0.054
53480.304199,15.825,0.052
53480.314262,15.835,0.052
53491.309457,15.606,0.026
53491.319615,15.641,0.026
53491.330455,15.672,0.026
53491.340381,15.683,0.028
53491.350257,15.747,0.028
53536.224142,15.802,0.054
53536.234097,15.793,0.054
53536.244076,15.721,0.05
53536.254038,15.662,0.05
53536.264105,15.605,0.046
53565.173549,15.842,0.043
53565.18419,15.897,0.044
53565.19485,15.898,0.043
53565.205516,15.908,0.044
53565.216218,15.892,0.044
53610.135128,15.511,0.024
53610.146376,15.502,0.026
53610.157605,15.576,0.028
53629.109814,15.805,0.059
53629.122139,15.741,0.057
53629.134664,15.655,0.054
53629.147118,15.613,0.055
53629.159431,15.592,0.055
53757.448024,15.877,0.048
53757.460611,15.838,0.046
53757.475043,15.867,0.046
53757.48767,15.806,0.043
53757.500194,15.811,0.043
53773.477796,15.809,0.031
53773.491096,15.815,0.031
53773.505293,15.852,0.033
53773.518076,15.866,0.033
53773.530758,15.908,0.033
53802.437666,15.645,0.023
53802.46195,15.692,0.026
53806.422167,15.901,0.055
53826.340274,15.789,0.026
53826.351202,15.771,0.045
53827.360257,15.81,0.028
53827.370918,15.828,0.028
53827.382111,15.827,0.03
53827.392751,15.879,0.031
53827.403439,15.908,0.028
53835.336007,15.741,0.045
53835.345999,15.748,0.063
53842.305308,15.709,0.054
53842.317211,15.798,0.057
53842.329499,15.801,0.055
53842.34211,15.773,0.055
53842.35337,15.767,0.055
53856.318388,15.601,0.028
53856.328252,15.567,0.028
53856.338408,15.62,0.028
53856.348371,15.662,0.03
53856.35847,15.683,0.031
53860.405953,15.645,0.026
53860.416632,15.669,0.026
53860.427049,15.618,0.026
53860.43783,15.657,0.028
53877.273642,15.517,0.078
53877.284406,15.442,0.111
53877.295033,15.513,0.068
53877.305651,15.517,0.087
53904.22219,15.874,0.041
53904.232076,15.872,0.041
53904.241931,15.842,0.041
53904.251824,15.881,0.041
53904.26177,15.902,0.043
53918.218617,15.637,0.106
53918.238489,15.6,0.061
53933.173961,15.621,0.035
53933.184606,15.655,0.041
53933.19532,15.686,0.055
53933.206084,15.742,0.048
53933.216914,15.744,0.043
53960.192,15.534,0.074
53995.113489,15.665,0.03
53995.125386,15.649,0.03
53995.137385,15.736,0.033
53995.149344,15.779,0.035
53995.161476,15.757,0.038
54098.442622,15.931,0.051
54098.455691,15.905,0.048
54098.467794,15.845,0.045
54098.479888,15.873,0.045
54098.491979,15.826,0.041
54124.45501,15.901,0.041
54124.468037,15.848,0.041
54124.480696,15.87,0.041
54124.493604,15.832,0.04
54124.506184,15.716,0.035
54140.421671,15.795,0.035
54140.434392,15.82,0.037
54140.446815,15.833,0.037
54140.459429,15.88,0.037
54140.472606,15.902,0.035
54158.392957,15.83,0.048
54158.404435,15.864,0.048
54158.415224,15.89,0.048
54158.426238,15.933,0.046
54158.43705,15.9,0.045
54188.322279,15.869,0.059
54188.332031,15.813,0.053
54188.341808,15.795,0.051
54188.351551,15.801,0.053
54188.361232,15.632,0.069
54198.321134,15.554,0.052
54198.330829,15.575,0.033
54198.340482,15.606,0.05
54198.350126,15.6,0.093
54212.301796,15.79,0.036
54212.310206,15.88,0.04
54212.318623,15.86,0.038
54212.327301,15.88,0.038
54212.335719,15.887,0.038
54498.445579,15.697,0.031
54498.457395,15.655,0.031
54498.469225,15.625,0.03
54498.48104,15.573,0.03
54498.492848,15.577,0.03
54526.394403,15.568,0.031
54526.405764,15.524,0.03
54526.417113,15.539,0.03
54526.428493,15.515,0.03
54526.439936,15.568,0.031
54559.306176,15.542,0.031
54559.317944,15.513,0.03
54559.329422,15.514,0.03
54559.340806,15.549,0.031
54559.352261,15.507,0.031
54570.300675,15.81,0.04
54570.312706,15.733,0.036
54570.323585,15.697,0.035
54570.334728,15.646,0.033
54570.345781,15.633,0.033
54585.288544,15.669,0.061
54585.298661,15.566,0.041
54585.308977,15.547,0.043
54585.319372,15.516,0.041
54585.3294,15.508,0.038
54599.305275,15.99,0.097
54599.31486,15.893,0.086
54618.262171,15.652,0.043
54618.272584,15.632,0.043
