mjd,m,merr
52707.444938,15.783,0.028
52707.458281,15.771,0.028
52707.472053,15.814,0.028
52707.485948,15.818,0.03
52707.499274,15.889,0.03
52711.389404,16.182,0.046
52711.403808,16.208,0.044
52711.418204,16.122,0.037
52711.432625,16.028,0.03
52711.446753,15.878,0.028
52725.438464,16.158,0.035
52725.450155,16.089,0.035
52725.461912,15.97,0.031
52725.473612,15.867,0.028
52725.485341,15.822,0.028
52738.356746,15.814,0.024
52738.369459,15.846,0.026
52738.381006,15.866,0.026
52738.392484,15.933,0.028
52738.404042,15.958,0.028
52739.35541,15.908,0.035
52739.366702,16.005,0.033
52739.378004,16.084,0.039
52739.389468,16.111,0.039
52739.400771,16.106,0.039
52755.323075,16.137,0.041
52755.335049,16.198,0.043
52755.347082,16.175,0.043
52755.359147,16.166,0.043
52755.371215,16.117,0.039
52770.272624,16.044,0.05
52770.28442,16.1,0.052
52770.296345,16.145,0.052
52770.308159,16.191,0.055
52770.319958,16.216,0.055
52797.225924,16.016,0.059
52797.236534,16.016,0.059
52797.247068,15.867,0.051
52797.257361,15.828,0.053
52797.267724,15.743,0.049
52813.228609,15.757,0.043
52813.238715,15.835,0.046
52813.248756,15.885,0.046
52813.258874,15.885,0.046
52813.269221,16.016,0.053
52821.220068,16.127,0.048
52821.230038,16.118,0.048
52821.240052,16.041,0.044
52821.250063,15.936,0.043
52821.260196,15.854,0.039
52825.221698,16.183,0.061
52825.231736,16.167,0.055
52825.241771,16.135,0.054
52825.251831,16.141,0.055
52825.26192,16.189,0.054
53033.46196,16.234,0.049
53033.474124,16.225,0.046
53033.486324,16.149,0.043
53033.498567,16.147,0.041
53033.511026,15.984,0.036
53053.466147,16.034,0.059
53053.481987,15.805,0.046
53053.49378,15.795,0.041
53053.50791,15.769,0.033
53064.34873,16.143,0.045
53064.360576,16.217,0.045
53064.372158,16.233,0.043
53079.41892,15.789,0.024
53079.430629,15.789,0.026
53079.441381,15.812,0.026
53079.452538,15.871,0.028
53079.463308,15.898,0.03
53093.329625,16.176,0.033
53093.339498,16.187,0.031
53093.349648,16.196,0.03
53093.360156,16.196,0.03
53093.369996,16.174,0.028
53110.301558,15.798,0.03
53110.312361,15.811,0.03
53110.323162,15.748,0.028
53110.333962,15.801,0.028
53110.344778,15.807,0.028
53121.302135,15.909,0.028
53121.312627,15.908,0.03
53121.323125,15.992,0.026
53121.33371,16.022,0.031
53121.344202,16.028,0.033
53138.296942,16.129,0.037
53138.306581,16.119,0.035
53138.316278,16.042,0.033
53138.325962,15.939,0.031
53138.33559,15.851,0.028
53155.249765,15.84,0.067
53155.250874,15.773,0.063
53155.258516,15.859,0.068
53155.259304,15.804,0.068
53155.267323,15.884,0.078
53155.267637,15.874,0.084
53155.276043,15.883,0.087
53155.276083,15.915,0.083
53155.284867,15.902,0.083
53166.248484,15.942,0.033
53166.257934,15.954,0.033
53166.267384,16.054,0.037
53166.276836,16.032,0.037
53166.286375,16.134,0.039
53177.224911,16.112,0.039
53177.234688,16.093,0.035
53177.244553,16.146,0.035
53177.254332,16.108,0.033
53177.26411,16.143,0.033
53414.415986,15.944,0.091
53414.455806,16.117,0.037
53437.479167,16.119,0.035
53437.490405,16.087,0.035
53437.50161,16.155,0.035
53437.512883,16.142,0.037
53468.436698,16.142,0.039
53468.448868,16.173,0.041
53468.458724,16.138,0.041
53468.468712,16.057,0.037
53503.373516,16.19,0.067
53503.382195,16.17,0.044
53503.391481,16.148,0.05
53503.400178,16.095,0.063
53503.408915,15.994,0.065
53522.264592,15.856,0.033
53522.274809,15.856,0.035
53522.285099,15.906,0.035
53522.295415,15.942,0.035
53522.305637,15.997,0.037
53579.16046,16.128,0.054
53579.171874,16.114,0.044
53579.183244,16.225,0.048
53579.194556,16.171,0.046
53579.205898,16.117,0.048
53790.414351,15.956,0.038
53790.426239,16.007,0.036
53790.437962,16.005,0.035
53790.450196,16.082,0.036
53790.462195,16.133,0.038
53799.404946,15.844,0.028
53799.416906,15.891,0.028
53799.428833,15.887,0.028
53799.440795,15.964,0.03
53799.452732,15.985,0.03
53818.395535,15.819,0.028
53818.406714,15.793,0.028
53818.417862,15.858,0.03
53818.429064,15.859,0.03
53818.440274,15.86,0.031
53851.306361,16.119,0.049
53880.267036,15.937,0.041
53880.278223,16.042,0.044
53880.289409,16.068,0.044
53880.300592,16.039,0.044
53880.311776,16.186,0.048
53885.277798,16.057,0.05
53885.289617,16.089,0.054
53885.301385,16.125,0.05
53885.313185,16.142,0.054
53885.325006,16.159,0.057
53912.222956,16.184,0.089
53937.17859,16.13,0.059
53937.188718,16.08,0.058
53937.209137,15.888,0.049
53942.160169,16.17,0.074
53942.160287,16.093,0.055
53955.160585,16.029,0.099
53955.172305,16.145,0.117
53955.183904,16.186,0.125
54112.508366,16.065,0.069
54112.520952,16.094,0.069
54112.533605,16.183,0.073
54152.411448,15.967,0.028
54152.423395,15.951,0.026
54152.435301,16.053,0.028
54152.447227,16.09,0.028
54152.459162,16.123,0.028
54185.374934,15.86,0.043
54185.385092,15.847,0.036
54185.398729,15.863,0.035
54185.408802,15.869,0.035
54185.419034,15.923,0.036
54201.331939,15.811,0.041
54201.341233,15.767,0.04
54201.350769,15.856,0.041
54201.360397,15.898,0.041
54201.36977,15.95,0.043
54558.312155,15.787,0.031
54558.323765,15.723,0.087
54558.335444,15.819,0.113
54558.346991,15.774,0.083
