mjd,m,merr
52707.444015,17.35,0.118
52707.457355,17.068,0.093
52707.471131,16.683,0.061
52707.485032,16.526,0.055
52707.498363,16.446,0.052
52711.389541,16.401,0.057
52711.403946,16.384,0.054
52711.418342,16.351,0.048
52711.432763,16.336,0.043
52711.44689,16.432,0.046
52712.438984,16.493,0.061
52712.45217,16.453,0.054
52712.465385,16.403,0.048
52712.478766,16.439,0.052
52712.491893,16.419,0.054
52725.437985,16.553,0.052
52725.449676,16.454,0.048
52725.461432,16.377,0.046
52725.473132,16.308,0.043
52725.484861,16.304,0.044
52738.355928,16.486,0.044
52738.368622,16.571,0.05
52738.380191,16.635,0.054
52738.391663,16.783,0.063
52738.403224,17.044,0.076
52739.355529,16.506,0.057
52739.366821,16.444,0.05
52739.378122,16.458,0.055
52739.389587,16.478,0.054
52739.40089,16.511,0.055
52755.323185,17.29,0.12
52755.335159,16.964,0.087
52755.347192,16.736,0.068
52755.359257,16.567,0.061
52755.371324,16.53,0.059
52769.277704,16.399,0.068
52769.290448,16.531,0.078
52769.302152,16.374,0.067
52769.314151,16.424,0.072
52769.326106,16.471,0.074
52819.223006,16.653,0.066
52819.242686,16.444,0.054
52819.252509,16.482,0.058
52821.220068,16.36,0.059
52821.230038,16.335,0.057
52821.240052,16.295,0.057
52821.250063,16.306,0.057
52821.260196,16.304,0.057
52825.221425,16.744,0.093
52825.231464,16.746,0.093
52825.241496,16.547,0.078
52825.251559,16.58,0.08
52825.261649,16.412,0.067
53033.462051,17.144,0.114
53033.474217,16.842,0.083
53033.486415,16.676,0.069
53033.49866,16.509,0.059
53033.511116,16.409,0.056
53053.466258,16.412,0.091
53053.482098,16.662,0.102
53053.493891,16.778,0.107
53053.508022,17.207,0.128
53064.347097,16.485,0.059
53064.359823,16.519,0.058
53064.371405,16.531,0.056
53079.418715,16.582,0.05
53079.430424,16.469,0.048
53079.441176,16.367,0.043
53079.452334,16.379,0.044
53079.463103,16.388,0.046
53093.329295,16.702,0.053
53093.339163,16.591,0.046
53093.349311,16.487,0.041
53093.359819,16.426,0.036
53093.369662,16.373,0.035
53110.301364,16.352,0.048
53110.312167,16.371,0.05
53110.322967,16.381,0.048
53110.333767,16.39,0.046
53110.344583,16.589,0.055
53121.29997,16.631,0.051
53121.31022,16.61,0.054
53121.320495,16.514,0.041
53121.332023,16.438,0.045
53121.343256,16.46,0.045
53138.297029,16.487,0.054
53138.306668,16.493,0.05
53138.316365,16.55,0.054
53138.326049,16.66,0.061
53138.335677,16.842,0.068
53155.249765,17.491,0.32
53155.250874,17.473,0.312
53155.258516,17.751,0.4
53155.259304,17.849,0.442
53155.267323,17.913,0.498
53155.267637,17.637,0.45
53155.276043,17.19,0.317
53155.276083,17.189,0.268
53155.284867,16.711,0.179
53166.248571,16.411,0.052
53166.258021,16.391,0.048
53166.27701,16.396,0.05
53166.286462,16.392,0.05
53177.22664,16.458,0.049
53177.236311,16.526,0.048
53177.245796,16.609,0.053
53177.255273,16.637,0.053
53177.264744,16.64,0.051
53414.455682,16.409,0.05
53437.479051,16.471,0.05
53437.49029,16.458,0.048
53437.501494,16.449,0.048
53437.512767,16.39,0.046
53447.40803,16.522,0.05
53447.418965,16.525,0.05
53447.429274,16.64,0.093
53447.439573,16.732,0.115
53468.436494,16.608,0.059
53468.448662,16.543,0.057
53468.458517,16.464,0.054
53468.468507,16.464,0.054
53503.372774,16.508,0.078
53503.381499,16.461,0.063
53503.390787,16.641,0.081
53503.399485,16.528,0.1
53503.408174,16.641,0.113
53522.264699,16.778,0.08
53522.274916,16.871,0.087
53522.285206,16.863,0.083
53522.295522,16.765,0.074
53522.305744,16.7,0.072
53579.160366,17.103,0.128
53579.17178,16.852,0.083
53579.183146,16.658,0.07
53579.194463,16.654,0.074
53579.205804,16.559,0.072
53790.414207,16.612,0.073
53790.426095,16.535,0.066
53790.437819,16.432,0.054
53790.450053,16.401,0.051
53790.46205,16.35,0.049
53799.405087,16.471,0.053
53799.417046,16.436,0.049
53799.428974,16.415,0.049
53799.440935,16.442,0.049
53799.452873,16.46,0.051
53818.39567,16.554,0.058
53818.406849,16.488,0.054
53818.417998,16.446,0.054
53818.429199,16.449,0.056
53818.440447,16.438,0.056
53845.303914,17.296,0.145
53845.315179,17.028,0.119
53845.326409,16.798,0.097
53845.337784,16.654,0.086
53845.349053,16.471,0.097
53846.348915,17.284,0.152
53846.359848,17.254,0.146
53846.37157,16.999,0.122
53846.383632,16.761,0.102
53846.397028,16.518,0.083
53851.295968,17.196,0.137
53851.306273,16.93,0.107
53851.316736,16.606,0.079
53851.327186,16.482,0.071
53851.33808,16.462,0.069
53880.266943,16.376,0.059
53880.278129,16.372,0.059
53880.289315,16.42,0.063
53880.300499,16.53,0.068
53880.311682,16.653,0.076
53885.277705,16.62,0.083
53885.289524,16.543,0.08
53885.301292,16.465,0.068
53885.313092,16.524,0.078
53885.324914,16.414,0.07
53901.233103,16.626,0.13
53901.262667,17.454,0.328
53912.222875,16.863,0.165
53937.178501,17.005,0.139
53937.18863,17.378,0.198
53937.209048,16.919,0.132
53942.160287,16.602,0.091
53955.14892,17.305,0.312
53955.160492,17.011,0.248
53955.172211,16.84,0.223
53955.195597,16.647,0.214
54112.508254,17.267,0.218
54112.520839,17.36,0.238
54112.533495,16.98,0.157
54152.411155,16.357,0.043
54152.423101,16.395,0.044
54152.435006,16.438,0.043
54152.446933,16.527,0.046
54152.458865,16.731,0.052
54173.374223,16.505,0.068
54173.384872,16.717,0.076
54173.395591,16.873,0.091
54173.406949,17.138,0.104
54173.417574,17.332,0.122
54185.375064,17.196,0.158
54185.385221,17.326,0.157
54185.398859,17.315,0.149
54185.408932,17.08,0.119
54185.419163,16.902,0.102
54201.332039,16.416,0.076
54201.341332,16.469,0.079
54201.350869,16.414,0.074
54201.360495,16.482,0.078
54201.369867,16.512,0.078
54544.328749,16.782,0.113
54544.339334,16.588,0.094
54544.349912,16.502,0.083
54544.360538,16.448,0.076
54544.371362,16.409,0.068
54558.299557,16.355,0.076
54558.345992,16.453,0.172
54580.304512,16.504,0.104
54580.314844,16.547,0.106
54580.325095,16.534,0.102
54580.33532,16.466,0.097
54580.345569,16.612,0.109
54589.302664,16.464,0.041
54589.313218,16.448,0.039
54589.323777,16.457,0.039
54589.334296,16.491,0.043
54589.344817,16.619,0.05
54591.287618,16.915,0.196
54591.29727,17.426,0.32
54591.3069,17.419,0.3
54591.31649,17.429,0.312
54611.243964,16.489,0.089
54611.252246,16.473,0.086
54611.260465,16.457,0.087
54611.268715,16.551,0.097
54611.27701,16.362,0.083
54621.258676,17.058,0.081
54621.268885,16.759,0.063
54621.279042,16.673,0.059
54621.289203,16.614,0.054
54621.299369,16.508,0.05
