mjd,m,merr
52676.443763,16.417,0.078
52676.459207,16.325,0.064
52676.47428,16.334,0.066
52676.489529,16.31,0.063
52676.505368,16.363,0.063
52707.441695,15.902,0.04
52707.442055,15.916,0.043
52707.454863,15.942,0.041
52707.455222,15.937,0.043
52707.468357,15.964,0.04
52707.468716,15.917,0.043
52707.48148,16.001,0.041
52707.482233,16.014,0.046
52707.495098,16.013,0.043
52707.495457,15.924,0.043
52711.374571,16.345,0.069
52711.387647,16.33,0.066
52711.401292,16.345,0.063
52711.401651,16.298,0.068
52711.415038,16.319,0.058
52711.428558,16.372,0.054
52711.428917,16.269,0.059
52737.387351,16.494,0.048
52737.399678,16.476,0.048
52737.412032,16.376,0.044
52737.424463,16.281,0.043
52737.439776,16.119,0.037
52756.316876,16.417,0.064
52756.329381,16.425,0.066
52756.329722,16.379,0.096
52756.341372,16.391,0.063
52756.341813,16.279,0.091
52756.353512,16.474,0.068
52756.365905,16.454,0.066
52769.274683,16.521,0.091
52769.286064,16.484,0.086
52769.297586,16.557,0.094
52769.309473,16.369,0.079
52769.320965,16.384,0.079
52794.269769,16.381,0.068
52794.311914,16.445,0.074
52819.220164,16.114,0.052
52819.230093,16.138,0.05
52819.240022,16.131,0.05
52819.249971,16.153,0.052
52819.259929,16.203,0.054
52824.222516,16.279,0.052
52824.242422,16.323,0.076
52824.252488,16.286,0.065
52883.122559,16.072,0.08
52883.134672,16.113,0.077
52883.146776,16.219,0.076
52883.158885,16.219,0.084
52883.170991,16.249,0.151
53033.46021,16.332,0.055
53033.472257,16.337,0.052
53033.484268,16.374,0.054
53033.496626,16.357,0.05
53033.508778,16.425,0.055
53064.371849,16.552,0.067
53064.408138,16.717,0.098
53064.41954,16.797,0.213
53080.397873,16.2,0.039
53080.408811,16.109,0.035
53080.419756,16.094,0.035
53080.430729,16.032,0.033
53080.441734,15.958,0.031
53089.415164,16.407,0.043
53089.425683,16.23,0.093
53111.298621,16.197,0.048
53111.309485,16.199,0.046
53111.320253,16.178,0.044
53111.331307,16.201,0.044
53111.342058,16.301,0.048
53112.347809,15.895,0.037
53112.369123,15.891,0.031
53112.379926,15.857,0.03
53119.303235,16.193,0.035
53119.313904,16.236,0.036
53119.324048,16.24,0.035
53119.334161,16.258,0.036
53119.344159,16.278,0.036
53139.29543,16.232,0.043
53139.305017,16.092,0.037
53139.314613,16.087,0.037
53139.324211,16.027,0.035
53139.333986,15.98,0.033
53149.249532,16.026,0.033
53149.258158,16.061,0.033
53149.266793,16.05,0.031
53149.275525,16.099,0.033
53149.284106,16.104,0.033
53169.22644,16.428,0.052
53169.236419,16.393,0.05
53169.24635,16.385,0.052
53169.256285,16.418,0.048
53169.266289,16.43,0.05
53478.410648,16.404,0.061
53478.41971,16.408,0.059
53478.428999,16.42,0.061
53478.438616,16.385,0.057
53478.447704,16.404,0.063
53496.298906,16.41,0.063
53496.309085,16.493,0.065
53496.31918,16.467,0.063
53496.329376,16.472,0.059
53496.33954,16.474,0.061
53527.219786,16.074,0.046
53527.229642,16.18,0.054
53527.239549,16.136,0.052
53527.249475,16.169,0.054
53527.259288,16.148,0.052
53791.47052,16.409,0.056
53791.482361,16.245,0.048
53791.494145,16.145,0.043
53791.506473,16.058,0.04
53815.401013,16.272,0.104
53815.412153,16.042,0.096
53815.423415,15.972,0.085
53815.434962,15.93,0.085
53846.296603,16.163,0.048
53846.307235,16.205,0.049
53846.317844,16.16,0.048
53846.328523,16.201,0.048
53846.339151,16.227,0.049
53850.300268,16.472,0.069
53850.32155,16.582,0.073
53850.332062,16.453,0.064
53850.342878,16.507,0.066
53884.277704,16.075,0.048
53884.28928,16.072,0.046
53884.300851,16.082,0.046
53884.312467,16.085,0.048
53884.324013,16.191,0.054
53901.23277,16.565,0.126
53901.242793,16.508,0.165
53901.262828,16.644,0.155
53911.239713,15.981,0.117
53911.259211,16.086,0.101
53911.268872,15.982,0.079
53954.146913,15.87,0.084
53954.169897,16.133,0.112
54155.420031,15.962,0.033
54155.431884,15.975,0.031
54155.443752,15.985,0.031
54155.455775,16.018,0.033
54155.46768,16.058,0.035
54156.443133,16.346,0.043
54156.454658,16.381,0.043
54156.466175,16.407,0.044
54156.477713,16.437,0.044
54156.489231,16.438,0.044
54174.4134,15.949,0.045
54174.424271,15.993,0.046
54180.384285,16.438,0.058
54180.394623,16.523,0.068
54180.405109,16.53,0.068
54180.415541,16.543,0.066
54200.316356,16.186,0.063
54200.326039,16.088,0.056
54200.335656,16.19,0.059
54200.345016,16.162,0.059
54200.354457,16.208,0.064
54544.32961,15.935,0.057
54544.340199,15.9,0.054
54544.350771,15.854,0.048
54544.361398,15.818,0.044
54544.372225,15.889,0.046
54568.300673,15.93,0.033
54568.311612,15.943,0.033
54568.322586,15.973,0.031
54568.333538,15.975,0.031
54568.344494,16.034,0.031
54568.403377,16.109,0.049
54568.414205,16.134,0.049
54568.425159,16.194,0.053
54568.436074,16.139,0.051
54568.446972,16.11,0.053
54580.302004,16.382,0.081
54580.312594,16.48,0.094
54580.323219,16.286,0.081
54580.333824,16.455,0.1
54580.344409,16.439,0.096
54588.299567,16.435,0.048
54588.310191,16.403,0.046
54588.32081,16.393,0.046
54588.33133,16.426,0.048
54588.341883,16.405,0.046
54590.294383,16.295,0.086
54590.304157,16.099,0.089
54590.314246,15.996,0.097
54590.334407,16.066,0.099
54597.304526,16.169,0.054
54597.315011,16.235,0.054
54597.325449,16.182,0.05
54597.33587,16.262,0.054
54597.346303,16.231,0.052
54611.262064,15.968,0.03
54611.271864,16.003,0.031
54611.281665,16.007,0.033
54611.291431,16.017,0.035
54611.301231,16.017,0.035
54620.26646,16.354,0.05
54620.276605,16.435,0.057
54620.286827,16.417,0.052
54620.296956,16.449,0.057
54620.307165,16.463,0.059
