mjd,m,merr
52666.472611,16.066,0.041
52666.487076,15.99,0.031
52666.501599,15.85,0.028
52666.516064,15.817,0.03
52666.530534,15.864,0.035
52697.456483,15.885,0.033
52697.472112,15.846,0.046
52697.486682,15.836,0.03
52706.375957,15.863,0.03
52706.388936,15.98,0.031
52706.401888,16.065,0.033
52706.415074,16.343,0.043
52706.42823,16.357,0.044
52712.38385,16.442,0.074
52712.397401,16.329,0.066
52712.410689,16.145,0.053
52712.42375,15.909,0.043
52712.436805,15.898,0.041
52724.373787,15.869,0.033
52724.38609,15.811,0.031
52724.42311,16.095,0.041
52753.322946,15.763,0.035
52753.323297,15.868,0.038
52753.349559,15.961,0.04
52753.34991,16.027,0.043
52753.362536,16.127,0.045
52753.362887,16.271,0.049
52753.375281,16.379,0.054
52771.273255,16.28,0.081
52771.285018,16.187,0.071
52771.296546,15.97,0.058
52771.307986,15.872,0.054
52771.319746,15.805,0.049
52820.223732,16.018,0.041
52820.233632,16.127,0.043
52820.243624,16.359,0.052
52820.25358,16.418,0.055
52820.263466,16.304,0.054
52826.220842,16.417,0.078
52826.231073,16.297,0.069
52826.24126,16.089,0.056
52826.251358,16.004,0.051
52826.261387,15.857,0.046
52848.1644,16.33,0.055
52848.174689,16.417,0.059
52848.184968,16.232,0.052
52848.195224,16.059,0.046
53051.398162,15.817,0.026
53051.40984,15.813,0.024
53051.421521,15.844,0.026
53051.433133,15.931,0.024
53051.444983,16.029,0.026
53065.418107,16.341,0.038
53065.429773,16.396,0.046
53065.441343,16.214,0.045
53065.452943,16.092,0.059
53065.464515,15.933,0.026
53078.423183,15.842,0.043
53078.455132,15.955,0.048
53078.466118,16.018,0.045
53109.307271,16.011,0.036
53109.317591,16.217,0.045
53109.337776,16.344,0.049
53109.347818,16.208,0.045
53110.34579,16.301,0.045
53110.356465,16.273,0.045
53110.367707,16.088,0.038
53110.379052,15.924,0.033
53110.389521,15.883,0.033
53111.353664,16.372,0.048
53111.364381,16.351,0.048
53111.375222,16.231,0.043
53111.385942,16.043,0.038
53111.396624,15.992,0.036
53112.356913,16.081,0.035
53112.367257,16.343,0.041
53112.377627,16.362,0.043
53112.388436,16.314,0.043
53113.402835,16.042,0.168
53137.29967,15.91,0.035
53137.309272,15.867,0.033
53137.319453,15.894,0.033
53137.328968,15.924,0.033
53138.295667,15.976,0.035
53138.30525,15.902,0.033
53138.314767,15.867,0.031
53138.324323,15.851,0.031
53138.333917,15.869,0.03
53165.241397,15.923,0.045
53165.251225,15.909,0.038
53165.263728,15.985,0.048
53165.273537,16.08,0.045
53165.283624,16.362,0.061
53242.135417,15.81,0.041
53242.145219,15.832,0.041
53242.155027,15.829,0.044
53242.164834,15.919,0.05
53242.174643,15.985,0.054
53441.452771,16.124,0.035
53441.466013,15.947,0.03
53441.477742,15.865,0.028
53441.490583,15.842,0.028
53501.315649,16.288,0.046
53501.330677,16.356,0.052
53501.34334,16.103,0.041
53501.355303,15.994,0.037
53501.36616,15.916,0.033
53529.219657,16.059,0.044
53529.230997,16.225,0.05
53529.24219,16.392,0.061
53529.252873,16.311,0.057
53529.263614,16.102,0.044
53552.226375,16.288,0.055
53552.236316,16.117,0.046
53552.246256,16.006,0.044
53552.256268,15.905,0.039
53552.266212,15.912,0.041
53770.494657,16.324,0.046
53770.507911,16.118,0.035
53770.520898,15.955,0.03
53788.424331,15.875,0.03
53788.436852,15.81,0.028
53788.449442,15.843,0.033
53788.462074,15.869,0.03
53788.474615,15.945,0.033
53813.429149,15.86,0.048
53813.44059,15.95,0.053
53813.45206,15.89,0.049
53813.463499,15.952,0.053
53816.41316,16.276,0.046
53816.425123,16.345,0.048
53816.43666,16.189,0.043
53816.448447,15.958,0.036
53820.35284,16.465,0.079
53844.301226,15.901,0.038
53844.312189,16.029,0.046
53844.323102,16.219,0.056
53844.334019,16.453,0.073
53844.34512,16.42,0.073
53852.298481,15.977,0.045
53852.319792,16.314,0.059
53852.330826,16.412,0.063
53852.341517,16.366,0.059
53881.272454,16.368,0.061
53881.283485,16.189,0.054
53881.294538,16.0,0.046
53881.305595,15.87,0.041
53881.316697,15.844,0.039
53887.26617,15.992,0.045
53887.276507,15.898,0.04
53887.286813,15.826,0.038
53887.297217,15.907,0.041
53902.224802,16.142,0.057
53902.234608,16.009,0.05
53902.244478,15.982,0.048
53902.254568,15.936,0.048
53902.264578,15.886,0.046
53914.222947,15.984,0.084
53931.175505,15.897,0.044
53931.185998,15.899,0.043
53931.196402,15.857,0.043
53931.217167,15.85,0.048
53940.168437,16.277,0.069
53940.178982,16.077,0.125
53940.189867,16.006,0.076
53940.20044,15.917,0.059
53940.214445,15.867,0.056
53979.140665,16.029,0.061
53979.151794,15.899,0.054
53979.162855,15.82,0.053
53979.173805,15.823,0.058
54154.396764,16.024,0.041
54154.408249,15.913,0.035
54154.419725,15.86,0.033
54154.431279,15.838,0.031
54154.442886,15.863,0.031
54169.382773,15.893,0.054
54169.393722,15.885,0.051
54169.404694,15.844,0.051
54169.415628,15.95,0.053
54169.426515,15.959,0.063
54205.318583,15.852,0.035
54205.328193,15.928,0.036
54205.337487,15.96,0.036
54205.34724,16.091,0.04
54205.356805,16.251,0.045
54560.307906,16.319,0.03
54560.319313,16.339,0.03
54560.330839,16.206,0.026
54560.342225,15.999,0.022
54560.353607,15.891,0.02
54581.288075,16.305,0.092
54581.297839,16.067,0.076
54581.30761,16.05,0.074
54581.317285,15.984,0.073
54581.327003,16.085,0.078
54594.316999,16.894,0.137
54594.326461,16.888,0.13
54594.335994,16.716,0.112
54594.345619,16.474,0.091
54594.355924,16.214,0.071
54612.252074,16.244,0.066
54612.260632,16.165,0.061
54612.269789,16.06,0.056
54612.278518,16.128,0.059
54612.28715,16.103,0.059
