mjd,m,merr
52676.458948,16.351,0.081
52676.48927,16.513,0.092
52707.45908,16.354,0.052
52707.472855,16.556,0.057
52707.486811,16.68,0.068
52707.500077,16.652,0.065
52711.374213,16.738,0.097
52711.387288,16.539,0.076
52711.400934,16.443,0.069
52711.414679,16.319,0.054
52711.4282,16.256,0.048
52738.357465,16.598,0.052
52738.370178,16.524,0.05
52738.381724,16.481,0.048
52738.393203,16.329,0.044
52738.404761,16.274,0.041
52739.355889,16.257,0.054
52739.368778,16.231,0.049
52739.380115,16.276,0.054
52739.391429,16.282,0.053
52739.402761,16.368,0.056
52755.317833,16.263,0.056
52755.329985,16.172,0.053
52755.342749,16.176,0.051
52755.355217,16.207,0.053
52755.36795,16.245,0.054
52769.278712,16.271,0.063
52769.291464,16.144,0.057
52769.30316,16.189,0.059
52769.315164,16.195,0.061
52769.327252,16.227,0.063
52794.269488,16.133,0.046
52794.269578,16.13,0.059
52794.311637,16.366,0.056
52819.233213,16.067,0.046
52819.243044,16.095,0.046
52819.252868,16.032,0.046
52824.222331,16.262,0.052
52824.242238,16.352,0.076
52824.252305,16.418,0.072
52824.262262,16.661,0.233
52884.174709,16.039,0.099
53033.460767,16.442,0.061
53033.472813,16.528,0.063
53033.484826,16.629,0.067
53033.497182,16.61,0.065
53033.509352,16.621,0.063
53064.372245,16.475,0.067
53064.419936,16.22,0.074
53080.3985,16.209,0.039
53080.409438,16.22,0.039
53080.420383,16.208,0.039
53080.43136,16.243,0.041
53080.442363,16.326,0.043
53092.376917,16.217,0.036
53092.386748,16.274,0.038
53092.396517,16.379,0.043
53092.406361,16.526,0.048
53092.41623,16.642,0.053
53111.298917,16.232,0.052
53111.309782,16.329,0.052
53111.32055,16.456,0.057
53111.331603,16.571,0.065
53111.342354,16.633,0.067
53121.300393,16.278,0.041
53121.310643,16.194,0.04
53121.320919,16.187,0.033
53121.332447,16.153,0.038
53121.343679,16.144,0.038
53139.295981,16.295,0.046
53139.305564,16.265,0.043
53139.315163,16.153,0.039
53139.32476,16.195,0.041
53139.334576,16.167,0.041
53169.2267,16.27,0.044
53169.236679,16.23,0.043
53169.256545,16.144,0.039
53169.266549,16.155,0.041
53177.227018,16.426,0.049
53177.236689,16.524,0.049
53177.246174,16.562,0.053
53177.25565,16.627,0.053
53177.265121,16.508,0.046
53414.416716,16.363,0.179
53414.456537,16.162,0.046
53437.479842,16.515,0.054
53437.491081,16.563,0.057
53437.502291,16.525,0.054
53437.513562,16.378,0.05
53447.408631,16.571,0.052
53447.419566,16.575,0.054
53447.429876,16.495,0.107
53447.440174,16.502,0.248
53447.450486,16.355,0.17
53478.410432,16.369,0.059
53478.419493,16.486,0.065
53478.428782,16.55,0.07
53478.438399,16.548,0.07
53478.447487,16.447,0.065
53496.298702,16.291,0.057
53496.308882,16.239,0.054
53496.318977,16.19,0.05
53496.329175,16.189,0.048
53496.339287,16.143,0.046
53503.374105,16.442,0.093
53503.3828,16.528,0.074
53503.39207,16.582,0.093
53503.40077,16.589,0.12
53503.409507,16.637,0.107
53527.220056,16.181,0.054
53527.229911,16.201,0.055
53527.23987,16.244,0.057
53527.249743,16.293,0.059
53527.259558,16.409,0.067
53579.160977,16.13,0.067
53579.172335,16.185,0.05
53579.183709,16.195,0.05
53579.195017,16.236,0.055
53579.206359,16.328,0.057
53791.471102,16.211,0.049
53791.482947,16.215,0.048
53791.494733,16.193,0.045
53791.507061,16.272,0.049
53845.30456,16.193,0.054
53845.315822,16.272,0.061
53845.327221,16.288,0.061
53845.338441,16.372,0.064
53845.349693,16.485,0.083
53850.300062,16.342,0.064
53850.310783,16.474,0.069
53850.321345,16.549,0.073
53850.331856,16.556,0.071
53850.342672,16.45,0.064
53884.27748,16.561,0.074
53884.289055,16.615,0.078
53884.300627,16.675,0.081
53884.312243,16.487,0.068
53884.32379,16.384,0.063
53901.222956,16.436,0.17
53901.232944,16.314,0.096
53901.242966,16.369,0.148
53901.263001,16.196,0.107
53911.259402,16.481,0.16
53911.269046,16.755,0.18
53912.219912,16.62,0.089
53912.223503,16.547,0.102
53937.168915,16.479,0.084
53937.179036,16.713,0.106
53937.189164,16.511,0.087
53937.19931,16.466,0.092
53937.209584,16.396,0.081
53954.146709,16.239,0.117
53954.158201,16.423,0.172
53954.169693,16.141,0.111
53954.181109,16.191,0.119
54155.42048,16.429,0.05
54155.432336,16.272,0.043
54155.444203,16.264,0.041
54155.45623,16.186,0.039
54155.468134,16.159,0.039
54174.413125,16.229,0.058
54174.423993,16.255,0.058
54180.384692,16.376,0.056
54180.395042,16.275,0.056
54180.405513,16.238,0.054
54180.415962,16.179,0.048
54180.42634,16.202,0.049
54200.316551,16.262,0.069
54200.326234,16.315,0.071
54200.335854,16.422,0.078
54200.345214,16.636,0.094
54200.354653,16.72,0.106
54544.329264,16.325,0.089
54544.36105,16.366,0.078
54544.371879,16.187,0.065
54558.301451,16.778,0.213
54558.31304,16.535,0.078
54558.324655,16.461,0.054
54558.336329,16.356,0.087
54558.347881,16.33,0.133
54568.300901,16.194,0.043
54568.311839,16.133,0.039
54568.322818,16.153,0.037
54568.333765,16.235,0.041
54568.344721,16.286,0.039
54580.301737,16.437,0.081
54580.312328,16.634,0.094
54580.32295,16.618,0.091
54580.333557,16.582,0.093
54580.344142,16.447,0.098
54589.30327,16.53,0.044
54589.313827,16.645,0.05
54589.324385,16.573,0.046
54589.334905,16.5,0.044
54589.345424,16.37,0.043
54590.294746,16.184,0.081
54590.304848,16.132,0.096
54590.314609,16.18,0.134
54590.334772,16.015,0.089
54611.262433,16.19,0.035
54611.272234,16.17,0.037
54611.28203,16.225,0.041
54611.291798,16.139,0.039
54611.301599,16.269,0.044
54621.259079,16.586,0.054
54621.269278,16.581,0.055
54621.279435,16.563,0.055
54621.289603,16.437,0.046
54621.299762,16.364,0.046
