mjd,m,merr
52722.414983,16.327,0.046
52722.427878,16.389,0.05
52722.440891,16.397,0.05
52722.453824,16.399,0.052
52722.466999,16.435,0.055
52751.322332,16.18,0.043
52751.333297,16.248,0.046
52751.344013,16.324,0.052
52751.355344,16.268,0.05
52751.367915,16.309,0.054
52781.267085,16.527,0.057
52781.277858,16.515,0.055
52781.288553,16.538,0.055
52781.299449,16.606,0.059
52781.310274,16.602,0.059
52849.160139,16.15,0.046
52849.170183,16.149,0.049
52849.180119,16.134,0.05
52849.189916,16.205,0.053
52849.199939,16.165,0.053
52850.175684,16.575,0.08
52850.196218,16.594,0.091
52850.206419,16.52,0.112
52897.112202,16.396,0.056
52897.124133,16.315,0.056
52897.136774,16.415,0.06
52897.148281,16.269,0.059
52897.159797,16.328,0.07
53008.469136,16.309,0.076
53008.481732,16.394,0.074
53008.494267,16.302,0.063
53008.506885,16.351,0.065
53008.519478,16.43,0.065
53038.459443,16.093,0.059
53038.471801,16.068,0.054
53038.484651,16.13,0.073
53038.497339,16.184,0.059
53096.322407,15.793,0.048
53096.332071,15.766,0.046
53096.341694,15.89,0.049
53096.351478,15.902,0.049
53096.36114,15.874,0.048
53125.291191,15.791,0.046
53125.300848,15.783,0.046
53125.310618,15.786,0.045
53125.320611,15.855,0.063
53125.330244,15.917,0.049
53134.283413,16.057,0.036
53134.292453,15.932,0.035
53134.301483,15.857,0.033
53134.310449,15.789,0.033
53134.319295,15.798,0.036
53155.256698,16.55,0.094
53155.265037,16.352,0.084
53155.273464,16.44,0.089
53155.28186,16.418,0.087
53155.290076,16.474,0.092
53163.24339,16.359,0.137
53169.225599,16.108,0.046
53169.235037,16.176,0.049
53169.244499,16.194,0.051
53169.25385,16.177,0.046
53169.263239,16.2,0.043
53193.221705,16.31,0.051
53193.249447,16.376,0.059
53193.258904,16.399,0.069
53244.133997,16.426,0.076
53244.14449,16.394,0.078
53244.154954,16.421,0.078
53244.16562,16.407,0.079
53244.177212,16.37,0.079
53421.410877,16.484,0.081
53421.423227,16.564,0.081
53421.436876,16.56,0.078
53421.463791,16.506,0.074
53430.42969,16.47,0.072
53430.440841,16.534,0.074
53430.452456,16.637,0.083
53430.463676,16.521,0.074
53430.475342,16.591,0.078
53451.393426,16.247,0.057
53451.404212,16.262,0.055
53451.414981,16.312,0.057
53451.425767,16.318,0.057
53451.436529,16.326,0.057
53480.27756,16.104,0.07
53480.286617,16.13,0.07
53480.295783,16.148,0.068
53480.304805,16.164,0.07
53480.314868,16.155,0.068
53490.305776,16.43,0.05
53490.316541,16.444,0.05
53490.328407,16.483,0.05
53490.340226,16.53,0.057
53490.351611,16.57,0.059
53536.22446,15.909,0.057
53536.23442,15.945,0.059
53536.244392,15.983,0.063
53536.254355,15.98,0.065
53536.264419,16.014,0.067
53565.173742,15.79,0.039
53565.184379,15.782,0.039
53565.195043,15.835,0.041
53565.205708,15.901,0.043
53565.216412,15.931,0.044
53610.146978,16.542,0.068
53610.158206,16.532,0.067
53610.169417,16.515,0.117
53629.110429,16.255,0.087
53629.12276,16.181,0.085
53629.135283,16.306,0.098
53629.147738,16.252,0.1
53629.160046,16.315,0.111
53773.479705,16.326,0.052
53773.493818,16.344,0.052
53773.50648,16.361,0.05
53773.519267,16.382,0.05
53773.531943,16.386,0.054
53802.426478,16.367,0.046
53802.438778,16.382,0.045
53802.451011,16.397,0.049
53802.463048,16.414,0.048
53802.475425,16.485,0.051
53806.423199,16.439,0.089
53826.341272,16.512,0.051
53826.352199,16.483,0.081
53826.362932,16.574,0.102
53826.384587,16.722,0.181
53827.361243,15.991,0.031
53827.371906,16.057,0.033
53827.383096,16.08,0.036
53827.393736,16.116,0.036
53827.404425,16.087,0.033
53835.336701,16.365,0.079
53842.306412,16.343,0.094
53842.318309,16.426,0.102
53842.330467,16.446,0.104
53842.343074,16.536,0.111
53842.354338,16.5,0.109
53857.330339,16.428,0.059
53857.340643,16.398,0.063
53857.350837,16.451,0.063
53857.360782,16.393,0.061
53877.274018,16.524,0.2
53877.284748,16.557,0.299
53877.295375,16.588,0.178
53877.305991,16.562,0.266
53904.227161,16.393,0.051
53904.237048,16.43,0.054
53904.24727,16.459,0.053
53904.257237,16.453,0.051
53904.267519,16.45,0.054
53933.217613,16.431,0.078
53933.228194,16.366,0.094
53933.238766,16.369,0.081
53933.249419,16.381,0.072
53933.26001,16.41,0.078
53954.152702,15.751,0.065
53954.164694,15.799,0.068
53954.176743,15.86,0.078
53990.111179,16.629,0.074
53990.12321,16.598,0.073
53990.134874,16.599,0.074
53990.146921,16.498,0.073
53990.158597,16.406,0.071
53995.114478,16.447,0.059
53995.126371,16.453,0.059
53995.138372,16.386,0.058
53995.150336,16.443,0.061
53995.162463,16.443,0.066
54108.458963,16.355,0.116
54108.471228,16.409,0.124
54108.483298,16.333,0.111
54108.495469,16.508,0.12
54108.507663,16.428,0.104
54125.474329,15.765,0.043
54140.422194,16.157,0.05
54140.434911,16.161,0.05
54140.447335,16.198,0.052
54140.459945,16.107,0.046
54140.473124,16.21,0.05
54188.322725,16.431,0.096
54188.33248,16.463,0.094
54188.342256,16.505,0.096
54188.351996,16.426,0.089
54188.36168,16.508,0.109
54212.302203,16.637,0.073
54212.310614,16.518,0.069
54212.319032,16.473,0.064
54212.327709,16.487,0.064
54212.336126,16.436,0.061
54525.399262,15.804,0.04
54525.410908,15.803,0.041
54525.422516,15.798,0.046
54525.434141,15.951,0.048
54525.448596,15.921,0.074
54558.38865,16.226,0.087
54570.300969,16.482,0.066
54570.313001,16.438,0.066
54570.323878,16.543,0.069
54570.335023,16.551,0.071
54570.346086,16.432,0.061
54585.28947,15.74,0.054
54585.299587,15.781,0.048
54585.309904,15.847,0.058
54585.320297,15.898,0.054
54585.330324,15.824,0.049
54598.297953,16.015,0.079
54598.326311,16.067,0.071
54618.263011,16.067,0.061
54618.273427,16.118,0.061
