mjd,m,merr
52665.462623,14.968,0.017
52665.476917,14.971,0.015
52665.491215,15.031,0.015
52665.505624,15.154,0.017
52665.519944,15.491,0.022
52677.458793,14.946,0.015
52677.473063,15.021,0.015
52677.487347,15.149,0.018
52677.50167,15.447,0.022
52677.515956,16.262,0.044
52697.45746,15.3,0.02
52697.473398,15.143,0.015
52697.487628,15.014,0.015
52706.42949,16.296,0.041
52706.442113,15.648,0.022
52706.454836,15.221,0.017
52706.467896,15.111,0.013
52706.480757,14.934,0.013
52724.415714,15.558,0.022
52724.427388,15.204,0.017
52724.439016,15.051,0.015
52724.450594,14.951,0.013
52724.462149,14.859,0.013
52753.32269,15.924,0.031
52753.334706,15.348,0.018
52753.346731,15.14,0.015
52753.358803,14.995,0.013
52753.370845,14.869,0.013
52771.273529,15.441,0.031
52771.285511,16.092,0.055
52771.297142,15.887,0.046
52771.308805,15.339,0.03
52771.320576,15.153,0.022
52797.266602,15.072,0.018
52797.27665,14.95,0.018
52797.286675,15.08,0.018
52797.296745,15.105,0.018
52797.306793,15.144,0.02
52811.225781,14.878,0.015
52811.23564,14.917,0.015
52811.245417,15.071,0.017
52811.255209,15.162,0.018
52811.264974,15.301,0.02
52826.221584,15.143,0.018
52826.231487,15.238,0.02
52826.241396,15.585,0.028
52826.25136,16.153,0.046
52826.26122,15.995,0.041
52842.180132,15.137,0.022
52847.176722,14.905,0.018
52847.186871,14.913,0.018
52847.197048,14.988,0.018
52847.207614,15.175,0.022
53034.464267,15.017,0.013
53034.476664,15.026,0.013
53034.489104,15.054,0.015
53034.501607,15.127,0.015
53034.513938,15.308,0.018
53051.44633,15.404,0.015
53051.457964,15.48,0.017
53051.469596,15.265,0.015
53051.481199,15.145,0.013
53051.49288,14.996,0.011
53078.423765,15.713,0.038
53078.455714,15.101,0.02
53078.466703,14.896,0.016
53094.412144,15.156,0.009
53094.422377,15.306,0.011
53094.432793,15.48,0.013
53109.307689,15.139,0.016
53109.318014,15.022,0.016
53109.328153,15.082,0.016
53109.338201,14.993,0.016
53109.348244,14.966,0.015
53137.300631,15.416,0.023
53137.310214,15.211,0.018
53137.320444,15.058,0.016
53137.329908,14.958,0.015
53137.339557,14.908,0.015
53165.242329,14.947,0.018
53165.252204,14.954,0.016
53165.26466,15.139,0.02
53165.274469,15.295,0.023
53165.284557,15.48,0.028
53242.135851,15.476,0.028
53242.145652,15.375,0.028
53242.155462,15.209,0.024
53242.165268,15.145,0.022
53242.175077,15.075,0.02
53442.322687,16.22,0.043
53442.333509,15.835,0.031
53442.344352,15.415,0.02
53442.355185,15.194,0.017
53442.366289,15.127,0.015
53500.301273,15.237,0.017
53500.313906,15.042,0.015
53500.324327,14.986,0.013
53500.335604,14.945,0.013
53500.345779,15.042,0.013
53528.274683,15.597,0.03
53528.286189,16.231,0.054
53528.297691,15.712,0.033
53528.308918,15.256,0.024
53528.320065,15.125,0.02
53552.227267,15.237,0.02
53552.23721,15.462,0.026
53552.24715,16.006,0.044
53552.257161,16.14,0.048
53552.267105,15.563,0.028
53582.176943,15.122,0.02
53582.188167,15.223,0.022
53582.199406,15.589,0.031
53582.210634,16.184,0.059
53626.112478,15.57,0.039
53626.124104,15.308,0.031
53626.135607,15.17,0.03
53626.158605,15.092,0.026
53770.495557,15.026,0.015
53770.508607,15.13,0.015
53770.521598,15.191,0.015
53787.436044,15.046,0.016
53787.448893,15.167,0.016
53787.461983,15.409,0.02
53787.475041,15.941,0.033
53813.419113,15.228,0.03
53813.430252,15.157,0.028
53813.44127,15.126,0.026
53813.452306,15.115,0.026
53813.46341,15.081,0.024
53823.309102,15.409,0.02
53823.319942,15.237,0.016
53823.330829,15.155,0.015
53823.34194,15.126,0.015
53823.352934,15.108,0.013
53844.289708,15.238,0.022
53844.299981,15.141,0.02
53844.310471,15.074,0.02
53844.320918,15.083,0.02
53844.331181,15.052,0.02
53853.297555,15.116,0.02
53853.308364,15.044,0.02
53853.318894,15.108,0.02
53853.329318,15.041,0.02
53853.339741,15.069,0.021
53883.275953,15.104,0.02
53883.296621,15.137,0.02
53883.306944,15.168,0.021
53887.278024,15.169,0.022
53887.289008,15.106,0.02
53887.299992,14.963,0.02
53887.311032,15.025,0.018
53887.322087,14.893,0.018
53902.232254,15.419,0.028
53902.24249,15.286,0.025
53902.252493,15.154,0.023
53902.263355,15.065,0.021
53902.274673,15.05,0.023
53931.221426,15.105,0.026
53931.23154,15.155,0.03
53931.241741,15.175,0.04
53971.136804,16.139,0.097
53971.147846,15.469,0.035
53971.158862,15.201,0.026
53971.169481,15.152,0.028
53971.180122,15.08,0.023
54110.477086,15.396,0.048
54110.489766,15.881,0.087
54121.45243,15.53,0.024
54121.46471,15.206,0.017
54121.476959,15.125,0.015
54121.489627,15.057,0.013
54121.501869,14.877,0.011
54155.416074,15.227,0.021
54155.428086,15.53,0.026
54155.439756,15.311,0.021
54155.451672,15.187,0.02
54155.464045,15.134,0.018
54206.318534,15.182,0.018
54206.327842,15.285,0.02
54206.337164,15.535,0.025
54206.3467,16.044,0.04
54206.356062,16.221,0.046
54529.378905,15.593,0.031
54529.390411,15.248,0.023
54529.401661,15.136,0.021
54529.412911,15.004,0.02
54529.425504,14.954,0.02
54562.269159,15.017,0.025
54562.281789,15.022,0.025
54562.305151,15.261,0.03
54574.295545,15.471,0.037
54574.306219,15.332,0.033
54574.316898,15.202,0.028
54574.327581,15.113,0.024
54574.338269,14.983,0.022
54582.299426,14.926,0.015
54582.310002,14.887,0.015
54582.320572,14.88,0.015
54582.331185,14.922,0.017
54582.341775,14.926,0.017
54613.255032,15.572,0.022
54613.265073,15.253,0.017
54613.275311,15.091,0.013
54613.285548,15.004,0.013
54613.295659,14.906,0.013
