mjd,m,merr
52665.476278,16.394,0.059
52665.491089,16.491,0.063
52665.506798,16.627,0.068
52665.523292,16.516,0.061
52665.538774,16.389,0.054
52677.487216,16.534,0.074
52677.503018,16.565,0.069
52677.517903,16.28,0.051
52723.414249,16.579,0.052
52723.425637,16.242,0.044
52723.42622,16.279,0.044
52723.437099,16.388,0.091
52723.437691,16.589,0.104
52723.448362,16.386,0.105
52723.448965,16.362,0.087
52752.292757,16.535,0.061
52752.302951,16.321,0.052
52752.313145,16.341,0.05
52752.323337,16.514,0.059
52752.33366,16.567,0.061
52772.272721,16.283,0.087
52772.29639,16.758,0.128
52772.308244,16.399,0.167
52772.368351,16.571,0.119
52772.379904,16.584,0.104
52787.271981,16.574,0.064
52787.282803,16.733,0.073
52787.293729,16.702,0.074
52787.304558,16.613,0.068
52787.31537,16.348,0.054
52800.235718,16.634,0.15
52800.246055,16.608,0.145
52800.256345,16.322,0.116
52800.266647,16.568,0.153
52810.226204,16.543,0.089
52810.236235,16.798,0.13
52810.246145,16.723,0.084
52812.237902,16.441,0.059
52812.247924,16.381,0.056
52812.258167,16.513,0.063
52812.268392,16.581,0.066
52812.278403,16.685,0.071
52840.169165,16.305,0.055
52840.169703,16.311,0.054
52840.179132,16.408,0.057
52840.179669,16.441,0.055
52840.189631,16.531,0.061
52840.199585,16.65,0.07
52840.209561,16.622,0.068
53035.477191,16.407,0.046
53035.489365,16.429,0.048
53035.489927,16.566,0.05
53035.502035,16.56,0.055
53035.502598,16.677,0.055
53035.514717,16.476,0.05
53035.515279,16.603,0.052
53049.3965,16.369,0.05
53049.40838,16.407,0.052
53049.420261,16.442,0.054
53049.43218,16.318,0.048
53049.444846,16.286,0.046
53107.29283,16.612,0.058
53107.302475,16.611,0.054
53107.30314,16.733,0.058
53107.312752,16.565,0.053
53107.313414,16.808,0.066
53107.323085,16.464,0.046
53107.323752,16.479,0.046
53107.33359,16.357,0.041
53107.334258,16.386,0.043
53136.284479,16.441,0.058
53136.293204,16.532,0.063
53136.301898,16.663,0.063
53136.310654,16.657,0.068
53136.31959,16.57,0.064
53154.25167,16.436,0.074
53154.260174,16.372,0.071
53154.268554,16.39,0.071
53154.276955,16.494,0.079
53154.285504,16.634,0.091
53164.263982,16.311,0.048
53164.273567,16.432,0.054
53164.28316,16.452,0.058
53164.292646,16.576,0.068
53164.302114,16.681,0.083
53194.21638,16.528,0.107
53194.245022,16.4,0.079
53194.254166,16.563,0.091
53243.135217,16.566,0.084
53243.145826,16.246,0.064
53243.156209,16.593,0.096
53243.166497,16.48,0.087
53243.177309,16.631,0.106
53264.107565,16.55,0.063
53264.119017,16.316,0.048
53264.130456,16.325,0.052
53264.141896,16.467,0.061
53264.153338,16.628,0.072
53474.361402,16.549,0.055
53474.371821,16.588,0.059
53474.383041,16.545,0.057
53474.394557,16.48,0.124
53498.376567,16.252,0.043
53498.388884,16.425,0.05
53498.400235,16.544,0.059
53498.411173,16.653,0.07
53498.421275,16.647,0.067
53499.337139,16.333,0.046
53499.338643,16.434,0.048
53499.35049,16.496,0.054
53499.350902,16.558,0.054
53499.361275,16.598,0.059
53499.361677,16.545,0.054
53499.371262,16.522,0.055
53499.371668,16.587,0.057
53499.381314,16.593,0.059
53499.381719,16.598,0.055
53521.260172,16.339,0.065
53521.270473,16.313,0.089
53521.28077,16.516,0.076
53521.281473,16.548,0.065
53521.291197,16.516,0.061
53521.30147,16.688,0.078
53538.223622,16.246,0.091
53538.224209,16.245,0.083
53538.233243,16.281,0.089
53538.233828,16.455,0.102
53538.242871,16.653,0.122
53538.243454,16.509,0.104
53538.252536,16.649,0.128
53538.253119,16.571,0.113
53538.262315,16.502,0.115
53538.262898,16.582,0.113
53583.164678,16.628,0.061
53583.175998,16.356,0.052
53583.187248,16.342,0.05
53583.198511,16.515,0.059
53583.209806,16.547,0.065
53627.112188,16.277,0.07
53627.112648,16.22,0.065
53627.124501,16.364,0.08
53627.12495,16.428,0.08
53627.136881,16.464,0.093
53627.137516,16.574,0.094
53627.149222,16.562,0.104
53627.149661,16.623,0.105
53627.161313,16.413,0.094
53627.161754,16.584,0.107
53771.534884,16.437,0.122
53771.535456,16.378,0.052
53786.432176,16.561,0.086
53786.446161,16.32,0.049
53786.45875,16.499,0.064
53786.459558,16.426,0.061
53786.471912,16.532,0.059
53786.472722,16.529,0.059
53786.485211,16.604,0.068
53786.48602,16.642,0.064
53824.469466,16.479,0.046
53843.313597,16.532,0.096
53843.324863,16.278,0.078
53843.336127,16.479,0.094
53843.347419,16.625,0.104
53843.358722,16.564,0.1
53882.265576,16.634,0.068
53882.276223,16.37,0.056
53882.287055,16.462,0.058
53882.297886,16.508,0.061
53882.308506,16.59,0.064
53886.278309,16.592,0.08
53886.278694,16.628,0.078
53886.289373,16.51,0.074
53886.289758,16.434,0.067
53886.300462,16.319,0.063
53886.300846,16.309,0.061
53886.311493,16.503,0.074
53886.311875,16.497,0.068
53886.322543,16.522,0.074
53886.322928,16.564,0.074
53903.226576,16.582,0.087
53903.226925,16.684,0.089
53903.236488,16.72,0.1
53903.236837,16.621,0.083
53903.246483,16.585,0.089
53903.24683,16.498,0.076
53903.256457,16.259,0.065
53903.256812,16.26,0.059
53903.266441,16.471,0.078
53903.266796,16.469,0.072
53916.236158,16.563,0.109
53916.236498,16.582,0.14
53916.246048,16.606,0.073
53916.24639,16.626,0.071
53916.2558,16.523,0.071
53916.256141,16.572,0.069
53932.219985,16.48,0.087
53932.220355,16.525,0.081
53932.241221,16.717,0.117
53932.241613,16.646,0.104
53932.251828,16.626,0.118
53932.252214,16.616,0.113
53932.262449,16.72,0.152
53932.262824,16.291,0.096
53942.168459,16.355,0.175
53970.136282,16.585,0.071
53970.136725,16.582,0.066
53970.146032,16.234,0.053
53970.146475,16.246,0.051
53970.155554,16.407,0.064
53970.155995,16.43,0.061
53970.165267,16.496,0.073
53970.165711,16.484,0.068
53970.174756,16.583,0.079
53970.175198,16.583,0.078
54123.448651,16.513,0.067
54123.461358,16.566,0.067
54123.473749,16.537,0.061
54123.486169,16.338,0.05
54123.498594,16.334,0.05
54186.331002,16.558,0.092
54186.331667,16.51,0.097
54186.341404,16.558,0.089
54186.34207,16.526,0.084
54186.351623,16.343,0.069
54186.352287,16.321,0.063
54186.361841,16.387,0.079
54186.362506,16.356,0.086
54186.372084,16.48,0.116
54201.332677,16.471,0.046
54201.34278,16.279,0.041
54201.343309,16.345,0.03
54201.35262,16.459,0.046
54201.353138,16.495,0.035
54201.362424,16.577,0.05
54201.362949,16.588,0.037
54201.372761,16.571,0.05
54201.373273,16.615,0.039
54207.365791,16.68,0.145
54216.304464,16.6,0.061
54216.304944,16.609,0.065
54216.313596,16.473,0.054
54216.314075,16.533,0.061
54216.322619,16.181,0.041
54216.323098,16.245,0.046
54216.331353,16.345,0.048
54216.33183,16.413,0.054
54216.340082,16.494,0.054
54216.340561,16.464,0.055
54508.472864,16.515,0.049
54508.485275,16.401,0.043
54508.498529,16.52,0.046
54543.390352,16.459,0.101
54543.391058,16.643,0.116
54543.401847,16.677,0.117
54543.414064,16.424,0.089
54543.424828,16.407,0.086
54543.435556,16.513,0.094
54555.301074,16.413,0.069
54555.315614,16.463,0.071
54555.316053,16.551,0.056
54555.327367,16.502,0.071
54555.339138,16.114,0.051
54555.350841,16.425,0.069
54561.30128,16.751,0.096
54561.311886,16.604,0.073
54561.312704,16.624,0.071
54561.324076,16.521,0.068
54561.335545,16.309,0.056
54561.346959,16.416,0.064
54573.297812,16.451,0.081
54573.298327,16.542,0.083
54573.308633,16.483,0.083
54573.309146,16.545,0.085
54573.319473,16.114,0.057
54573.319987,16.231,0.063
54573.330288,16.232,0.065
54573.330798,16.48,0.076
54573.341126,16.396,0.074
54573.341638,16.586,0.083
54583.297677,16.58,0.091
54583.311405,16.544,0.092
54583.312103,16.552,0.086
54583.32509,16.45,0.079
54583.336358,16.337,0.069
54583.347691,16.583,0.087
54614.26759,16.419,0.068
54614.277975,16.498,0.073
54614.288271,16.482,0.071
54614.298619,16.509,0.069
54614.308901,16.488,0.073
