mjd,m,merr
52620.395684,16.252,0.115
52620.41154,16.284,0.057
52620.427334,16.263,0.048
52620.442582,16.262,0.046
52636.303488,16.299,0.059
52636.318173,16.32,0.059
52636.332621,16.375,0.064
52636.347091,16.399,0.066
52653.308429,16.257,0.061
52653.323416,16.242,0.061
52653.338349,16.229,0.059
52653.353224,16.223,0.059
52653.368148,16.213,0.059
52660.25076,16.287,0.078
52660.26593,16.216,0.076
52660.312864,16.325,0.076
52680.235207,16.283,0.053
52680.253148,16.264,0.051
52680.269167,16.274,0.053
52680.285186,16.229,0.051
52680.300693,16.285,0.056
52693.259714,16.454,0.046
52693.275058,16.422,0.046
52693.29168,16.363,0.043
52693.30724,16.398,0.044
52693.322743,16.308,0.044
52704.233861,16.245,0.039
52704.247118,16.228,0.037
52704.260487,16.279,0.041
52704.273755,16.257,0.041
52704.287101,16.255,0.041
52708.105053,16.291,0.058
52708.118278,16.277,0.058
52708.132857,16.255,0.061
52708.146173,16.334,0.066
52708.16027,16.324,0.063
52712.175527,16.332,0.113
52721.179359,16.462,0.048
52721.192169,16.37,0.046
52721.204938,16.347,0.043
52721.217726,16.357,0.043
52721.230572,16.3,0.041
52742.135043,16.626,0.207
52750.132002,16.44,0.1
52750.142593,16.38,0.061
52750.153201,16.39,0.052
52750.163813,16.375,0.052
52750.174418,16.39,0.054
52927.441091,16.245,0.109
52927.464697,16.248,0.105
52927.476125,16.22,0.102
52948.389595,16.217,0.057
52948.401666,16.192,0.054
52948.413782,16.146,0.048
52948.425766,16.125,0.044
52948.437879,16.173,0.044
52978.297777,16.483,0.081
52978.311007,16.423,0.079
52978.322819,16.306,0.066
52978.335429,16.33,0.068
52978.347374,16.288,0.063
52988.303993,16.326,0.053
52988.315463,16.307,0.051
52988.326972,16.35,0.053
52988.338915,16.325,0.051
52988.350499,16.362,0.053
53008.284528,17.256,0.158
53008.298945,17.037,0.13
53038.284982,16.462,0.107
53038.311985,16.833,0.122
53038.328112,17.128,0.154
53038.343391,17.269,0.191
53045.2152,16.279,0.05
53045.22656,16.255,0.048
53045.249123,16.335,0.054
53045.26069,16.257,0.052
53065.170737,17.08,0.139
53065.182143,17.319,0.176
53065.193444,17.129,0.142
53065.2049,16.918,0.104
53065.216473,16.918,0.094
53093.195021,16.292,0.067
53093.215952,16.216,0.052
53108.189948,16.44,0.057
53108.201145,16.344,0.055
53108.21241,16.3,0.054
53108.223702,16.37,0.057
53108.235001,16.327,0.055
53125.145733,16.356,0.141
53125.155735,16.219,0.117
53125.166451,16.305,0.13
53125.176748,16.145,0.131
53134.149073,16.194,0.059
53134.158538,16.201,0.068
53134.168015,16.216,0.059
53134.1775,16.203,0.061
53260.44931,16.376,0.054
53260.461771,16.321,0.051
53260.473954,16.542,0.061
53263.405159,16.217,0.052
53263.416883,16.278,0.052
53263.428529,16.259,0.048
53263.440177,16.276,0.048
53263.451954,16.241,0.046
53290.432321,16.27,0.064
53290.443435,16.318,0.064
53290.454636,16.346,0.066
53290.465816,16.253,0.061
53290.476943,16.248,0.061
53294.413719,16.315,0.046
53294.424728,16.342,0.046
53294.435749,16.279,0.043
53294.446766,16.307,0.043
53294.457775,16.291,0.041
53301.380191,16.536,0.067
53301.391994,16.45,0.063
53301.403873,16.306,0.055
53301.415815,16.275,0.055
53301.42765,16.257,0.054
53303.430566,16.465,0.087
53303.442434,16.571,0.081
53303.454298,16.745,0.085
53312.37609,16.257,0.094
53312.388272,16.216,0.089
53312.400334,16.325,0.096
53312.412368,16.274,0.093
53312.424434,16.269,0.091
53319.398918,16.275,0.05
53319.411012,16.273,0.05
53319.423101,16.283,0.05
53319.435208,16.295,0.052
53319.447299,16.259,0.05
53329.437023,16.249,0.046
53329.449431,16.19,0.046
53329.462258,16.198,0.046
53329.474627,16.225,0.048
53329.486984,16.209,0.046
53340.31474,16.227,0.104
53340.326968,16.267,0.109
53340.33919,16.236,0.105
53340.351419,16.181,0.1
53340.363912,16.398,0.118
53349.396123,16.262,0.055
53349.408221,16.2,0.052
53349.422109,16.262,0.055
53349.434695,16.275,0.057
53349.446773,16.286,0.059
53355.430225,16.248,0.044
53355.44311,16.261,0.043
53359.325251,16.749,0.083
53359.341381,16.562,0.068
53359.35742,16.325,0.049
53359.373461,16.29,0.045
53359.389569,16.283,0.046
53362.375232,16.309,0.12
53389.415713,16.287,0.046
53389.428775,16.228,0.048
53389.441752,16.206,0.046
53389.454782,16.174,0.043
53389.467798,16.156,0.046
53390.273431,16.283,0.059
53390.286188,16.341,0.065
53390.299854,16.365,0.061
53390.312708,16.27,0.055
53390.32551,16.331,0.061
53429.218686,16.22,0.044
53429.229974,16.202,0.044
53429.24132,16.246,0.048
53429.252618,16.264,0.05
53429.263918,16.208,0.05
53461.178131,16.267,0.048
53461.188535,16.307,0.05
53461.198851,16.362,0.054
53461.20935,16.477,0.059
53461.219615,16.574,0.068
53489.144687,16.743,0.08
53489.155025,16.929,0.102
53489.165389,16.992,0.126
53489.185897,16.812,0.272
53635.420728,16.258,0.115
53635.431162,16.092,0.098
53635.441582,16.281,0.12
53635.452016,16.343,0.124
53635.462444,16.243,0.117
53686.388657,16.201,0.048
53686.401228,16.193,0.044
53686.413824,16.205,0.041
53686.426451,16.208,0.037
53686.438955,16.191,0.035
53696.390014,16.461,0.076
53696.403127,16.363,0.07
53696.416339,16.301,0.068
53696.442672,16.299,0.091
53725.334157,16.847,0.107
53725.347425,16.824,0.091
53725.36047,16.621,0.072
53725.37358,16.47,0.063
53725.386589,16.378,0.061
53755.276437,16.182,0.091
53755.289216,16.298,0.055
53755.301919,16.444,0.063
53755.314844,16.51,0.068
53755.327505,16.723,0.081
53775.286053,16.309,0.083
53775.298584,16.316,0.08
53775.311389,16.268,0.076
53775.320035,16.228,0.084
53775.324706,16.268,0.081
53775.338134,16.294,0.08
53775.347991,16.279,0.087
53994.444918,16.23,0.078
53994.457572,16.234,0.078
53994.469921,16.274,0.079
54021.452076,16.193,0.097
54021.464332,16.252,0.102
54050.370956,16.263,0.063
54050.38314,16.251,0.059
54050.395334,16.3,0.061
54050.407537,16.319,0.068
54050.419739,16.263,0.068
54079.303108,16.273,0.067
54079.315075,16.305,0.068
54079.326976,16.321,0.07
54079.33887,16.27,0.067
54079.350775,16.355,0.074
54108.266905,16.269,0.055
54108.279491,16.212,0.052
54108.292089,16.211,0.052
54108.304769,16.211,0.052
54108.317442,16.185,0.05
54126.264738,16.403,0.066
54139.218216,16.235,0.041
54139.230254,16.194,0.045
54139.242075,16.208,0.041
54139.253746,16.207,0.043
54139.265394,16.293,0.046
54167.238281,16.111,0.053
54167.249602,16.12,0.056
54406.373158,16.55,0.074
54406.384758,16.571,0.076
54406.396354,16.463,0.068
54406.40781,16.478,0.069
54406.419278,16.479,0.069
54418.38475,16.361,0.046
54418.396852,16.232,0.041
54418.409029,16.296,0.043
54418.421001,16.244,0.041
54418.432996,16.233,0.041
54436.328914,16.261,0.046
54465.320821,16.374,0.059
54465.333313,16.369,0.059
54465.34578,16.339,0.059
54465.358171,16.356,0.059
54465.370758,16.453,0.068
54483.279941,16.245,0.066
54483.292206,16.256,0.066
54483.304389,16.23,0.063
54496.337918,16.246,0.049
54496.350044,16.216,0.048
54496.363852,16.274,0.051
54496.3772,16.193,0.049
54496.389318,16.198,0.049
54524.217345,16.162,0.053
54524.230351,16.241,0.051
54524.241837,16.25,0.045
54524.253474,16.226,0.058
54524.265098,16.217,0.058
54539.162888,16.336,0.084
54539.173283,16.3,0.081
54539.183676,16.297,0.079
54539.194085,16.288,0.073
54539.204676,16.291,0.073
54571.138478,17.042,0.172
54571.149165,17.263,0.216
54571.159863,16.961,0.167
54571.170633,16.864,0.158
54587.144945,16.45,0.101
54587.155017,16.374,0.099
54587.165205,16.339,0.091
54587.17671,16.433,0.102
54587.188231,16.461,0.114
