mjd,m,merr
52665.462623,16.071,0.046
52665.476917,16.032,0.043
52665.491215,15.939,0.037
52665.505624,15.786,0.031
52665.519944,15.68,0.028
52677.458793,15.726,0.033
52677.473063,15.789,0.035
52677.487347,15.991,0.043
52677.50167,16.084,0.044
52677.515956,16.045,0.041
52697.45746,15.988,0.039
52697.473398,15.807,0.03
52697.487628,15.682,0.028
52706.42949,15.802,0.03
52706.442113,15.98,0.033
52706.454836,16.123,0.037
52706.467896,16.09,0.035
52706.480757,16.069,0.035
52724.415714,15.584,0.024
52724.427388,15.614,0.024
52724.439016,15.578,0.024
52724.450594,15.633,0.026
52724.462149,15.679,0.03
52753.32269,15.809,0.03
52753.334706,15.684,0.028
52753.346731,15.672,0.026
52753.358803,15.658,0.026
52753.370845,15.641,0.026
52771.273529,15.598,0.039
52771.285511,15.655,0.041
52771.297142,15.724,0.041
52771.308805,15.792,0.044
52771.320576,15.888,0.048
52797.266602,15.88,0.043
52797.27665,15.912,0.044
52797.286675,15.953,0.044
52797.296745,16.017,0.046
52797.306793,15.955,0.043
52811.225781,16.015,0.043
52811.23564,15.907,0.037
52811.245417,15.817,0.035
52811.255209,15.744,0.031
52811.264974,15.682,0.03
52826.221584,15.762,0.037
52826.231487,15.823,0.037
52826.241396,15.91,0.041
52826.25136,15.962,0.043
52826.26122,15.997,0.044
52842.180132,15.679,0.039
52847.176722,15.752,0.039
52847.186871,15.709,0.037
52847.197048,15.65,0.035
52847.207614,15.636,0.035
53034.464267,15.93,0.039
53034.476664,15.792,0.033
53034.489104,15.711,0.031
53034.501607,15.658,0.028
53034.513938,15.616,0.026
53051.44633,15.582,0.02
53051.457964,15.567,0.02
53051.469596,15.581,0.022
53051.481199,15.599,0.022
53051.49288,15.623,0.022
53078.423765,15.908,0.045
53078.455714,16.034,0.054
53078.466703,16.001,0.046
53094.391049,15.684,0.02
53094.401771,15.773,0.022
53094.412144,15.897,0.022
53094.422377,15.974,0.024
53094.432793,15.945,0.022
53109.307689,16.002,0.038
53109.318014,15.86,0.035
53109.328153,15.737,0.031
53109.338201,15.701,0.03
53109.348244,15.68,0.03
53111.353554,15.976,0.033
53111.364268,15.991,0.033
53111.375112,15.954,0.033
53111.38583,15.871,0.031
53111.396515,15.74,0.028
53112.357031,15.651,0.023
53112.367372,15.629,0.021
53112.377745,15.605,0.021
53137.300631,16.013,0.038
53137.310214,16.023,0.038
53137.320444,16.042,0.038
53137.329908,15.934,0.033
53137.339557,15.817,0.031
53165.242329,15.631,0.036
53165.252204,15.651,0.031
53165.26466,15.689,0.035
53165.274469,15.666,0.031
53165.284557,15.702,0.035
53242.135851,15.636,0.033
53242.145652,15.667,0.037
53242.155462,15.623,0.037
53242.165268,15.635,0.037
53242.175077,15.648,0.039
53442.322687,15.967,0.039
53442.333509,15.974,0.037
53442.344352,15.965,0.037
53442.355185,16.027,0.039
53442.366289,15.914,0.033
53474.409235,15.669,0.048
53474.433372,15.664,0.024
53474.454059,15.741,0.031
53475.366027,15.643,0.026
53475.376223,15.665,0.026
53475.385967,15.69,0.03
53475.396171,15.74,0.041
53475.406198,15.81,0.031
53500.301273,15.778,0.03
53500.313906,15.685,0.026
53500.324327,15.651,0.026
53500.335604,15.614,0.026
53500.345779,15.628,0.026
53528.274683,16.129,0.05
53528.286189,16.093,0.048
53528.297691,16.129,0.05
53528.308918,15.942,0.044
53528.320065,15.832,0.041
53552.227267,15.667,0.033
53552.23721,15.627,0.033
53552.24715,15.635,0.035
53552.257161,15.582,0.031
53552.267105,15.576,0.031
53582.176943,15.629,0.033
53582.188167,15.613,0.031
53582.199406,15.676,0.035
53582.210634,15.667,0.039
53626.112478,15.909,0.055
53626.124104,15.759,0.05
53626.135607,15.682,0.05
53626.147074,15.646,0.05
53626.158605,15.602,0.05
53770.495557,16.031,0.037
53770.508607,16.113,0.039
53770.521598,16.067,0.037
53787.436044,16.138,0.043
53787.448893,16.127,0.043
53787.461983,15.934,0.035
53787.475041,15.79,0.031
53813.419113,15.803,0.054
53813.430252,15.745,0.052
53813.44127,15.67,0.048
53813.452306,15.619,0.046
53813.46341,15.646,0.046
53823.309102,15.733,0.028
53823.319942,15.817,0.03
53823.330829,15.953,0.033
53823.34194,16.035,0.035
53823.352934,16.071,0.035
53844.289708,15.651,0.033
53844.299981,15.622,0.033
53844.310471,15.623,0.037
53844.320918,15.658,0.041
53844.331181,15.619,0.041
53853.297555,15.701,0.036
53853.308364,15.697,0.036
53853.318894,15.672,0.035
53853.329318,15.657,0.035
53853.339741,15.558,0.033
53883.275953,15.677,0.031
53883.296621,15.73,0.031
53883.306944,15.819,0.035
53887.278024,16.039,0.05
53887.289008,16.02,0.05
53887.299992,16.048,0.052
53887.311032,15.997,0.05
53887.322087,15.886,0.044
53902.232254,15.629,0.036
53902.24249,15.639,0.035
53902.252493,15.672,0.038
53902.263355,15.674,0.04
53902.274673,15.72,0.043
53931.221426,15.577,0.033
53931.23154,15.621,0.038
53971.136804,15.866,0.054
53971.147846,15.863,0.036
53971.158862,16.026,0.036
53971.169481,16.032,0.043
53971.180122,15.971,0.043
54110.477086,15.773,0.073
54110.489766,15.869,0.089
54110.515136,16.091,0.12
54121.45243,16.001,0.043
54121.46471,15.869,0.037
54121.476959,15.726,0.03
54121.489627,15.67,0.028
54121.501869,15.643,0.026
54155.416074,15.697,0.033
54155.428086,15.785,0.035
54155.439756,15.84,0.036
54155.451672,15.971,0.041
54155.464045,16.005,0.041
54206.318534,15.703,0.03
54206.327842,15.668,0.028
54206.337164,15.641,0.028
54206.3467,15.638,0.028
54206.356062,15.692,0.03
54529.378905,15.78,0.036
54529.390411,15.719,0.035
54529.401661,15.702,0.033
54529.412911,15.69,0.033
54529.425504,15.703,0.035
54574.295545,16.016,0.063
54574.306219,15.858,0.054
54574.316898,15.828,0.052
54574.327581,15.728,0.046
54574.338269,15.723,0.044
54582.299426,15.681,0.03
54582.310002,15.728,0.033
54582.320572,15.776,0.035
54582.331185,15.86,0.039
54582.341775,15.998,0.048
54613.255032,15.733,0.028
54613.265073,15.681,0.026
54613.275311,15.652,0.022
54613.285548,15.651,0.022
54613.295659,15.656,0.024
