mjd,m,merr
52665.47729,16.418,0.061
52665.492098,16.31,0.053
52665.507809,16.231,0.048
52665.524306,16.115,0.043
52665.539784,16.132,0.045
52677.488242,16.212,0.051
52677.504047,16.221,0.051
52677.51925,16.096,0.043
52723.414963,16.098,0.035
52723.426926,16.062,0.05
52723.438403,15.847,0.089
52723.449706,16.232,0.078
52752.33505,16.31,0.046
52752.345224,16.202,0.043
52752.355405,16.18,0.041
52752.365577,16.155,0.044
52752.375947,16.143,0.043
52772.370315,16.445,0.109
52787.272855,16.212,0.048
52787.283699,16.218,0.048
52787.294612,16.339,0.054
52787.305438,16.454,0.059
52787.31654,16.467,0.061
52800.268028,16.357,0.129
52800.278332,16.224,0.116
52800.288536,16.068,0.097
52800.299038,16.092,0.094
52800.309295,16.11,0.096
52810.226946,16.254,0.091
52810.236975,16.217,0.078
52810.24687,16.194,0.064
52812.238655,16.311,0.054
52812.248666,16.23,0.051
52812.258914,16.204,0.048
52812.269118,16.102,0.046
52812.279164,16.09,0.045
52840.209931,16.363,0.057
52840.219781,16.414,0.059
52840.239597,16.321,0.061
52840.24952,16.307,0.063
52872.140261,16.484,0.089
53035.477864,16.181,0.043
53035.490622,16.165,0.039
53035.503271,16.127,0.039
53035.515951,16.098,0.037
53035.516702,16.173,0.035
53049.397605,16.138,0.041
53049.409486,16.165,0.043
53049.421365,16.219,0.044
53049.433286,16.383,0.052
53049.445951,16.322,0.048
53107.293113,16.155,0.04
53107.303424,16.174,0.04
53107.313696,16.222,0.043
53107.324096,16.316,0.045
53107.334543,16.348,0.045
53136.284736,16.399,0.059
53136.293462,16.446,0.061
53136.302155,16.346,0.051
53136.310912,16.3,0.051
53136.319859,16.27,0.049
53154.252502,16.03,0.056
53154.261004,16.102,0.059
53154.269401,16.059,0.056
53154.277936,16.17,0.061
53154.286333,16.258,0.069
53164.264231,16.256,0.048
53164.273818,16.331,0.053
53164.28341,16.487,0.066
53164.292899,16.356,0.059
53164.302364,16.293,0.061
53194.216619,16.252,0.078
53194.225826,16.083,0.068
53194.24526,16.057,0.059
53194.254405,16.124,0.059
53243.135883,16.104,0.056
53243.146113,16.139,0.059
53243.156496,16.268,0.069
53243.166785,16.241,0.071
53243.177595,16.298,0.079
53264.109038,16.039,0.039
53264.12049,16.083,0.039
53264.13193,16.06,0.041
53264.14337,16.085,0.044
53264.154813,16.144,0.048
53474.410092,15.892,0.133
53474.454477,16.361,0.055
53498.377376,16.081,0.037
53498.389691,16.136,0.039
53498.401051,16.179,0.044
53498.41199,16.191,0.046
53498.422087,16.264,0.046
53499.384409,16.294,0.046
53499.398541,16.298,0.048
53499.410577,16.233,0.044
53499.422851,16.135,0.041
53499.433984,16.098,0.043
53521.261156,16.076,0.055
53521.27148,16.128,0.083
53521.281773,16.058,0.044
53521.292178,16.085,0.043
53521.302456,16.198,0.048
53538.22446,16.126,0.076
53538.234077,16.146,0.078
53538.243706,16.16,0.076
53538.253371,16.239,0.083
53538.263149,16.247,0.085
53583.1657,16.217,0.044
53583.177019,16.13,0.043
53583.188277,16.096,0.041
53583.19955,16.095,0.043
53583.210834,16.088,0.043
53627.113309,16.122,0.061
53627.125626,16.144,0.065
53627.138184,16.24,0.074
53627.150323,16.292,0.08
53627.162413,16.348,0.087
53771.536593,16.183,0.063
53786.446646,16.315,0.048
53786.460038,16.29,0.051
53786.473198,16.173,0.043
53786.486497,16.141,0.041
53824.47021,16.132,0.036
53843.360028,16.336,0.083
53843.371224,16.355,0.085
53843.382448,16.389,0.089
53843.393672,16.376,0.087
53843.404914,16.276,0.08
53882.298422,16.245,0.054
53886.279287,16.15,0.054
53886.29041,16.194,0.055
53886.301416,16.281,0.061
53886.312447,16.336,0.065
53886.323504,16.356,0.065
53903.227442,16.132,0.059
53903.23736,16.182,0.063
53903.247349,16.127,0.059
53903.257328,16.261,0.067
53903.267318,16.283,0.068
53916.237012,16.325,0.111
53916.246902,16.223,0.053
53916.256653,16.129,0.051
53932.220904,16.363,0.083
53932.231536,16.315,0.117
53932.24217,16.45,0.096
53932.252768,16.469,0.111
53932.26339,16.162,0.111
53942.169467,16.249,0.094
53970.137168,16.091,0.046
53970.146918,16.138,0.049
53970.156438,16.17,0.051
53970.166152,16.173,0.053
53970.175639,16.245,0.059
53998.093215,16.184,0.058
53998.105334,16.118,0.048
53998.117772,16.126,0.048
53998.130056,16.02,0.045
53998.143454,16.037,0.046
54123.450121,16.247,0.048
54123.462529,16.177,0.043
54123.474918,16.106,0.039
54123.487338,16.107,0.037
54123.499761,16.126,0.039
54186.332338,16.182,0.068
54186.342737,16.094,0.051
54186.352956,16.104,0.048
54186.363171,16.117,0.073
54186.373418,16.112,0.079
54201.33382,16.177,0.031
54201.34393,16.226,0.035
54201.353762,16.284,0.035
54201.363576,16.271,0.033
54201.373953,16.287,0.035
54207.366292,16.271,0.124
54216.305423,16.351,0.05
54216.314553,16.382,0.052
54216.323576,16.37,0.052
54216.332308,16.211,0.044
54216.34104,16.163,0.043
54508.473487,16.313,0.046
54508.485997,16.247,0.043
54508.499327,16.167,0.04
54543.391479,16.091,0.076
54543.402269,16.088,0.076
54543.414484,15.994,0.066
54543.42525,16.101,0.074
54543.435977,16.158,0.074
54555.303048,16.16,0.061
54555.317223,16.244,0.063
54555.329117,16.25,0.061
54555.340742,16.244,0.064
54555.352447,16.081,0.056
54573.29884,16.04,0.054
54573.309658,16.032,0.054
54573.320501,16.082,0.054
54573.331308,16.175,0.059
54573.342151,16.194,0.061
54614.268148,16.142,0.04
54614.278532,16.218,0.043
54614.288827,16.27,0.043
54614.299175,16.3,0.045
54614.309458,16.213,0.043
