mjd,m,merr
52707.447174,15.454,0.024
52707.460993,15.461,0.024
52707.47482,15.432,0.022
52707.488264,15.456,0.022
52707.501522,15.453,0.022
52711.450452,14.638,0.011
52711.464197,14.701,0.011
52711.478012,14.765,0.011
52711.491648,14.816,0.013
52738.358758,15.425,0.018
52738.371468,15.433,0.02
52738.383015,15.467,0.02
52738.394498,15.489,0.02
52738.406055,15.528,0.02
52739.358851,15.394,0.025
52739.370301,15.423,0.025
52739.381633,15.412,0.026
52739.392955,15.436,0.026
52739.404293,15.441,0.025
52755.31918,14.52,0.013
52755.331329,14.551,0.013
52755.34409,14.601,0.015
52755.356558,14.658,0.015
52755.369292,14.737,0.015
52769.279943,15.49,0.031
52769.29269,15.481,0.031
52769.304457,15.518,0.031
52769.316453,15.554,0.033
52769.328503,15.528,0.033
52799.26777,14.757,0.031
52799.278049,14.767,0.03
52799.288272,14.839,0.035
52799.298467,14.862,0.038
52799.30882,14.934,0.038
52819.224804,15.312,0.03
52819.234652,15.058,0.023
52819.244484,14.841,0.02
52819.254315,14.597,0.015
52819.264165,14.513,0.015
52824.223877,14.876,0.015
52824.243776,15.059,0.041
52824.253838,14.966,0.018
52824.263797,14.862,0.037
53033.462523,15.024,0.018
53033.47457,15.057,0.018
53033.486672,15.099,0.018
53033.49894,15.152,0.018
53033.511109,15.194,0.018
53064.350734,15.024,0.018
53064.362578,15.053,0.018
53080.399766,15.555,0.022
53080.410688,15.554,0.022
53080.421628,15.522,0.022
53080.432606,15.434,0.02
53080.443611,15.212,0.017
53092.378457,14.899,0.012
53092.38827,14.64,0.01
53092.398043,14.552,0.008
53092.407945,14.558,0.008
53092.418575,14.591,0.008
53111.30074,15.588,0.03
53111.311563,15.54,0.026
53111.32233,15.418,0.022
53111.333377,15.174,0.018
53111.344187,14.914,0.015
53121.301826,15.21,0.015
53121.312073,15.243,0.018
53121.32312,15.261,0.015
53121.333875,15.292,0.018
53121.345109,15.317,0.02
53139.297077,15.358,0.02
53139.30666,15.356,0.02
53139.316258,15.381,0.02
53139.325874,15.397,0.02
53139.335671,15.406,0.02
53169.228256,15.47,0.022
53169.238246,15.49,0.022
53169.248175,15.499,0.024
53169.258105,15.54,0.022
53169.268118,15.562,0.024
53177.228298,15.365,0.02
53177.237965,15.396,0.018
53177.247452,15.393,0.018
53177.256927,15.384,0.018
53177.2664,15.423,0.018
53414.4585,15.06,0.018
53414.471233,15.122,0.017
53414.483874,15.143,0.017
53414.496432,15.177,0.017
53414.510233,15.23,0.017
53447.410263,14.656,0.011
53447.420654,14.71,0.011
53447.430961,14.734,0.017
53447.441259,14.82,0.055
53447.451579,14.834,0.046
53478.411943,15.105,0.018
53478.421009,15.133,0.018
53478.430302,15.149,0.02
53478.439915,15.194,0.02
53478.449003,15.221,0.02
53496.300548,15.105,0.02
53496.310704,15.109,0.018
53496.320803,15.155,0.02
53496.331027,15.192,0.02
53496.341202,15.207,0.02
53503.375192,15.178,0.026
53503.383891,15.212,0.018
53503.393159,15.189,0.024
53503.401859,15.258,0.039
53503.410612,15.282,0.033
53527.220938,15.193,0.022
53527.23079,15.24,0.024
53527.240755,15.258,0.024
53527.250634,15.286,0.024
53527.260465,15.295,0.024
53579.162468,14.924,0.018
53579.173833,14.968,0.017
53579.185205,15.006,0.017
53579.196516,15.055,0.018
53579.207863,15.092,0.018
53791.472555,15.212,0.02
53791.48441,14.89,0.015
53791.496195,14.633,0.012
53791.508523,14.543,0.012
53845.30658,15.128,0.021
53845.317851,15.149,0.023
53845.329236,15.185,0.023
53845.340452,15.207,0.025
53845.351701,15.274,0.035
53850.301547,15.372,0.026
53850.312271,15.374,0.026
53850.32282,15.385,0.026
53850.333351,15.413,0.026
53850.344173,15.352,0.025
53884.279039,14.947,0.018
53884.290611,14.986,0.018
53884.302182,15.006,0.018
53884.3138,15.033,0.018
53884.325343,15.089,0.02
53901.224346,15.31,0.048
53911.251095,14.803,0.035
53911.260797,14.589,0.023
53937.170608,15.53,0.035
53937.190839,15.562,0.038
53937.201046,15.591,0.04
53937.211263,15.59,0.038
53954.18267,14.971,0.041
53975.133876,15.569,0.036
53975.144309,15.561,0.036
53975.154697,15.559,0.038
53975.165171,15.535,0.038
53975.176265,15.451,0.038
54155.469623,15.375,0.018
54155.481499,15.387,0.018
54155.493331,15.41,0.02
54155.505167,15.434,0.02
54155.517034,15.434,0.02
54174.415029,15.36,0.025
54174.425896,15.377,0.025
54180.386019,15.367,0.023
54180.396369,15.383,0.026
54180.406836,15.38,0.025
54180.417285,15.429,0.025
54180.427664,15.428,0.025
54200.318357,15.211,0.028
54200.327764,15.263,0.028
54200.337375,15.263,0.028
54200.346734,15.297,0.03
54200.356179,15.345,0.031
54544.343074,14.91,0.022
54544.364334,14.989,0.022
54544.375173,15.0,0.02
54558.303036,15.477,0.055
54558.31462,15.26,0.031
54558.326239,14.968,0.017
54558.349693,14.499,0.022
54568.346927,15.324,0.017
54568.357876,15.342,0.017
54568.368803,15.349,0.017
54568.379742,15.351,0.017
54568.390655,15.381,0.017
54580.303561,15.36,0.031
54580.314149,15.392,0.031
54580.324772,15.391,0.031
54580.335379,15.364,0.03
54580.345968,15.369,0.03
54589.304367,14.782,0.011
54589.314925,14.822,0.011
54589.325484,14.865,0.011
54589.336004,14.908,0.011
54589.346524,14.936,0.013
54590.295967,15.113,0.031
54590.306067,14.828,0.031
54590.315826,14.603,0.03
54590.335991,14.556,0.026
54611.263738,15.458,0.02
54611.273543,15.496,0.022
54611.283335,15.48,0.022
54611.293103,15.455,0.022
54611.302912,15.443,0.022
54621.260393,14.702,0.011
54621.270557,14.739,0.011
54621.280721,14.787,0.011
54621.290893,14.818,0.011
54621.301056,14.853,0.013
