mjd,m,merr
52681.425072,16.233,0.049
52681.440302,16.266,0.051
52681.455178,16.232,0.045
52681.469925,16.283,0.049
52723.403766,16.609,0.292
52723.416108,16.472,0.054
52752.345506,16.491,0.061
52752.356864,16.452,0.059
52752.367676,16.577,0.073
52752.378259,16.417,0.061
52752.389159,16.502,0.071
52800.267332,16.211,0.098
52800.277424,16.031,0.081
52800.287437,16.065,0.083
52800.29744,16.114,0.083
52800.307487,16.168,0.087
52810.238249,16.411,0.061
52812.272309,16.344,0.046
52812.282321,16.356,0.046
52812.292222,16.379,0.048
52812.302044,16.376,0.048
52812.31191,16.375,0.048
52839.166076,16.402,0.055
52839.176008,16.373,0.057
52839.18605,16.233,0.05
52872.139944,16.402,0.117
53023.457478,16.453,0.048
53023.469572,16.403,0.045
53023.481717,16.367,0.04
53023.493743,16.29,0.036
53023.505821,16.325,0.036
53035.476349,16.583,0.063
53035.4885,16.64,0.063
53035.500752,16.633,0.064
53035.512922,16.63,0.063
53035.525331,16.582,0.054
53037.477429,16.718,0.061
53037.489798,16.589,0.054
53037.515807,16.473,0.046
53037.528397,16.445,0.045
53046.466187,16.087,0.048
53046.47885,16.102,0.048
53046.491295,16.018,0.043
53046.503228,16.073,0.048
53046.515233,16.133,0.05
53107.305254,16.253,0.035
53107.316414,16.295,0.039
53107.327559,16.324,0.039
53107.338593,16.388,0.039
53107.349667,16.339,0.035
53127.29641,16.248,0.074
53127.306443,16.251,0.074
53127.316619,16.322,0.074
53127.326842,16.395,0.08
53127.336912,16.445,0.083
53136.289394,16.573,0.07
53136.298687,16.412,0.046
53136.308012,16.481,0.052
53136.317473,16.437,0.05
53136.326808,16.477,0.052
53154.293753,16.006,0.048
53154.302502,16.07,0.05
53154.311366,16.081,0.048
53154.320132,16.138,0.054
53154.328968,16.255,0.054
53164.269147,16.189,0.037
53164.279291,16.12,0.035
53164.289435,16.289,0.046
53164.299652,16.267,0.048
53164.309798,16.225,0.05
53181.241982,16.408,0.053
53181.261475,16.374,0.051
53181.271165,16.288,0.045
53194.222114,16.613,0.094
53194.23213,16.373,0.068
53194.242151,16.288,0.065
53194.252229,16.467,0.074
53194.262263,16.235,0.057
53264.109774,16.315,0.048
53264.121226,16.373,0.05
53264.132668,16.353,0.05
53264.144107,16.353,0.054
53264.15555,16.37,0.055
53422.403887,16.839,0.226
53422.415834,16.6,0.159
53422.427762,16.95,0.209
53422.45223,16.462,0.074
53450.383653,16.321,0.061
53450.394266,16.251,0.055
53450.404787,16.297,0.057
53450.415328,16.131,0.05
53450.425897,16.199,0.052
53475.320713,16.283,0.046
53475.33053,16.342,0.048
53475.340345,16.404,0.052
53475.350705,16.379,0.048
53475.361541,16.375,0.048
53520.283813,16.518,0.067
53520.294383,16.42,0.059
53520.304938,16.388,0.065
53537.227336,16.423,0.117
53605.141044,16.398,0.055
53605.152077,16.415,0.061
53605.163109,16.319,0.065
53605.174143,16.244,0.068
53605.185185,16.321,0.083
53628.111844,16.564,0.109
53628.124019,16.41,0.098
53628.136244,16.34,0.094
53628.148394,16.366,0.105
53628.160541,16.318,0.104
53772.480154,16.191,0.046
53772.49314,16.223,0.046
53772.505978,16.225,0.046
53772.518807,16.264,0.044
53772.53176,16.206,0.046
53807.391368,16.358,0.08
53807.424706,16.173,0.117
53825.345791,16.489,0.107
53825.357079,16.477,0.086
53825.368864,16.53,0.101
53825.380051,16.43,0.101
53825.39136,16.332,0.079
53843.359593,16.297,0.078
53843.370789,16.27,0.074
53843.382007,16.273,0.076
53843.393235,16.293,0.076
53843.404476,16.404,0.087
53855.295667,16.4,0.061
53855.306709,16.458,0.064
53855.317054,16.444,0.063
53855.327372,16.427,0.058
53855.33754,16.456,0.059
53878.292569,16.46,0.071
53878.303178,16.585,0.081
53878.313769,16.389,0.068
53878.324331,16.52,0.076
53878.33507,16.554,0.078
53892.263925,16.187,0.089
53892.303756,16.796,0.283
53903.238962,16.284,0.059
53903.248685,16.324,0.063
53903.258375,16.353,0.064
53903.267993,16.278,0.061
53903.277603,16.251,0.061
53917.221116,16.265,0.076
53917.230804,16.47,0.122
53917.240747,16.282,0.099
53917.250481,16.552,0.096
53917.260228,16.252,0.076
53932.222043,16.341,0.068
53932.242774,16.288,0.073
53932.253141,16.22,0.073
53932.263437,16.204,0.078
53944.177542,16.374,0.175
53944.188726,16.578,0.229
53944.199665,16.412,0.203
53997.111527,16.343,0.054
53997.123559,16.337,0.056
53997.13561,16.372,0.059
53997.148315,16.408,0.069
53997.160447,16.445,0.076
54109.476804,16.207,0.153
54109.488678,15.789,0.102
54169.383064,16.189,0.044
54169.394135,16.14,0.041
54169.405232,16.122,0.041
54169.416456,16.136,0.041
54169.427563,16.012,0.043
54200.32769,16.404,0.044
54200.338502,16.4,0.043
54200.34892,16.458,0.044
54200.359377,16.417,0.044
54200.369737,16.437,0.048
54209.30765,16.259,0.188
54209.316555,16.397,0.086
54209.325397,16.419,0.114
54209.334482,16.338,0.111
54209.343341,16.331,0.081
54217.293285,16.374,0.07
54217.302022,16.45,0.072
54217.310859,16.401,0.07
54217.319587,16.445,0.068
54217.328296,16.487,0.072
54218.315646,16.249,0.081
54218.324946,16.21,0.078
54218.333848,16.311,0.086
54218.342728,16.247,0.079
54218.351791,16.346,0.087
54509.445455,16.495,0.056
54509.457811,16.424,0.054
54509.470583,16.479,0.056
54509.483481,16.509,0.056
54509.495603,16.531,0.056
54536.379312,16.292,0.049
54536.390182,16.291,0.048
54536.401031,16.214,0.045
54536.411892,16.299,0.048
54536.422871,16.327,0.049
54560.358884,16.425,0.071
54560.370315,16.333,0.064
54560.381697,16.375,0.066
54560.393092,16.289,0.061
54560.40459,16.286,0.061
54584.294604,16.461,0.071
54584.304727,16.549,0.078
54584.314992,16.533,0.074
54584.325499,16.571,0.078
54584.335482,16.568,0.079
