mjd,m,merr
52722.41697,16.024,0.035
52722.430319,16.187,0.041
52722.443309,15.996,0.035
52722.456272,15.81,0.03
52722.469005,15.696,0.028
52751.369679,15.93,0.035
52751.380646,15.749,0.031
52751.391333,15.722,0.031
52751.402635,15.661,0.03
52751.413268,15.646,0.03
52781.268673,15.685,0.028
52781.279358,15.657,0.026
52781.290056,15.605,0.024
52781.300967,15.624,0.024
52781.31178,15.708,0.026
52801.265433,15.752,0.089
52801.285973,15.618,0.079
52801.296304,15.7,0.083
52809.227265,15.839,0.038
52809.237245,15.73,0.035
52809.24723,15.662,0.033
52809.257383,15.651,0.033
52830.219655,15.645,0.053
52830.229545,15.677,0.053
52830.239831,15.83,0.064
52830.249769,15.858,0.066
52830.259655,16.009,0.078
52848.163362,15.761,0.035
52848.17337,15.684,0.034
52848.193361,15.632,0.032
52848.203352,15.658,0.035
52897.123028,15.727,0.033
52897.134765,15.818,0.035
52897.146514,15.921,0.043
52897.158497,16.173,0.061
52897.170205,16.329,0.078
53008.470766,16.303,0.072
53008.483361,16.003,0.052
53008.508515,15.784,0.037
53008.521109,15.738,0.035
53038.461109,16.275,0.099
53038.473471,16.05,0.056
53045.413315,15.656,0.036
53045.425164,15.645,0.035
53045.437056,15.662,0.035
53045.449469,15.783,0.038
53045.461583,15.92,0.045
53096.323835,15.833,0.053
53096.333439,15.752,0.046
53096.343067,15.686,0.043
53096.352853,15.677,0.041
53096.362516,15.658,0.04
53125.292518,15.71,0.043
53125.302139,15.682,0.041
53125.311925,15.723,0.043
53125.321899,15.8,0.045
53125.331516,15.941,0.051
53134.284655,16.096,0.038
53134.293697,15.921,0.035
53134.302732,15.773,0.031
53134.31168,15.689,0.031
53134.32052,15.672,0.033
53155.25797,15.719,0.045
53155.266269,15.711,0.046
53155.274676,15.653,0.043
53155.283074,15.653,0.041
53155.291272,15.643,0.043
53163.263809,15.627,0.083
53169.265761,16.199,0.043
53169.275644,16.19,0.045
53169.285437,16.007,0.04
53169.295411,15.854,0.035
53169.305211,15.781,0.033
53193.25084,15.691,0.031
53193.260061,15.666,0.035
53244.135417,16.127,0.056
53244.145909,16.304,0.071
53244.156372,16.076,0.058
53244.167039,15.851,0.048
53244.178631,15.762,0.045
53281.092429,15.744,0.035
53281.103152,15.673,0.03
53281.114054,15.7,0.031
53281.135798,15.864,0.04
53451.395067,15.941,0.041
53451.405826,15.826,0.037
53451.416613,15.765,0.033
53451.427383,15.702,0.031
53451.43817,15.675,0.031
53480.316486,15.98,0.055
53480.325443,15.85,0.05
53480.334412,15.801,0.046
53480.343398,15.764,0.044
53480.352349,15.676,0.039
53490.306676,16.14,0.037
53490.317439,15.933,0.031
53490.32931,15.771,0.026
53490.341128,15.702,0.026
53490.352863,15.648,0.026
53536.225687,15.916,0.055
53536.235656,16.209,0.074
53536.245656,16.259,0.078
53536.255702,16.085,0.068
53536.265652,15.894,0.057
53565.175209,16.204,0.054
53565.185847,15.992,0.044
53565.196517,15.845,0.039
53565.207196,15.753,0.035
53565.21789,15.703,0.033
53610.148444,15.9,0.035
53610.159664,16.149,0.044
53610.182109,15.972,0.043
53629.111975,16.04,0.067
53629.124317,15.811,0.055
53629.136834,15.77,0.055
53629.149295,15.678,0.054
53629.161602,15.712,0.055
53774.477506,15.736,0.03
53774.49068,15.714,0.03
53774.503468,15.713,0.028
53774.516562,15.817,0.031
53802.427683,15.819,0.03
53802.439892,15.752,0.026
53802.452125,15.673,0.026
53802.464508,15.699,0.026
53802.47654,15.747,0.026
53806.424229,15.935,0.055
53828.338924,16.179,0.061
53828.349472,16.273,0.048
53828.360015,16.054,0.035
53828.370579,15.807,0.106
53828.381232,15.767,0.04
53834.32693,15.827,0.04
53834.336885,15.733,0.036
53834.346876,15.725,0.035
53834.357071,15.649,0.033
53834.367092,15.674,0.033
53842.307774,15.695,0.05
53842.319274,15.567,0.046
53842.331433,15.568,0.044
53842.355301,15.632,0.048
53857.321195,15.665,0.03
53857.331208,15.647,0.03
53857.341527,15.649,0.031
53857.351713,15.708,0.033
53857.361655,15.78,0.035
53876.264321,15.674,0.023
53876.275289,15.744,0.026
53904.228509,15.653,0.023
53904.238396,15.687,0.023
53904.248616,15.699,0.023
53904.258704,15.746,0.025
53904.268863,15.887,0.028
53922.244765,15.88,0.074
53922.265398,16.202,0.1
53933.216079,16.161,0.043
53933.226345,16.098,0.048
53933.236675,15.941,0.043
53933.247067,15.808,0.033
53933.257339,15.692,0.031
53954.154009,16.118,0.093
53954.16602,16.135,0.091
53954.17811,16.081,0.089
53990.112799,16.209,0.049
53990.124789,16.157,0.043
53990.136927,15.997,0.051
53990.148498,15.754,0.031
53990.160176,15.683,0.031
53995.115458,16.226,0.048
53995.127355,16.075,0.041
53995.139354,15.902,0.036
53995.151315,15.765,0.033
53995.163639,15.689,0.031
54108.460025,15.84,0.068
54108.472289,15.76,0.066
54108.484362,15.722,0.058
54108.496531,15.7,0.053
54108.508727,15.728,0.051
54125.439658,16.036,0.059
54125.451725,16.281,0.071
54125.463808,16.057,0.056
54125.475839,15.824,0.045
54125.487859,15.757,0.041
54140.424021,15.801,0.033
54140.436591,16.04,0.041
54140.449021,16.26,0.048
54140.461996,16.061,0.041
54140.474828,15.872,0.033
54157.424118,15.769,0.033
54157.435076,15.821,0.035
54212.303543,15.696,0.033
54212.311953,15.771,0.036
54212.320376,15.9,0.04
54212.32905,16.111,0.048
54212.337463,16.261,0.053
54525.401268,16.276,0.04
54570.302578,15.767,0.036
54570.314611,15.712,0.035
54570.325486,15.635,0.033
54570.336627,15.693,0.033
54570.347896,15.734,0.036
