mjd,m,merr
52680.50394,16.482,0.063
52680.518649,16.413,0.056
52680.533345,16.438,0.063
52698.447692,15.87,0.033
52698.461264,15.816,0.03
52698.47451,15.83,0.031
52698.487818,15.848,0.03
52698.501327,15.913,0.031
52712.382933,16.024,0.05
52712.396134,16.019,0.046
52712.409456,16.013,0.044
52712.422919,16.061,0.044
52712.436249,16.078,0.044
52754.324031,16.612,0.059
52754.335972,16.589,0.057
52754.347953,16.613,0.059
52754.359924,16.504,0.052
52754.371934,16.548,0.055
52770.270891,15.845,0.046
52770.282453,15.776,0.046
52770.294001,15.867,0.046
52770.305702,15.861,0.045
52770.317276,15.891,0.045
52820.225089,16.642,0.074
52820.235036,16.59,0.068
52820.244989,16.458,0.059
52820.254924,16.37,0.057
52820.264826,16.182,0.05
52825.223213,16.155,0.064
52825.233329,16.279,0.064
52825.243437,16.289,0.068
52825.253912,16.276,0.063
52825.264139,16.308,0.066
52849.163903,16.503,0.061
52849.174232,16.48,0.063
52849.184637,16.516,0.065
52849.196518,16.511,0.065
52849.207734,16.618,0.074
52886.124519,16.249,0.091
53033.464637,16.337,0.056
53033.476811,16.34,0.054
53033.489042,16.369,0.054
53033.501288,16.325,0.051
53052.449787,16.327,0.046
53052.461448,16.316,0.044
53052.473125,16.329,0.044
53052.484826,16.336,0.044
53052.496482,16.397,0.046
53065.420408,15.891,0.028
53065.432069,15.94,0.031
53065.443641,15.948,0.043
53065.455238,15.947,0.063
53065.46681,15.974,0.031
53079.390202,16.185,0.046
53094.329565,15.774,0.026
53110.302721,16.18,0.048
53110.313308,16.21,0.049
53110.323975,16.185,0.046
53110.33463,16.213,0.046
53110.345268,16.252,0.048
53122.302194,16.325,0.044
53122.312626,16.311,0.043
53122.323124,16.406,0.044
53122.333555,16.353,0.043
53122.343972,16.411,0.043
53123.404305,16.012,0.03
53123.414779,16.049,0.031
53123.425132,16.059,0.037
53123.435728,16.1,0.039
53123.446193,16.073,0.035
53124.411964,16.412,0.055
53124.421015,16.374,0.055
53124.430061,16.355,0.054
53124.439178,16.417,0.057
53124.448532,16.417,0.055
53125.389587,16.038,0.055
53125.399506,16.097,0.054
53125.409494,16.1,0.05
53125.419419,16.136,0.044
53125.429377,16.119,0.043
53126.343465,16.506,0.089
53126.353633,16.376,0.08
53126.363764,16.554,0.089
53126.373907,16.441,0.08
53126.384159,16.534,0.089
53127.298222,15.904,0.059
53127.308311,16.0,0.063
53127.318428,15.93,0.057
53127.328649,15.998,0.061
53127.33872,15.966,0.059
53138.298022,16.538,0.059
53138.307608,16.587,0.061
53138.326724,16.574,0.059
53138.336327,16.611,0.059
53153.257255,16.374,0.05
53153.266134,16.383,0.05
53153.274917,16.359,0.048
53153.283704,16.414,0.05
53153.292757,16.37,0.046
53166.235579,16.041,0.045
53166.264636,16.142,0.046
53178.228228,16.36,0.107
53178.248282,16.303,0.072
53178.268258,16.344,0.081
53441.454999,15.853,0.031
53441.467774,15.855,0.031
53441.479928,15.886,0.031
53441.492332,15.97,0.033
53471.37007,16.283,0.052
53471.380494,16.316,0.052
53471.390217,16.29,0.052
53471.400753,16.344,0.05
53471.410721,16.369,0.054
53502.386986,16.349,0.052
53502.397187,16.396,0.054
53502.407857,16.404,0.054
53502.418147,16.432,0.052
53502.429277,16.454,0.055
53523.271792,16.103,0.043
53523.282217,16.142,0.039
53523.292536,16.199,0.041
53523.302979,16.148,0.041
53523.313329,16.177,0.039
53551.22536,16.386,0.059
53551.235324,16.337,0.057
53551.245249,16.386,0.061
53551.25527,16.438,0.063
53551.265329,16.375,0.057
53581.197474,16.021,0.037
53581.20902,16.01,0.039
53581.220584,16.089,0.043
53581.232113,16.107,0.044
53581.243679,16.131,0.046
53789.478847,16.23,0.109
53845.303445,16.067,0.052
53845.314493,16.113,0.059
53845.325484,16.07,0.052
53845.336389,16.073,0.052
53845.347735,16.044,0.074
53852.310442,16.705,0.094
53852.342889,16.607,0.083
53881.273875,16.56,0.078
53881.28491,16.557,0.08
53881.29596,16.488,0.08
53881.307033,16.559,0.085
53881.318123,16.545,0.076
53887.26753,16.512,0.078
53887.277842,16.235,0.061
53887.288165,16.087,0.054
53887.298538,16.033,0.051
53887.308889,15.994,0.049
53902.226106,16.458,0.081
53902.235909,16.424,0.076
53902.245776,16.492,0.081
53902.255964,16.457,0.083
53902.265899,16.501,0.085
53914.224125,16.662,0.165
53978.126308,16.663,0.117
53978.137356,16.799,0.137
53978.148442,16.515,0.099
53978.159462,16.437,0.101
53978.170781,16.435,0.104
54144.45005,16.32,0.064
54144.46197,16.313,0.063
54144.47395,16.295,0.063
54144.485804,16.34,0.064
54153.478352,15.892,0.091
54153.491771,15.95,0.066
54153.503564,15.986,0.096
54208.304232,16.25,0.059
54208.31287,16.218,0.058
54208.321616,16.271,0.059
54208.330239,16.324,0.059
54208.339233,16.268,0.054
54559.304127,16.045,0.028
54559.315782,16.053,0.026
54559.327436,16.087,0.026
54559.339199,16.096,0.026
54559.350879,16.104,0.026
54581.304254,16.358,0.078
54581.314821,16.469,0.087
54581.325446,16.383,0.081
54581.336017,16.47,0.087
54581.346565,16.378,0.078
54592.288688,16.133,0.058
54592.298369,16.189,0.061
54592.308143,16.148,0.058
54592.31833,16.233,0.063
54592.328006,16.262,0.064
