mjd,m,merr
52677.489262,15.608,0.04
52677.50507,15.598,0.038
52677.520269,15.675,0.036
52723.415423,16.007,0.031
52723.427395,16.604,0.216
52723.438867,16.11,0.083
52723.450168,16.368,0.115
52752.335505,15.872,0.031
52752.34569,15.847,0.031
52752.355861,15.914,0.031
52752.366033,15.918,0.035
52752.376403,15.935,0.035
52753.317353,16.3,0.048
52753.329365,16.256,0.044
52753.341389,16.226,0.043
52753.353423,16.143,0.039
52753.365487,15.949,0.033
52772.371242,16.142,0.074
52787.273719,16.233,0.056
52787.284579,16.243,0.058
52787.295489,16.199,0.058
52787.30632,16.163,0.064
52787.317418,16.088,0.058
52810.227586,15.516,0.059
52810.237613,15.521,0.023
52810.237703,15.415,0.035
52810.247504,15.473,0.02
52810.247596,15.461,0.031
52812.239298,15.819,0.023
52812.239389,15.876,0.038
52812.249307,15.908,0.023
52812.249397,15.856,0.038
52812.259559,15.89,0.023
52812.25965,15.941,0.041
52812.269758,15.917,0.023
52812.269849,15.837,0.04
52812.279806,15.925,0.023
52812.279897,15.915,0.04
52840.210464,16.067,0.043
52840.220313,16.072,0.044
52840.230187,16.114,0.048
52840.240138,16.146,0.05
52840.250052,16.088,0.048
52872.140543,15.775,0.035
53035.478314,16.129,0.039
53035.491072,16.189,0.041
53035.503721,16.154,0.041
53035.517076,16.224,0.041
53049.398377,15.778,0.031
53049.410257,15.822,0.033
53049.422138,15.831,0.033
53049.434058,15.871,0.033
53049.446724,15.894,0.033
53107.335207,15.495,0.02
53107.345448,15.517,0.021
53107.355684,15.521,0.02
53107.365931,15.572,0.021
53107.376201,15.622,0.025
53136.285411,16.244,0.049
53136.294054,16.209,0.046
53136.302748,16.11,0.04
53136.311523,15.887,0.035
53136.320472,15.791,0.033
53154.2531,15.591,0.035
53154.261584,15.448,0.031
53154.278515,15.484,0.031
53154.286921,15.467,0.033
53164.264818,15.717,0.03
53164.274436,15.765,0.031
53164.283995,15.766,0.035
53164.293483,15.812,0.035
53164.302964,15.835,0.04
53194.217178,16.08,0.066
53194.226385,16.146,0.066
53194.245819,16.129,0.063
53194.254965,16.191,0.061
53243.136557,16.239,0.063
53243.146787,16.15,0.058
53243.157169,16.138,0.059
53243.167459,15.937,0.053
53243.178267,15.776,0.048
53264.109354,16.234,0.043
53264.120807,16.269,0.044
53264.132246,16.25,0.044
53264.143687,16.237,0.046
53264.155129,16.073,0.043
53474.455175,16.084,0.039
53498.377783,15.686,0.026
53498.390095,15.719,0.026
53498.401455,15.73,0.028
53498.412397,15.728,0.03
53498.422492,15.806,0.03
53499.384814,16.251,0.044
53499.398946,16.224,0.043
53499.410985,16.263,0.044
53499.423255,16.308,0.046
53499.434389,16.34,0.05
53521.261843,15.733,0.037
53521.272171,15.755,0.055
53521.282492,15.795,0.035
53521.292865,15.795,0.031
53521.303149,15.811,0.033
53538.225043,16.204,0.076
53538.234658,16.21,0.078
53538.244291,16.209,0.078
53538.253957,16.134,0.072
53538.263733,16.264,0.08
53583.166427,16.005,0.037
53583.177737,16.059,0.039
53583.18899,16.031,0.037
53583.200262,15.996,0.037
53583.211554,16.0,0.037
53627.113751,16.084,0.055
53627.126068,16.097,0.059
53627.138626,16.075,0.059
53627.150767,16.093,0.061
53627.162859,16.047,0.063
53771.524157,15.979,0.068
53771.537163,15.932,0.068
53786.447456,16.131,0.045
53786.460845,16.144,0.046
53786.47401,16.107,0.043
53786.487307,16.142,0.045
53824.470501,15.599,0.023
53843.360785,16.361,0.081
53843.37198,16.232,0.074
53843.383205,16.315,0.08
53843.394431,16.285,0.078
53843.405673,16.286,0.08
53882.266509,16.166,0.046
53882.277131,16.119,0.045
53882.287951,16.224,0.048
53882.309402,16.18,0.046
53886.279674,15.735,0.035
53886.290793,15.757,0.037
53886.301802,15.758,0.037
53886.312828,15.788,0.039
53886.323889,15.802,0.039
53903.227794,16.086,0.054
53903.237709,16.126,0.055
53903.247713,16.109,0.055
53903.257677,16.068,0.054
53903.267666,16.044,0.054
53916.227539,16.175,0.127
53916.237352,16.095,0.051
53916.247241,16.149,0.048
53916.256995,16.165,0.049
53932.221184,16.064,0.059
53932.242465,16.125,0.07
53932.253056,16.232,0.085
53932.263688,15.964,0.096
53942.169741,16.273,0.17
53970.137612,16.045,0.043
53970.147361,15.841,0.036
53970.156885,15.783,0.035
53970.166596,15.675,0.033
53970.176084,15.606,0.031
53998.093756,15.736,0.036
53998.105959,15.777,0.033
53998.118316,15.832,0.035
53998.130598,15.808,0.035
53998.143997,15.803,0.036
54123.45059,15.694,0.033
54123.462996,15.749,0.033
54123.475384,15.725,0.03
54123.487805,15.792,0.031
54123.500229,15.819,0.031
54186.373682,15.527,0.051
54186.383897,15.6,0.059
54186.394078,15.519,0.046
54186.40471,15.574,0.041
54201.33423,15.848,0.028
54201.344294,15.847,0.028
54201.354131,15.869,0.028
54201.363943,15.897,0.028
54201.374387,15.913,0.028
54207.366792,15.522,0.054
54216.30591,16.043,0.037
54216.315038,16.049,0.037
54216.324061,16.046,0.037
54216.332793,16.068,0.037
54216.341523,16.061,0.037
54508.474109,16.057,0.036
54508.486621,16.102,0.038
54508.500355,16.101,0.038
54543.392186,15.59,0.046
54543.40297,15.611,0.049
54543.415191,15.633,0.048
54543.425956,15.706,0.049
54543.436683,15.693,0.049
54555.30349,15.951,0.049
54555.317763,15.943,0.049
54555.329557,15.972,0.049
54555.341179,15.929,0.049
54555.352887,15.995,0.053
54561.302593,15.456,0.035
54561.314017,15.571,0.031
54561.325386,15.622,0.035
54561.336859,15.596,0.033
54561.348537,15.614,0.035
54573.299356,16.068,0.055
54573.310173,16.1,0.057
54573.321014,16.047,0.054
54573.331821,16.115,0.055
54573.342898,16.136,0.057
54583.299043,16.086,0.064
54583.313318,16.016,0.061
54583.326195,16.066,0.063
54583.337234,16.216,0.073
54583.348826,16.147,0.066
54614.268375,16.25,0.063
54614.278759,16.266,0.063
54614.289051,16.262,0.061
54614.299399,16.268,0.063
54614.309683,16.365,0.069
