mjd,m,merr
52681.426086,16.512,0.064
52681.441317,16.514,0.066
52681.456191,16.461,0.061
52681.470938,16.465,0.059
52681.485648,16.43,0.063
52723.366937,16.125,0.046
52723.416825,16.263,0.045
52723.41702,16.292,0.045
52752.34621,16.241,0.051
52752.346323,16.288,0.051
52752.357568,16.28,0.053
52752.357681,16.312,0.051
52752.36838,16.308,0.058
52752.368492,16.366,0.058
52752.378962,16.309,0.056
52752.379075,16.293,0.053
52752.389864,16.324,0.061
52752.389976,16.26,0.054
52800.267518,16.049,0.087
52800.277607,16.034,0.089
52800.287617,16.165,0.094
52800.297621,16.058,0.081
52800.307667,16.119,0.085
52810.238429,16.227,0.048
52812.272755,16.308,0.046
52812.282684,16.227,0.043
52812.292582,16.261,0.044
52812.302409,16.207,0.043
52812.312274,16.16,0.043
52839.16697,16.246,0.055
52839.177002,16.339,0.076
52839.187085,16.288,0.054
52839.197091,16.308,0.068
52872.141003,16.324,0.094
52872.153143,16.457,0.196
53035.476913,16.156,0.043
53035.489055,16.15,0.04
53035.5013,16.162,0.043
53035.513477,16.215,0.045
53035.525879,16.207,0.04
53037.477579,16.451,0.051
53037.515957,16.523,0.048
53037.528547,16.51,0.048
53046.466423,16.009,0.044
53046.479086,16.032,0.044
53046.49153,16.113,0.046
53046.503462,16.096,0.046
53046.515468,16.21,0.052
53107.305467,16.206,0.035
53107.316627,16.203,0.035
53107.327771,16.187,0.035
53107.338805,16.265,0.035
53107.349879,16.242,0.033
53127.296608,16.406,0.085
53127.306641,16.332,0.078
53127.316816,16.406,0.081
53127.32704,16.329,0.076
53127.337109,16.317,0.076
53136.290151,16.099,0.046
53136.299444,16.104,0.037
53136.308796,16.134,0.039
53136.318231,16.196,0.043
53136.327567,16.213,0.041
53154.294038,16.416,0.065
53154.302783,16.383,0.061
53154.311648,16.397,0.061
53154.320418,16.405,0.063
53154.329251,16.338,0.059
53164.269332,16.213,0.039
53164.279478,16.22,0.041
53164.289622,16.091,0.039
53164.299839,16.098,0.043
53164.309985,16.07,0.044
53181.232891,16.344,0.073
53181.242624,16.29,0.046
53181.262118,16.307,0.048
53181.271805,16.278,0.043
53194.222298,16.387,0.076
53194.232315,16.362,0.07
53194.242335,16.372,0.072
53194.252413,16.271,0.063
53194.262447,16.308,0.063
53264.109878,16.191,0.044
53264.121331,16.198,0.044
53264.132772,16.335,0.05
53264.144212,16.335,0.052
53264.155654,16.362,0.057
53422.404458,16.127,0.109
53422.416407,16.28,0.104
53422.428334,16.322,0.118
53422.440882,16.313,0.141
53422.4528,16.452,0.076
53450.38424,16.352,0.063
53450.394853,16.369,0.063
53450.405373,16.292,0.057
53450.41592,16.265,0.057
53450.426479,16.241,0.055
53475.320911,16.131,0.043
53475.330729,16.068,0.039
53475.340546,16.026,0.039
53475.350909,16.027,0.037
53475.361739,16.015,0.037
53520.284621,16.378,0.061
53520.295211,16.374,0.059
53520.305736,16.287,0.057
53520.316388,16.323,0.055
53537.227516,16.204,0.1
53537.237407,16.174,0.083
53605.141529,16.362,0.054
53605.152558,16.415,0.061
53605.16359,16.398,0.068
53605.174624,16.489,0.087
53605.185667,16.42,0.096
53628.112503,15.988,0.067
53628.124682,16.137,0.078
53628.13691,16.032,0.074
53628.149053,16.095,0.083
53628.161207,16.23,0.096
53772.481134,16.24,0.05
53772.494121,16.212,0.05
53772.506962,16.196,0.046
53772.519788,16.143,0.044
53772.532744,16.233,0.048
53807.391508,16.349,0.081
53825.346381,16.112,0.084
53825.358093,16.182,0.056
53825.369451,16.15,0.066
53825.380718,16.153,0.073
53825.391949,16.241,0.069
53843.360458,16.357,0.085
53843.371649,16.42,0.089
53843.382874,16.292,0.081
53843.394099,16.321,0.083
53843.405341,16.415,0.093
53855.295959,16.067,0.046
53855.306994,16.082,0.046
53855.31734,16.099,0.048
53855.327664,16.104,0.045
53855.337824,16.115,0.043
53878.292958,16.272,0.061
53878.303561,16.228,0.059
53878.314151,16.126,0.053
53878.324715,16.192,0.058
53878.335452,16.095,0.051
53892.264369,16.225,0.094
53903.239216,16.153,0.054
53903.248943,16.299,0.063
53903.258633,16.244,0.059
53903.268251,16.277,0.061
53903.277861,16.324,0.066
53917.221377,16.334,0.087
53917.231064,16.348,0.109
53917.241007,16.339,0.097
53917.25074,16.343,0.083
53917.260488,16.487,0.097
53932.222771,16.136,0.056
53932.243518,16.098,0.061
53932.253889,16.255,0.083
53932.264173,16.194,0.076
53944.189484,16.303,0.155
53997.112473,16.188,0.048
53997.124509,16.234,0.049
53997.136563,16.275,0.054
53997.149305,16.363,0.064
53997.161398,16.387,0.069
54109.477143,16.007,0.14
54109.489017,15.938,0.132
54169.383201,16.211,0.048
54169.394266,16.199,0.046
54169.405363,16.254,0.048
54169.416588,16.317,0.05
54169.427695,16.331,0.059
54200.328097,16.203,0.037
54200.339119,16.195,0.037
54200.349307,16.165,0.037
54200.359766,16.116,0.035
54200.370125,16.103,0.037
54209.307766,16.331,0.219
54209.316671,16.393,0.083
54209.325513,16.445,0.116
54209.334598,16.423,0.129
54209.343457,16.52,0.107
54217.293399,16.412,0.072
54217.302136,16.291,0.065
54217.310974,16.409,0.07
54217.319701,16.407,0.07
54217.328411,16.364,0.065
54218.31576,16.19,0.078
54218.325061,16.189,0.076
54218.333963,16.233,0.079
54218.342843,16.218,0.081
54218.351907,16.256,0.081
54509.446275,16.295,0.048
54509.458631,16.095,0.041
54509.471406,16.182,0.045
54509.4843,16.093,0.04
54509.496421,16.08,0.04
54536.379761,16.352,0.049
54536.390631,16.269,0.045
54536.401482,16.309,0.046
54536.412341,16.286,0.046
54536.42332,16.33,0.046
54560.3597,16.057,0.051
54560.371129,16.097,0.053
54560.382514,16.159,0.056
54560.393906,16.205,0.059
54560.40552,16.21,0.058
54584.29511,16.156,0.054
54584.305331,16.188,0.058
54584.315496,16.296,0.063
54584.326,16.324,0.061
54584.336147,16.268,0.058
