mjd,m,merr
52722.416534,15.788,0.028
52722.429449,15.803,0.028
52722.44291,15.897,0.031
52722.455414,15.967,0.033
52722.468583,16.039,0.037
52751.369321,15.922,0.035
52751.380287,15.965,0.037
52751.390974,16.005,0.039
52751.402278,16.072,0.043
52751.412908,15.996,0.041
52781.268459,15.717,0.028
52781.279144,15.733,0.028
52781.289843,15.781,0.028
52781.300751,15.774,0.028
52781.311571,15.812,0.028
52801.276244,15.855,0.102
52801.28657,15.885,0.102
52801.296863,15.896,0.104
52801.307308,15.881,0.104
52809.227814,15.955,0.041
52809.237795,15.97,0.041
52809.247779,16.056,0.045
52809.25793,16.021,0.043
52830.220199,15.928,0.066
52830.23009,15.868,0.064
52830.240375,15.936,0.068
52830.260199,16.087,0.087
52849.161562,15.822,0.036
52849.17159,15.882,0.039
52849.181529,15.965,0.045
52849.191575,16.04,0.046
52849.201347,15.96,0.043
52850.177093,15.786,0.042
52850.187427,15.82,0.042
52850.19763,15.863,0.049
52850.207827,15.994,0.066
53008.470437,16.11,0.065
53008.483033,16.011,0.054
53008.495567,15.967,0.046
53008.508187,15.849,0.041
53008.52078,15.799,0.037
53038.473083,15.831,0.048
53038.498627,15.791,0.041
53038.511366,15.855,0.069
53045.449081,15.86,0.043
53045.461196,15.99,0.049
53096.323514,15.788,0.049
53096.333121,15.751,0.046
53096.342748,15.749,0.045
53096.362196,15.767,0.043
53125.292207,15.754,0.045
53125.301827,15.764,0.045
53125.311613,15.808,0.045
53125.331222,15.94,0.051
53134.284354,15.913,0.031
53134.293412,15.954,0.035
53134.302447,15.912,0.036
53134.311391,16.002,0.041
53134.320236,16.054,0.046
53155.257652,15.724,0.045
53155.265974,15.738,0.046
53155.2744,15.791,0.048
53155.282779,15.761,0.048
53155.290995,15.849,0.051
53163.263531,15.948,0.097
53169.235931,15.765,0.035
53169.245394,15.822,0.038
53169.254743,15.956,0.038
53169.26415,16.028,0.038
53193.222596,16.064,0.041
53193.231864,16.005,0.054
53193.250571,15.866,0.038
53193.259793,15.839,0.041
53244.135088,15.83,0.043
53244.145579,15.844,0.046
53244.156042,16.006,0.053
53244.166709,15.972,0.051
53244.178301,16.009,0.056
53281.11385,15.766,0.035
53281.124874,15.767,0.035
53281.135595,15.822,0.038
53421.412065,15.704,0.041
53421.424417,15.674,0.037
53421.438067,15.686,0.035
53421.464983,15.757,0.041
53430.430892,15.863,0.041
53430.44204,15.904,0.041
53430.453746,16.005,0.044
53430.464877,16.091,0.048
53430.476546,16.029,0.046
53451.394835,15.741,0.035
53451.405595,15.779,0.035
53451.41638,15.776,0.035
53451.427151,15.815,0.035
53451.437938,15.92,0.039
53480.278559,15.784,0.052
53480.287633,15.758,0.048
53480.296816,15.692,0.044
53480.305805,15.719,0.044
53480.315883,15.757,0.046
53490.306892,15.713,0.026
53490.317653,15.759,0.026
53490.329524,15.773,0.026
53490.341342,15.837,0.03
53490.353078,15.908,0.031
53536.225433,15.855,0.052
53536.235399,15.819,0.052
53536.245402,15.814,0.061
53536.255447,15.757,0.052
53536.265396,15.729,0.048
53565.174813,15.759,0.035
53565.185448,15.731,0.035
53565.19612,15.714,0.035
53565.206783,15.793,0.037
53565.217492,15.741,0.035
53610.148148,15.753,0.03
53610.159373,15.751,0.031
53610.170599,15.8,0.043
53610.18181,15.891,0.039
53629.111661,15.796,0.054
53629.124008,15.814,0.057
53629.136521,15.937,0.067
53629.148976,15.955,0.07
53629.161293,16.035,0.08
53773.481017,15.871,0.031
53773.495136,15.8,0.031
53773.507982,15.73,0.028
53773.520813,15.685,0.026
53773.533282,15.715,0.028
53802.428141,15.745,0.028
53802.440158,15.711,0.025
53802.452391,15.725,0.026
53802.464769,15.733,0.028
53802.476806,15.779,0.028
53806.424491,15.761,0.046
53826.342708,15.837,0.031
53826.353629,15.844,0.056
53827.362658,15.9,0.028
53827.373319,15.872,0.03
53827.384512,15.828,0.03
53827.39519,15.797,0.026
53827.40584,15.755,0.025
53835.338086,15.695,0.043
53842.308021,16.057,0.072
53842.319761,15.988,0.068
53842.33168,16.059,0.072
53842.344281,15.969,0.065
53842.355547,15.843,0.057
53857.32141,15.908,0.038
53857.331422,15.896,0.038
53857.341742,15.817,0.038
53857.351927,15.789,0.035
53857.36187,15.762,0.033
53877.275039,16.03,0.084
53877.285746,15.972,0.071
53877.317622,15.825,0.058
53904.22814,15.77,0.028
53904.238027,15.777,0.028
53904.248248,15.784,0.028
53904.258215,15.85,0.03
53904.268497,15.898,0.031
53922.264995,15.76,0.067
53933.21862,15.999,0.057
53933.229214,16.067,0.07
53933.239794,16.0,0.061
53933.250432,15.924,0.057
53933.261031,15.937,0.054
53954.153834,15.8,0.068
53954.165845,15.732,0.065
53954.177919,15.761,0.068
53990.112268,15.796,0.041
53990.124303,15.728,0.033
53990.136444,15.72,0.049
53990.148013,15.769,0.035
53990.15969,15.793,0.038
53995.1157,15.734,0.03
53995.127596,15.705,0.03
53995.139596,15.741,0.031
53995.151558,15.766,0.033
54108.460292,15.852,0.074
54108.472558,16.053,0.092
54108.484629,16.077,0.084
54108.496797,16.097,0.083
54108.508993,16.046,0.073
54125.439445,15.824,0.049
54125.45151,15.745,0.045
54125.463593,15.833,0.048
54125.475625,15.748,0.043
54125.487644,15.844,0.045
54140.423627,15.739,0.035
54140.436198,15.728,0.033
54140.448628,15.751,0.035
54140.461606,15.768,0.035
54140.474438,15.795,0.035
54158.395072,15.87,0.048
54158.406455,15.919,0.051
54158.417246,16.057,0.054
54158.428261,16.052,0.053
54158.439073,16.017,0.049
54188.323828,15.842,0.058
54188.333584,15.841,0.056
54188.343362,15.884,0.056
54188.3531,15.889,0.056
54188.362785,16.001,0.079
54212.303233,16.057,0.046
54212.311642,16.054,0.046
54212.320064,16.028,0.045
54212.328739,16.094,0.046
54212.337153,16.033,0.045
54525.400721,15.78,0.036
54525.412366,15.78,0.038
54525.423972,15.7,0.043
54525.436295,15.733,0.046
54525.450056,15.718,0.061
54570.302139,15.962,0.043
54570.314171,15.882,0.04
54570.325046,15.799,0.036
54570.336187,15.814,0.04
54570.347424,15.733,0.035
54585.290797,15.889,0.046
54585.301132,15.861,0.041
54585.311234,15.799,0.046
54585.321624,15.826,0.043
54585.33165,15.749,0.038
54598.289601,15.775,0.059
54598.299022,15.841,0.061
54598.308516,15.867,0.058
54598.327373,16.088,0.066
54618.264219,15.846,0.053
54618.274685,15.953,0.056
54618.285038,15.931,0.181
54618.306007,16.148,0.073
