mjd,m,merr
52707.44772,15.837,0.033
52707.461541,15.684,0.03
52707.475406,15.674,0.028
52707.488802,15.631,0.028
52707.502069,15.629,0.028
52711.451022,16.216,0.043
52711.464768,16.23,0.044
52711.478578,15.961,0.033
52711.492322,15.787,0.028
52738.359225,15.999,0.031
52738.371932,15.839,0.028
52738.383479,15.716,0.026
52738.394965,15.697,0.026
52738.40652,15.649,0.024
52739.357992,15.692,0.03
52739.36927,15.674,0.028
52739.380584,15.724,0.031
52739.392044,15.842,0.033
52739.403346,15.985,0.037
52755.325299,15.721,0.031
52755.337284,15.695,0.03
52755.349317,15.665,0.03
52755.361375,15.659,0.028
52755.373453,15.681,0.03
52770.274662,15.636,0.037
52770.28637,15.657,0.035
52770.298466,15.699,0.035
52770.310108,15.748,0.037
52770.321995,15.884,0.041
52799.268835,16.19,0.114
52799.279066,16.026,0.092
52799.289309,15.846,0.083
52799.29947,15.749,0.084
52799.309815,15.679,0.071
52819.225255,15.627,0.038
52819.235105,15.645,0.04
52819.24494,15.659,0.038
52819.254765,15.673,0.04
52819.264617,15.75,0.043
52825.223498,16.22,0.055
52825.233523,16.043,0.048
52825.243558,15.864,0.041
52825.253637,15.773,0.037
52825.263709,15.749,0.035
53033.464269,16.299,0.058
53033.476419,16.277,0.053
53033.488674,15.999,0.04
53033.500918,15.839,0.035
53033.513321,15.715,0.031
53053.46906,15.788,0.065
53053.484975,15.955,0.055
53053.496693,16.103,0.05
53053.510823,16.241,0.067
53065.396162,15.651,0.033
53065.407428,15.673,0.028
53065.418704,15.736,0.028
53065.430238,15.781,0.035
53065.441604,15.88,0.05
53079.421313,15.816,0.028
53079.432945,15.919,0.031
53079.443697,16.116,0.037
53079.454853,16.194,0.041
53079.465624,16.231,0.043
53093.3725,15.68,0.02
53093.38232,15.724,0.02
53093.392265,15.73,0.02
53093.402223,15.801,0.02
53093.41416,15.894,0.021
53110.348105,15.774,0.03
53110.358942,15.899,0.031
53110.370007,16.109,0.039
53110.38084,16.126,0.041
53110.391854,16.145,0.041
53121.304037,15.752,0.024
53121.314529,15.721,0.028
53121.325027,15.65,0.024
53121.335613,15.66,0.026
53121.346104,15.69,0.028
53138.299247,15.662,0.026
53138.30891,15.69,0.026
53138.318574,15.738,0.028
53138.328258,15.87,0.031
53138.337885,15.986,0.033
53166.288655,15.703,0.028
53166.298055,15.811,0.031
53166.307519,15.888,0.033
53166.316925,16.032,0.039
53166.326329,16.128,0.043
53177.226536,16.011,0.035
53177.236314,15.834,0.028
53177.24618,15.737,0.026
53177.255958,15.701,0.024
53177.265737,15.642,0.022
53447.410754,15.702,0.028
53447.421145,15.782,0.028
53447.431448,15.862,0.044
53447.441748,16.121,0.102
53447.452069,16.237,0.1
53468.439002,16.172,0.043
53468.451572,16.148,0.044
53468.461026,16.031,0.039
53468.471021,15.834,0.033
53503.375593,15.825,0.054
53503.384299,15.968,0.037
53503.39356,16.198,0.057
53503.40226,16.322,0.083
53503.411016,16.303,0.08
53522.266758,15.7,0.031
53522.277058,15.664,0.03
53522.287324,15.663,0.03
53522.297589,15.671,0.028
53522.307807,15.664,0.03
53550.226913,15.749,0.039
53550.236867,15.71,0.035
53580.163384,16.096,0.044
53580.174784,16.282,0.054
53580.186186,16.257,0.085
53580.197584,16.166,0.068
53790.465142,16.063,0.038
53790.476864,15.883,0.035
53790.48877,15.792,0.033
53790.500623,15.683,0.036
53790.513933,15.674,0.03
53799.407547,15.671,0.026
53799.419512,15.707,0.026
53799.431451,15.84,0.03
53799.443403,16.01,0.035
53799.45532,16.141,0.038
53818.398247,15.928,0.035
53818.409425,16.125,0.041
53818.420584,16.228,0.046
53818.431799,16.151,0.045
53818.443027,15.996,0.038
53845.306248,16.292,0.061
53845.317519,16.266,0.066
53845.328904,15.925,0.043
53845.340121,15.84,0.043
53845.35137,15.703,0.045
53851.29837,15.643,0.035
53851.308638,15.675,0.035
53851.319105,15.694,0.035
53851.329566,15.827,0.04
53851.34043,15.933,0.043
53880.269358,16.148,0.052
53880.28054,16.172,0.054
53880.291728,15.999,0.044
53880.302905,15.814,0.037
53880.3141,15.77,0.035
53885.280243,15.819,0.043
53885.292056,15.726,0.039
53885.303837,15.66,0.035
53885.31564,15.675,0.037
53885.327458,15.695,0.039
53901.264932,16.179,0.147
53906.165699,15.617,0.035
53906.175837,15.688,0.035
53906.185957,15.786,0.037
53906.196081,15.851,0.041
53906.206225,16.035,0.059
53912.225012,15.616,0.045
53937.170339,16.047,0.053
53937.190571,15.741,0.043
53937.210995,15.67,0.04
53955.151336,15.929,0.092
53955.162891,16.087,0.111
53955.174599,16.257,0.13
53955.186416,16.316,0.144
53975.133577,15.654,0.038
53975.144009,15.627,0.036
53975.154396,15.632,0.04
53975.16487,15.62,0.04
53975.175964,15.689,0.045
54152.461881,15.652,0.024
54152.473856,15.647,0.024
54152.485901,15.642,0.024
54152.497889,15.678,0.024
54152.509938,15.737,0.024
54173.376727,16.092,0.058
54173.387372,16.028,0.048
54173.398237,15.846,0.041
54173.40944,15.765,0.036
54173.420083,15.716,0.036
54185.377502,15.795,0.041
54185.387657,15.753,0.038
54185.401282,15.69,0.035
54185.411481,15.662,0.033
54185.421593,15.637,0.033
54201.334109,16.181,0.063
54201.34338,16.122,0.056
54201.352901,16.059,0.053
54201.362529,15.853,0.043
54201.371974,15.822,0.041
54558.303601,16.214,0.07
54558.315188,16.229,0.072
54558.350259,15.755,0.048
54580.307056,15.716,0.056
54580.31739,15.717,0.056
54580.327639,15.777,0.058
54580.337858,15.821,0.059
54580.348114,15.906,0.064
54591.289825,15.766,0.066
54591.299481,15.754,0.063
54591.309106,15.771,0.066
54591.318692,15.659,0.058
54591.328278,15.594,0.058
54611.245933,15.705,0.068
54611.254212,15.744,0.068
54611.262437,15.769,0.066
54611.270727,15.784,0.066
54611.278971,16.012,0.081
