mjd,m,merr
52680.503558,15.746,0.033
52680.518268,15.71,0.031
52680.532964,15.686,0.033
52698.474576,15.659,0.033
52698.47516,15.576,0.036
52698.488334,15.678,0.031
52698.488919,15.621,0.035
52698.50157,15.696,0.031
52698.502169,15.633,0.033
52712.38253,15.389,0.028
52712.39573,15.387,0.026
52712.409051,15.394,0.026
52712.422504,15.418,0.026
52712.435836,15.407,0.024
52738.36558,15.623,0.026
52738.365694,15.564,0.035
52738.377271,15.577,0.026
52738.377387,15.55,0.033
52738.388836,15.524,0.025
52738.388951,15.452,0.031
52738.400444,15.461,0.023
52738.400558,15.434,0.03
52738.412531,15.456,0.023
52738.412646,15.433,0.03
52755.325415,15.39,0.022
52755.337399,15.394,0.022
52755.349434,15.419,0.022
52755.361537,15.436,0.022
52755.373576,15.446,0.024
52770.274777,15.415,0.028
52770.286485,15.41,0.028
52770.298581,15.438,0.028
52770.310223,15.45,0.028
52770.32211,15.457,0.028
52797.269371,15.575,0.038
52797.279698,15.592,0.038
52797.290343,15.651,0.04
52797.300694,15.592,0.038
52813.230229,15.516,0.031
52813.240331,15.484,0.031
52813.250451,15.516,0.031
52813.260486,15.514,0.031
52813.270841,15.53,0.031
52825.223407,15.634,0.033
52825.233433,15.65,0.035
52825.243468,15.639,0.033
52825.253546,15.658,0.033
52825.263619,15.68,0.033
52849.164082,15.376,0.024
52849.174414,15.337,0.022
52849.184819,15.368,0.024
52849.196698,15.397,0.026
52849.207917,15.41,0.026
52886.124695,15.584,0.054
53033.464361,15.598,0.031
53033.476512,15.539,0.028
53033.488766,15.595,0.028
53033.50101,15.611,0.028
53033.513413,15.625,0.028
53053.469177,15.728,0.057
53053.485092,15.695,0.043
53053.49681,15.642,0.031
53053.51094,15.661,0.037
53065.407164,15.593,0.024
53065.441339,15.486,0.028
53079.421114,15.572,0.022
53079.432745,15.584,0.022
53079.443496,15.587,0.022
53079.454653,15.573,0.022
53079.465423,15.593,0.024
53093.335793,15.658,0.02
53093.346248,15.643,0.02
53093.356627,15.633,0.018
53093.36704,15.628,0.017
53093.377419,15.569,0.017
53110.347916,15.435,0.02
53110.358752,15.42,0.02
53110.369818,15.428,0.02
53110.380651,15.445,0.02
53110.391665,15.453,0.022
53122.297379,15.544,0.023
53122.310037,15.558,0.021
53122.320311,15.562,0.021
53122.330483,15.554,0.021
53122.34064,15.571,0.02
53138.299348,15.393,0.02
53138.309011,15.406,0.02
53138.318676,15.406,0.02
53138.328358,15.439,0.02
53138.337986,15.436,0.02
53153.254706,15.444,0.021
53153.263302,15.465,0.023
53153.272579,15.454,0.021
53153.281239,15.482,0.021
53153.289809,15.472,0.021
53166.288747,15.412,0.02
53166.298147,15.431,0.022
53166.307612,15.457,0.022
53166.317017,15.431,0.022
53166.326421,15.468,0.024
53178.22425,15.485,0.02
53178.252765,15.559,0.045
53241.160547,15.64,0.054
53468.438805,15.406,0.02
53468.451374,15.415,0.022
53468.460828,15.42,0.022
53468.470823,15.417,0.022
53502.387187,15.69,0.03
53502.397387,15.66,0.03
53502.408056,15.701,0.028
53502.418347,15.674,0.028
53502.429478,15.671,0.03
53522.266872,15.661,0.03
53522.277172,15.689,0.03
53522.287438,15.695,0.03
53522.297704,15.706,0.028
53522.307921,15.691,0.028
53550.236679,15.662,0.031
53580.163195,15.695,0.031
53580.174594,15.675,0.031
53580.185997,15.658,0.041
53580.197395,15.585,0.044
53580.208798,15.511,0.05
53789.478401,15.601,0.066
53799.407697,15.603,0.023
53799.419661,15.59,0.023
53799.431602,15.61,0.023
53799.443554,15.574,0.021
53799.45547,15.615,0.023
53818.398388,15.367,0.02
53818.409567,15.33,0.02
53818.420727,15.344,0.02
53818.43194,15.371,0.021
53818.443169,15.365,0.021
53845.303143,15.446,0.03
53845.314192,15.498,0.037
53845.325117,15.527,0.033
53845.336088,15.506,0.031
53845.347433,15.509,0.043
53851.298174,15.461,0.03
53851.308441,15.448,0.028
53851.318908,15.418,0.026
53851.329369,15.369,0.026
53851.340235,15.391,0.026
53880.269159,15.616,0.031
53880.280341,15.641,0.031
53880.291529,15.621,0.031
53880.302706,15.667,0.033
53880.3139,15.657,0.031
53885.280023,15.605,0.035
53885.291837,15.609,0.035
53885.303615,15.616,0.033
53885.31542,15.625,0.035
53885.327234,15.681,0.037
53901.245031,15.42,0.053
53901.25487,15.528,0.063
53901.264757,15.522,0.069
53912.224841,15.421,0.045
53912.264561,15.427,0.066
53955.151146,15.274,0.049
53955.162701,15.323,0.053
53955.174409,15.35,0.056
53955.186197,15.319,0.058
53955.197798,15.299,0.058
53978.126018,15.509,0.041
53978.148154,15.439,0.038
53978.159171,15.438,0.043
53978.170333,15.453,0.045
54152.461605,15.507,0.017
54152.473578,15.505,0.017
54152.485623,15.499,0.017
54152.497609,15.527,0.017
54152.509655,15.53,0.017
54173.387507,15.367,0.023
54173.398372,15.338,0.023
54173.409575,15.361,0.021
54185.377633,15.464,0.03
54185.387789,15.493,0.03
54185.401414,15.468,0.026
54185.411612,15.493,0.028
54185.421723,15.501,0.028
54201.334208,15.452,0.03
54201.343479,15.422,0.028
54201.353001,15.428,0.028
54201.362629,15.392,0.026
54201.372074,15.401,0.026
54559.303713,15.655,0.02
54559.315364,15.676,0.018
54559.327019,15.687,0.018
54559.338782,15.669,0.018
54559.350462,15.704,0.018
54580.306816,15.574,0.046
54580.317149,15.589,0.048
54580.327398,15.596,0.046
54580.337618,15.609,0.048
54580.347874,15.65,0.049
54591.289939,15.436,0.043
54591.29963,15.424,0.043
54591.30922,15.444,0.043
54591.318807,15.479,0.043
54591.328394,15.494,0.045
54611.246036,15.431,0.038
54611.254314,15.446,0.038
54611.262539,15.467,0.04
54611.270828,15.489,0.04
54611.279074,15.463,0.04
