mjd,m,merr
52680.504316,15.676,0.028
52680.519026,15.7,0.028
52680.533721,15.833,0.035
52698.447972,15.706,0.028
52698.461542,15.72,0.026
52698.474793,15.759,0.028
52698.501626,15.806,0.028
52712.383317,15.649,0.035
52712.396519,15.701,0.033
52712.409851,15.671,0.033
52712.423309,15.747,0.033
52712.436653,15.769,0.031
52754.32459,15.88,0.03
52754.336531,15.863,0.03
52754.348512,15.853,0.03
52754.360481,15.841,0.03
52754.37251,15.787,0.03
52759.317327,15.583,0.022
52759.329333,15.614,0.022
52759.341276,15.67,0.024
52759.353228,15.685,0.024
52759.365251,15.734,0.026
52770.271239,15.63,0.04
52770.282792,15.615,0.038
52770.294337,15.648,0.038
52770.306049,15.615,0.036
52770.317608,15.68,0.036
52820.225819,15.623,0.03
52820.235771,15.682,0.03
52820.245723,15.678,0.03
52820.255654,15.711,0.03
52820.265552,15.743,0.033
52825.22385,15.523,0.033
52825.233961,15.462,0.033
52825.24407,15.526,0.035
52825.254547,15.485,0.031
52825.264772,15.472,0.033
52849.164534,15.609,0.026
52849.174881,15.559,0.026
52849.185276,15.616,0.028
52849.197201,15.628,0.03
52849.208368,15.671,0.031
52886.125131,15.552,0.048
53033.465491,15.946,0.038
53033.477676,15.932,0.036
53033.489924,15.983,0.036
53033.502145,15.983,0.036
53033.514543,15.955,0.036
53052.450338,15.701,0.026
53052.462032,15.721,0.026
53052.485377,15.794,0.026
53052.497034,15.81,0.026
53065.420724,15.949,0.028
53065.432386,15.937,0.03
53065.443958,15.928,0.038
53065.467126,15.85,0.031
53079.390708,15.727,0.028
53079.401848,15.654,0.025
53079.434781,15.456,0.021
53094.369599,15.923,0.026
53094.379074,15.916,0.025
53094.388656,15.906,0.025
53094.399749,15.926,0.023
53094.410474,15.883,0.023
53110.346432,15.619,0.026
53110.357104,15.616,0.026
53110.36835,15.644,0.028
53110.379694,15.662,0.028
53110.390164,15.71,0.03
53122.302875,15.642,0.024
53122.313307,15.585,0.022
53122.323805,15.559,0.02
53122.334333,15.524,0.02
53122.344652,15.518,0.018
53138.298431,15.826,0.031
53138.308016,15.851,0.03
53138.317533,15.897,0.031
53138.327133,15.868,0.03
53138.336753,15.892,0.03
53146.326354,15.663,0.02
53146.335557,15.699,0.022
53146.344835,15.702,0.022
53146.354,15.742,0.024
53146.363289,15.769,0.024
53153.257852,15.568,0.024
53153.266732,15.601,0.024
53153.275516,15.618,0.024
53153.284302,15.659,0.026
53153.293355,15.661,0.024
53166.226219,15.875,0.038
53166.235972,15.862,0.036
53166.245627,15.873,0.038
53166.255329,15.881,0.036
53166.265031,15.925,0.038
53178.22881,15.823,0.055
53178.238791,15.887,0.072
53178.248863,15.878,0.076
53441.455398,15.578,0.024
53441.480946,15.476,0.02
53441.49272,15.452,0.02
53471.370566,15.838,0.033
53471.380993,15.88,0.033
53471.390722,15.864,0.033
53471.401253,15.891,0.033
53471.411262,15.961,0.035
53502.387708,15.607,0.026
53502.397911,15.608,0.026
53502.408565,15.566,0.024
53502.418854,15.581,0.024
53502.429985,15.569,0.024
53523.272328,15.507,0.024
53523.282754,15.515,0.022
53523.29308,15.53,0.022
53523.303518,15.513,0.02
53523.313868,15.557,0.022
53525.26471,15.739,0.031
53525.275028,15.807,0.033
53525.28525,15.796,0.033
53525.295455,15.852,0.035
53525.305881,15.873,0.035
53526.268131,15.564,0.028
53526.278599,15.613,0.03
53526.289162,15.57,0.037
53526.299664,15.619,0.03
53526.310123,15.665,0.037
53527.263932,15.759,0.035
53527.274002,15.746,0.033
53527.28409,15.716,0.031
53527.294226,15.72,0.031
53527.30441,15.659,0.031
53528.219858,15.749,0.039
53528.231118,15.814,0.041
53528.242174,15.78,0.037
53528.252877,15.841,0.039
53528.263318,15.861,0.043
53529.209192,15.559,0.031
53529.220945,15.642,0.031
53529.232287,15.634,0.031
53529.243708,15.659,0.035
53529.254615,15.689,0.035
53551.225554,15.529,0.026
53551.235517,15.581,0.028
53551.245442,15.589,0.03
53551.25556,15.644,0.03
53551.265522,15.662,0.03
53581.198232,15.615,0.026
53581.209793,15.527,0.024
53581.221346,15.532,0.026
53581.232873,15.468,0.024
53581.244439,15.464,0.028
53789.478994,15.904,0.078
53845.303746,15.622,0.035
53845.314794,15.558,0.035
53845.325785,15.476,0.03
53845.337139,15.48,0.03
53845.348038,15.507,0.043
53881.274626,15.483,0.03
53881.285665,15.447,0.03
53881.296711,15.454,0.031
53881.307786,15.485,0.031
53881.318875,15.489,0.03
53887.26823,15.662,0.035
53887.278553,15.713,0.036
53887.288868,15.806,0.038
53887.299236,15.748,0.038
53887.309597,15.784,0.038
53902.226779,15.604,0.037
53902.236592,15.672,0.037
53902.24645,15.634,0.037
53902.256644,15.617,0.037
53902.26662,15.619,0.039
54144.450744,15.857,0.046
54144.462668,15.853,0.045
54144.474647,15.838,0.045
54144.486501,15.899,0.045
54153.479043,15.681,0.064
54153.49246,15.686,0.045
54153.504255,15.687,0.068
54208.304452,15.882,0.036
54208.313091,15.912,0.038
54208.321837,15.88,0.035
54208.33046,15.923,0.035
54208.339452,15.887,0.033
54559.304547,15.827,0.024
54559.316201,15.838,0.022
54559.327856,15.859,0.02
54559.339617,15.903,0.022
54559.351298,15.91,0.022
54581.304877,15.811,0.046
54581.315444,15.817,0.048
54581.326068,15.843,0.05
54581.336638,15.843,0.048
54581.347188,15.887,0.05
