mjd,m,merr
52698.447552,15.645,0.028
52698.461124,15.715,0.028
52698.474368,15.723,0.03
52698.487678,15.755,0.03
52698.501138,15.781,0.03
52712.386819,16.139,0.061
52712.400366,16.202,0.061
52712.413574,16.221,0.059
52712.426633,16.187,0.058
52712.439692,16.205,0.054
52754.33836,15.721,0.031
52754.35066,15.695,0.033
52754.351003,15.629,0.041
52754.363105,15.72,0.031
52754.375573,15.738,0.033
52754.387852,15.769,0.033
52771.275058,16.128,0.071
52771.286942,16.159,0.071
52771.298349,16.17,0.071
52771.309878,16.122,0.068
52771.321524,16.126,0.068
52793.298673,16.032,0.041
52793.308829,16.067,0.043
52793.319047,16.049,0.041
52793.329227,16.101,0.043
52793.339369,16.118,0.046
52820.225274,15.982,0.041
52820.235221,15.966,0.041
52820.245183,15.995,0.041
52820.255115,15.997,0.041
52820.265011,15.998,0.043
52826.2225,15.624,0.041
52826.232633,15.692,0.038
52826.24282,15.699,0.04
52826.252914,15.715,0.04
52826.262942,15.744,0.04
52848.166044,16.103,0.046
52848.176391,16.092,0.046
52848.186663,16.156,0.052
52848.196865,16.215,0.057
52848.207143,16.199,0.067
53034.455782,15.885,0.043
53034.467683,15.791,0.038
53034.479498,15.799,0.038
53034.491528,15.677,0.031
53034.503378,15.637,0.031
53052.450573,15.89,0.031
53052.462251,15.884,0.031
53052.473901,15.919,0.031
53052.485597,15.882,0.031
53052.497253,15.917,0.031
53065.42026,15.957,0.03
53065.431922,16.01,0.035
53065.443493,15.992,0.041
53065.455091,15.953,0.059
53065.466662,16.014,0.031
53079.39089,15.721,0.03
53079.402032,15.772,0.03
53079.412907,15.792,0.03
53079.423751,15.828,0.031
53079.434964,15.82,0.031
53110.345888,16.099,0.041
53110.356562,16.09,0.04
53110.367804,16.097,0.041
53110.379149,16.124,0.041
53110.389618,16.161,0.043
53122.302466,15.873,0.03
53122.312898,15.822,0.028
53122.323397,15.802,0.026
53122.333828,15.716,0.024
53122.344244,15.711,0.024
53138.295919,15.851,0.03
53138.295937,15.829,0.031
53138.298267,15.798,0.031
53138.30552,15.804,0.03
53138.305559,15.799,0.028
53138.307852,15.746,0.028
53138.315037,15.708,0.028
53138.315251,15.732,0.026
53138.317369,15.732,0.028
53138.324593,15.698,0.028
53138.324935,15.72,0.026
53138.32697,15.698,0.026
53138.334187,15.703,0.026
53138.334564,15.707,0.024
53138.336589,15.679,0.026
53139.293436,16.118,0.04
53139.294661,16.152,0.039
53139.30334,16.17,0.04
53139.304247,16.128,0.037
53139.313059,16.133,0.038
53139.313845,16.148,0.039
53139.323054,16.119,0.038
53139.32344,16.151,0.039
53139.332954,16.165,0.04
53139.33322,16.116,0.037
53153.257494,15.983,0.035
53153.266373,15.952,0.035
53153.275156,15.981,0.033
53153.283943,16.012,0.035
53153.292996,15.984,0.033
53166.226375,16.059,0.046
53166.236129,16.054,0.045
53166.245784,16.098,0.046
53166.255487,16.092,0.045
53166.265187,16.062,0.043
53178.228461,15.905,0.063
53178.248514,15.727,0.044
53178.268491,15.747,0.046
53441.455272,15.956,0.035
53441.468048,16.021,0.037
53441.480178,16.027,0.037
53441.492595,16.04,0.037
53471.37037,15.769,0.031
53471.380796,15.737,0.031
53471.390517,15.778,0.033
53471.401057,15.806,0.031
53471.411066,15.85,0.035
53501.31728,16.267,0.05
53501.333384,16.278,0.052
53501.346191,16.206,0.05
53501.356908,16.111,0.044
53501.367766,16.013,0.041
53502.318132,16.048,0.043
53502.334967,16.075,0.041
53502.349782,16.079,0.039
53502.361054,16.108,0.043
53502.371446,16.078,0.041
53503.322117,15.753,0.024
53503.331167,15.801,0.026
53503.340398,15.791,0.026
53503.35054,15.815,0.026
53503.361394,15.843,0.028
53504.27927,16.149,0.048
53504.288051,16.131,0.044
53504.297274,16.139,0.044
53504.308008,16.164,0.046
53504.317633,16.182,0.046
53529.266294,16.006,0.044
53529.276697,16.013,0.043
53529.287789,16.008,0.043
53529.29908,16.017,0.043
53529.312042,16.032,0.043
53531.2019,16.108,0.055
53531.212182,16.107,0.061
53531.224144,16.079,0.055
53531.237858,16.179,0.131
53531.251391,16.115,0.105
53532.243648,15.842,0.039
53532.254519,15.852,0.039
53533.21424,16.253,0.061
53533.224193,16.198,0.057
53533.254111,16.257,0.061
53534.25777,16.056,0.046
53534.267468,16.061,0.046
53534.277174,16.13,0.048
53534.287066,16.092,0.048
53534.296978,16.056,0.046
53551.225263,15.677,0.031
53551.235227,15.712,0.033
53551.245151,15.686,0.031
53551.255172,15.724,0.033
53551.26523,15.74,0.031
53581.197665,16.305,0.05
53581.209224,16.312,0.05
53581.220777,16.198,0.046
53581.232305,16.094,0.043
53581.243871,16.001,0.041
53625.113011,15.948,0.055
53625.124399,15.97,0.059
53625.135802,15.964,0.061
53625.147177,15.998,0.065
53625.158545,16.038,0.068
53788.426071,15.787,0.035
53788.438592,15.825,0.038
53788.463868,15.828,0.033
53788.47634,15.857,0.035
53813.430829,16.272,0.079
53813.442264,16.306,0.081
53813.453747,16.27,0.078
53813.465177,16.156,0.069
53813.476826,16.062,0.064
53844.346924,15.881,0.051
53844.358029,15.886,0.051
53844.36904,15.85,0.049
53844.380105,15.847,0.049
53844.391272,15.916,0.051
53852.300032,15.756,0.04
53852.310621,15.762,0.04
53852.321366,15.772,0.04
53852.332398,15.837,0.04
53852.343124,15.822,0.04
53881.274057,15.932,0.046
53881.285092,15.943,0.046
53881.296142,15.944,0.05
53881.307215,15.964,0.05
53881.318304,16.075,0.052
53887.267697,15.754,0.04
53887.278008,15.658,0.035
53887.288331,15.71,0.036
53887.298705,15.714,0.038
53902.226262,16.009,0.055
53902.236067,15.969,0.054
53902.245932,16.116,0.061
53902.256121,16.068,0.059
53902.26606,16.076,0.059
53931.218754,16.005,0.076
53931.229151,16.103,0.096
53931.239554,16.044,0.094
53940.170022,15.696,0.046
53940.191458,15.805,0.059
53940.202022,15.86,0.059
53940.216037,15.836,0.056
53979.131604,15.996,0.074
53979.142783,16.055,0.064
53979.153911,16.046,0.069
53979.164971,16.088,0.071
54154.445198,16.226,0.049
54154.456802,16.159,0.046
54154.468507,16.081,0.045
54154.479924,15.938,0.04
54154.491345,15.871,0.036
54169.406929,15.901,0.059
54208.30412,16.13,0.051
54208.312755,16.089,0.051
54208.321502,16.107,0.051
54208.330126,16.063,0.048
54208.33912,16.149,0.049
54560.310574,16.075,0.028
54560.321978,16.054,0.026
54560.333491,16.07,0.026
54560.344882,16.064,0.026
54560.356257,16.087,0.026
54581.289638,16.063,0.087
54581.299405,16.057,0.086
54581.309177,16.018,0.079
54581.318849,16.126,0.087
54581.328563,16.211,0.097
54594.318894,16.258,0.089
54594.328484,16.321,0.092
54594.337887,16.308,0.091
54594.347509,16.191,0.083
54594.357821,16.199,0.084
54612.253848,15.643,0.045
54612.271673,15.699,0.048
54612.280357,15.718,0.048
54612.28892,15.776,0.049
