mjd,m,merr
52665.477916,16.638,0.074
52665.492722,16.652,0.073
52665.508874,16.705,0.076
52665.524927,16.732,0.076
52665.540402,16.725,0.078
52677.489645,17.111,0.116
52677.50545,17.052,0.107
52677.52065,16.938,0.092
52723.415902,16.692,0.061
52723.42788,16.748,0.093
52752.335962,16.984,0.089
52752.346149,16.972,0.083
52752.356317,17.02,0.089
52752.366491,17.059,0.102
52752.37686,17.027,0.096
52758.319037,16.743,0.057
52758.331223,16.725,0.054
52758.343168,16.862,0.059
52758.35511,16.838,0.059
52758.367092,16.874,0.063
52772.274882,16.715,0.148
52772.286812,16.649,0.203
52772.298456,16.788,0.15
52787.270361,17.027,0.081
52787.281025,17.093,0.087
52787.291633,17.121,0.091
52787.302265,16.953,0.081
52787.313008,16.953,0.081
52798.293561,16.885,0.134
52798.304799,16.991,0.132
52798.315161,17.108,0.139
52798.325629,17.242,0.153
52811.227931,16.98,0.114
52811.237741,16.919,0.112
52811.247549,16.943,0.107
52811.257357,16.997,0.109
52811.267193,16.995,0.109
52842.251827,16.905,0.139
52847.177919,16.848,0.098
52847.188033,16.815,0.096
52847.198219,16.823,0.094
52847.208796,16.828,0.096
52906.101697,16.677,0.128
52906.139593,16.866,0.13
52906.152141,16.602,0.192
53035.478792,16.711,0.07
53035.491519,16.745,0.07
53035.504169,16.751,0.072
53035.517524,16.809,0.07
53050.393036,17.142,0.244
53050.404685,16.954,0.12
53050.416422,16.88,0.076
53050.428184,16.885,0.068
53050.439828,16.717,0.061
53053.516957,16.748,0.094
53109.302401,16.989,0.08
53109.313108,16.984,0.078
53109.32393,16.947,0.076
53109.334673,16.951,0.076
53109.345474,16.992,0.08
53137.294547,16.788,0.072
53137.304027,16.84,0.078
53137.313512,16.853,0.078
53137.323046,16.87,0.072
53137.332532,16.948,0.078
53138.295821,16.683,0.057
53138.30546,16.722,0.063
53138.315153,16.654,0.055
53138.324837,16.693,0.059
53138.334465,16.694,0.059
53139.294292,16.475,0.05
53139.303878,16.419,0.044
53139.313474,16.399,0.044
53139.323068,16.437,0.048
53139.332848,16.462,0.048
53165.267714,16.687,0.07
53165.277832,16.751,0.074
53165.287942,16.718,0.072
53165.298052,16.685,0.074
53165.308211,16.686,0.078
53242.137882,17.037,0.122
53242.148042,16.763,0.097
53242.158503,16.66,0.089
53242.168465,16.339,0.071
53242.178447,16.309,0.069
53264.109022,16.424,0.054
53264.120563,16.471,0.054
53264.132138,16.512,0.061
53264.143582,16.485,0.063
53264.155056,16.539,0.064
53439.386291,17.092,0.091
53439.397398,17.004,0.081
53439.408577,17.017,0.078
53439.419706,17.072,0.081
53439.43086,16.937,0.074
53473.44287,16.8,0.078
53473.452569,16.828,0.083
53473.462225,16.808,0.083
53498.377984,17.057,0.091
53498.390296,17.113,0.096
53498.401656,17.06,0.096
53498.412598,17.039,0.1
53498.422693,17.086,0.1
53499.385015,16.954,0.085
53499.399147,17.043,0.091
53499.411187,16.995,0.091
53499.423459,16.974,0.091
53499.43459,16.991,0.093
53528.275621,16.91,0.098
53528.286705,16.725,0.085
53528.298209,16.616,0.076
53528.309435,16.478,0.07
53528.320581,16.273,0.059
53539.224154,16.812,0.154
53539.233766,16.953,0.172
53539.243332,16.967,0.176
53539.252898,16.892,0.165
53539.262451,16.808,0.15
53553.228625,16.778,0.093
53553.238999,16.868,0.094
53553.249418,16.752,0.085
53553.259764,16.85,0.093
53553.27013,16.794,0.087
53570.21828,16.786,0.172
53570.228943,16.632,0.152
53570.2396,16.672,0.157
53570.250263,16.673,0.163
53576.172529,16.398,0.059
53576.194395,16.493,0.105
53576.205336,16.448,0.081
53576.216299,16.504,0.07
53583.16663,16.952,0.087
53583.177937,16.885,0.083
53583.189191,16.904,0.089
53583.200464,16.964,0.093
53583.211756,17.051,0.098
53627.11419,17.068,0.142
53627.126505,17.014,0.139
53627.139066,16.901,0.13
53627.151202,17.075,0.163
53627.163294,17.017,0.163
53771.524438,16.95,0.196
53771.537444,16.904,0.107
53786.442483,16.511,0.068
53786.454518,16.568,0.072
53882.309575,17.148,0.116
53886.279889,16.966,0.113
53886.291004,16.93,0.109
53886.302016,16.975,0.115
53886.31304,17.03,0.118
53886.324102,16.986,0.111
53903.227983,16.905,0.122
53903.237897,16.797,0.105
53903.247901,16.725,0.102
53903.257872,16.701,0.1
53903.267854,16.599,0.091
53916.237522,16.441,0.124
53916.247408,16.389,0.061
53916.257163,16.407,0.064
53931.222525,16.763,0.091
53931.232634,16.803,0.106
53931.242828,16.954,0.125
53931.263168,16.941,0.157
53970.137832,17.154,0.117
53970.14758,17.224,0.125
53970.157105,16.982,0.102
53970.166816,16.957,0.106
53970.176436,16.764,0.091
53998.094026,16.906,0.106
53998.106246,16.799,0.086
53998.118584,16.949,0.101
53998.130869,16.978,0.104
53998.144267,16.995,0.109
54123.45083,16.897,0.093
54123.463236,16.916,0.087
54123.475623,17.135,0.102
54123.488045,16.984,0.081
54123.500468,17.045,0.087
54156.380588,16.577,0.071
54156.391592,16.586,0.063
54156.40264,16.575,0.054
54156.41375,16.658,0.056
54156.424914,16.562,0.049
54207.367043,17.071,0.264
54216.306129,17.047,0.096
54216.315256,17.062,0.098
54216.32428,17.046,0.094
54216.333011,17.041,0.096
54216.341742,17.032,0.091
54529.381487,16.961,0.092
54529.392926,17.104,0.101
54529.404179,17.119,0.101
54529.415427,17.09,0.099
54529.428023,17.288,0.12
54573.29962,16.941,0.124
54573.310437,17.16,0.152
54573.32128,16.998,0.133
54573.332085,17.109,0.141
54573.343165,17.081,0.141
54613.260499,17.005,0.083
54613.270942,16.883,0.071
54613.281424,16.998,0.076
54613.291696,16.893,0.071
54613.301978,16.869,0.073
