mjd,m,merr
52693.425003,15.115,0.018
52693.441603,15.215,0.02
52693.457071,15.376,0.024
52693.472494,15.321,0.022
52693.487799,15.167,0.018
52721.372675,14.981,0.015
52721.385583,14.945,0.015
52721.39851,14.944,0.015
52721.411387,14.998,0.015
52721.424261,15.032,0.017
52750.295972,15.072,0.018
52750.306566,15.027,0.017
52750.317164,15.017,0.018
52750.327764,14.969,0.018
52750.338362,14.95,0.017
52781.27216,15.296,0.025
52781.282789,15.286,0.023
52781.293546,15.219,0.021
52781.305033,15.122,0.02
52781.316163,15.06,0.02
52801.265304,15.052,0.041
52801.275395,14.976,0.039
52801.285458,14.955,0.037
52801.295623,14.989,0.039
52801.305748,14.973,0.037
52809.227033,15.0,0.015
52809.236897,15.054,0.017
52809.246694,15.105,0.017
52809.256704,15.136,0.017
52830.219033,15.012,0.026
52830.228974,15.038,0.026
52830.23891,14.951,0.024
52830.248824,14.958,0.024
52830.258727,14.975,0.024
52845.16831,15.089,0.025
52845.178132,15.164,0.024
52845.207795,15.277,0.025
52873.154412,15.053,0.02
52873.178639,15.19,0.024
52873.190724,15.289,0.036
52897.122552,15.174,0.02
52897.134293,15.071,0.018
52897.146041,15.054,0.018
52897.157878,15.048,0.02
52897.169732,14.986,0.022
53008.492643,15.256,0.026
53008.522607,15.075,0.02
53045.385772,15.142,0.026
53045.397024,15.055,0.024
53045.408301,15.018,0.022
53045.419563,14.994,0.022
53045.430746,14.971,0.02
53096.377469,14.948,0.02
53096.387556,14.919,0.02
53096.397602,14.955,0.02
53096.407648,14.973,0.02
53096.417753,15.018,0.02
53108.355703,15.141,0.015
53108.366759,15.087,0.015
53108.377851,15.012,0.013
53108.38893,14.975,0.013
53108.400042,14.943,0.013
53125.295822,15.044,0.026
53125.305764,14.999,0.024
53125.325705,14.953,0.022
53125.335732,14.933,0.02
53134.290792,15.289,0.022
53134.300349,15.208,0.02
53134.309878,15.144,0.02
53134.319389,15.042,0.018
53155.257369,14.941,0.022
53155.266162,14.968,0.024
53155.274924,15.009,0.024
53155.283703,15.061,0.026
53155.292472,15.094,0.026
53193.24583,14.983,0.024
53193.25593,15.022,0.02
53193.266021,15.064,0.022
53244.139204,15.025,0.022
53244.149406,15.013,0.022
53244.159592,14.957,0.022
53244.179985,14.992,0.024
53283.112724,14.944,0.015
53283.122901,14.984,0.017
53283.133093,15.052,0.017
53283.143306,15.12,0.018
53283.153491,15.167,0.02
53390.472392,15.111,0.018
53390.485101,15.043,0.017
53390.51049,14.969,0.015
53390.523654,14.92,0.015
53400.435987,15.191,0.024
53400.448489,15.103,0.022
53400.460923,15.053,0.02
53429.3875,15.189,0.024
53429.410082,15.011,0.02
53429.421367,14.985,0.018
53461.384851,14.975,0.015
53461.395209,14.971,0.015
53461.40551,14.954,0.015
53461.415843,14.961,0.015
53461.426188,14.973,0.015
53489.305232,15.192,0.031
53489.315892,15.213,0.022
53489.340269,15.419,0.024
53489.351576,15.302,0.022
53535.225357,15.436,0.026
53535.235349,15.349,0.024
53535.245377,15.243,0.02
53535.25539,15.157,0.018
53535.265398,15.098,0.018
53563.232045,15.327,0.03
53563.24266,15.286,0.026
53563.253234,15.212,0.022
53563.263807,15.15,0.022
53599.150426,15.409,0.035
53599.163038,15.336,0.037
53599.175636,15.192,0.03
53599.188239,15.103,0.03
53599.200831,15.038,0.028
53607.134514,15.012,0.018
53607.146007,14.964,0.017
53635.108324,15.08,0.02
53635.118901,15.033,0.017
53635.129335,15.008,0.015
53635.139756,14.999,0.017
53635.150175,15.0,0.018
53755.467592,15.333,0.028
53755.480349,15.342,0.028
53755.493153,15.253,0.026
53755.506005,15.116,0.022
53755.518872,15.043,0.02
53803.406183,15.278,0.023
53803.419264,15.311,0.023
53803.431271,15.264,0.021
53803.443237,15.133,0.018
53803.455218,15.075,0.016
53829.318911,15.014,0.04
53829.33049,15.075,0.018
53829.341102,15.186,0.031
53829.351683,15.244,0.025
53829.362278,15.32,0.036
53833.317767,15.391,0.023
53833.329485,15.361,0.025
53833.340917,15.221,0.02
53833.352012,15.121,0.018
53833.363137,15.058,0.016
53858.297977,15.225,0.025
53858.308086,15.306,0.026
53858.318013,15.417,0.071
53864.291071,15.097,0.031
53864.3007,15.118,0.033
53864.310317,15.222,0.035
53864.320152,15.352,0.04
53864.329862,15.405,0.04
53876.263915,14.975,0.021
53876.274882,14.967,0.021
53876.296642,14.985,0.026
53905.221693,15.009,0.016
53905.231534,14.975,0.016
53905.241263,14.974,0.016
53905.250966,14.994,0.016
53905.264488,15.026,0.018
53933.215901,14.988,0.021
53933.226167,14.999,0.025
53933.236497,14.971,0.026
53933.246891,14.939,0.02
53933.257162,14.956,0.02
53955.156342,15.382,0.05
53955.168551,15.297,0.048
53955.180784,15.191,0.043
53955.193018,15.097,0.041
53955.205065,15.074,0.041
53991.11555,15.084,0.025
53991.127946,15.023,0.021
53991.139903,14.982,0.02
53991.151514,14.965,0.021
53991.163435,14.991,0.021
54021.076983,14.987,0.02
54021.088784,15.019,0.021
54021.100454,15.058,0.023
54021.111912,15.124,0.025
54021.123351,15.223,0.028
54108.455425,15.172,0.03
54108.468229,15.236,0.035
54108.480969,15.31,0.035
54108.493759,15.219,0.03
54108.50651,15.116,0.024
54139.441861,15.049,0.031
54157.390619,15.205,0.025
54157.401929,15.105,0.021
54157.412883,15.069,0.02
54157.423849,15.013,0.018
54157.434807,14.957,0.016
54483.457623,15.227,0.028
54483.483284,15.253,0.028
54483.495332,15.169,0.026
54483.507502,15.073,0.025
54524.398387,14.974,0.02
54524.410017,15.023,0.021
54524.421489,15.092,0.021
54524.433522,15.206,0.023
54524.445461,15.322,0.025
54539.370646,15.035,0.02
54539.38146,15.007,0.02
54539.39214,14.949,0.02
54539.403331,14.92,0.02
54539.414853,14.938,0.02
54571.302078,15.238,0.031
54571.313264,15.126,0.028
54571.324391,15.043,0.026
54571.335253,14.999,0.025
54571.34612,14.973,0.025
54587.300242,15.035,0.033
54587.310388,15.016,0.031
54587.3206,14.985,0.031
54587.331032,14.945,0.031
54620.264433,15.005,0.028
54620.274766,14.974,0.026
54620.28558,15.065,0.03
54620.295751,15.069,0.03
54620.305944,15.169,0.031
