mjd,m,merr
52693.425831,14.471,0.011
52693.442419,14.51,0.011
52693.457862,14.541,0.011
52693.473345,14.592,0.011
52693.488578,14.612,0.013
52721.373483,14.651,0.011
52721.386392,14.639,0.011
52721.399315,14.65,0.011
52721.412207,14.639,0.011
52721.425065,14.643,0.011
52750.339078,14.649,0.013
52750.349895,14.631,0.015
52750.360644,14.682,0.015
52750.371495,14.7,0.028
52781.269216,14.616,0.011
52781.279923,14.573,0.011
52781.290601,14.495,0.009
52781.301515,14.436,0.009
52781.312329,14.395,0.009
52801.265572,14.397,0.024
52801.275662,14.369,0.024
52801.285728,14.349,0.024
52801.29589,14.31,0.022
52801.306086,14.298,0.022
52809.227306,14.273,0.009
52809.237171,14.291,0.009
52809.246964,14.286,0.009
52809.256979,14.3,0.009
52830.219312,14.507,0.017
52830.229246,14.471,0.017
52830.239183,14.415,0.015
52830.249095,14.377,0.015
52830.258996,14.344,0.015
52846.16724,14.361,0.011
52846.17732,14.373,0.011
52846.187396,14.453,0.011
52846.197443,14.482,0.011
52846.207475,14.438,0.011
52897.123315,14.639,0.013
52897.135069,14.637,0.013
52897.146801,14.612,0.013
52897.158783,14.617,0.015
52897.170492,14.55,0.017
53045.386063,14.61,0.018
53045.397315,14.608,0.018
53045.408592,14.62,0.017
53045.419853,14.614,0.017
53045.431037,14.516,0.015
53096.377741,14.365,0.013
53096.387828,14.366,0.013
53096.397874,14.384,0.011
53096.407921,14.426,0.013
53096.418026,14.429,0.013
53108.355982,14.34,0.007
53108.367037,14.336,0.007
53108.378124,14.331,0.007
53108.389202,14.316,0.007
53108.400331,14.314,0.009
53125.296074,14.345,0.013
53125.306016,14.315,0.013
53125.315965,14.307,0.013
53125.325957,14.325,0.013
53125.335985,14.332,0.013
53134.291038,14.376,0.011
53134.300595,14.338,0.011
53134.310125,14.312,0.011
53134.319636,14.293,0.011
53155.257604,14.663,0.018
53155.266397,14.647,0.018
53155.275158,14.656,0.018
53155.283939,14.656,0.018
53155.292706,14.658,0.018
53193.246066,14.641,0.018
53193.256165,14.635,0.015
53193.266257,14.666,0.017
53244.139463,14.53,0.015
53244.149664,14.482,0.015
53244.159851,14.467,0.015
53244.170042,14.409,0.015
53244.180243,14.408,0.015
53283.113018,14.547,0.011
53283.123196,14.559,0.011
53283.133386,14.566,0.011
53283.143598,14.574,0.013
53283.153785,14.602,0.013
53451.395664,14.67,0.013
53451.406434,14.686,0.013
53451.417211,14.671,0.013
53451.427976,14.661,0.013
53451.438753,14.619,0.013
53461.385161,14.312,0.009
53461.395519,14.33,0.009
53461.405821,14.375,0.009
53461.416154,14.375,0.009
53461.426499,14.419,0.009
53489.316201,14.536,0.015
53489.340577,14.607,0.011
53489.351885,14.623,0.013
53535.225673,14.541,0.013
53535.235668,14.571,0.013
53535.245694,14.592,0.013
53535.255708,14.621,0.013
53535.265717,14.619,0.013
53563.232334,14.537,0.015
53563.24295,14.452,0.013
53563.253522,14.417,0.011
53563.264098,14.411,0.011
53599.150829,14.399,0.015
53599.163443,14.441,0.017
53599.176041,14.486,0.015
53599.188645,14.532,0.017
53599.201236,14.52,0.018
53607.13481,14.553,0.011
53607.146317,14.565,0.013
53607.169179,14.528,0.018
53635.108664,14.408,0.011
53635.11924,14.371,0.009
53635.129676,14.354,0.009
53635.140095,14.347,0.009
53635.150515,14.302,0.011
53755.467982,14.664,0.015
53755.48074,14.644,0.015
53755.493543,14.612,0.015
53755.506396,14.559,0.013
53755.519263,14.505,0.013
53774.478211,14.357,0.009
53774.491402,14.387,0.009
53774.504171,14.413,0.009
53774.517346,14.443,0.009
53803.40643,14.342,0.01
53803.419516,14.298,0.01
53803.443489,14.355,0.01
53803.455469,14.35,0.01
53829.341575,14.285,0.013
53829.352154,14.293,0.01
53833.318259,14.641,0.013
53833.329988,14.623,0.015
53833.341577,14.639,0.012
53858.298278,14.361,0.013
53858.308383,14.323,0.012
53858.318325,14.317,0.028
53864.291372,14.396,0.016
53864.310628,14.317,0.016
53864.33017,14.329,0.015
53876.26457,14.668,0.018
53876.275529,14.678,0.02
53905.264919,14.626,0.013
53905.274553,14.581,0.013
53905.284464,14.526,0.012
53905.294087,14.467,0.012
53905.303709,14.415,0.012
53933.216347,14.322,0.013
53933.226609,14.287,0.016
53933.236954,14.312,0.018
53933.247336,14.337,0.015
53933.257609,14.31,0.013
53954.166496,14.641,0.024
53954.178577,14.627,0.024
53991.115896,14.434,0.015
53991.14025,14.346,0.013
53991.163784,14.36,0.013
54108.455823,14.599,0.018
54108.468627,14.563,0.02
54108.481366,14.508,0.017
54108.494156,14.467,0.015
54108.506909,14.431,0.013
54125.4402,14.424,0.015
54125.452268,14.379,0.015
54125.464378,14.377,0.013
54125.476382,14.364,0.013
54125.488401,14.341,0.013
54139.41868,14.323,0.02
54139.430175,14.354,0.021
54139.442272,14.292,0.015
54157.391282,14.613,0.015
54157.402589,14.54,0.013
54157.413548,14.495,0.012
54157.424512,14.452,0.012
54157.43547,14.418,0.012
54524.399056,14.324,0.013
54524.410681,14.295,0.013
54524.422155,14.341,0.013
54524.434188,14.359,0.013
54524.446126,14.387,0.013
54539.371096,14.408,0.013
54539.381907,14.368,0.013
54539.392587,14.347,0.013
54539.403781,14.355,0.013
54539.415296,14.322,0.013
54571.302471,14.617,0.02
54571.313652,14.56,0.018
54571.324783,14.477,0.018
54571.335646,14.421,0.016
54571.346512,14.387,0.016
54587.300742,14.381,0.028
54587.31089,14.438,0.028
54587.331532,14.467,0.03
54587.34159,14.49,0.03
54620.264878,14.422,0.018
54620.275209,14.429,0.018
54620.286023,14.388,0.018
54620.296194,14.366,0.018
54620.306387,14.37,0.018
