mjd,m,merr
52693.426524,15.26,0.02
52693.442971,15.208,0.018
52693.458417,15.149,0.018
52693.473906,15.15,0.018
52693.489142,15.18,0.018
52721.374043,15.142,0.017
52721.386946,15.17,0.017
52721.399871,15.205,0.018
52721.412764,15.251,0.018
52721.425618,15.34,0.02
52750.339547,15.296,0.022
52750.350363,15.365,0.03
52750.361112,15.447,0.037
52750.371964,15.463,0.054
52781.272372,15.191,0.023
52781.283001,15.228,0.023
52781.293758,15.262,0.023
52781.305246,15.363,0.025
52781.316377,15.443,0.026
52801.265845,15.431,0.057
52801.275935,15.309,0.054
52801.286007,15.285,0.05
52801.296162,15.178,0.046
52801.306362,15.197,0.044
52809.22758,15.466,0.022
52809.237444,15.437,0.022
52809.247308,15.403,0.02
52809.257253,15.306,0.02
52830.219585,15.11,0.028
52830.229521,15.093,0.026
52830.239461,15.1,0.028
52830.249372,15.125,0.028
52830.259278,15.143,0.028
52843.229374,15.338,0.027
52843.239624,15.378,0.028
52843.249745,15.393,0.028
52843.25979,15.331,0.028
52843.269769,15.308,0.027
52873.142667,15.2,0.021
52873.154675,15.268,0.022
52873.166683,15.338,0.025
52873.178901,15.397,0.028
52873.190987,15.447,0.036
52897.123699,15.218,0.02
52897.135451,15.285,0.022
52897.147184,15.359,0.024
52897.159164,15.464,0.03
52897.170875,15.53,0.035
52927.08096,15.334,0.024
52927.092273,15.401,0.026
52927.104683,15.495,0.028
52927.117005,15.516,0.03
52927.128946,15.406,0.028
53045.386357,15.267,0.028
53045.397635,15.378,0.031
53045.408887,15.47,0.031
53045.420149,15.481,0.031
53045.431332,15.433,0.03
53096.378054,15.153,0.024
53096.388105,15.223,0.026
53096.398151,15.254,0.026
53096.408197,15.314,0.028
53096.418303,15.419,0.028
53108.356258,15.445,0.018
53108.367313,15.371,0.017
53108.3784,15.294,0.017
53108.389478,15.201,0.015
53108.400606,15.166,0.017
53125.296331,15.118,0.026
53125.306273,15.149,0.028
53125.316222,15.195,0.028
53125.326214,15.298,0.03
53125.336242,15.382,0.031
53134.291289,15.117,0.018
53134.300846,15.08,0.018
53134.310375,15.101,0.02
53134.319887,15.141,0.02
53134.329475,15.166,0.024
53155.257844,15.203,0.028
53155.266635,15.236,0.03
53155.275396,15.349,0.031
53155.284178,15.407,0.035
53155.292946,15.453,0.035
53193.226135,15.377,0.039
53193.246303,15.468,0.041
53193.256404,15.343,0.026
53193.266495,15.224,0.026
53244.139723,15.227,0.028
53244.149924,15.2,0.028
53244.160111,15.161,0.028
53244.170302,15.128,0.026
53244.180503,15.117,0.026
53283.113312,15.168,0.018
53283.123492,15.101,0.017
53283.133682,15.108,0.018
53283.143893,15.127,0.02
53283.154081,15.141,0.02
53390.473015,15.545,0.024
53390.485724,15.475,0.022
53390.498419,15.31,0.018
53390.511116,15.268,0.018
53390.524277,15.225,0.017
53400.436601,15.152,0.022
53400.449101,15.205,0.022
53400.461535,15.264,0.024
53400.486406,15.442,0.055
53429.388124,15.245,0.024
53429.399406,15.343,0.026
53429.410705,15.496,0.03
53429.421992,15.52,0.03
53429.43328,15.441,0.028
53461.385476,15.418,0.022
53461.395833,15.472,0.022
53461.406135,15.434,0.022
53461.416468,15.331,0.02
53489.305954,15.476,0.043
53489.316617,15.471,0.048
53489.340992,15.261,0.02
53489.352299,15.187,0.02
53535.266387,15.251,0.02
53535.276318,15.218,0.02
53535.286266,15.186,0.018
53535.296212,15.185,0.018
53535.306231,15.173,0.018
53563.221752,15.143,0.031
53563.232721,15.184,0.026
53563.243337,15.241,0.028
53563.253911,15.275,0.022
53599.151233,15.22,0.03
53599.163846,15.31,0.035
53599.176445,15.46,0.037
53599.189048,15.459,0.039
53599.201638,15.326,0.037
53607.135108,15.231,0.028
53607.146616,15.281,0.02
53607.169478,15.427,0.054
53635.109118,15.322,0.024
53635.119694,15.27,0.02
53635.130129,15.224,0.018
53635.14055,15.169,0.018
53635.150968,15.106,0.02
53755.468505,15.198,0.024
53755.481263,15.145,0.022
53755.494068,15.12,0.02
53755.506921,15.108,0.02
53755.519788,15.141,0.02
53803.406817,15.318,0.023
53803.419911,15.246,0.02
53803.431917,15.176,0.018
53803.443881,15.159,0.016
53803.455862,15.12,0.016
53807.448033,15.498,0.056
53829.319709,15.122,0.048
53829.331288,15.092,0.02
53829.341903,15.102,0.021
53829.352482,15.128,0.021
53829.363077,15.205,0.035
53833.318741,15.398,0.023
53833.330346,15.446,0.025
53833.341915,15.376,0.021
53833.352864,15.329,0.02
53833.364299,15.248,0.018
53858.298687,15.278,0.03
53858.308786,15.282,0.03
53858.318734,15.332,0.089
53864.291769,15.475,0.043
53864.311025,15.365,0.038
53864.320867,15.257,0.035
53864.330577,15.259,0.033
53876.264901,15.15,0.031
53876.27586,15.124,0.031
53905.26535,15.472,0.025
53905.274986,15.483,0.025
53905.284895,15.465,0.025
53905.294519,15.412,0.025
53905.30414,15.353,0.023
53934.216932,15.433,0.026
53934.243002,15.227,0.026
53934.25366,15.191,0.025
53934.264143,15.157,0.028
53955.157133,15.351,0.048
53955.169351,15.238,0.044
53955.18156,15.213,0.044
53955.193804,15.19,0.046
53955.205835,15.164,0.046
53991.116352,15.223,0.028
53991.128748,15.188,0.025
53991.140704,15.223,0.025
53991.152398,15.333,0.028
53991.164241,15.399,0.031
54021.077615,15.237,0.025
54021.089414,15.315,0.028
54021.112545,15.505,0.033
54108.456349,15.395,0.035
54108.469153,15.435,0.039
54108.481891,15.483,0.037
54108.494682,15.344,0.031
54108.507434,15.249,0.026
54139.404829,15.311,0.043
54139.428289,15.473,0.035
54167.387449,15.218,0.022
54167.398753,15.164,0.022
54167.40991,15.16,0.02
54167.421052,15.199,0.022
54167.432194,15.226,0.022
54524.399722,15.354,0.025
54524.411345,15.369,0.026
54524.422821,15.592,0.03
54524.434854,15.645,0.031
54524.446791,15.607,0.03
