mjd,m,merr
52693.45444,15.113,0.021
52693.468539,15.191,0.023
52693.482208,15.319,0.025
52693.496896,15.462,0.028
52693.510639,15.403,0.026
52721.365061,15.11,0.021
52721.377549,15.209,0.023
52721.390351,15.338,0.025
52721.402471,15.555,0.03
52721.41501,15.479,0.028
52750.350173,15.076,0.026
52750.361108,15.096,0.028
52750.372057,15.109,0.048
52750.394426,15.369,0.061
52781.272694,15.589,0.03
52781.283323,15.563,0.028
52781.294245,15.374,0.025
52781.305624,15.276,0.023
52781.316704,15.215,0.021
52802.273759,15.116,0.045
52802.284393,15.217,0.049
52802.294967,15.397,0.054
52802.305802,15.395,0.053
52802.316395,15.508,0.061
52829.252545,15.133,0.033
52829.262679,15.23,0.035
52926.097382,15.441,0.03
52926.109085,15.514,0.035
52926.12052,15.489,0.037
52926.13194,15.368,0.037
52926.143722,15.229,0.035
53044.423156,15.468,0.041
53074.392994,15.322,0.033
53074.404049,15.18,0.031
53074.415196,15.122,0.03
53074.426284,15.048,0.028
53074.437352,15.034,0.025
53104.315623,15.433,0.033
53104.326627,15.293,0.028
53104.337577,15.188,0.025
53104.348211,15.112,0.025
53104.358933,15.084,0.023
53126.290509,15.461,0.035
53126.300324,15.374,0.031
53126.310098,15.25,0.026
53126.319859,15.145,0.025
53126.32962,15.096,0.023
53133.323417,15.358,0.058
53156.269847,15.093,0.025
53156.278236,15.077,0.025
53156.286565,15.049,0.023
53162.263975,15.213,0.026
53162.27362,15.349,0.033
53162.283268,15.44,0.038
53162.292919,15.596,0.043
53162.302631,15.6,0.045
53192.229858,15.576,0.03
53192.248636,15.388,0.03
53192.257846,15.302,0.03
53222.209404,15.13,0.02
53222.218954,15.088,0.021
53222.228477,15.06,0.02
53222.238186,15.028,0.021
53245.136812,15.082,0.026
53245.158042,15.041,0.028
53245.168552,15.087,0.03
53251.129512,15.258,0.018
53251.140715,15.472,0.064
53251.151542,15.526,0.025
53251.16235,15.657,0.033
53251.173463,15.581,0.035
53275.100982,15.081,0.026
53275.114295,15.114,0.028
53275.126748,15.119,0.03
53275.139349,15.27,0.036
53275.151843,15.409,0.043
53280.095457,15.093,0.018
53390.472769,15.095,0.018
53390.485478,15.143,0.018
53390.498173,15.228,0.018
53390.510869,15.317,0.02
53390.524031,15.478,0.024
53400.43636,15.068,0.022
53400.44886,15.084,0.022
53400.461293,15.105,0.022
53429.387879,15.245,0.026
53429.399161,15.145,0.024
53429.410461,15.1,0.022
53429.421745,15.065,0.02
53429.433035,15.082,0.02
53476.330533,15.105,0.02
53476.340907,15.049,0.018
53476.351719,15.043,0.017
53476.362097,15.016,0.017
53476.372852,15.019,0.017
53481.356545,15.043,0.024
53481.367111,15.058,0.024
53481.377885,15.095,0.024
53481.388314,15.138,0.026
53481.39873,15.2,0.026
53489.305753,15.023,0.02
53489.316415,15.047,0.028
53489.34079,15.17,0.02
53489.352099,15.243,0.022
53535.225839,15.517,0.03
53535.235834,15.348,0.026
53535.24586,15.258,0.022
53535.255873,15.119,0.02
53535.265883,15.121,0.02
53563.232534,15.087,0.028
53563.253723,15.282,0.024
53599.151039,15.477,0.041
53599.163652,15.331,0.039
53599.17625,15.123,0.031
53599.188854,15.116,0.031
53599.201445,15.084,0.033
53608.135375,15.139,0.018
53608.14676,15.256,0.02
53608.158167,15.371,0.02
53608.169542,15.545,0.028
53608.180792,15.626,0.026
53635.108897,15.141,0.024
53635.119475,15.235,0.02
53635.129909,15.318,0.022
53635.140329,15.423,0.024
53635.150749,15.471,0.031
53755.46825,15.143,0.024
53755.481008,15.218,0.026
53755.493811,15.369,0.028
53755.506665,15.484,0.03
53755.519532,15.384,0.028
53775.519651,15.106,0.046
53858.298493,15.085,0.02
53858.308598,15.043,0.018
53858.31854,14.947,0.04
53864.301218,15.316,0.04
53864.320673,15.552,0.049
53864.330382,15.478,0.045
53906.22492,15.153,0.03
53906.257231,15.515,0.087
53906.270007,15.429,0.061
53934.216729,15.077,0.021
53934.242798,15.017,0.025
53934.263941,15.0,0.028
53955.156722,15.075,0.041
53955.168929,15.077,0.043
53955.181163,15.179,0.048
53955.193397,15.389,0.059
53955.205445,15.465,0.065
53991.116128,15.168,0.025
53991.128524,15.093,0.021
53991.14048,15.012,0.02
53991.152174,15.034,0.02
53991.164017,15.02,0.02
54021.077365,15.048,0.021
54021.089165,15.045,0.021
54021.100837,15.07,0.021
54021.112295,15.094,0.023
54021.123734,15.133,0.025
54108.456086,15.387,0.037
54108.468891,15.456,0.043
54108.481628,15.382,0.037
54108.494419,15.201,0.03
54108.507172,15.137,0.026
54139.392729,15.034,0.035
54139.404568,15.005,0.033
54139.416291,15.069,0.046
54139.428031,15.067,0.024
54139.439832,15.047,0.03
54167.387202,15.463,0.028
54167.398505,15.537,0.033
54167.409664,15.417,0.028
54167.420803,15.285,0.024
54167.431944,15.204,0.024
54495.466093,15.038,0.023
54495.478143,15.023,0.021
54495.490184,15.029,0.021
54495.502206,15.023,0.021
54495.514226,15.068,0.021
54523.396102,15.054,0.02
54523.407965,15.078,0.02
54523.419619,15.094,0.02
54523.431234,15.136,0.021
54523.442841,15.2,0.021
54540.385029,15.009,0.018
54540.39586,15.021,0.018
54540.406741,15.059,0.018
54540.417614,15.118,0.02
54540.428465,15.149,0.02
54554.364514,15.258,0.025
54554.376381,15.186,0.021
54554.388264,15.101,0.021
54554.400118,15.066,0.02
54554.412426,15.046,0.02
54572.30291,15.186,0.041
54572.313823,15.145,0.026
54588.297401,15.233,0.03
54588.307263,15.306,0.031
54588.317095,15.388,0.033
54588.327024,15.435,0.033
54588.337206,15.396,0.033
54621.263471,15.174,0.03
54621.273916,15.146,0.03
54621.284947,15.06,0.028
54621.295037,15.037,0.026
54621.305058,15.021,0.025
