mjd,m,merr
52602.403341,15.466,0.041
52602.417833,15.299,0.036
52602.433003,15.245,0.035
52602.447307,15.182,0.031
52602.461617,15.102,0.028
52621.438935,15.061,0.015
52621.45359,15.11,0.017
52621.468171,15.068,0.015
52621.482974,15.077,0.017
52621.497552,15.092,0.017
52636.43994,14.946,0.016
52636.455646,14.989,0.016
52636.470463,15.001,0.016
52636.485182,15.019,0.018
52636.500147,15.014,0.016
52653.385649,15.185,0.025
52653.400575,15.267,0.021
52653.415419,15.264,0.021
52653.430598,15.293,0.021
52653.445766,15.292,0.02
52684.357096,15.29,0.033
52684.372447,15.319,0.033
52684.387615,15.325,0.031
52684.402446,15.332,0.031
52684.417343,15.248,0.03
52693.340613,15.033,0.015
52693.356309,15.057,0.015
52693.371592,15.086,0.017
52693.386836,15.067,0.017
52693.402232,15.102,0.017
52721.248181,14.895,0.011
52721.260958,14.931,0.011
52721.273776,14.925,0.011
52721.286532,14.947,0.013
52721.299587,14.957,0.013
52750.232594,15.087,0.015
52750.243301,15.102,0.015
52750.254099,15.122,0.018
52750.264804,15.11,0.037
52772.208906,14.978,0.033
52772.209043,15.005,0.033
52772.220644,14.935,0.033
52772.232251,14.949,0.033
52772.243767,14.91,0.031
52801.166165,14.952,0.048
52801.176161,14.945,0.05
52801.186121,15.044,0.055
52801.196168,14.97,0.059
52809.180237,15.059,0.02
52809.189991,15.094,0.02
52809.209746,15.134,0.028
52948.454281,14.923,0.017
52948.466351,14.888,0.017
52948.478334,14.856,0.015
52948.490377,14.855,0.015
52948.502521,14.868,0.015
52978.43481,15.195,0.023
52978.455519,15.212,0.02
52978.47213,15.192,0.018
52978.487544,15.242,0.018
52978.50044,15.193,0.018
52988.36627,15.16,0.023
52988.377501,15.143,0.021
52988.388708,15.159,0.021
52988.400377,15.168,0.023
52988.412096,15.151,0.023
53008.413815,15.081,0.018
53008.427022,15.071,0.018
53008.440649,15.093,0.018
53008.455753,15.093,0.018
53038.361778,14.905,0.022
53038.376015,14.869,0.02
53038.393729,14.829,0.026
53038.409399,14.82,0.026
53038.424209,14.844,0.022
53045.322273,15.196,0.022
53045.333386,15.221,0.022
53045.344608,15.229,0.024
53045.35582,15.218,0.022
53045.366928,15.25,0.024
53096.272414,15.149,0.031
53096.2828,15.19,0.031
53096.293257,15.218,0.033
53096.30356,15.146,0.039
53096.313875,15.215,0.039
53108.249386,14.947,0.013
53108.260495,14.956,0.013
53108.271631,14.96,0.013
53108.282656,14.999,0.013
53108.293804,14.999,0.013
53125.199837,15.188,0.057
53125.209674,15.204,0.054
53125.219527,15.245,0.05
53125.22936,15.312,0.05
53125.239222,15.304,0.046
53134.198972,14.996,0.017
53134.20842,14.983,0.017
53134.21815,14.993,0.018
53134.227845,15.015,0.022
53134.237281,15.035,0.02
53155.207354,15.087,0.039
53155.215958,15.139,0.037
53155.224623,15.141,0.035
53155.233213,15.12,0.035
53155.241823,15.156,0.035
53339.437036,15.173,0.036
53339.449467,15.161,0.035
53339.46184,15.091,0.033
53339.474157,15.128,0.033
53356.451882,14.99,0.017
53356.464886,15.009,0.017
53356.477887,15.045,0.017
53356.491203,15.026,0.017
53356.504351,15.041,0.015
53358.399862,14.986,0.016
53358.414678,14.945,0.016
53358.429336,14.93,0.015
53358.443965,14.878,0.015
53358.458468,14.86,0.013
53362.451672,15.196,0.026
53362.46539,15.22,0.022
53362.480549,15.231,0.02
53362.496314,15.204,0.017
53390.342738,15.093,0.02
53390.355482,15.112,0.02
53390.368233,15.12,0.018
53390.381052,15.089,0.018
53390.394574,15.152,0.018
53429.277775,15.159,0.02
53429.289007,15.17,0.02
53429.300239,15.156,0.018
53429.311773,15.191,0.02
53429.323276,15.211,0.02
53430.362114,14.865,0.015
53430.387698,14.837,0.015
53430.400524,14.835,0.015
53430.411885,14.868,0.015
53431.28363,14.997,0.013
53431.295689,15.029,0.013
53431.30753,15.026,0.015
53431.319777,15.029,0.015
53431.331996,15.065,0.015
53432.317599,15.258,0.083
53432.330452,15.225,0.044
53433.282636,14.852,0.011
53433.296902,14.849,0.011
53433.311715,14.863,0.011
53433.326473,14.904,0.011
53433.34223,14.924,0.011
53461.277603,14.924,0.015
53461.290765,14.879,0.013
53461.301374,14.856,0.013
53461.312136,14.844,0.013
53461.322838,14.858,0.013
53489.198305,15.26,0.043
53489.210501,15.28,0.022
53489.220684,15.25,0.054
53489.230879,15.302,0.028
53489.241025,15.263,0.033
53535.171269,15.196,0.028
53535.181187,15.207,0.028
53535.19113,15.272,0.03
53535.201051,15.254,0.028
53535.210979,15.222,0.028
53687.444488,15.123,0.024
53687.456924,15.202,0.022
53687.469291,15.133,0.018
53687.481687,15.127,0.017
53687.494056,15.146,0.018
53725.402747,14.95,0.024
53725.415779,15.005,0.026
53725.430687,15.033,0.026
53725.444359,15.013,0.026
53725.457389,15.001,0.026
53755.342998,15.302,0.024
53755.35569,15.278,0.024
53755.368893,15.269,0.024
53755.381844,15.256,0.022
53755.395023,15.158,0.02
53775.354298,15.161,0.026
53775.367073,15.205,0.048
53775.380025,15.261,0.028
53775.394709,15.351,0.031
53775.405302,15.247,0.041
53775.40854,15.239,0.033
53775.422359,15.3,0.046
53775.436407,15.298,0.04
53775.450297,15.317,0.045
53807.317399,14.88,0.035
53807.329301,14.942,0.033
53807.341226,14.923,0.026
53807.353143,14.898,0.026
53829.213686,15.313,0.058
53833.244769,14.934,0.018
53833.255362,14.934,0.02
53858.198146,15.357,0.048
53858.208494,15.285,0.028
53858.219005,15.298,0.04
53858.229298,15.265,0.028
53858.23954,15.203,0.023
53876.205485,15.206,0.041
53876.226777,15.207,0.025
53876.237414,15.109,0.016
53905.16689,14.905,0.016
53905.176901,14.909,0.016
53905.186915,14.936,0.018
53905.196832,14.931,0.018
54050.435386,14.841,0.02
54050.447599,14.879,0.02
54050.459895,14.865,0.02
54050.472086,14.892,0.02
54050.484256,14.926,0.02
54079.365851,15.082,0.028
54079.377854,15.03,0.028
54079.389947,15.051,0.028
54079.401955,15.061,0.028
54079.413983,15.086,0.028
54108.33308,15.203,0.024
54108.345784,15.232,0.024
54108.358492,15.19,0.022
54108.371194,15.188,0.022
54108.383951,15.234,0.024
54126.326922,15.24,0.021
54139.326896,15.204,0.02
54139.3386,15.194,0.018
54139.350361,15.248,0.022
54139.362143,15.274,0.026
54139.373832,15.272,0.03
54167.279233,15.203,0.02
54167.290325,15.244,0.03
54167.301432,15.246,0.02
54167.31253,15.194,0.022
54465.402134,14.866,0.02
54465.414536,14.87,0.02
54465.426932,14.891,0.02
54465.439596,14.934,0.02
54484.358314,15.122,0.025
54484.370624,15.164,0.026
54496.407171,14.968,0.02
54496.418991,14.971,0.02
54496.432623,14.968,0.02
54496.446844,14.992,0.02
54496.462258,15.017,0.02
54524.282848,15.085,0.023
54524.295083,15.003,0.023
54524.306691,14.985,0.023
54524.318214,14.964,0.021
54524.329712,14.929,0.018
54540.275704,14.926,0.016
54540.286586,14.927,0.016
54540.29746,14.953,0.016
54540.308367,14.954,0.016
54540.319239,14.984,0.018
54555.185248,15.266,0.026
54555.196964,15.194,0.025
54555.209205,15.118,0.023
54555.220951,15.017,0.021
54555.232649,14.994,0.021
54620.167075,14.976,0.023
54620.178066,14.968,0.023
54620.18838,14.977,0.023
54620.19872,14.982,0.023
54620.209137,15.007,0.023
