mjd,m,merr
52608.455151,15.918,0.065
52608.470108,15.944,0.044
52608.499873,16.028,0.063
52641.385745,15.378,0.022
52641.400709,15.414,0.022
52641.415584,15.44,0.022
52641.430467,15.471,0.024
52641.44534,15.522,0.026
52644.391789,15.579,0.028
52644.406758,15.613,0.026
52644.421701,15.648,0.026
52644.437039,15.704,0.028
52644.452055,15.764,0.03
52648.329731,16.074,0.046
52648.345016,16.156,0.049
52648.375596,16.124,0.049
52648.390702,16.126,0.049
52667.323807,15.96,0.033
52667.354582,16.004,0.037
52667.369908,16.061,0.039
52667.385187,15.974,0.037
52671.362506,16.142,0.046
52671.377374,16.117,0.048
52671.393129,16.15,0.048
52671.40782,16.154,0.049
52671.422794,16.115,0.048
52707.240736,15.788,0.033
52707.240852,15.661,0.03
52707.253915,15.769,0.033
52707.266985,15.803,0.033
52707.280052,15.841,0.035
52707.280167,15.777,0.031
52707.293482,15.887,0.036
52707.293596,15.684,0.03
52737.187407,15.998,0.044
52737.199343,16.029,0.044
52737.211089,16.025,0.044
52737.222823,16.03,0.044
52737.234573,16.032,0.044
52756.137432,16.063,0.041
52756.149171,16.027,0.041
52756.160922,16.057,0.041
52756.172713,16.07,0.043
52756.184547,16.081,0.044
52972.388778,15.534,0.028
52972.40159,15.437,0.022
52972.41451,15.399,0.02
52972.427834,15.442,0.02
52972.44065,15.473,0.02
53033.27832,16.033,0.041
53033.290515,16.011,0.041
53033.302571,16.021,0.039
53033.314772,16.067,0.041
53033.326926,16.078,0.041
53054.298749,15.775,0.026
53054.31235,15.793,0.026
53054.32815,15.789,0.026
53054.342032,15.833,0.028
53054.354535,15.857,0.028
53080.222124,15.463,0.022
53080.233116,15.523,0.022
53080.244042,15.551,0.024
53080.258984,15.562,0.024
53080.270263,15.609,0.026
53111.182458,15.848,0.039
53111.19327,15.87,0.041
53111.204044,15.919,0.043
53111.214797,15.928,0.044
53111.225539,15.939,0.044
53139.151397,16.08,0.048
53139.161509,16.118,0.052
53139.171217,16.078,0.052
53139.180777,16.132,0.055
53139.190315,16.098,0.055
53315.465733,15.869,0.061
53315.477604,15.877,0.054
53346.389724,15.978,0.044
53346.40216,16.043,0.046
53346.416371,16.042,0.046
53346.42955,16.072,0.044
53346.442216,16.083,0.048
53440.366425,15.748,0.035
53440.377446,15.805,0.041
53440.389001,15.835,0.044
53440.400087,15.843,0.048
53440.41105,15.857,0.054
53469.173337,16.072,0.043
53469.18408,15.94,0.039
53469.197895,15.666,0.03
53469.2089,15.562,0.026
53469.218926,15.427,0.024
53496.147193,15.978,0.05
53496.157138,16.025,0.052
53496.167184,16.045,0.054
53496.177148,16.055,0.055
53496.187119,16.118,0.061
53791.292712,16.174,0.04
53791.304985,16.093,0.036
53791.317114,15.918,0.033
53791.329382,15.709,0.028
53791.341307,15.576,0.025
53815.229533,15.884,0.046
53815.240966,15.852,0.055
53815.252313,15.876,0.065
53815.263768,15.908,0.052
53815.275157,15.889,0.078
53833.178148,16.214,0.105
53833.187995,16.108,0.094
53833.198141,16.307,0.12
53833.207995,16.132,0.098
53833.217854,16.108,0.098
53846.138748,16.034,0.049
53846.149476,16.112,0.054
53846.160144,16.063,0.054
53846.170729,16.069,0.059
53846.181217,16.101,0.056
54049.431232,15.93,0.074
54049.443351,15.919,0.07
54049.455508,15.95,0.072
54049.467509,16.059,0.076
54049.479493,16.115,0.078
54060.436214,15.933,0.043
54060.451959,15.974,0.045
54060.4648,16.042,0.046
54060.479533,16.053,0.048
54060.492278,16.064,0.048
54081.378348,16.098,0.099
54081.391139,16.019,0.089
54081.429129,16.124,0.099
54113.329014,16.071,0.068
54113.341545,16.207,0.183
54113.354486,16.115,0.124
54113.379685,15.933,0.031
54147.277834,15.514,0.028
54147.289617,15.492,0.026
54147.301459,15.602,0.03
54147.313914,15.63,0.03
54147.325715,15.642,0.031
54156.264141,15.736,0.031
54156.275673,15.725,0.031
54156.287209,15.773,0.033
54156.298749,15.793,0.033
54156.310307,15.818,0.035
54175.218528,15.772,0.033
54175.229355,15.837,0.035
54175.240369,15.835,0.035
54175.251156,15.855,0.035
54175.261958,15.813,0.035
54198.187381,15.426,0.036
54198.197166,15.467,0.035
54198.206758,15.506,0.036
54447.440463,15.794,0.045
54447.452683,15.62,0.04
54447.464956,15.571,0.045
54447.477438,15.451,0.038
54447.489842,15.498,0.064
54452.443689,15.92,0.045
54452.456439,16.036,0.049
54452.46884,16.044,0.049
54452.481439,16.13,0.053
54452.49375,16.037,0.049
54477.388767,16.062,0.083
54477.402035,16.101,0.086
54477.414615,16.1,0.086
54477.426895,16.088,0.086
54477.439429,16.056,0.083
54480.274762,15.86,0.026
54480.287753,15.821,0.024
54480.30075,15.828,0.022
54480.313744,15.914,0.024
54480.326751,15.996,0.026
54496.405556,15.998,0.028
54496.418137,15.967,0.028
54496.430803,15.965,0.03
54496.443389,15.939,0.03
54496.455978,15.929,0.033
54506.390946,16.081,0.045
54506.40283,16.084,0.046
54506.415355,16.016,0.043
54506.427195,16.165,0.053
54506.439106,16.077,0.051
54525.32744,15.932,0.028
54525.33841,15.957,0.03
54525.349404,15.971,0.037
54525.360406,15.992,0.043
54525.371595,16.028,0.05
54534.330322,16.057,0.048
54534.341518,16.078,0.053
54534.352506,16.107,0.053
54534.363837,16.091,0.053
54534.374923,16.051,0.056
54568.187042,16.111,0.063
54568.198084,16.166,0.068
54568.208835,16.147,0.068
54568.220176,16.077,0.064
54568.231367,15.911,0.059
