mjd,m,merr
52620.419042,15.541,0.024
52620.434635,15.575,0.024
52620.449737,15.574,0.024
52636.360203,15.428,0.028
52636.374335,15.427,0.026
52636.388508,15.472,0.026
52636.402724,15.476,0.026
52636.416927,15.478,0.026
52650.28624,15.531,0.024
52650.303333,15.558,0.024
52650.317793,15.559,0.022
52650.332146,15.573,0.022
52650.346387,15.558,0.02
52653.314766,15.526,0.028
52653.330147,15.526,0.028
52653.345486,15.548,0.028
52653.360857,15.556,0.03
52653.376321,15.52,0.028
52660.307351,15.46,0.044
52695.251561,15.282,0.048
52695.268458,15.349,0.018
52695.284268,15.366,0.018
52695.300706,15.381,0.018
52695.317155,15.385,0.018
52711.183502,15.301,0.028
52711.196959,15.29,0.026
52711.21055,15.252,0.024
52711.224193,15.228,0.024
52711.23805,15.201,0.022
52722.20253,15.411,0.017
52722.216131,15.412,0.017
52722.229477,15.437,0.018
52722.246761,15.463,0.018
52722.260245,15.466,0.018
52739.185054,15.503,0.03
52739.196534,15.545,0.03
52739.207995,15.578,0.031
52739.219554,15.564,0.031
52739.231056,15.574,0.033
52751.188565,15.272,0.018
52751.200556,15.299,0.033
52751.212186,15.319,0.024
52751.229925,15.34,0.022
52751.241576,15.346,0.022
52770.197525,15.582,0.055
52782.157739,15.525,0.03
52782.168358,15.547,0.031
52782.178954,15.537,0.035
52782.189589,15.535,0.031
52782.200399,15.504,0.052
52928.435817,15.357,0.041
52928.447385,15.377,0.041
52928.45883,15.375,0.041
52928.470474,15.377,0.039
52928.482156,15.361,0.037
52967.279156,15.628,0.033
52977.391626,15.258,0.021
52977.402748,15.235,0.02
52977.413899,15.211,0.018
52977.42517,15.237,0.016
52977.436476,15.243,0.016
52978.386184,15.437,0.028
52978.399014,15.405,0.026
52978.411781,15.419,0.024
52978.424584,15.406,0.024
52978.437219,15.429,0.024
52988.333687,15.392,0.024
52988.346706,15.396,0.024
52988.359641,15.399,0.024
52988.372614,15.421,0.024
52988.385515,15.41,0.024
53006.325192,15.587,0.03
53006.33776,15.592,0.028
53006.3503,15.604,0.03
53006.362864,15.624,0.028
53006.375475,15.601,0.028
53008.334519,15.478,0.031
53008.36606,15.448,0.028
53008.378611,15.465,0.026
53038.282074,15.437,0.03
53038.294265,15.485,0.03
53038.306452,15.471,0.028
53038.318828,15.471,0.028
53038.33116,15.505,0.03
53045.281106,15.499,0.025
53045.293192,15.56,0.026
53045.310697,15.571,0.028
53045.323007,15.538,0.028
53045.336031,15.532,0.026
53065.223492,15.547,0.024
53065.23565,15.537,0.024
53065.247493,15.551,0.024
53065.259002,15.548,0.024
53065.270532,15.566,0.024
53121.191032,15.502,0.024
53121.201632,15.553,0.028
53121.212155,15.49,0.028
53121.222557,15.388,0.026
53134.15489,15.44,0.025
53134.164009,15.455,0.026
53134.173063,15.448,0.026
53134.182278,15.501,0.026
53134.191588,15.49,0.026
53150.160965,15.36,0.026
53150.169747,15.396,0.054
53150.178454,15.368,0.028
53155.164918,15.559,0.073
53155.174189,15.588,0.076
53155.183672,15.604,0.078
53155.192359,15.67,0.081
53155.201584,15.729,0.084
53281.428979,15.542,0.064
53281.439993,15.508,0.061
53281.451041,15.552,0.058
53281.46196,15.514,0.054
53281.473131,15.495,0.051
53294.419852,15.433,0.024
53294.43087,15.428,0.022
53294.441878,15.435,0.022
53294.452897,15.45,0.022
53294.463934,15.431,0.022
53301.434488,15.449,0.03
53301.446215,15.502,0.031
53301.457887,15.508,0.03
53301.469556,15.485,0.03
53301.481227,15.51,0.028
53319.405921,15.522,0.028
53319.418012,15.456,0.024
53319.430117,15.385,0.024
53319.442214,15.348,0.022
53319.4543,15.337,0.022
53329.442097,15.319,0.024
53329.454512,15.259,0.02
53329.467305,15.214,0.02
53329.479661,15.207,0.018
53329.492,15.216,0.018
53349.401666,15.284,0.022
53349.414136,15.28,0.024
53349.427639,15.296,0.022
53349.440219,15.24,0.024
53349.452291,15.274,0.022
53355.489088,15.349,0.02
53355.503394,15.339,0.018
53355.516219,15.321,0.02
53359.399604,15.274,0.018
53359.415781,15.254,0.02
53359.431866,15.244,0.018
53359.448002,15.265,0.018
53359.464164,15.296,0.018
53389.422965,15.344,0.018
53389.435939,15.336,0.018
53389.448964,15.332,0.018
53389.46199,15.358,0.018
53389.475608,15.361,0.02
53401.289401,15.539,0.024
53401.302016,15.544,0.024
53401.314652,15.561,0.026
53401.327794,15.59,0.026
53401.340797,15.626,0.028
53430.297757,15.507,0.024
53430.309466,15.551,0.024
53430.321174,15.522,0.024
53430.333516,15.509,0.026
53430.34521,15.509,0.026
53491.221868,15.622,0.061
53491.232782,15.482,0.03
53685.441183,15.271,0.035
53685.453667,15.275,0.03
53697.408678,15.545,0.037
53697.42142,15.551,0.046
53697.434681,15.495,0.05
53697.448678,15.497,0.037
53697.461802,15.458,0.046
53727.396326,15.62,0.026
53727.409168,15.612,0.026
53727.434818,15.647,0.028
53727.447669,15.606,0.03
53757.317993,15.638,0.024
53757.330969,15.659,0.024
53757.343681,15.608,0.024
53757.356417,15.639,0.026
53757.369211,15.553,0.024
53773.292751,15.582,0.028
53773.305745,15.557,0.026
53773.318518,15.567,0.026
53773.331435,15.594,0.03
53773.344229,15.621,0.03
53802.250027,15.493,0.028
53802.262323,15.494,0.028
53802.27464,15.532,0.031
53802.287002,15.542,0.03
53802.299417,15.545,0.051
53827.248175,15.362,0.016
53827.258806,15.314,0.016
53827.269516,15.312,0.016
53827.280291,15.272,0.016
53827.291076,15.236,0.016
53842.188165,15.491,0.026
53842.199904,15.485,0.026
53842.211143,15.504,0.028
53842.22274,15.519,0.033
53842.234005,15.499,0.037
53866.188377,15.658,0.079
53877.16575,15.294,0.058
54024.428867,15.297,0.031
54024.443229,15.256,0.028
54024.456898,15.271,0.026
54024.470482,15.28,0.026
54052.397391,15.486,0.028
54052.409605,15.492,0.028
54052.421802,15.498,0.028
54052.434017,15.473,0.031
54052.446228,15.47,0.028
54071.389122,15.406,0.038
54071.401961,15.37,0.035
54071.414807,15.359,0.033
54071.427622,15.407,0.033
54071.440416,15.416,0.033
54080.361702,15.377,0.026
54080.37379,15.375,0.026
54080.385749,15.331,0.026
54080.397706,15.331,0.037
54098.318819,15.459,0.03
54098.330916,15.485,0.03
54098.343085,15.447,0.026
54098.355243,15.481,0.028
54098.367559,15.465,0.025
54109.346113,15.559,0.052
54109.358713,15.571,0.05
54109.38414,15.621,0.065
54124.276646,15.328,0.02
54124.289065,15.35,0.02
54124.301532,15.36,0.02
54124.31384,15.379,0.02
54124.326641,15.379,0.02
54140.297687,15.249,0.015
54140.309638,15.257,0.015
54140.321483,15.249,0.017
54140.333456,15.305,0.017
54140.345786,15.302,0.017
54198.220041,15.575,0.026
54198.229641,15.543,0.039
54198.248886,15.54,0.041
54198.258525,15.574,0.028
54212.178199,15.658,0.04
54212.18672,15.638,0.04
54212.195235,15.658,0.043
54212.203724,15.683,0.045
54212.212288,15.682,0.046
54498.272568,15.635,0.03
54498.28431,15.608,0.03
54498.296084,15.621,0.03
54498.308131,15.663,0.031
54498.319885,15.636,0.03
54526.226441,15.347,0.021
54526.237681,15.383,0.021
54526.2489,15.386,0.023
54526.260674,15.383,0.023
54526.27201,15.385,0.023
54559.187796,15.33,0.026
54559.199244,15.347,0.028
54559.210632,15.34,0.026
54559.222265,15.362,0.028
54559.234602,15.38,0.03
54570.186183,15.471,0.051
54570.208968,15.51,0.041
54570.220109,15.524,0.043
54570.231413,15.562,0.045
54618.157572,15.232,0.045
54618.168217,15.183,0.041
54618.178574,15.233,0.04
54618.188916,15.256,0.041
54618.199317,15.233,0.045
