mjd,m,merr
52693.316125,14.765,0.011
52721.265227,14.192,0.007
52721.290835,14.225,0.007
52750.181912,14.51,0.009
52750.192657,14.699,0.011
52750.203464,14.858,0.013
52750.214216,14.785,0.013
52750.224988,14.551,0.011
52771.152173,14.186,0.013
52771.164071,14.208,0.013
52771.176124,14.269,0.013
52771.188222,14.379,0.015
52771.200131,14.563,0.017
52927.437233,14.507,0.02
52927.44909,14.388,0.017
52927.472236,14.226,0.015
52927.483863,14.191,0.013
52948.445847,14.479,0.011
52948.458083,14.33,0.009
52948.470013,14.262,0.009
52948.482091,14.274,0.009
52948.494311,14.396,0.009
52978.359194,14.283,0.012
52978.376624,14.496,0.013
52988.357976,14.714,0.013
52988.370269,14.491,0.01
52988.38147,14.337,0.01
52988.392676,14.365,0.01
52988.40434,14.242,0.01
53008.376676,14.842,0.016
53038.293316,14.412,0.011
53038.307063,14.48,0.013
53038.321812,14.47,0.013
53038.338076,14.617,0.015
53038.351336,14.854,0.018
53045.267567,14.277,0.009
53045.279219,14.23,0.009
53045.290995,14.353,0.009
53045.303349,14.414,0.011
53045.314885,14.28,0.009
53096.233464,14.617,0.03
53108.196344,14.188,0.007
53108.207608,14.217,0.007
53108.218827,14.302,0.009
53108.230202,14.393,0.009
53108.241419,14.592,0.011
53125.20344,14.76,0.043
53125.213299,14.753,0.041
53125.223129,14.623,0.031
53125.23299,14.471,0.026
53134.154888,14.502,0.013
53134.164362,14.661,0.015
53134.173844,14.803,0.017
53134.18333,14.722,0.015
53134.192811,14.55,0.013
53155.166258,14.474,0.024
53155.175051,14.591,0.026
53155.183848,14.751,0.031
53155.192647,14.764,0.031
53155.201553,14.664,0.03
53290.438295,14.166,0.012
53290.449408,14.36,0.013
53290.460613,14.292,0.013
53290.471791,14.277,0.012
53290.482919,14.452,0.013
53303.449735,14.384,0.011
53312.443844,14.382,0.017
53312.456128,14.372,0.015
53312.468404,14.475,0.017
53312.480722,14.608,0.02
53330.453085,14.531,0.013
53356.420327,14.183,0.008
53356.434792,14.231,0.008
53356.463328,14.541,0.01
53358.396343,14.257,0.007
53358.40937,14.308,0.009
53358.422404,14.481,0.009
53358.435489,14.768,0.013
53358.449426,14.83,0.013
53360.354699,14.304,0.009
53360.368541,14.308,0.009
53360.381979,14.452,0.011
53360.396482,14.767,0.011
53360.413624,14.823,0.015
53362.382639,14.763,0.026
53362.399556,14.461,0.013
53390.279946,14.468,0.011
53390.2927,14.327,0.011
53390.306369,14.411,0.011
53390.319239,14.385,0.009
53390.332644,14.428,0.011
53429.270437,14.253,0.009
53429.28167,14.26,0.009
53429.304136,14.479,0.011
53429.315939,14.706,0.013
53430.2272,14.214,0.011
53430.239278,14.305,0.007
53430.286789,14.567,0.011
53432.22859,14.385,0.017
53432.251894,14.561,0.043
53433.220629,14.4,0.007
53433.233174,14.618,0.009
53433.245006,14.85,0.011
53433.245123,14.838,0.011
53433.258725,14.791,0.011
53433.258842,14.799,0.011
53433.271184,14.543,0.009
53433.271301,14.549,0.009
53441.225795,14.731,0.009
53441.237374,14.804,0.011
53441.248843,14.619,0.009
53441.260991,14.438,0.007
53461.227735,14.286,0.009
53461.238082,14.388,0.009
53461.248995,14.569,0.011
53461.259379,14.778,0.013
53461.269834,14.848,0.015
53489.191912,14.35,0.018
53725.342161,14.576,0.013
53725.355198,14.417,0.011
53725.368349,14.3,0.009
53725.381336,14.222,0.009
53755.334882,14.323,0.011
53755.347567,14.268,0.009
53755.360265,14.256,0.009
53755.373613,14.204,0.009
53755.386798,14.211,0.009
53775.293009,14.387,0.013
53775.305662,14.508,0.013
53775.318491,14.631,0.015
53775.327874,14.829,0.018
53775.341855,14.778,0.018
53775.345284,14.723,0.017
53775.355927,14.564,0.018
53829.207211,14.223,0.01
53829.217777,14.352,0.01
53829.228746,14.388,0.013
53876.154935,14.251,0.012
53876.165931,14.322,0.013
53876.176998,14.505,0.016
54021.472311,14.854,0.031
54021.483992,14.635,0.025
54050.476546,14.634,0.017
54079.358013,14.38,0.013
54079.370026,14.248,0.011
54079.382105,14.21,0.011
54079.394125,14.333,0.011
54108.324985,14.67,0.015
54108.337698,14.433,0.011
54139.272747,14.817,0.013
54139.284472,14.673,0.013
54139.295943,14.423,0.013
54139.307477,14.298,0.01
54139.320639,14.216,0.01
54167.256866,14.38,0.012
54167.27918,14.699,0.021
54406.466923,14.219,0.013
54406.478453,14.178,0.013
54436.41441,14.536,0.013
54483.325343,14.723,0.02
54483.337454,14.51,0.016
54483.362681,14.326,0.013
54484.321886,14.467,0.016
54484.334188,14.299,0.015
54484.346477,14.217,0.015
54484.359128,14.186,0.013
54484.37144,14.168,0.013
54524.273302,14.229,0.013
54524.284893,14.184,0.013
54524.320382,14.283,0.015
54539.212777,14.835,0.02
54539.223543,14.661,0.018
54539.234092,14.481,0.015
54539.244634,14.346,0.015
54539.255482,14.275,0.015
54571.189117,14.381,0.021
54571.200313,14.349,0.02
54571.22217,14.191,0.018
54571.2331,14.202,0.016
54587.194638,14.177,0.018
54587.204816,14.205,0.018
54587.234859,14.452,0.021
54620.161092,14.475,0.02
54620.171411,14.624,0.021
54620.1824,14.788,0.025
54620.192722,14.773,0.025
54620.203139,14.544,0.021
