mjd,m,merr
52640.383974,16.604,0.063
52640.399034,16.554,0.063
52640.414052,16.591,0.066
52640.429486,16.625,0.066
52640.445157,16.437,0.061
52646.385596,16.488,0.057
52646.400408,16.568,0.063
52646.414848,16.568,0.063
52646.429419,16.523,0.061
52646.44393,16.544,0.065
52667.318682,16.673,0.066
52667.333373,16.545,0.063
52667.348052,16.472,0.059
52667.362728,16.481,0.061
52667.377455,16.344,0.056
52669.306914,16.629,0.058
52669.322452,16.731,0.063
52669.337913,16.66,0.059
52669.35295,16.747,0.063
52669.369632,16.667,0.059
52672.321701,16.575,0.067
52672.335643,16.509,0.052
52672.349801,16.485,0.055
52672.363665,16.434,0.05
52672.377635,16.384,0.054
52673.289498,16.569,0.071
52673.303845,16.648,0.046
52673.304548,16.678,0.076
52673.320343,16.568,0.069
52673.336143,16.787,0.061
52673.336781,16.713,0.081
52673.351781,16.603,0.074
52704.286055,16.392,0.051
52704.286172,16.271,0.049
52704.299145,16.389,0.053
52704.29926,16.275,0.051
52704.312498,16.486,0.063
52704.312613,16.408,0.056
52704.325526,16.374,0.056
52704.325641,16.403,0.056
52704.338536,16.403,0.059
52704.338653,16.301,0.053
52705.238054,16.637,0.052
52705.251228,16.561,0.048
52705.266198,16.633,0.052
52705.279236,16.648,0.054
52707.244712,16.36,0.043
52707.258107,16.365,0.044
52707.27128,16.437,0.046
52707.284555,16.399,0.044
52707.297842,16.465,0.048
52725.265165,16.452,0.25
52725.276908,16.577,0.1
52725.28864,16.633,0.122
52725.300301,16.57,0.055
52729.227175,16.603,0.055
52729.238807,16.55,0.052
52729.250276,16.62,0.057
52729.261764,16.671,0.061
52729.27393,16.643,0.059
52734.207725,16.528,0.052
52734.233162,16.534,0.057
52734.246327,16.645,0.063
52738.181484,16.623,0.076
52738.192904,16.535,0.074
52738.204443,16.711,0.085
52738.215872,16.672,0.085
52738.227343,16.844,0.098
52755.144023,16.596,0.061
52755.156153,16.529,0.057
52755.168216,16.501,0.057
52755.180306,16.437,0.054
52755.192368,16.42,0.054
52758.146904,16.398,0.056
52758.159221,16.418,0.058
52758.171421,16.411,0.056
52758.183556,16.489,0.063
52758.195624,16.478,0.059
52937.445256,16.251,0.049
52937.457164,16.326,0.056
52937.468922,16.381,0.051
52937.480708,16.391,0.049
52937.492443,16.448,0.051
52941.428652,16.435,0.056
52941.440242,16.501,0.058
52941.452068,16.476,0.054
52941.463645,16.487,0.051
52941.475485,16.509,0.053
52944.43854,16.6,0.093
52944.450545,16.62,0.087
52944.462486,16.465,0.074
52944.474443,16.529,0.074
52944.486518,16.359,0.061
52973.396046,16.587,0.061
52973.409047,16.598,0.061
52973.422145,16.571,0.057
52973.434944,16.565,0.057
52973.447895,16.64,0.057
52997.43835,16.829,0.153
53029.339979,16.622,0.081
53033.277797,16.648,0.068
53033.290471,16.645,0.066
53033.302994,16.678,0.064
53033.315484,16.561,0.058
53033.327941,16.566,0.056
53053.286916,16.44,0.12
53053.299309,16.527,0.068
53053.312041,16.535,0.072
53053.326122,16.663,0.13
53058.325862,16.581,0.036
53061.297475,16.622,0.038
53061.321687,16.555,0.035
53079.247775,16.528,0.048
53079.258465,16.469,0.044
53079.279961,16.392,0.043
53083.289476,16.292,0.031
53085.279866,16.68,0.041
53085.2911,16.679,0.046
53085.302341,16.625,0.061
53085.313677,16.643,0.051
53085.327307,16.575,0.046
53110.184308,16.312,0.052
53110.194997,16.325,0.054
53110.205686,16.37,0.057
53110.216372,16.397,0.059
53110.227124,16.314,0.055
53114.219484,16.442,0.038
53114.240793,16.464,0.041
53116.200547,16.468,0.074
53116.211355,16.547,0.13
53116.222112,16.421,0.078
53116.232794,16.51,0.122
53116.245503,16.314,0.149
53138.152604,16.321,0.052
53138.162474,16.31,0.052
53138.172355,16.324,0.052
53138.182187,16.321,0.052
53138.191989,16.36,0.052
53142.20003,16.503,0.071
53144.167903,16.42,0.057
53144.177296,16.413,0.059
53144.186686,16.361,0.065
53144.206045,16.436,0.118
53292.429483,16.584,0.127
53292.43909,16.605,0.124
53292.448731,16.644,0.119
53292.459376,16.548,0.102
53292.468977,16.649,0.107
53315.447767,16.616,0.153
53315.460068,16.55,0.14
53315.47201,16.727,0.162
53316.45973,16.78,0.183
53327.384545,16.439,0.076
53327.397548,16.377,0.084
53327.410051,16.365,0.068
53327.422285,16.293,0.064
53327.43475,16.299,0.074
53346.382034,16.406,0.058
53346.39429,16.401,0.061
53346.406672,16.383,0.058
53346.419408,16.366,0.058
53346.431623,16.304,0.053
53347.438552,16.476,0.058
53347.452338,16.421,0.058
53347.466416,16.407,0.058
53347.480151,16.354,0.053
53351.421398,16.44,0.061
53351.435634,16.299,0.056
53351.450115,16.414,0.063
53351.465028,16.417,0.068
53351.479675,16.403,0.068
53352.445996,16.381,0.063
53352.461011,16.381,0.063
53352.475766,16.407,0.068
53352.490447,16.389,0.069
53352.50525,16.358,0.068
53353.414634,16.787,0.086
53353.428694,16.761,0.084
53353.442865,16.69,0.078
53353.457083,16.764,0.089
53353.47112,16.713,0.083
53357.438178,16.494,0.048
53357.451594,16.468,0.05
53357.466109,16.412,0.05
53357.479912,16.363,0.05
53357.494988,16.389,0.05
53383.345654,16.351,0.044
53383.359806,16.296,0.043
53383.372886,16.37,0.048
53383.386392,16.354,0.046
53383.399949,16.417,0.05
53403.312165,16.52,0.046
53403.325533,16.455,0.045
53403.352542,16.332,0.048
53468.213778,16.462,0.107
53468.22328,16.416,0.078
53674.466496,16.455,0.072
53674.478636,16.413,0.065
53674.490913,16.472,0.065
53674.50304,16.472,0.067
53679.450171,16.367,0.061
53679.462399,16.416,0.061
53679.474543,16.315,0.055
53679.486718,16.315,0.055
53679.499592,16.402,0.057
53704.449291,16.434,0.054
53704.461807,16.439,0.054
53704.474234,16.333,0.048
53704.486813,16.314,0.048
53704.499557,16.322,0.048
53707.449919,16.443,0.067
53707.462718,16.463,0.059
53707.475323,16.514,0.067
53707.487969,16.583,0.068
53707.500578,16.546,0.061
53711.46911,16.513,0.054
53711.4821,16.58,0.055
53711.494975,16.618,0.059
53711.507985,16.545,0.055
53711.520912,16.655,0.065
53734.407811,16.586,0.059
53734.420758,16.634,0.063
53734.433692,16.653,0.063
53734.446836,16.671,0.067
53734.460013,16.641,0.068
53737.404475,16.501,0.05
53737.417991,16.437,0.046
53737.431341,16.403,0.048
53737.444747,16.502,0.133
53737.458078,16.375,0.046
53747.343449,16.554,0.157
53747.356331,16.653,0.167
53747.382262,16.594,0.165
53747.395709,16.523,0.15
53758.353066,16.439,0.05
53758.365582,16.425,0.052
53758.378317,16.535,0.055
53758.390829,16.5,0.057
53787.414611,16.491,0.074
53787.426519,16.491,0.076
53787.438512,16.587,0.08
53787.45058,16.545,0.081
53788.277884,16.667,0.078
53788.289765,16.587,0.094
53788.301696,16.592,0.072
53788.314426,16.496,0.059
53788.326801,16.529,0.05
53789.289964,16.597,0.1
53789.301898,16.563,0.078
53789.313828,16.626,0.146
53789.337929,16.67,0.207
53790.286889,16.494,0.054
53790.298797,16.6,0.064
53790.310764,16.576,0.061
53790.322795,16.643,0.066
53790.334709,16.607,0.063
53792.288153,16.408,0.054
53792.300075,16.407,0.05
53792.311984,16.494,0.081
53792.323882,16.381,0.048
53792.33583,16.4,0.055
53799.230181,16.35,0.051
53799.242346,16.496,0.058
53799.25437,16.477,0.054
53799.266306,16.508,0.053
53799.27799,16.478,0.048
53802.281216,16.468,0.074
53802.292588,16.441,0.07
53802.303977,16.4,0.093
53818.229236,16.449,0.058
53818.240349,16.489,0.058
53818.251449,16.534,0.063
53818.262587,16.55,0.063
53818.273846,16.564,0.064
53821.235212,16.621,0.081
53821.249217,16.624,0.08
53821.262147,16.597,0.068
53821.275397,16.574,0.067
53821.286588,16.562,0.133
53824.285949,16.282,0.063
53824.330194,16.504,0.107
53824.34612,16.571,0.27
53828.234683,16.417,0.076
53828.245076,16.51,0.08
53828.256136,16.473,0.13
53828.280103,16.553,0.102
53831.200572,16.617,0.135
53845.184274,16.635,0.079
53845.195378,16.711,0.087
53845.206541,16.604,0.079
53845.217605,16.623,0.086
53845.228694,16.566,0.086
53846.193548,16.426,0.08
53846.2042,16.491,0.091
53846.21488,16.517,0.093
53846.225615,16.595,0.098
53846.236336,16.539,0.098
53851.143122,16.391,0.076
53851.15385,16.353,0.066
53851.164309,16.446,0.083
53851.174778,16.383,0.069
53851.185204,16.446,0.087
53851.19274,16.506,0.076
53851.202781,16.456,0.072
53851.213396,16.462,0.074
53851.223289,16.523,0.08
53851.23317,16.466,0.08
53854.207652,16.843,0.253
53854.221954,16.553,0.085
53854.232852,16.637,0.094
53854.246741,16.41,0.085
54030.430256,16.435,0.101
54030.458445,16.692,0.111
54030.474437,16.582,0.091
54030.486918,16.597,0.091
54035.437304,16.561,0.097
54035.449545,16.567,0.087
54035.462075,16.641,0.094
54035.474223,16.477,0.078
54035.485924,16.594,0.081
54040.443474,16.545,0.101
54040.455842,16.495,0.096
54040.468206,16.511,0.094
54040.480219,16.533,0.091
54053.426065,16.383,0.115
54053.449631,16.473,0.107
54053.461569,16.554,0.1
54053.473421,16.556,0.08
54056.427426,16.584,0.063
54056.439682,16.435,0.054
54056.451931,16.413,0.052
54056.464374,16.387,0.05
54056.476623,16.391,0.048
54059.433949,16.38,0.052
54059.442004,16.418,0.064
54059.446446,16.45,0.054
54059.458759,16.5,0.055
54059.465595,16.529,0.069
54059.471096,16.52,0.057
54059.479516,16.516,0.066
54059.484521,16.502,0.052
54059.49199,16.648,0.071
54059.504655,16.532,0.061
54064.442165,16.299,0.048
54064.455033,16.358,0.052
54064.467889,16.299,0.046
54064.480751,16.378,0.048
54064.493626,16.475,0.052
54082.372122,16.324,0.12
54082.384623,16.404,0.132
54082.393217,16.402,0.065
54082.396983,16.504,0.144
54082.406107,16.366,0.061
54082.409438,16.499,0.135
54082.419015,16.374,0.061
54082.421896,16.422,0.127
54082.432233,16.417,0.061
54082.445134,16.513,0.065
54085.403861,16.649,0.063
54085.416998,16.629,0.065
54085.430752,16.552,0.107
54085.444395,16.573,0.067
54085.457877,16.507,0.054
54112.387677,16.48,0.071
54112.400386,16.406,0.068
54112.412948,16.362,0.068
54112.425493,16.473,0.078
54114.356314,16.623,0.073
54114.369013,16.687,0.091
54152.280507,16.413,0.041
54152.292418,16.405,0.041
54152.304307,16.42,0.041
54152.316206,16.469,0.044
54152.328115,16.523,0.048
54153.274008,16.338,0.043
54153.285503,16.336,0.043
54153.296999,16.339,0.044
54153.308503,16.317,0.044
54153.320076,16.339,0.043
54173.21472,16.716,0.066
54173.225388,16.697,0.064
54173.236277,16.713,0.066
54173.247092,16.661,0.064
54173.257964,16.661,0.066
54174.275992,16.619,0.054
54174.286697,16.58,0.054
54174.297399,16.763,0.098
54174.308104,16.693,0.068
54180.281382,16.484,0.044
54180.313777,16.549,0.048
54180.324377,16.522,0.048
54185.231934,16.478,0.117
54185.252346,16.436,0.116
54185.262559,16.475,0.122
54201.193023,16.796,0.116
54201.202506,16.722,0.107
54201.211731,16.673,0.099
54201.22096,16.783,0.109
54201.230267,16.578,0.092
54205.220473,16.386,0.05
54205.229666,16.329,0.048
54205.238942,16.368,0.05
54205.248134,16.343,0.05
54205.257341,16.283,0.046
54208.21607,16.496,0.063
54208.225098,16.457,0.057
54208.234152,16.444,0.057
54208.243224,16.447,0.059
54208.252307,16.535,0.059
54212.223652,16.525,0.074
54212.23272,16.538,0.074
54212.24173,16.621,0.081
54212.250887,16.558,0.08
54212.26003,16.535,0.08
54416.4371,16.308,0.039
54416.449854,16.258,0.037
54416.462179,16.343,0.039
54416.474497,16.3,0.039
54416.486837,16.365,0.041
54438.446374,16.511,0.037
54438.472955,16.585,0.041
54438.486385,16.59,0.041
54448.441578,16.4,0.053
54448.453914,16.462,0.056
54448.46624,16.53,0.059
54448.479241,16.523,0.058
54448.491614,16.612,0.063
54478.46205,16.3,0.102
54478.474322,16.35,0.104
54478.4866,16.23,0.091
54478.498902,16.262,0.091
54481.215966,16.591,0.081
54481.242493,16.522,0.067
54481.255504,16.431,0.059
54481.268444,16.401,0.055
54498.35774,16.574,0.043
54498.382907,16.613,0.043
54506.276024,16.635,0.041
54506.300539,16.608,0.039
54506.313,16.644,0.043
54506.325207,16.587,0.041
54522.333942,16.537,0.05
54522.345836,16.551,0.052
54522.357777,16.568,0.054
54522.369765,16.57,0.057
54522.381559,16.609,0.061
54527.285901,16.277,0.046
54527.308699,16.442,0.037
54535.281945,16.623,0.037
54535.293043,16.601,0.037
54535.304131,16.607,0.037
54540.160933,16.358,0.05
54540.17184,16.323,0.046
54540.18285,16.341,0.046
54540.193822,16.373,0.048
54553.245638,16.65,0.048
54553.257471,16.625,0.048
54553.269404,16.557,0.055
54553.281288,16.62,0.059
54553.293145,16.547,0.076
54558.120928,16.369,0.046
54558.132656,16.374,0.043
54558.144214,16.393,0.043
54558.155758,16.446,0.044
54558.167342,16.438,0.046
54561.261766,16.313,0.033
54561.273244,16.243,0.037
54561.284715,16.307,0.052
54580.144322,16.784,0.106
54580.15455,16.654,0.089
54580.165105,16.744,0.099
54580.183432,16.658,0.091
54580.194003,16.65,0.092
54583.197412,16.321,0.052
54583.208076,16.383,0.059
54590.197764,16.691,0.065
54590.208065,16.688,0.067
54590.218408,16.617,0.065
54590.228776,16.602,0.067
54590.239128,16.554,0.065
54591.144802,16.45,0.099
54591.154563,16.463,0.099
54591.164313,16.592,0.112
54591.174065,16.499,0.104
54591.183648,16.667,0.119
