mjd,m,merr
52608.456699,15.504,0.033
52608.471662,15.521,0.026
52608.486545,15.573,0.061
52608.501478,15.565,0.048
52641.387019,15.588,0.024
52641.401981,15.581,0.022
52641.416857,15.642,0.024
52641.431744,15.651,0.024
52641.446614,15.702,0.026
52644.392812,15.593,0.028
52644.40778,15.593,0.025
52644.422726,15.56,0.025
52644.438065,15.576,0.025
52644.453086,15.638,0.028
52648.330753,15.54,0.031
52648.34604,15.588,0.031
52648.376621,15.604,0.031
52648.391802,15.592,0.031
52667.387855,15.234,0.018
52667.403141,15.27,0.018
52667.418593,15.303,0.02
52667.433936,15.349,0.022
52667.449329,15.406,0.026
52671.363491,15.018,0.018
52671.37838,15.11,0.02
52671.394133,15.126,0.02
52671.408814,15.181,0.02
52671.4238,15.201,0.021
52707.241568,15.196,0.02
52707.24217,15.143,0.018
52707.25475,15.263,0.021
52707.267815,15.256,0.02
52707.268417,15.22,0.02
52707.280886,15.299,0.021
52707.294313,15.352,0.023
52707.294919,15.292,0.021
52728.230845,15.629,0.03
52728.23096,15.638,0.03
52728.243237,15.657,0.03
52728.255241,15.7,0.031
52728.255532,15.704,0.031
52728.267661,15.725,0.033
52728.267776,15.684,0.031
52728.279755,15.757,0.033
52728.27987,15.843,0.035
52737.188561,15.563,0.028
52737.200497,15.568,0.028
52737.212244,15.554,0.028
52737.223978,15.556,0.028
52737.235726,15.606,0.03
52756.138547,14.827,0.013
52756.150285,14.902,0.015
52756.162034,14.944,0.015
52756.173829,15.003,0.017
52756.185666,15.048,0.017
52972.390014,15.476,0.024
52972.402834,15.44,0.02
52972.415682,15.47,0.02
52972.428968,15.528,0.02
52972.441781,15.549,0.02
53033.279425,14.787,0.013
53033.291619,14.861,0.015
53033.303675,14.911,0.015
53033.315876,14.958,0.015
53033.328031,15.017,0.015
53054.299856,15.555,0.018
53054.313457,15.55,0.018
53054.329258,15.585,0.02
53054.343139,15.553,0.02
53054.355642,15.589,0.02
53080.223226,14.775,0.011
53080.234153,14.842,0.011
53080.245082,14.895,0.013
53080.260072,14.964,0.013
53080.271301,15.012,0.015
53111.183501,15.353,0.024
53111.194311,15.366,0.024
53111.205062,15.428,0.026
53111.215777,15.456,0.028
53111.226519,15.461,0.028
53139.152305,15.574,0.028
53139.16242,15.59,0.031
53139.172132,15.596,0.031
53139.181687,15.632,0.033
53139.191225,15.653,0.035
53315.455069,14.783,0.02
53315.478798,14.772,0.02
53321.472418,15.637,0.15
53346.390777,15.275,0.022
53346.403215,15.304,0.022
53346.417423,15.338,0.022
53346.431153,15.376,0.022
53346.443269,15.383,0.024
53440.367426,15.416,0.024
53440.378443,15.495,0.028
53440.390077,15.525,0.031
53440.401084,15.538,0.033
53440.412692,15.504,0.035
53466.262905,15.603,0.03
53466.272769,15.587,0.03
53466.282127,15.565,0.03
53466.29299,15.614,0.033
53466.30333,15.654,0.035
53469.174758,15.498,0.024
53469.185113,15.539,0.026
53469.198944,15.554,0.024
53469.209936,15.568,0.024
53469.219959,15.592,0.026
53496.1482,15.558,0.033
53496.158154,15.247,0.024
53496.168193,15.034,0.02
53496.178161,14.818,0.018
53496.18813,14.731,0.017
53791.29387,15.606,0.023
53791.306136,15.602,0.023
53791.318327,15.586,0.023
53791.330529,15.604,0.025
53791.34248,15.59,0.023
53815.23074,14.754,0.017
53815.242179,14.746,0.022
53815.253525,14.813,0.02
53815.26498,14.86,0.018
53815.276374,14.938,0.02
53833.188946,15.577,0.065
53833.208945,15.56,0.063
53833.218812,15.553,0.065
53846.139776,15.185,0.02
53846.150505,15.22,0.021
53846.161167,15.261,0.021
53846.171755,15.295,0.025
53846.182242,15.304,0.023
54049.432449,15.674,0.052
54049.444566,15.402,0.039
54049.456727,15.088,0.028
54049.468729,14.812,0.022
54049.480709,14.723,0.02
54060.437404,15.599,0.031
54060.453148,15.609,0.031
54060.465992,15.599,0.031
54060.480715,15.642,0.031
54060.493579,15.671,0.035
54113.330259,15.518,0.022
54113.355736,15.568,0.026
54113.380977,15.564,0.022
54147.279028,15.576,0.025
54147.290809,15.58,0.026
54147.302798,15.592,0.026
54147.315109,15.641,0.028
54147.326915,15.669,0.03
54156.265299,15.566,0.024
54156.276829,15.567,0.024
54156.288362,15.577,0.024
54156.299905,15.58,0.024
54156.311462,15.589,0.024
54175.219666,14.958,0.015
54175.230676,15.015,0.016
54175.241506,15.051,0.016
54175.252294,15.088,0.018
54175.263096,15.137,0.018
54198.188702,15.539,0.038
54198.198249,15.526,0.035
54198.207845,15.566,0.036
54415.444593,15.328,0.015
54415.457086,15.022,0.011
54415.469498,14.763,0.009
54415.481901,14.713,0.009
54415.494281,14.777,0.009
54447.442708,15.402,0.02
54447.454931,15.394,0.018
54447.467289,15.414,0.02
54447.479692,15.47,0.023
54447.492092,15.469,0.026
54452.445786,15.223,0.02
54452.458529,15.276,0.021
54452.470939,15.306,0.021
54452.483543,15.295,0.021
54452.495851,15.333,0.021
54477.390556,15.577,0.035
54477.403957,15.545,0.033
54477.416496,15.57,0.035
54477.428679,15.561,0.035
54477.441208,15.579,0.033
54480.277137,15.409,0.015
54480.290125,15.422,0.015
54480.303121,15.445,0.013
54480.316118,15.5,0.015
54480.329126,15.526,0.015
54496.407295,15.339,0.013
54496.419879,15.352,0.015
54496.43255,15.369,0.015
54496.44513,15.392,0.017
54496.457722,15.465,0.018
54506.392714,14.994,0.018
54506.40459,15.03,0.02
54506.417115,15.082,0.02
54506.428957,15.146,0.023
54506.440871,15.157,0.025
54525.328782,15.545,0.018
54525.339779,15.556,0.018
54525.350749,15.581,0.022
54525.361751,15.578,0.024
54525.372942,15.625,0.033
54534.332089,15.492,0.025
54534.343286,15.514,0.025
54534.354273,15.561,0.026
54534.365604,15.547,0.026
54534.376694,15.601,0.031
54568.188453,15.582,0.041
54568.199491,15.596,0.041
54568.210241,15.611,0.041
54568.221584,15.611,0.041
54568.232776,15.6,0.043
