mjd,m,merr
52614.445985,15.911,0.08
52614.461418,15.966,0.067
52614.476862,15.918,0.05
52614.492215,16.023,0.037
52614.507375,15.981,0.037
52619.452264,15.713,0.031
52619.483178,15.772,0.033
52619.49872,15.798,0.035
52619.51425,15.769,0.033
52639.370375,15.68,0.026
52639.38516,15.727,0.028
52639.399833,15.718,0.028
52639.414804,15.753,0.028
52639.429841,15.765,0.028
52644.381967,16.019,0.031
52644.408511,16.008,0.031
52644.43972,16.008,0.031
52644.454738,15.89,0.028
52644.469653,15.708,0.024
52648.320207,15.865,0.035
52648.334845,15.9,0.035
52648.349529,15.908,0.035
52648.379117,15.957,0.037
52666.307099,15.652,0.024
52666.322491,15.67,0.024
52666.33783,15.692,0.024
52666.353308,15.735,0.024
52666.368669,15.757,0.026
52671.31902,15.996,0.033
52671.33413,16.028,0.035
52671.364697,16.131,0.039
52671.379826,16.119,0.039
52674.32318,16.086,0.039
52674.339383,15.956,0.033
52674.353632,15.733,0.028
52674.367853,15.553,0.024
52674.381973,15.424,0.022
52677.309946,15.461,0.022
52677.324386,15.371,0.02
52677.338839,15.403,0.052
52677.353273,15.405,0.028
52697.272816,15.521,0.028
52704.270518,15.621,0.024
52704.28384,15.576,0.022
52706.241166,15.78,0.028
52706.254422,15.776,0.026
52706.267601,15.821,0.028
52724.257713,15.554,0.022
52724.269348,15.581,0.022
52728.225493,16.073,0.037
52728.249532,15.913,0.031
52728.274518,15.7,0.026
52731.183429,15.878,0.043
52731.195529,15.706,0.052
52731.207573,15.639,0.068
52753.137411,15.792,0.03
52753.149295,15.805,0.03
52753.16119,15.864,0.033
52753.173082,15.865,0.033
52753.185025,15.903,0.035
52761.145561,15.407,0.037
52761.157338,15.422,0.024
52761.16911,15.472,0.026
52761.180872,15.487,0.033
52761.192704,15.519,0.037
52767.145761,15.697,0.051
52767.15752,15.694,0.051
52767.170002,15.784,0.054
52767.181846,15.702,0.049
52767.193867,15.729,0.053
52942.454018,15.848,0.099
52945.436911,15.922,0.044
52945.448775,15.932,0.043
52945.460768,15.98,0.044
52945.472712,15.936,0.041
52945.484634,15.984,0.044
52963.462265,15.738,0.022
52963.474784,15.708,0.022
52963.499723,15.771,0.024
52967.384309,15.662,0.03
52967.396744,15.583,0.026
52967.409198,15.581,0.026
52967.421708,15.561,0.024
52967.434215,15.572,0.024
52992.409849,15.874,0.03
52992.450013,15.865,0.026
52996.354288,15.776,0.024
52996.380256,15.847,0.024
52996.393175,15.918,0.024
53001.409527,15.322,0.013
53034.283063,15.646,0.026
53034.295589,15.685,0.026
53034.320757,15.683,0.026
53078.264747,15.613,0.028
53078.276006,15.654,0.026
53078.286981,15.698,0.026
53078.298107,15.711,0.028
53078.309046,15.727,0.03
53086.242484,16.116,0.076
53086.253757,16.094,0.064
53086.288118,16.063,0.041
53109.185295,15.605,0.028
53109.195625,15.572,0.026
53109.206046,15.539,0.026
53109.216499,15.497,0.026
53109.226747,15.525,0.026
53115.196563,15.658,0.02
53115.219066,15.651,0.022
53137.154423,15.941,0.041
53137.164178,15.923,0.041
53137.174203,15.958,0.045
53137.184312,15.943,0.048
53297.422025,15.646,0.043
53297.433868,15.638,0.041
53297.447504,15.69,0.04
53297.460561,15.747,0.041
53299.447694,16.013,0.07
53299.459366,16.024,0.087
53299.47111,16.095,0.111
53299.482788,16.004,0.091
53299.494461,15.982,0.059
53328.441206,15.521,0.03
53348.389532,15.647,0.03
53348.402991,15.675,0.03
53348.416282,15.662,0.03
53348.429646,15.733,0.031
53348.4425,15.716,0.031
53354.386303,15.84,0.031
53354.399421,15.845,0.031
53357.465692,15.95,0.035
53357.480241,15.952,0.035
53357.494811,15.99,0.036
53377.355546,15.92,0.031
53377.38216,15.936,0.031
53377.395544,15.927,0.031
53382.430222,15.767,0.031
53382.445125,15.792,0.035
53382.474575,15.736,0.031
53382.489249,15.817,0.033
53404.308908,15.962,0.028
53404.33385,15.989,0.028
53404.346266,15.968,0.028
53404.359854,15.979,0.028
53405.289881,15.691,0.022
53405.302409,15.725,0.024
53405.315234,15.722,0.024
53405.327796,15.785,0.026
53405.340617,15.776,0.026
53415.294121,15.76,0.028
53415.30636,15.817,0.031
53415.343778,15.884,0.031
53433.319743,15.573,0.022
53433.33611,15.621,0.022
53438.228986,15.871,0.026
53438.24057,15.905,0.028
53438.27546,15.891,0.028
53441.230783,15.876,0.028
53441.253779,15.919,0.028
53441.265923,15.92,0.03
53445.171862,15.759,0.03
53445.183036,15.77,0.03
53445.194147,15.811,0.03
53445.205328,15.824,0.03
53445.216502,15.82,0.03
53493.23894,15.824,0.048
53493.249228,15.838,0.052
53493.25991,15.884,0.054
53493.270973,15.839,0.057
53493.281307,15.894,0.065
53500.141905,15.52,0.026
53500.153157,15.587,0.028
53500.163307,15.606,0.028
53500.173318,15.632,0.03
53500.183364,15.654,0.031
53673.447037,16.055,0.052
53673.459843,15.92,0.046
53673.471967,15.738,0.037
53673.496896,15.59,0.031
53676.45032,15.508,0.041
53676.46237,15.472,0.031
53676.474369,15.484,0.033
53676.486326,15.512,0.033
53676.498341,15.553,0.035
53681.464103,15.94,0.089
53681.479282,15.879,0.039
53681.492641,15.911,0.035
53681.506231,15.904,0.035
53703.46472,15.62,0.024
53703.477466,15.651,0.026
53703.490149,15.642,0.026
53703.502905,15.674,0.026
53706.463045,15.746,0.035
53706.475878,15.706,0.028
53706.488486,15.665,0.081
53706.501084,15.799,0.052
53706.513876,15.745,0.026
53709.381187,15.704,0.03
53709.393905,15.721,0.03
53709.406592,15.724,0.03
53709.419345,15.761,0.031
53709.432409,15.773,0.031
53714.393017,15.998,0.035
53714.406026,16.034,0.037
53714.431668,16.044,0.035
53714.444408,16.047,0.035
53733.388793,15.579,0.026
53733.401464,15.606,0.028
53733.414289,15.681,0.03
53733.426966,15.678,0.03
53733.439863,15.704,0.03
53740.343703,15.307,0.018
53740.356692,15.352,0.018
53740.369406,15.42,0.02
53740.382237,15.465,0.022
53740.395033,15.513,0.022
53770.281511,15.637,0.024
53770.294355,15.658,0.026
53770.307477,15.672,0.026
53770.320423,15.704,0.024
53770.334983,15.723,0.026
53788.405052,15.644,0.03
53788.416954,15.658,0.028
53788.428907,15.645,0.041
53788.453334,15.761,0.087
53791.303596,15.623,0.024
53791.315438,15.614,0.024
53791.3272,15.608,0.024
53791.339046,15.588,0.024
53791.350835,15.619,0.024
53794.30994,15.629,0.026
53794.321725,15.643,0.024
53794.333839,15.607,0.068
53813.253177,15.894,0.043
53813.264276,15.912,0.046
53813.275487,15.905,0.046
53813.28656,15.935,0.048
53813.298052,15.942,0.05
53816.194383,15.953,0.031
53816.217196,16.054,0.049
53816.229128,15.957,0.03
53817.331784,15.88,0.043
53817.342645,15.938,0.044
53817.353501,15.93,0.046
53817.364367,15.962,0.05
53818.229131,15.489,0.028
53818.23968,15.405,0.024
53818.260813,15.238,0.022
53818.2714,15.282,0.022
53823.192893,15.88,0.031
53823.203733,15.836,0.03
53823.214652,15.857,0.031
53823.236284,15.911,0.031
53823.252855,15.97,0.035
53823.264176,15.935,0.035
53823.274781,15.979,0.037
53823.285766,16.002,0.037
53823.297553,15.962,0.041
53825.229606,16.041,0.043
53825.239989,15.931,0.035
53825.250356,15.764,0.031
53825.260748,15.549,0.026
53825.271133,15.47,0.026
53829.180466,15.943,0.05
53829.190683,15.957,0.046
53829.200824,15.955,0.048
53829.22115,15.933,0.061
53844.183448,15.726,0.035
53844.193686,15.735,0.035
53844.203974,15.757,0.037
53844.214242,15.738,0.037
53848.18872,15.629,0.037
53848.199341,15.64,0.039
53848.21004,15.644,0.037
53848.220689,15.654,0.039
53849.195071,15.994,0.041
53849.205852,16.037,0.043
53849.216878,16.003,0.043
53849.227867,15.997,0.044
53849.238807,15.911,0.043
53852.195867,15.781,0.039
53852.20777,15.76,0.041
53852.219178,15.724,0.039
53852.230597,15.679,0.039
53852.245722,15.654,0.041
53853.187387,15.873,0.051
53853.197852,15.938,0.053
53853.208402,15.921,0.051
53853.218927,15.928,0.054
53853.229509,15.89,0.054
53855.194353,15.617,0.033
53855.205048,15.607,0.033
53855.215735,15.652,0.035
53855.226406,15.678,0.037
53855.237058,15.65,0.037
53858.145952,15.599,0.063
53858.166516,15.657,0.055
53881.164919,15.82,0.046
53881.174932,15.784,0.043
53881.185186,15.848,0.048
53881.197539,15.864,0.049
54027.454921,15.739,0.046
54027.48041,15.642,0.043
54027.492735,15.667,0.04
54027.504093,15.645,0.069
54029.437337,15.82,0.054
54029.449707,15.816,0.049
54029.462171,15.838,0.046
54029.474002,15.762,0.045
54029.486454,15.889,0.046
54037.439452,15.62,0.03
54037.451996,15.627,0.028
54037.463942,15.639,0.026
54037.476252,15.635,0.026
54037.490145,15.625,0.026
54042.45494,15.851,0.079
54042.467499,15.997,0.073
54042.480232,15.93,0.063
54042.492571,15.934,0.063
54054.412569,15.507,0.028
54054.424362,15.431,0.026
54054.435851,15.424,0.024
54054.447423,15.431,0.022
54054.458919,15.458,0.024
54055.417156,16.011,0.035
54055.428826,16.007,0.035
54055.440492,16.048,0.037
54055.452163,16.034,0.037
54055.463839,16.069,0.039
54056.453059,15.89,0.04
54056.465824,15.898,0.04
54056.49139,15.923,0.04
54058.430593,16.115,0.041
54058.443118,16.129,0.039
54058.455631,16.068,0.037
54058.468162,15.946,0.033
54058.48066,15.784,0.028
54061.432581,15.424,0.02
54061.457679,15.286,0.018
54061.470236,15.317,0.018
54061.482781,15.377,0.018
54066.389873,15.907,0.045
54066.397766,15.843,0.07
54066.403167,15.862,0.049
54066.422598,15.883,0.035
54066.441989,15.968,0.045
54070.400015,15.731,0.031
54070.413225,15.78,0.03
54084.389467,15.605,0.038
54084.399615,15.634,0.026
54084.402376,15.64,0.04
54084.415496,15.656,0.04
54084.419324,15.695,0.03
54084.42854,15.686,0.038
54084.436118,15.696,0.028
54084.441403,15.713,0.045
54084.452612,15.736,0.03
54087.40091,15.756,0.033
54087.413917,15.799,0.061
54087.426929,15.83,0.039
54087.439946,15.785,0.046
54087.45296,15.813,0.031
54098.314507,15.742,0.035
54098.32633,15.761,0.033
54098.337941,15.689,0.031
54098.349673,15.659,0.03
54098.361357,15.661,0.028
54110.330859,15.831,0.056
54110.355991,15.83,0.049
54110.368577,15.872,0.049
54110.381566,15.867,0.049
54121.324694,15.715,0.022
54121.333047,15.676,0.021
54121.336881,15.689,0.024
54121.345609,15.722,0.023
54121.35808,15.72,0.023
54121.361239,15.718,0.024
54121.370714,15.707,0.023
54121.373513,15.72,0.024
54121.383207,15.729,0.023
54124.274231,15.645,0.02
54124.286583,15.704,0.02
54124.311108,15.705,0.02
54124.323387,15.743,0.022
54149.278402,16.114,0.04
54149.290213,15.99,0.035
54149.302049,15.864,0.031
54149.313841,15.519,0.023
54149.325621,15.411,0.021
54175.265898,15.709,0.024
54175.27659,15.701,0.024
54175.29788,15.742,0.026
54175.308539,15.756,0.026
54206.179629,15.676,0.033
54206.188787,15.609,0.03
54206.198008,15.584,0.03
54206.207603,15.562,0.03
54206.216912,15.559,0.03
54207.180028,15.964,0.037
54207.189159,15.966,0.037
54207.198339,15.986,0.037
54207.207814,15.964,0.039
54207.216978,15.994,0.037
54210.180382,16.043,0.039
54210.189267,16.083,0.039
54210.198168,16.076,0.039
54210.20705,16.025,0.035
54424.389372,15.814,0.022
54424.427112,15.848,0.022
54450.405227,15.903,0.022
54450.418282,15.926,0.022
54454.326328,15.795,0.03
54454.33952,15.843,0.03
54454.352835,15.876,0.028
54465.4678,15.879,0.024
54465.493601,15.926,0.026
54465.506509,15.945,0.026
54475.331732,15.76,0.02
54475.344469,15.766,0.018
54475.357203,15.781,0.02
54475.37,15.826,0.022
54475.382733,15.843,0.022
54483.205605,16.029,0.063
54483.218516,16.031,0.059
54483.23155,16.003,0.054
54483.244502,15.984,0.052
54483.257435,16.059,0.054
54495.394947,15.893,0.028
54495.407484,15.917,0.03
54495.420131,15.912,0.03
54495.432793,15.963,0.031
54495.445567,16.011,0.033
54496.40072,15.7,0.017
54496.413299,15.73,0.018
54496.425973,15.723,0.018
54496.438557,15.76,0.02
54496.451147,15.767,0.02
54509.218603,15.636,0.02
54509.230514,15.66,0.02
54509.242526,15.664,0.018
54509.254549,15.669,0.018
54509.266481,15.703,0.018
54524.281057,15.982,0.028
54524.292499,15.981,0.033
54524.303905,15.929,0.031
54524.315335,15.904,0.03
54524.326774,15.854,0.022
54532.224291,15.772,0.017
54532.235432,15.813,0.017
54532.246631,15.79,0.017
54532.257889,15.783,0.017
54532.269043,15.81,0.018
54555.250094,15.962,0.024
54555.261963,15.964,0.024
54555.285616,15.987,0.024
54574.185314,15.596,0.052
54574.195871,15.438,0.046
54574.206441,15.412,0.046
54574.217019,15.434,0.048
54574.227608,15.406,0.046
54582.189376,15.932,0.037
54582.199938,15.918,0.037
54582.21038,15.958,0.039
54582.220952,15.953,0.041
54582.231507,15.987,0.044
54586.187757,15.85,0.028
54594.155412,15.66,0.028
54594.196767,15.708,0.033
54613.152768,15.898,0.037
54613.162576,15.891,0.039
54613.17255,15.946,0.041
54613.182463,15.892,0.041
54613.19243,15.912,0.043
