mjd,m,merr
52623.443188,15.748,0.033
52623.459028,15.739,0.035
52623.474722,15.808,0.052
52623.490616,15.893,0.05
52623.506554,16.003,0.05
52639.370883,15.772,0.028
52639.385667,15.758,0.028
52639.400345,15.786,0.03
52639.415313,15.851,0.031
52639.430352,15.936,0.031
52643.433534,15.79,0.03
52649.380259,15.96,0.031
52649.396709,15.893,0.031
52649.412754,15.84,0.03
52649.430863,15.771,0.03
52649.447625,15.809,0.03
52649.451823,15.821,0.028
52649.471649,15.912,0.031
52649.487019,16.002,0.033
52649.501765,16.08,0.039
52649.515879,16.027,0.037
52670.346304,15.838,0.031
52670.362295,15.946,0.036
52670.377839,16.054,0.038
52670.393629,16.072,0.04
52670.412127,15.956,0.038
52677.310441,15.844,0.031
52677.324881,15.776,0.03
52677.353767,15.836,0.063
52701.244668,15.919,0.035
52701.244783,15.941,0.033
52701.257818,15.894,0.033
52701.270935,15.775,0.03
52701.27105,15.759,0.028
52706.240882,15.8,0.031
52706.240997,15.803,0.03
52706.253997,15.781,0.031
52706.267735,15.83,0.031
52706.26785,15.847,0.031
52706.281533,15.883,0.033
52706.281648,15.914,0.031
52706.295018,15.962,0.036
52706.295132,16.004,0.035
52724.234869,15.802,0.028
52724.246479,15.879,0.03
52724.258073,15.92,0.031
52724.269707,15.97,0.031
52724.281314,15.939,0.031
52729.177626,15.807,0.033
52729.178113,15.83,0.031
52729.189648,15.809,0.033
52729.190136,15.823,0.031
52729.201815,15.867,0.035
52729.202302,15.886,0.033
52729.213856,15.939,0.036
52729.214343,15.923,0.033
52729.226283,16.031,0.038
52729.226771,15.991,0.035
52732.18873,15.972,0.063
52732.189213,15.941,0.059
52732.200617,15.883,0.043
52732.201101,15.922,0.038
52732.212909,15.84,0.035
52732.213393,15.871,0.033
52732.224967,15.795,0.043
52732.225451,15.745,0.04
52732.23707,15.816,0.04
52732.237555,15.835,0.036
52753.137856,15.829,0.03
52753.14974,15.883,0.031
52753.161635,15.929,0.033
52753.173526,15.997,0.035
52753.18547,16.094,0.041
52761.14534,15.827,0.05
52761.157117,15.789,0.033
52761.16889,15.777,0.031
52761.180652,15.803,0.043
52761.192484,15.894,0.048
52787.161643,15.775,0.035
52787.172223,15.879,0.039
52787.182744,15.889,0.046
52787.193457,15.938,0.044
52787.204086,15.918,0.044
52945.446913,15.812,0.04
52945.459049,15.799,0.04
52945.471183,15.783,0.038
52945.483397,15.788,0.04
52945.4956,15.892,0.04
52962.392778,15.865,0.033
52962.418583,15.753,0.03
52962.431605,15.756,0.028
52962.44433,15.829,0.028
52991.416623,15.927,0.031
52991.438003,15.803,0.028
52991.456231,15.742,0.026
52991.471927,15.768,0.022
52991.489249,15.81,0.024
53000.373289,15.765,0.018
53000.386202,15.778,0.018
53000.399481,15.826,0.018
53000.412391,15.856,0.018
53000.425472,15.92,0.02
53002.381062,15.868,0.02
53002.395787,15.777,0.018
53002.412457,15.763,0.018
53002.430801,15.775,0.018
53002.444095,15.806,0.018
53024.283645,15.884,0.02
53024.309357,15.761,0.017
53024.335114,15.771,0.043
53034.335236,15.9,0.031
53034.347576,15.844,0.03
53034.360202,15.796,0.028
53034.372476,15.817,0.03
53034.38516,15.829,0.031
53050.271111,15.913,0.026
53050.282704,15.825,0.024
53050.294356,15.787,0.022
53050.305955,15.765,0.022
53050.317661,15.759,0.031
53062.288842,15.736,0.061
53062.301095,15.805,0.064
53078.228927,15.923,0.033
53078.239698,15.981,0.031
53078.261062,16.068,0.037
53078.271734,16.055,0.031
53087.232631,15.806,0.028
53087.243196,15.759,0.018
53087.253904,15.769,0.018
53087.26466,15.783,0.018
53109.187515,15.846,0.03
53109.198193,15.882,0.03
53109.208899,15.926,0.031
53109.219585,15.962,0.033
53109.230396,15.934,0.031
53118.238973,15.953,0.025
53137.155071,15.864,0.033
53137.164565,15.785,0.033
53137.174095,15.825,0.035
53137.183638,15.763,0.035
53137.193138,15.78,0.037
53148.176002,15.843,0.036
53148.185298,15.916,0.04
53328.423503,16.228,0.119
53331.450878,15.827,0.041
53331.463296,15.902,0.043
53331.504829,16.113,0.053
53348.412814,15.853,0.035
53348.42714,15.992,0.041
53348.441425,16.019,0.043
53348.455694,15.964,0.041
53348.469954,15.879,0.046
53404.320219,15.932,0.026
53404.352839,16.109,0.03
53443.327474,16.075,0.033
53443.338163,16.112,0.035
53443.348826,16.062,0.035
53443.359479,15.973,0.043
53443.370138,15.899,0.052
53473.181975,15.952,0.037
53473.19159,15.802,0.033
53473.201385,15.774,0.031
53473.21114,15.817,0.033
53473.22081,15.779,0.033
53500.142305,16.097,0.041
53500.153556,16.085,0.041
53500.163705,16.057,0.041
53500.173717,15.988,0.039
53500.184028,15.914,0.037
53682.46434,15.928,0.043
53682.47691,15.843,0.039
53682.489309,15.806,0.039
53682.502098,15.841,0.037
53702.377949,15.83,0.031
53702.393215,15.895,0.031
53702.407452,15.96,0.035
53702.420384,16.025,0.037
53702.433264,16.104,0.039
53714.39273,16.019,0.039
53714.405738,16.097,0.041
53714.418588,16.018,0.035
53714.43138,15.902,0.031
53740.343417,15.841,0.03
53740.356404,15.922,0.031
53740.369119,16.006,0.033
53740.38195,16.042,0.035
53740.394746,16.044,0.035
53771.282491,15.761,0.039
53771.295382,15.793,0.03
53771.309128,15.966,0.068
53771.321975,15.93,0.046
53771.334864,15.994,0.052
53786.279393,15.86,0.028
53786.291282,15.83,0.03
53786.303281,15.776,0.026
53786.315174,15.765,0.028
53786.327087,15.775,0.028
53812.243524,16.054,0.046
53843.200384,16.022,0.043
53843.211828,15.922,0.041
53843.235119,15.873,0.04
53854.208537,15.746,0.101
53854.218788,15.789,0.066
53854.229,15.854,0.069
53882.199808,15.797,0.049
54029.437033,15.912,0.058
54029.44943,15.897,0.056
54029.461895,15.928,0.054
54029.473727,15.848,0.049
54029.486178,15.805,0.046
54055.383958,15.914,0.045
54055.396527,15.968,0.045
54055.409093,15.993,0.043
54055.422209,15.98,0.043
54055.434663,15.929,0.041
54067.395058,15.973,0.038
54067.40799,15.904,0.036
54067.420729,15.879,0.035
54067.434052,15.816,0.031
54067.446894,15.815,0.031
54085.398167,15.742,0.038
54085.4114,15.777,0.049
54085.424311,15.82,0.043
54085.437323,15.856,0.043
54085.45013,15.936,0.064
54110.346919,15.811,0.041
54110.362431,15.75,0.035
54110.377131,15.788,0.035
54110.392399,15.768,0.041
54110.410666,15.874,0.041
54123.321035,15.931,0.035
54123.333255,15.873,0.033
54123.345741,15.779,0.031
54123.357955,15.797,0.031
54123.370164,15.793,0.031
54156.21345,15.819,0.04
54156.224792,15.792,0.04
54156.235882,15.812,0.04
54156.246949,15.863,0.041
54156.257898,15.852,0.041
54206.179385,15.829,0.038
54206.188543,15.868,0.038
54206.216669,15.988,0.043
54412.442532,16.027,0.028
54412.454796,16.062,0.026
54412.467178,16.021,0.026
54412.479537,15.934,0.024
54412.491816,15.878,0.022
54420.445271,15.827,0.022
54420.457923,15.883,0.022
54420.470547,15.95,0.024
54452.333658,15.931,0.024
54452.346533,15.853,0.022
54452.359403,15.841,0.022
54452.372247,15.788,0.02
54452.385097,15.801,0.02
54476.337031,15.81,0.018
54476.362736,15.916,0.02
54476.375587,16.004,0.022
54476.388427,16.062,0.022
54509.219426,15.936,0.024
54509.231341,15.983,0.024
54509.24335,16.03,0.024
54509.255378,16.121,0.026
54509.267308,16.061,0.024
54533.225004,15.976,0.022
54533.236,15.885,0.02
54533.246978,15.82,0.018
54533.258004,15.785,0.017
54533.269001,15.768,0.017
54574.185662,15.902,0.068
54574.196221,15.99,0.074
54574.206788,16.047,0.078
54574.21737,16.095,0.083
54574.22796,16.055,0.081
54582.190184,15.804,0.054
54582.21041,15.845,0.059
54582.23104,15.921,0.068
54587.194965,15.985,0.035
54587.205495,16.039,0.039
54587.216085,16.075,0.039
54587.226638,16.052,0.041
54587.237135,15.992,0.037
54595.151027,15.877,0.037
54595.160927,15.803,0.035
54595.170788,15.794,0.035
54595.180669,15.746,0.033
54595.190619,15.784,0.039
54613.154157,15.88,0.073
54613.164435,15.93,0.078
54613.174745,16.011,0.081
54613.185066,16.04,0.086
54613.195262,16.123,0.096
