mjd,m,merr
52612.454619,14.956,0.016
52612.469906,14.981,0.015
52612.485066,14.972,0.015
52612.50033,15.035,0.015
52612.51536,15.032,0.016
52623.368686,14.976,0.02
52623.383247,14.983,0.018
52623.397813,15.008,0.018
52623.412756,15.071,0.018
52623.427448,15.053,0.018
52650.318108,15.239,0.02
52650.333009,15.061,0.016
52652.314789,14.92,0.015
52652.356317,14.946,0.015
52652.394242,14.989,0.015
52664.279218,15.009,0.015
52664.296704,15.053,0.015
52664.330449,15.054,0.015
52664.346983,15.011,0.015
52681.273105,14.967,0.021
52681.28793,14.978,0.021
52681.317845,14.96,0.016
52681.332593,14.965,0.016
52696.275884,14.885,0.015
52696.276497,14.852,0.015
52696.289368,14.9,0.015
52696.289979,14.866,0.015
52696.30285,14.895,0.015
52696.303463,14.927,0.015
52696.316323,14.907,0.015
52696.316937,14.884,0.015
52696.329806,14.925,0.015
52696.330418,14.948,0.015
52711.184257,14.982,0.02
52711.192997,14.946,0.023
52711.197708,15.002,0.018
52711.206078,14.98,0.023
52711.211294,14.986,0.018
52711.219323,14.89,0.021
52711.22494,14.976,0.018
52711.232426,14.916,0.021
52711.238924,14.972,0.018
52723.18229,14.896,0.015
52723.182406,14.937,0.015
52723.194362,14.95,0.016
52723.194478,14.971,0.015
52723.206514,15.073,0.033
52723.20663,15.025,0.023
52723.218737,15.012,0.02
52723.218852,14.987,0.02
52723.230859,15.011,0.021
52739.186046,15.121,0.033
52739.197402,14.84,0.031
52739.209043,14.905,0.028
52739.209158,14.964,0.028
52739.220714,14.854,0.03
52739.22083,14.955,0.03
52739.232764,14.907,0.03
52752.138706,14.881,0.018
52752.14931,14.876,0.018
52752.159914,14.917,0.018
52752.1706,14.933,0.018
52752.171192,14.918,0.016
52752.181287,14.935,0.018
52752.18188,14.936,0.018
52782.157331,15.095,0.025
52782.190085,15.014,0.026
52782.201246,15.013,0.045
52800.193583,15.011,0.057
52800.203639,14.954,0.052
52946.450598,14.958,0.028
52964.420243,15.283,0.016
52964.434325,15.106,0.013
52966.363914,14.978,0.015
52966.371902,14.982,0.015
52966.379943,14.967,0.015
52966.387931,14.971,0.015
52966.396024,14.985,0.013
52976.394129,14.926,0.011
52976.407117,14.924,0.011
52976.420487,14.918,0.011
52976.433479,14.919,0.011
52976.446765,14.931,0.011
52990.39724,14.953,0.013
52990.409852,14.962,0.013
52990.422316,14.952,0.012
52990.43533,14.987,0.013
52990.447801,14.998,0.016
53003.322552,15.04,0.01
53003.334883,15.142,0.01
53003.35899,15.323,0.012
53003.371065,15.338,0.012
53006.330545,14.929,0.015
53006.34265,14.917,0.015
53006.355491,14.927,0.015
53006.367586,14.928,0.013
53006.379686,14.93,0.015
53035.292096,14.957,0.015
53035.305526,14.97,0.015
53035.330252,14.953,0.015
53035.342538,14.956,0.015
53037.340273,15.019,0.016
53037.365464,15.03,0.016
53037.378128,14.985,0.016
53037.393497,14.98,0.015
53046.291739,14.976,0.015
53046.303706,14.95,0.015
53046.315652,14.939,0.013
53046.327838,15.003,0.015
53046.340131,15.004,0.015
53077.300096,14.969,0.024
53092.226875,15.351,0.018
53092.236881,15.34,0.018
53092.24681,15.263,0.018
53092.256729,15.146,0.016
53092.266587,15.078,0.015
53107.201421,15.068,0.013
53107.2126,15.07,0.013
53107.223912,15.039,0.013
53107.235153,15.007,0.013
53121.199925,15.294,0.021
53127.192787,15.029,0.031
53127.202733,15.011,0.03
53127.212638,14.978,0.03
53127.222544,15.011,0.031
53127.23248,14.967,0.031
53136.155754,15.007,0.015
53136.164983,15.018,0.017
53136.174207,15.049,0.017
53136.183427,15.071,0.018
53136.192697,15.071,0.018
53154.163896,14.945,0.026
53154.172707,14.955,0.026
53154.181461,14.943,0.026
53154.190231,14.942,0.026
53154.199045,14.961,0.028
53269.424378,14.93,0.028
53269.437006,15.11,0.028
53269.437111,15.009,0.026
53269.448891,15.137,0.026
53269.448996,15.093,0.026
53294.459144,15.036,0.016
53294.470585,15.034,0.015
53294.482106,15.014,0.015
53302.451599,14.951,0.018
53302.463504,14.978,0.02
53302.475419,14.972,0.018
53302.48734,15.002,0.02
53329.460212,14.855,0.016
53329.472706,14.879,0.016
53329.485499,14.876,0.016
53329.498278,14.912,0.016
53329.510872,14.903,0.016
53331.393669,14.886,0.02
53331.406567,14.872,0.018
53331.419235,14.886,0.017
53331.43159,14.919,0.017
53341.408203,14.914,0.026
53341.420208,14.943,0.026
53341.432678,14.975,0.026
53341.444692,14.984,0.026
53341.456709,15.029,0.028
53349.404074,14.941,0.018
53349.417902,14.947,0.02
53349.431365,14.942,0.018
53349.445192,14.982,0.02
53349.45869,14.952,0.018
53355.472636,15.271,0.018
53355.485847,15.36,0.02
53355.499005,15.351,0.02
53355.51428,15.163,0.016
53360.355818,14.891,0.016
53360.369515,14.902,0.016
53360.38377,14.85,0.015
53360.397958,14.903,0.015
53360.412072,14.908,0.015
53385.479072,14.98,0.015
53385.492284,14.958,0.015
53385.505265,14.946,0.015
53385.518312,14.951,0.015
53385.531254,14.949,0.015
53401.316404,15.036,0.016
53401.328915,15.06,0.018
53401.341438,15.025,0.016
53402.351952,14.967,0.026
53402.353862,14.934,0.013
53402.364897,14.965,0.015
53402.367151,14.922,0.013
53403.27939,14.978,0.011
53403.279512,14.969,0.011
53403.287579,14.943,0.012
53403.29221,14.937,0.011
53403.292331,14.944,0.011
53403.301031,14.921,0.012
53403.304998,14.916,0.011
53403.305118,14.921,0.011
53403.314506,14.939,0.012
53403.317825,14.906,0.011
53403.317946,14.928,0.011
53403.327941,14.923,0.012
53403.330553,14.883,0.011
53403.330674,14.944,0.011
53415.414317,14.984,0.015
53415.453259,14.881,0.031
53437.29795,14.96,0.013
53437.309971,14.934,0.013
53437.32159,14.942,0.013
53437.333315,14.944,0.013
53437.346331,14.951,0.013
53450.220525,15.001,0.03
53450.231338,15.072,0.03
53450.253564,15.043,0.03
53450.264214,15.046,0.03
53479.182151,14.951,0.043
53479.191722,14.986,0.046
53684.435456,14.928,0.018
53684.46043,14.946,0.015
53684.473157,14.949,0.017
53684.485632,14.945,0.017
53701.445623,15.241,0.024
53701.470863,15.021,0.02
53701.483415,14.921,0.028
53701.49587,14.926,0.018
53728.394966,14.907,0.018
53728.408309,14.923,0.015
53728.421838,14.914,0.017
53728.434991,14.92,0.018
53728.448061,14.918,0.015
53742.353936,14.931,0.011
53742.366856,14.903,0.011
53742.379909,14.889,0.011
53742.392917,14.887,0.011
53742.405775,14.872,0.011
53772.228924,15.322,0.022
53772.241806,15.274,0.02
53772.254643,15.189,0.018
53772.267663,15.062,0.017
53772.281323,14.973,0.015
53812.257149,14.905,0.018
53812.26824,14.905,0.018
53812.279307,14.903,0.018
53812.29038,14.898,0.018
53812.301466,14.899,0.018
53825.228616,15.056,0.013
53825.23986,15.027,0.013
53825.251003,15.011,0.013
53825.262245,14.974,0.013
53825.27342,14.971,0.013
53843.196344,14.91,0.017
53843.207759,14.908,0.017
53843.219078,14.927,0.018
53843.230404,14.943,0.018
53843.24265,14.973,0.018
53855.188388,14.987,0.018
53855.199154,14.956,0.018
53855.209672,14.926,0.018
53855.22027,14.942,0.018
53855.2308,14.92,0.018
53878.158591,15.016,0.026
53878.174243,15.092,0.031
53878.193253,15.261,0.036
53878.208091,15.324,0.04
53878.225147,15.212,0.038
54025.44798,14.994,0.021
54025.460563,14.998,0.02
54053.441888,14.948,0.021
54053.457028,14.96,0.02
54053.470264,14.981,0.021
54070.406428,15.02,0.02
54070.419291,15.011,0.016
54070.432405,15.001,0.016
54081.387357,14.951,0.017
54081.400455,14.934,0.015
54081.413776,14.958,0.017
54081.426771,14.934,0.015
54081.439657,14.95,0.015
54086.332286,15.339,0.061
54086.345871,15.299,0.031
54086.359415,15.136,0.023
54109.318862,14.95,0.025
54109.34251,14.957,0.03
54109.354278,14.983,0.031
54109.366513,15.071,0.036
54169.222403,14.96,0.011
54169.233361,15.007,0.011
54169.244376,15.011,0.011
54169.25528,15.0,0.011
54169.266401,15.012,0.011
54200.2213,14.936,0.013
54200.231289,14.947,0.018
54209.174527,15.004,0.016
54209.183349,15.019,0.018
54209.192079,14.956,0.049
54209.201571,15.01,0.026
54209.210229,14.959,0.021
54217.166504,14.907,0.031
54509.268984,15.304,0.021
54509.281026,15.201,0.02
54509.292892,15.106,0.02
54509.304656,14.99,0.018
54509.316527,14.971,0.018
54527.300115,15.269,0.04
54527.311238,15.312,0.023
54527.322683,15.304,0.023
54536.217579,14.958,0.018
54536.2288,14.947,0.018
54536.239691,14.955,0.018
54536.250866,14.975,0.018
54536.261701,14.975,0.018
54568.181982,15.323,0.022
54568.193223,15.315,0.022
54568.203989,15.218,0.02
54568.214845,15.139,0.02
54568.225638,15.048,0.02
54584.190538,15.02,0.023
54584.20061,15.019,0.023
54584.210612,15.005,0.023
54584.220614,15.022,0.023
54589.19324,14.945,0.013
54589.203624,14.93,0.015
54589.213983,14.938,0.013
54589.224313,14.94,0.013
54589.234678,14.935,0.013
54615.204178,15.126,0.025
54621.167241,14.996,0.017
