mjd,m,merr
52602.423635,15.399,0.049
52602.45307,15.615,0.056
52620.402212,15.835,0.178
52620.417635,15.68,0.033
52620.418514,15.703,0.048
52620.432212,15.644,0.033
52636.370971,15.605,0.035
52636.385576,15.598,0.033
52636.400011,15.55,0.03
52636.414657,15.566,0.031
52636.429128,15.66,0.033
52653.317073,15.79,0.04
52653.317709,15.856,0.061
52653.332116,15.679,0.035
52653.332747,15.72,0.058
52653.346988,15.629,0.033
52653.361906,15.531,0.031
52653.37677,15.58,0.031
52660.321707,15.595,0.046
52684.348432,15.583,0.049
52684.364056,15.591,0.049
52684.378961,15.641,0.053
52684.39405,15.849,0.059
52684.408907,15.947,0.071
52693.268746,15.613,0.02
52693.284945,15.647,0.022
52693.300721,15.776,0.024
52693.31639,15.895,0.028
52693.331796,15.928,0.03
52721.239998,15.876,0.028
52721.252731,15.954,0.03
52721.265507,15.93,0.028
52721.278303,15.798,0.026
52721.291113,15.697,0.026
52750.182149,15.993,0.035
52750.192895,15.912,0.033
52750.203702,15.806,0.031
52750.214455,15.738,0.028
52750.225226,15.713,0.028
52771.152285,15.597,0.041
52771.164187,15.643,0.044
52771.176242,15.68,0.046
52771.188334,15.8,0.054
52771.200247,15.891,0.057
52781.159937,15.825,0.04
52781.170684,15.75,0.038
52781.181611,15.711,0.036
52781.192325,15.685,0.036
52781.203526,15.689,0.036
52927.437435,15.869,0.072
52927.44929,15.847,0.067
52927.461034,15.906,0.068
52927.472436,15.891,0.065
52927.484064,15.887,0.061
52948.446574,15.799,0.035
52948.45867,15.846,0.035
52948.470601,15.951,0.041
52948.482679,16.065,0.043
52948.494897,16.022,0.041
52978.376976,15.711,0.04
52978.392253,15.784,0.04
52978.405473,15.865,0.045
52978.420503,16.023,0.049
52988.358826,15.862,0.036
52988.370607,15.803,0.035
52988.381809,15.71,0.031
52988.393025,15.652,0.03
52988.404694,15.618,0.03
53008.377057,15.847,0.04
53008.391893,15.758,0.041
53008.4058,15.672,0.035
53038.293737,15.891,0.044
53038.307483,15.875,0.044
53038.322236,15.741,0.041
53038.338522,15.672,0.037
53038.351944,15.622,0.037
53045.267956,15.628,0.03
53045.279626,15.563,0.03
53045.291387,15.573,0.03
53045.30374,15.65,0.031
53045.315461,15.684,0.033
53096.253762,15.693,0.078
53096.263699,15.637,0.059
53108.196709,15.559,0.024
53108.207971,15.589,0.026
53108.219192,15.64,0.026
53108.230568,15.688,0.026
53108.241784,15.754,0.03
53125.213554,15.746,0.094
53125.223385,15.893,0.098
53125.233246,15.864,0.093
53134.155219,15.908,0.041
53134.164693,15.993,0.043
53134.174176,16.052,0.046
53134.18366,15.907,0.039
53134.193142,15.836,0.039
53155.166572,15.738,0.072
53155.175366,15.781,0.076
53155.184162,15.845,0.083
53155.192962,15.963,0.091
53155.201869,15.971,0.093
53290.421211,15.981,0.059
53290.432401,15.925,0.052
53290.443824,15.914,0.05
53290.455008,15.781,0.041
53290.466201,15.748,0.041
53303.438293,15.789,0.05
53303.450156,15.718,0.039
53312.44478,15.868,0.067
53312.457064,16.102,0.08
53312.469335,15.971,0.072
53312.481653,15.815,0.061
53330.409397,15.726,0.036
53330.424542,15.775,0.038
53330.438603,15.896,0.041
53330.453699,16.021,0.048
53340.421217,15.766,0.065
53356.407347,15.656,0.026
53356.42097,15.638,0.026
53356.435434,15.649,0.025
53356.449113,15.64,0.026
53356.46397,15.676,0.026
53358.397178,15.794,0.028
53358.410199,15.723,0.028
53358.423221,15.693,0.028
53358.436325,15.673,0.026
53358.450243,15.569,0.024
53360.355514,15.704,0.031
53360.369385,15.899,0.039
53360.382801,15.862,0.035
53360.397298,15.934,0.035
53360.414443,15.844,0.033
53362.382766,15.785,0.063
53362.399682,15.847,0.046
53386.351154,15.636,0.022
53386.364189,15.614,0.022
53386.377699,15.632,0.022
53386.390721,15.536,0.022
53386.403732,15.582,0.022
53390.335508,15.962,0.044
53390.348255,15.801,0.039
53390.361002,15.71,0.035
53390.373829,15.677,0.031
53390.387315,15.589,0.028
53429.27056,15.547,0.028
53429.281793,15.579,0.028
53429.293027,15.566,0.028
53429.304258,15.669,0.03
53429.316061,15.715,0.031
53461.228149,15.554,0.026
53461.2385,15.583,0.026
53461.249411,15.635,0.028
53461.259797,15.642,0.026
53461.27025,15.705,0.03
53489.19212,15.751,0.059
53489.204356,15.774,0.043
53489.214547,15.896,0.057
53489.224642,15.919,0.055
53489.234837,15.932,0.091
53687.437373,15.669,0.037
53687.44978,15.65,0.031
53687.462319,15.661,0.028
53687.474704,15.686,0.028
53687.487089,15.736,0.028
53725.342427,15.762,0.037
53725.355466,15.9,0.041
53725.368618,15.943,0.043
53725.381604,15.91,0.041
53725.39466,15.81,0.037
53755.335144,15.73,0.035
53755.347828,15.666,0.033
53755.360543,15.643,0.031
53755.374068,15.63,0.031
53755.387059,15.567,0.03
53775.293135,15.752,0.043
53775.305788,15.838,0.046
53775.318617,15.936,0.048
53775.328028,15.966,0.049
53775.332252,15.953,0.054
53775.34201,15.942,0.048
53775.345564,15.806,0.044
53775.356081,15.775,0.054
53829.207532,15.674,0.031
53829.218098,15.684,0.033
53833.238589,15.662,0.048
53833.24894,15.671,0.041
53858.223253,15.778,0.058
53876.155101,15.614,0.038
53876.166089,15.648,0.04
54021.4477,15.658,0.056
54050.427536,15.714,0.044
54050.440008,15.793,0.05
54050.452313,15.826,0.052
54050.476672,15.995,0.059
54079.358436,15.56,0.039
54079.370449,15.694,0.043
54079.382529,15.751,0.044
54079.394548,15.819,0.048
54079.406562,15.773,0.055
54080.465389,15.745,0.039
54080.465494,15.73,0.039
54108.325247,15.833,0.041
54108.337959,15.976,0.043
54108.35066,15.913,0.043
54108.363367,15.858,0.041
54108.376078,15.744,0.035
54126.271346,15.68,0.033
54139.273298,15.841,0.033
54139.285023,15.954,0.043
54139.29649,15.993,0.051
54139.308025,16.005,0.043
54139.321188,15.793,0.04
54167.246351,15.847,0.045
54406.428527,15.798,0.043
54406.442038,15.714,0.04
54406.45519,15.707,0.04
54406.467578,15.642,0.041
54406.479108,15.636,0.041
54418.44414,15.642,0.026
54418.456555,15.721,0.028
54418.468578,15.782,0.03
54418.480662,15.874,0.031
54418.492703,16.004,0.035
54436.389064,15.748,0.033
54436.402735,15.691,0.031
54436.415109,15.61,0.03
54436.427479,15.702,0.031
54436.439704,15.736,0.033
54465.330421,15.71,0.04
54465.342883,15.629,0.036
54465.355272,15.658,0.036
54465.367737,15.685,0.038
54465.380373,15.691,0.04
54484.325215,15.695,0.041
54484.337513,15.717,0.041
54484.349838,15.662,0.041
54484.362461,15.7,0.041
54484.374777,15.683,0.041
54496.346928,15.847,0.038
54496.359506,15.893,0.038
54496.374055,15.98,0.041
54496.386145,15.887,0.038
54496.398266,15.806,0.036
54524.273952,15.892,0.041
54524.28555,15.952,0.045
54524.297782,15.922,0.046
54524.309395,15.876,0.049
54524.321037,15.799,0.04
54539.213373,15.712,0.036
54539.224137,15.764,0.038
54539.234683,15.819,0.041
54539.245537,15.925,0.043
54539.256075,15.97,0.051
54571.189636,15.756,0.069
54571.200832,15.897,0.078
54571.222687,15.972,0.073
54571.233616,15.85,0.064
54587.195016,15.956,0.089
54587.205195,15.968,0.091
54587.21541,15.818,0.084
54587.235235,15.778,0.078
54620.161425,15.903,0.056
54620.171745,15.85,0.054
54620.182736,15.798,0.053
54620.193062,15.771,0.049
54620.203475,15.7,0.048
