mjd,m,merr
52619.450322,16.116,0.046
52619.465304,16.053,0.043
52619.480721,16.096,0.046
52619.495698,16.155,0.048
52619.510687,16.084,0.046
52640.423645,15.629,0.024
52640.43904,15.643,0.022
52640.454545,15.692,0.024
52640.469558,15.731,0.026
52640.484399,15.75,0.026
52646.386588,16.079,0.041
52646.401397,16.088,0.041
52646.415842,16.104,0.043
52646.430412,16.082,0.043
52646.444921,16.081,0.043
52647.383551,15.772,0.033
52647.398045,15.747,0.033
52647.412946,15.87,0.036
52647.427765,15.886,0.038
52647.442465,15.896,0.038
52666.320994,15.833,0.028
52666.336098,15.819,0.028
52666.351024,15.863,0.03
52672.323002,16.063,0.043
52672.33694,16.174,0.041
52672.351099,16.11,0.039
52672.364959,16.214,0.041
52672.378934,16.214,0.046
52673.305698,15.922,0.033
52698.253423,16.236,0.15
52698.285556,15.645,0.026
52698.303443,15.493,0.023
52698.317857,15.491,0.023
52704.287138,15.954,0.035
52704.300226,16.006,0.038
52704.313581,16.008,0.041
52704.326613,16.072,0.041
52704.339621,16.038,0.041
52705.239278,15.624,0.022
52705.252445,15.66,0.022
52705.267385,15.697,0.024
52705.280448,15.709,0.024
52705.293638,15.733,0.026
52709.170489,15.906,0.045
52709.184024,15.7,0.036
52709.198115,15.621,0.035
52709.211865,15.53,0.031
52725.265639,15.628,0.067
52725.27738,15.64,0.031
52725.289115,15.537,0.067
52725.300775,15.557,0.024
52729.228341,16.204,0.039
52729.239973,16.221,0.041
52729.251443,15.981,0.033
52729.262932,15.834,0.03
52729.275101,15.745,0.028
52734.249623,16.143,0.043
52734.261974,16.122,0.041
52734.274215,16.225,0.098
52738.187546,16.038,0.054
52738.19924,16.003,0.053
52738.210844,16.085,0.058
52738.222532,16.019,0.056
52738.234133,16.081,0.058
52755.144809,15.603,0.026
52755.156945,15.627,0.026
52755.169006,15.651,0.028
52755.181099,15.657,0.028
52755.193159,15.674,0.03
52758.147706,15.817,0.035
52758.160115,15.915,0.038
52758.172223,15.845,0.035
52758.18436,15.945,0.04
52758.196429,15.917,0.036
52940.462249,15.692,0.107
52940.474239,15.617,0.124
52944.438814,15.766,0.044
52944.450819,15.662,0.039
52944.46276,15.631,0.035
52944.474717,15.583,0.033
52944.486792,15.629,0.033
52965.453917,16.125,0.155
52973.396321,15.977,0.035
52973.409321,15.99,0.037
52973.422419,16.034,0.037
52973.435218,16.056,0.037
52973.448169,16.022,0.033
52993.387688,15.85,0.026
52993.400775,15.882,0.026
52993.413867,15.922,0.026
52993.42725,15.895,0.022
52993.440381,15.938,0.022
52994.401135,15.565,0.018
52994.41397,15.616,0.018
52994.427474,15.641,0.021
52994.44057,15.658,0.021
52996.385529,16.017,0.026
52996.398298,16.05,0.026
52996.411122,16.081,0.026
52996.424097,16.069,0.025
53025.302548,15.847,0.018
53025.314553,15.789,0.016
53025.326022,15.739,0.02
53025.337788,15.693,0.023
53028.420512,15.888,0.031
53033.315868,16.142,0.041
53053.288518,16.128,0.061
53053.300319,16.09,0.055
53053.313051,16.064,0.061
53053.327133,16.151,0.078
53053.338868,16.204,0.037
53054.296008,15.999,0.028
53054.309662,16.012,0.028
53054.325461,16.042,0.028
53054.339318,16.044,0.03
53054.351845,16.05,0.03
53057.350751,16.173,0.183
53079.24874,15.787,0.026
53079.259371,15.734,0.024
53079.270059,15.616,0.022
53079.280866,15.58,0.022
53079.2916,15.565,0.02
53082.248519,15.753,0.018
53082.260131,15.776,0.02
53082.273481,15.824,0.02
53082.284836,15.832,0.02
53084.239039,16.13,0.026
53084.251505,16.117,0.025
53084.262877,16.138,0.025
53084.274208,16.128,0.025
53084.286015,16.169,0.026
53091.230886,16.28,0.036
53091.250631,16.265,0.035
53091.263247,16.185,0.031
53091.272988,16.143,0.03
53110.185164,16.2,0.048
53110.195853,16.102,0.044
53110.206542,15.997,0.041
53110.217229,15.856,0.037
53110.227979,15.768,0.035
53115.19994,16.075,0.03
53115.210718,16.126,0.031
53115.221943,16.104,0.031
53115.232784,16.106,0.031
53115.243767,16.126,0.035
53138.153403,16.111,0.044
53138.163284,16.131,0.046
53138.173164,16.118,0.044
53138.182987,16.108,0.044
53138.192787,16.074,0.043
53141.171737,16.262,0.043
53141.181198,16.217,0.041
53141.190211,16.149,0.038
53141.1992,15.942,0.033
53141.208219,15.801,0.03
53327.377303,16.073,0.083
53327.389693,16.008,0.076
53327.402076,16.067,0.067
53327.414524,16.062,0.061
53327.426899,16.04,0.057
53346.383048,16.008,0.043
53346.395306,16.077,0.048
53346.420421,16.097,0.048
53346.432637,16.109,0.048
53347.469501,15.99,0.037
53347.485463,16.022,0.037
53347.50094,16.036,0.037
53347.518627,16.026,0.037
53351.422561,15.876,0.041
53351.436892,15.897,0.041
53351.451322,15.925,0.045
53351.466246,15.972,0.048
53351.480898,15.945,0.046
53353.394071,16.246,0.05
53353.407021,16.251,0.052
53353.419951,16.251,0.054
53353.432889,16.299,0.054
53353.445874,16.307,0.054
53357.439134,16.279,0.043
53357.452559,16.29,0.044
53357.467335,16.265,0.046
53357.480909,16.18,0.043
53357.495956,16.01,0.037
53376.415798,15.991,0.033
53376.429322,15.795,0.03
53376.443294,15.743,0.028
53376.45699,15.647,0.026
53376.470564,15.582,0.024
53383.346825,15.637,0.024
53383.360976,15.633,0.026
53383.374058,15.615,0.024
53383.387708,15.655,0.024
53383.401706,15.651,0.026
53403.3558,16.261,0.045
53403.368929,16.169,0.041
53403.382465,16.146,0.043
53403.39672,15.88,0.035
53403.410304,15.683,0.031
53410.417423,15.725,0.024
53410.429784,15.763,0.024
53410.442188,15.82,0.026
53410.454539,15.822,0.028
53410.467593,15.858,0.03
53438.352222,16.232,0.046
53438.364464,16.228,0.046
53438.375989,16.172,0.046
53438.387612,15.967,0.039
53438.399225,15.843,0.039
53464.240691,15.612,0.026
53464.251128,15.558,0.024
53464.261967,15.605,0.026
53464.272536,15.604,0.03
53464.282965,15.615,0.033
53468.214682,15.952,0.089
53468.22419,15.803,0.05
53502.143976,15.53,0.03
53502.154773,15.566,0.03
53502.165318,15.602,0.031
53502.176149,15.603,0.033
53502.186439,15.646,0.035
53674.467537,15.947,0.048
53674.479685,15.949,0.044
53674.491954,15.977,0.043
53679.450394,15.604,0.031
53679.462622,15.647,0.033
53679.474766,15.647,0.031
53679.486942,15.688,0.033
53679.499815,15.723,0.033
53704.450109,16.139,0.041
53704.46262,16.101,0.041
53704.475065,16.096,0.041
53704.487628,16.14,0.041
53704.500375,16.164,0.043
53707.450733,16.213,0.055
53707.463532,16.121,0.043
53707.476155,15.943,0.037
53707.488788,15.755,0.031
53707.501392,15.681,0.026
53711.469646,16.234,0.043
53711.482617,16.127,0.039
53711.4955,15.943,0.033
53711.508518,15.74,0.028
53711.521446,15.603,0.026
53734.409058,16.078,0.035
53734.422006,16.031,0.035
53734.43494,15.893,0.031
53734.448087,15.744,0.03
53734.461261,15.708,0.03
53737.405082,15.69,0.024
53737.418601,15.684,0.024
53737.432029,15.776,0.028
53737.445355,15.797,0.083
53737.458686,15.783,0.028
53747.343908,15.963,0.093
53747.356792,15.981,0.091
53747.36964,16.073,0.091
53747.396172,16.085,0.098
53758.341746,16.101,0.035
53758.354256,16.138,0.041
53758.366775,16.135,0.041
53758.379507,16.21,0.044
53758.392134,16.133,0.043
53787.415657,15.862,0.043
53787.427571,15.902,0.044
53787.439579,15.904,0.044
53787.451646,15.924,0.048
53789.290742,16.053,0.065
53789.291151,16.075,0.073
53789.302674,16.096,0.055
53789.314607,16.009,0.074
53789.316749,16.133,0.091
53789.329243,16.126,0.112
53789.338705,16.105,0.126
53789.341774,16.155,0.127
53792.288913,16.17,0.043
53792.30083,16.191,0.041
53792.312742,16.208,0.059
53792.324637,16.244,0.044
53792.336588,16.211,0.046
53799.23092,16.208,0.041
53799.243078,16.27,0.043
53802.282344,15.75,0.039
53802.293719,15.741,0.039
53802.305108,15.736,0.061
53802.327929,15.777,0.076
53818.230182,15.665,0.03
53821.23634,15.798,0.039
53821.250342,15.866,0.039
53821.263279,15.852,0.037
53821.277071,15.864,0.035
53821.287713,15.929,0.061
53824.286706,16.072,0.055
53824.330953,16.147,0.081
53828.2358,15.92,0.052
53828.246196,16.001,0.059
53828.257257,15.957,0.089
53828.281219,16.054,0.072
53831.182744,16.099,0.091
53831.201845,16.045,0.087
53845.186868,15.75,0.041
53845.197573,15.629,0.037
53845.208285,15.495,0.033
53845.219142,15.47,0.033
53845.229886,15.452,0.035
53846.1942,16.152,0.065
53846.204854,16.158,0.068
53846.215527,16.165,0.067
53846.226268,16.233,0.072
53846.236992,16.291,0.078
53851.186369,15.934,0.056
53851.193372,16.012,0.05
53851.196591,16.002,0.053
53851.203412,16.067,0.052
53851.206869,15.979,0.051
53851.214035,16.033,0.05
53851.223926,16.027,0.052
53851.233808,16.078,0.057
53854.197841,16.291,0.248
53854.208746,16.099,0.12
53854.223538,16.052,0.055
53854.236461,16.129,0.061
53854.248019,16.068,0.063
53857.230875,15.589,0.054
54030.432298,16.209,0.084
54030.447305,16.295,0.084
54030.463438,16.349,0.079
54030.475176,16.165,0.064
54035.438248,16.085,0.061
54035.450284,16.163,0.058
54035.462815,16.1,0.054
54035.474962,16.026,0.048
54035.486671,16.122,0.049
54040.430306,15.652,0.051
54040.443928,15.839,0.056
54040.456296,15.804,0.056
54040.46865,15.891,0.059
54040.480666,15.849,0.053
54053.427242,16.11,0.096
54053.450869,15.838,0.065
54053.462749,15.804,0.054
54053.4746,15.684,0.035
54056.4286,15.71,0.03
54056.440854,15.73,0.03
54056.453106,15.764,0.03
54056.465547,15.791,0.03
54056.477796,15.801,0.03
54058.438589,16.105,0.053
54058.451744,16.07,0.048
54058.464341,16.057,0.046
54058.476815,16.143,0.051
54059.434729,15.986,0.037
54059.447226,15.943,0.035
54059.459541,15.993,0.037
54059.471939,16.009,0.035
54059.485301,16.024,0.033
54064.38432,15.514,0.03
54064.396972,15.504,0.03
54064.435225,15.605,0.028
54064.442979,15.62,0.024
54064.455841,15.659,0.026
54064.468702,15.686,0.026
54064.481567,15.722,0.026
54064.49444,15.75,0.026
54082.3728,16.057,0.097
54082.3853,16.117,0.101
54082.394044,15.961,0.044
54082.406933,15.988,0.044
54082.410114,16.157,0.097
54082.420176,15.978,0.043
54082.422576,16.09,0.092
54082.43306,16.033,0.044
54082.44596,16.077,0.046
54085.458953,16.103,0.037
54085.471914,16.185,0.039
54085.484878,16.149,0.035
54085.497847,16.175,0.035
54085.510809,16.189,0.037
54112.388125,16.077,0.041
54112.400834,16.171,0.046
54112.413394,16.135,0.048
54112.425941,16.095,0.048
54114.357108,15.577,0.03
54114.382668,15.708,0.078
54152.281508,15.768,0.02
54152.293416,15.795,0.022
54152.305304,15.804,0.022
54152.317207,15.81,0.022
54152.329115,15.862,0.024
54153.275139,15.878,0.026
54153.286633,15.76,0.024
54153.298129,15.653,0.022
54153.309632,15.539,0.02
54153.321203,15.499,0.018
54173.215638,16.124,0.041
54173.226308,16.125,0.04
54173.248015,16.147,0.041
54174.266375,16.068,0.033
54174.277086,16.039,0.033
54174.287787,16.062,0.041
54174.298489,16.112,0.057
54174.309196,16.127,0.046
54177.328646,16.247,0.224
54180.282436,15.621,0.02
54180.292972,15.632,0.02
54180.304189,15.619,0.02
54180.314834,15.67,0.022
54180.325484,15.694,0.024
54185.222574,16.067,0.076
54185.232834,16.121,0.078
54185.243051,16.114,0.079
54185.253248,16.069,0.078
54185.263462,16.154,0.083
54201.193405,15.992,0.045
54201.202887,16.065,0.046
54201.212114,16.077,0.046
54201.221342,16.075,0.046
54201.23065,16.104,0.049
54205.221191,16.04,0.037
54205.230385,16.039,0.037
54205.239658,16.034,0.037
54205.24885,16.066,0.039
54205.258062,16.085,0.041
54208.216782,16.087,0.043
54208.225808,16.123,0.041
54208.234864,16.065,0.039
54208.243938,16.113,0.041
54208.253019,16.147,0.041
54212.224744,16.074,0.044
54212.233793,16.115,0.046
54212.242801,16.07,0.046
54212.251958,16.088,0.048
54212.261102,16.131,0.05
54418.443229,15.605,0.018
54418.455737,15.636,0.018
54418.468237,15.659,0.02
54418.48074,15.697,0.02
54418.493241,15.714,0.02
54438.447843,15.692,0.017
54438.461083,15.655,0.017
54438.474424,15.615,0.017
54438.487856,15.601,0.017
54438.501116,15.597,0.017
54481.271169,16.104,0.041
54481.28409,16.166,0.046
54481.297017,16.136,0.041
54481.309942,16.121,0.039
54481.32286,16.119,0.033
54506.276989,15.744,0.018
54506.289213,15.764,0.018
54506.301508,15.799,0.018
54506.313832,15.805,0.02
54506.326041,15.837,0.02
54522.335254,15.721,0.024
54522.347266,15.741,0.026
54522.359322,15.793,0.026
54522.37108,15.818,0.028
54522.382872,15.818,0.03
54529.270739,15.847,0.018
54529.282165,15.865,0.02
54529.293794,15.873,0.02
54529.305602,15.904,0.022
54529.316971,15.921,0.022
54535.272229,16.09,0.022
54535.283317,16.076,0.022
54535.294398,16.093,0.022
54535.305486,16.121,0.024
54535.316569,16.14,0.024
54553.246801,15.539,0.017
54553.258654,15.575,0.018
54553.270565,15.576,0.022
54553.282449,15.647,0.024
54553.294309,15.723,0.039
54559.123008,15.856,0.022
54559.134649,15.878,0.024
54559.146232,15.896,0.024
54559.157695,15.925,0.026
54559.169158,15.939,0.024
54562.240128,16.097,0.026
54562.25197,16.093,0.026
54562.26369,16.129,0.028
54562.275388,16.138,0.028
54562.287142,16.153,0.03
54580.205084,15.588,0.045
54580.215335,15.54,0.041
54580.225625,15.529,0.043
54580.236504,15.587,0.046
54584.197023,15.749,0.028
54584.2079,15.675,0.026
54584.218799,15.656,0.026
54584.229681,15.653,0.026
54584.240573,15.673,0.028
54591.19317,15.749,0.03
54591.203581,15.754,0.03
54591.213864,15.787,0.031
54591.224129,15.783,0.033
54591.234411,15.792,0.037
