mjd,m,merr
52614.446892,16.42,0.142
52614.46232,16.561,0.107
52614.477758,16.434,0.078
52614.493115,16.484,0.059
52614.508268,16.531,0.061
52619.453168,16.239,0.048
52619.468695,16.261,0.052
52619.484076,16.287,0.054
52619.499614,16.303,0.055
52619.515148,16.332,0.057
52639.399103,16.012,0.036
52639.414134,16.103,0.038
52639.429272,16.098,0.036
52639.444597,16.164,0.038
52644.383213,16.601,0.054
52644.410603,16.52,0.048
52644.440585,15.847,0.028
52644.455598,15.688,0.024
52644.470509,15.733,0.026
52648.321202,16.467,0.059
52648.335837,16.5,0.059
52648.350518,16.529,0.061
52648.380112,16.497,0.057
52666.315282,16.461,0.046
52666.330661,16.47,0.046
52666.345993,16.486,0.046
52666.361465,16.488,0.046
52666.377073,16.453,0.046
52671.319925,16.227,0.041
52671.335069,16.287,0.044
52671.35021,16.319,0.043
52671.365599,16.337,0.046
52671.380729,16.387,0.048
52674.324019,16.01,0.039
52674.340091,16.053,0.035
52674.354338,16.084,0.037
52674.368562,16.131,0.041
52674.382679,16.207,0.043
52698.240586,16.445,0.05
52698.254095,16.414,0.122
52698.281402,16.467,0.059
52698.295495,16.565,0.05
52704.244797,16.311,0.041
52704.258178,16.36,0.044
52704.271451,16.36,0.044
52704.284779,16.415,0.046
52704.298146,16.403,0.046
52725.268386,16.315,0.087
52725.28067,16.346,0.231
52725.293126,16.303,0.054
52725.305687,16.33,0.051
52728.226328,15.837,0.031
52728.23812,15.895,0.031
52728.250452,15.938,0.031
52728.262856,16.001,0.035
52728.275368,16.062,0.035
52754.210762,16.416,0.063
52754.223334,16.497,0.069
52754.236063,16.485,0.073
52754.248477,16.523,0.074
52754.260989,16.551,0.083
52760.14635,16.07,0.037
52760.158159,16.119,0.039
52760.169944,16.136,0.041
52760.181826,16.21,0.044
52760.193674,16.228,0.044
52941.452501,15.98,0.033
52941.464893,16.039,0.033
52941.477472,16.037,0.033
52941.489341,16.095,0.035
52941.501299,16.101,0.035
52944.451148,15.723,0.045
52944.463457,15.712,0.043
52944.476163,15.765,0.041
52944.488469,15.805,0.043
52944.500814,15.913,0.045
52963.463241,15.707,0.022
52963.475678,15.752,0.024
52963.488066,15.825,0.026
52963.500649,15.914,0.028
52967.385139,16.444,0.061
52967.397573,16.452,0.059
52967.410026,16.494,0.059
52967.422536,16.451,0.055
52967.435045,16.487,0.054
52974.400146,16.188,0.037
52974.413253,16.259,0.039
52974.426202,16.313,0.041
52974.439104,16.282,0.041
52974.451945,16.328,0.043
52993.39291,16.141,0.03
52993.41771,16.26,0.033
52993.430182,16.264,0.033
52993.442558,16.31,0.033
52995.40108,16.105,0.026
52995.414277,16.144,0.026
52995.42754,16.182,0.028
52995.440703,16.212,0.028
52995.453794,16.226,0.028
53000.410091,16.046,0.024
53000.42325,15.813,0.02
53000.436416,15.692,0.017
53000.449737,15.722,0.017
53000.462936,15.795,0.018
53026.352858,16.355,0.03
53026.366373,16.388,0.03
53026.379083,16.374,0.03
53026.392016,16.433,0.033
53026.405076,16.421,0.033
53034.33094,15.688,0.028
53034.342789,15.685,0.03
53034.354701,15.754,0.03
53034.366693,15.825,0.031
53034.378672,15.858,0.035
53052.274125,16.432,0.043
53052.285908,16.094,0.031
53052.297776,15.938,0.028
53052.309759,15.718,0.024
53052.321561,15.682,0.022
53058.274986,16.462,0.03
53058.288913,16.459,0.031
53058.300422,16.477,0.033
53058.314375,16.484,0.037
53058.328628,16.512,0.033
53079.225498,16.338,0.049
53079.236583,16.359,0.046
53079.247639,16.375,0.046
53079.258576,16.413,0.048
53079.269535,16.441,0.049
53083.279643,16.212,0.028
53083.29065,16.215,0.03
53083.301535,16.21,0.028
53083.312371,16.272,0.033
53083.323148,16.272,0.035
53086.285891,15.951,0.037
53086.297502,16.005,0.03
53086.308791,16.028,0.037
53086.320048,16.104,0.039
53086.331137,16.096,0.031
53092.231336,16.496,0.052
53092.241768,16.451,0.05
53092.252392,16.47,0.052
53092.262799,16.448,0.052
53092.273093,16.476,0.052
53110.187478,16.492,0.068
53110.198478,16.488,0.066
53110.209359,16.471,0.068
53110.22032,16.524,0.069
53110.231245,16.496,0.069
53114.195607,16.346,0.035
53114.206725,16.41,0.037
53114.21799,16.39,0.037
53114.229055,16.415,0.039
53114.24012,16.39,0.039
53117.196629,16.164,0.031
53117.207474,16.202,0.031
53117.218347,16.239,0.033
53117.22911,16.293,0.035
53117.240025,16.285,0.037
53138.174731,15.987,0.04
53138.184367,15.999,0.04
53138.19399,15.999,0.041
53142.159632,16.561,0.054
53142.170074,16.485,0.05
53142.180282,16.27,0.044
53142.190822,16.021,0.033
53142.200669,15.845,0.031
53146.163663,16.47,0.048
53146.172856,16.504,0.048
53146.182141,16.46,0.046
53146.191323,16.472,0.046
53146.200619,16.495,0.054
53299.44844,15.85,0.067
53299.460112,15.892,0.094
53299.471855,15.964,0.096
53299.483533,15.987,0.081
53299.495207,16.023,0.057
53316.458319,16.075,0.091
53327.377827,16.25,0.1
53327.39021,16.403,0.109
53327.402593,16.544,0.098
53327.415042,16.457,0.085
53327.427408,16.59,0.1
53347.470056,16.466,0.054
53347.486009,16.487,0.055
53347.501507,16.463,0.052
53347.51918,16.529,0.055
53353.394615,15.888,0.037
53353.407545,16.029,0.041
53353.420488,16.057,0.043
53353.433409,16.095,0.044
53353.446412,16.085,0.043
53357.451679,15.668,0.026
53357.466199,15.769,0.03
53357.480746,15.837,0.031
53357.495318,15.918,0.033
53376.416452,16.195,0.041
53376.430274,15.941,0.031
53376.443951,15.681,0.026
53376.457657,15.681,0.024
53376.471212,15.741,0.028
53382.431227,16.568,0.067
53382.446131,16.553,0.065
53382.475578,16.581,0.065
53382.490253,16.52,0.059
53404.36153,16.254,0.035
53404.374442,16.296,0.039
53404.387237,16.337,0.041
53404.400078,16.352,0.044
53404.413588,16.375,0.048
53415.294991,16.528,0.055
53415.307228,16.501,0.054
53415.319985,16.516,0.055
53415.332224,16.464,0.052
53415.344648,16.539,0.055
53433.291695,16.419,0.044
53433.306442,16.456,0.046
53433.320585,16.558,0.05
53433.336955,16.521,0.052
53433.350102,16.504,0.052
53438.229853,16.161,0.035
53438.241437,16.192,0.035
53438.25305,16.283,0.039
53438.264666,16.244,0.037
53438.276328,16.324,0.041
53441.220178,15.878,0.028
53441.231649,15.917,0.028
53441.243184,15.972,0.03
53441.254647,15.984,0.03
53441.26679,16.077,0.033
53464.241213,16.599,0.061
53464.251649,16.392,0.048
53464.262487,16.059,0.037
53464.273057,15.868,0.033
53464.283486,15.737,0.035
53495.195532,16.054,0.063
53495.205838,16.111,0.067
53495.216092,16.13,0.078
53495.226304,16.129,0.074
53495.236618,16.142,0.089
53680.4534,16.458,0.065
53680.465888,16.515,0.067
53680.478254,16.603,0.068
53680.490566,16.596,0.067
53680.502908,16.586,0.068
53706.464236,16.394,0.048
53706.477064,16.394,0.055
53706.502275,16.513,0.196
53706.515062,16.49,0.05
53709.382377,15.912,0.039
53709.395103,16.022,0.041
53709.407784,16.087,0.043
53709.420535,16.136,0.044
53709.433603,16.092,0.043
53712.39705,15.693,0.031
53712.411039,15.714,0.031
53712.427874,15.826,0.035
53712.441521,15.839,0.035
53712.455374,15.887,0.035
53733.389322,16.617,0.065
53733.401992,16.606,0.063
53733.414816,16.506,0.059
53733.427494,16.205,0.044
53733.44039,15.961,0.037
53738.402227,16.486,0.059
53738.415339,16.496,0.059
53738.428379,16.477,0.059
53738.441374,16.531,0.063
53738.454565,16.505,0.061
53769.324011,16.574,0.052
53769.337328,16.686,0.055
53769.350936,16.667,0.054
53769.364832,16.555,0.048
53769.378798,16.284,0.039
53788.2918,16.554,0.112
53788.304434,16.488,0.054
53788.317175,16.523,0.066
53788.329828,16.554,0.049
53788.342482,16.519,0.048
53788.407068,15.815,0.031
53788.418967,15.706,0.03
53788.430925,15.68,0.031
53791.304776,16.477,0.052
53791.316621,16.524,0.054
53791.328381,16.517,0.054
53791.340227,16.478,0.052
53791.352019,16.487,0.054
53794.299264,16.371,0.057
53794.311127,16.468,0.052
53794.322914,16.428,0.05
53794.335028,16.393,0.142
53813.260256,16.333,0.058
53813.272868,16.33,0.059
53813.284328,16.329,0.063
53813.295671,16.324,0.063
53813.307163,16.399,0.068
53817.333549,16.193,0.057
53817.344414,16.252,0.059
53817.355273,16.259,0.063
53817.366151,16.25,0.065
53818.230243,15.754,0.033
53818.240786,15.812,0.035
53818.25134,15.801,0.035
53818.261917,15.919,0.039
53818.272507,15.939,0.041
53823.253446,16.616,0.065
53823.264773,16.581,0.063
53823.275379,16.612,0.067
53823.286363,16.613,0.065
53823.298842,16.562,0.068
53825.230671,16.502,0.061
53825.241047,16.531,0.061
53825.251428,16.528,0.059
53825.261811,16.474,0.059
53825.2722,16.459,0.061
53829.181592,16.279,0.061
53829.191813,16.31,0.059
53829.201953,16.357,0.07
53829.21212,16.374,0.067
53829.222281,16.421,0.098
53844.186808,16.458,0.053
53844.198194,16.509,0.056
53844.209329,16.514,0.059
53844.220629,16.548,0.063
53844.231838,16.504,0.063
53848.189889,16.298,0.065
53848.200514,16.366,0.07
53848.211217,16.323,0.067
53848.221863,16.4,0.074
53848.233194,16.398,0.078
53849.19608,16.273,0.054
53849.206865,16.273,0.054
53849.217892,16.32,0.059
53849.228879,16.336,0.059
53849.239821,16.394,0.065
53852.190106,16.04,0.053
53852.196852,16.009,0.048
53852.200445,16.057,0.054
53852.208756,16.026,0.05
53852.210659,16.111,0.058
53852.220164,16.029,0.052
53852.220818,16.089,0.058
53852.230967,16.152,0.063
53852.231585,16.07,0.055
53852.246712,16.145,0.063
53855.194784,15.765,0.037
53855.20548,15.726,0.037
53855.216165,15.742,0.039
53855.226836,15.801,0.043
53855.237488,15.902,0.046
53858.167539,16.591,0.126
53858.177801,16.752,0.196
53880.158362,16.467,0.079
53880.170153,16.54,0.087
53880.180756,16.455,0.079
53880.191464,16.447,0.079
53880.202258,16.555,0.094
53881.158137,16.538,0.089
53881.169198,16.544,0.094
53881.180379,16.483,0.089
53881.191456,16.602,0.102
53881.20264,16.614,0.107
53883.158812,16.404,0.085
53883.172608,16.43,0.089
53883.18568,16.362,0.087
53883.198135,16.598,0.111
53883.209542,16.378,0.1
54027.456064,16.162,0.076
54027.481542,16.227,0.074
54027.493869,16.237,0.074
54027.505224,16.329,0.107
54037.440958,16.56,0.076
54037.453153,16.506,0.069
54037.4651,16.633,0.073
54037.477411,16.656,0.071
54037.491305,16.612,0.069
54041.432971,16.327,0.087
54041.446207,16.422,0.089
54041.458546,16.5,0.087
54041.471106,16.493,0.084
54041.483371,16.517,0.084
54054.41372,16.609,0.08
54054.425512,16.671,0.081
54054.437002,16.67,0.076
54054.448575,16.76,0.08
54054.460071,16.63,0.074
54055.418331,16.449,0.055
54055.43,16.466,0.059
54055.441666,16.518,0.061
54055.45334,16.622,0.067
54055.465012,16.648,0.068
54057.441697,16.572,0.078
54057.45552,16.533,0.074
54057.469482,16.47,0.069
54057.482748,16.515,0.071
54057.495671,16.583,0.074
54058.431779,16.495,0.059
54058.444302,16.52,0.057
54058.456815,16.497,0.054
54058.469345,16.5,0.055
54058.481847,16.543,0.055
54061.433776,16.428,0.052
54061.446327,16.467,0.054
54061.458876,16.47,0.052
54061.471431,16.492,0.05
54061.483978,16.457,0.052
54066.386805,15.882,0.052
54066.398994,15.925,0.039
54068.407261,15.788,0.028
54068.420316,15.845,0.031
54068.433374,15.887,0.03
54068.446431,15.947,0.03
54083.394167,16.118,0.066
54083.407254,16.265,0.104
54083.420216,16.209,0.091
54083.433059,16.177,0.084
54083.445947,16.204,0.069
54084.400903,16.064,0.041
54084.420617,16.136,0.044
54084.437412,16.152,0.041
54084.453904,16.27,0.046
54084.469494,16.269,0.044
54087.402134,15.744,0.035
54087.415142,15.856,0.048
54087.428157,15.895,0.046
54087.441171,15.932,0.048
54087.454186,15.985,0.035
54121.333914,15.919,0.026
54121.346407,16.018,0.028
54121.35888,15.998,0.028
54121.371509,16.075,0.03
54121.384001,16.104,0.033
54124.32426,16.524,0.043
54124.336627,16.143,0.03
54124.35365,15.831,0.022
54124.36809,15.658,0.02
54124.382634,15.725,0.02
54149.279179,16.391,0.053
54149.290997,16.46,0.053
54149.302822,16.424,0.051
54149.314614,16.462,0.054
54149.326396,16.502,0.059
54154.275834,16.128,0.045
54154.28745,16.16,0.043
54154.299172,16.158,0.043
54154.310749,16.174,0.043
54154.32224,16.234,0.045
54169.223039,16.224,0.035
54169.234073,16.271,0.036
54169.245082,16.338,0.04
54169.256036,16.365,0.046
54169.267045,16.318,0.04
54175.267114,15.872,0.028
54175.277798,15.93,0.03
54175.288441,15.965,0.03
54175.299089,16.005,0.031
54175.309763,16.049,0.031
54207.218103,16.219,0.044
54207.22745,16.214,0.044
54207.236567,16.257,0.048
54207.245818,16.248,0.044
54207.254976,16.279,0.046
54208.1727,16.006,0.043
54208.181507,16.042,0.045
54208.190298,16.092,0.046
54208.198901,16.069,0.045
54208.207405,16.104,0.046
54210.181016,15.803,0.031
54210.189903,15.833,0.031
54210.198796,15.899,0.031
54210.207677,15.883,0.031
54210.216587,15.963,0.035
54410.439833,16.611,0.102
54410.452153,16.552,0.137
54410.464355,16.132,0.111
54410.47657,16.035,0.078
54410.488862,15.753,0.033
54419.452004,16.376,0.037
54419.464749,16.409,0.037
54419.477488,16.402,0.037
54419.490232,16.438,0.037
54419.502983,16.457,0.039
54424.390472,15.767,0.024
54424.40305,15.852,0.024
54424.415632,15.886,0.024
54424.428205,15.954,0.026
54424.440803,15.987,0.026
54440.411686,16.129,0.024
54440.424607,16.158,0.026
54440.437743,16.182,0.026
54440.450773,16.232,0.035
54440.463689,16.272,0.033
54444.388857,15.708,0.02
54444.401882,15.689,0.031
54444.414879,15.712,0.052
54444.440875,15.883,0.061
54448.387956,16.486,0.039
54448.401103,16.481,0.039
54448.414138,16.531,0.05
54448.427164,16.604,0.037
54448.440187,16.585,0.035
54454.327484,16.254,0.046
54454.340674,16.279,0.044
54454.353987,16.304,0.044
54454.367179,16.367,0.046
54454.380413,16.387,0.044
54474.33572,16.302,0.17
54474.34869,16.217,0.068
54474.361839,16.213,0.072
54474.374817,16.287,0.055
54474.387793,16.26,0.074
54508.29079,16.338,0.039
54508.303042,16.348,0.035
54508.315337,16.365,0.041
54508.327552,16.415,0.035
54508.339758,16.418,0.035
54523.334933,16.457,0.037
54523.34672,16.48,0.039
54523.358422,16.446,0.039
54523.370148,16.479,0.041
54523.381854,16.503,0.043
54530.277747,16.115,0.068
54530.28916,16.1,0.03
54530.30069,16.126,0.028
54530.323393,16.209,0.074
54537.215987,16.494,0.033
54537.227011,16.471,0.031
54537.238257,16.476,0.033
54537.249404,16.526,0.037
54537.260858,16.481,0.035
54554.244297,16.616,0.037
54554.256197,16.565,0.035
54554.268352,16.584,0.037
54554.280265,16.429,0.031
54554.292193,16.112,0.024
54563.239426,16.254,0.03
54563.250876,16.271,0.03
54563.262341,16.329,0.031
54563.273778,16.287,0.031
54563.285245,16.36,0.033
54585.193099,15.855,0.078
54585.203541,16.055,0.087
54585.22406,16.084,0.209
54585.23431,16.122,0.091
54592.18844,16.503,0.054
54592.199159,16.543,0.059
54592.209673,16.516,0.081
54592.22019,16.519,0.059
54592.230715,16.509,0.057
54612.159969,16.572,0.102
54612.168948,16.566,0.101
54612.177481,16.626,0.112
