mjd,m,merr
52610.445417,15.199,0.058
52614.446637,14.957,0.033
52614.462066,14.964,0.026
52614.477504,15.006,0.022
52614.492862,15.03,0.015
52614.508016,15.044,0.017
52619.452915,15.048,0.017
52619.46844,15.057,0.017
52619.483822,15.089,0.018
52619.499364,15.102,0.018
52619.514896,15.116,0.018
52639.398336,15.294,0.021
52639.413367,15.343,0.021
52639.428508,15.33,0.02
52639.44383,15.322,0.02
52639.459503,15.273,0.02
52644.382842,15.109,0.015
52644.409476,14.885,0.011
52644.440343,14.765,0.011
52644.455356,14.778,0.011
52644.470272,14.796,0.011
52648.320957,15.065,0.017
52648.335595,15.071,0.017
52648.350278,15.071,0.017
52648.37987,15.128,0.017
52666.314754,15.218,0.015
52666.330128,15.239,0.015
52666.34547,15.232,0.015
52666.360942,15.241,0.015
52671.319669,15.269,0.017
52671.334813,15.32,0.018
52671.349957,15.328,0.018
52671.365345,15.366,0.018
52671.380476,15.354,0.018
52674.323703,15.258,0.02
52674.33986,15.229,0.017
52674.354107,15.241,0.018
52674.36833,15.244,0.018
52674.382446,15.277,0.018
52697.273939,14.687,0.015
52704.244533,15.073,0.015
52704.25792,15.091,0.015
52704.271189,15.105,0.015
52704.284515,15.117,0.015
52704.297884,15.133,0.015
52706.241688,15.256,0.017
52706.25494,15.258,0.017
52706.268116,15.252,0.017
52706.281214,15.272,0.017
52706.294307,15.249,0.017
52724.185659,15.274,0.021
52724.198119,15.269,0.021
52724.210684,15.22,0.02
52724.222786,15.165,0.018
52724.223144,15.189,0.025
52724.234891,15.097,0.018
52728.226092,15.087,0.015
52728.237884,15.106,0.015
52728.250185,15.11,0.015
52728.262618,15.135,0.017
52728.27513,15.144,0.017
52731.258176,15.055,0.057
52753.193584,14.859,0.016
52753.20684,14.875,0.018
52753.219439,14.894,0.018
52753.232329,14.915,0.02
52753.244875,14.926,0.02
52760.14613,15.06,0.015
52760.157938,15.067,0.015
52760.169724,15.071,0.015
52760.181606,15.091,0.017
52760.193453,15.112,0.017
52945.43745,14.813,0.017
52945.449313,14.738,0.015
52945.461307,14.709,0.015
52945.473252,14.693,0.013
52945.485173,14.717,0.015
52963.462988,15.072,0.013
52963.475424,15.106,0.013
52963.487813,15.096,0.013
52963.500395,15.109,0.013
52967.384904,15.231,0.02
52967.397338,15.217,0.018
52967.422302,15.249,0.018
52967.43481,15.272,0.018
52974.399439,14.887,0.013
52974.410816,14.889,0.013
52974.425886,14.919,0.013
52974.438303,14.937,0.013
52974.450778,14.969,0.013
52992.468119,15.237,0.013
52992.480909,15.248,0.015
52992.493836,15.268,0.015
52992.5075,15.308,0.045
52992.520718,15.269,0.016
52995.400896,15.092,0.011
52995.414092,15.094,0.011
52995.45361,15.136,0.011
53000.409729,15.174,0.011
53000.422889,15.167,0.011
53000.436054,15.184,0.011
53000.449376,15.192,0.011
53000.462575,15.19,0.011
53026.366189,15.234,0.011
53026.404771,15.301,0.011
53029.375044,15.197,0.065
53029.388127,15.24,0.059
53034.330531,15.198,0.018
53034.342379,15.248,0.02
53034.354291,15.238,0.018
53034.366283,15.254,0.02
53034.378262,15.274,0.02
53051.27523,14.99,0.013
53051.28696,14.999,0.011
53051.298637,15.02,0.011
53051.310334,15.017,0.011
53051.321971,15.049,0.013
53055.291536,15.339,0.035
53058.288741,15.221,0.011
53058.300249,15.23,0.011
53058.328455,15.271,0.011
53078.265268,14.98,0.015
53078.276526,15.008,0.015
53078.287501,15.002,0.015
53078.298629,15.02,0.015
53078.309567,15.047,0.016
53080.218106,15.124,0.013
53080.229094,15.113,0.013
53080.240028,15.123,0.015
53080.266322,15.171,0.015
53083.278905,15.077,0.009
53083.289966,15.094,0.011
53083.300851,15.106,0.011
53083.311686,15.116,0.011
53083.322464,15.121,0.013
53086.285719,14.973,0.015
53086.297331,15.008,0.013
53086.30862,15.023,0.015
53086.319877,15.055,0.015
53086.330966,15.061,0.011
53092.231168,14.807,0.011
53092.241599,14.754,0.011
53092.252224,14.665,0.011
53092.262631,14.639,0.009
53092.272924,14.63,0.009
53109.185555,15.231,0.02
53109.195886,15.25,0.02
53109.206306,15.227,0.02
53109.21676,15.218,0.02
53109.227007,15.281,0.021
53114.195432,15.218,0.013
53114.206549,15.232,0.013
53117.196458,15.235,0.013
53117.218176,15.23,0.013
53117.22894,15.231,0.013
53117.239855,15.204,0.013
53137.15485,14.827,0.015
53137.164606,14.871,0.016
53137.174629,14.85,0.016
53137.184739,14.882,0.018
53137.19649,14.893,0.018
53142.15948,14.969,0.013
53142.169921,15.01,0.013
53142.180129,15.031,0.013
53142.190669,15.032,0.013
53142.200517,15.037,0.015
53146.163514,15.235,0.017
53146.172707,15.238,0.015
53146.181993,15.251,0.015
53146.191174,15.259,0.015
53146.200469,15.261,0.017
53297.422561,14.902,0.023
53297.434404,14.809,0.02
53297.448039,14.769,0.018
53297.461096,14.763,0.018
53297.473458,14.733,0.016
53299.448228,14.993,0.028
53299.459899,15.02,0.05
53299.471643,15.031,0.037
53299.483321,15.102,0.037
53299.494994,15.038,0.024
53328.441882,15.13,0.022
53348.390065,14.932,0.017
53348.403523,14.88,0.015
53348.416815,14.86,0.015
53348.43018,14.83,0.015
53348.443032,14.856,0.015
53354.386851,15.215,0.018
53354.399969,15.201,0.018
53354.4131,15.236,0.017
53354.426254,15.266,0.017
53357.450858,15.23,0.018
53357.465353,15.263,0.018
53357.479917,15.267,0.02
53357.494502,15.295,0.02
53357.508979,15.278,0.02
53377.342736,14.77,0.011
53377.356102,14.81,0.011
53377.369378,14.834,0.011
53377.382717,14.859,0.013
53377.3961,14.888,0.013
53382.430943,15.118,0.018
53382.44585,15.132,0.018
53382.475295,15.173,0.018
53382.489971,15.184,0.018
53404.361284,14.704,0.009
53404.374195,14.74,0.009
53404.38699,14.773,0.011
53404.399831,14.825,0.011
53404.413342,14.84,0.013
53415.306983,15.219,0.017
53415.31974,15.051,0.015
53415.331979,14.902,0.013
53415.344402,14.867,0.013
53433.291456,14.903,0.011
53433.306205,14.916,0.011
53433.320347,14.938,0.013
53433.336718,14.975,0.013
53433.349864,14.992,0.013
53438.229608,14.92,0.011
53438.241191,14.93,0.011
53438.252806,14.941,0.011
53438.264421,14.961,0.011
53438.276083,14.982,0.013
53441.219934,14.771,0.011
53441.231404,14.779,0.011
53441.242939,14.794,0.011
53441.254401,14.839,0.011
53441.266545,14.86,0.011
53445.227517,15.218,0.017
53445.238725,15.211,0.017
53445.262568,15.215,0.017
53445.2738,15.21,0.017
53493.239455,15.23,0.028
53493.249741,15.219,0.028
53493.260424,15.252,0.03
53493.271485,15.255,0.033
53493.281822,15.28,0.035
53501.143458,15.178,0.022
53501.15482,15.224,0.022
53501.165825,15.22,0.022
53501.177081,15.212,0.024
53501.187577,15.212,0.024
53680.45312,15.176,0.018
53680.465608,15.185,0.018
53680.477974,15.188,0.018
53680.490286,15.204,0.018
53680.502628,15.225,0.018
53706.463575,15.289,0.03
53706.476407,15.244,0.018
53706.501613,15.059,0.022
53706.514403,14.988,0.013
53709.381716,15.216,0.018
53709.394437,15.199,0.018
53709.407123,15.221,0.018
53709.419874,15.224,0.02
53709.432941,15.213,0.018
53713.404812,14.866,0.028
53713.417843,14.923,0.022
53713.430759,14.917,0.024
53713.443897,14.92,0.02
53713.456932,14.956,0.022
53733.388393,15.187,0.018
53733.413889,15.238,0.018
53733.426565,15.234,0.018
53733.439341,15.246,0.018
53739.352733,15.086,0.022
53739.366052,15.096,0.031
53739.379282,15.077,0.043
53770.281083,15.25,0.017
53770.293928,15.258,0.017
53770.306933,15.239,0.017
53770.319994,15.261,0.017
53788.291509,14.755,0.021
53788.304145,14.759,0.012
53788.316886,14.782,0.015
53788.329539,14.809,0.012
53788.342192,14.854,0.012
53788.406396,14.971,0.017
53788.4183,14.968,0.017
53788.430255,15.001,0.018
53788.45469,15.052,0.037
53791.30412,14.8,0.013
53791.315964,14.701,0.013
53791.327725,14.641,0.011
53791.339572,14.646,0.011
53791.351363,14.652,0.011
53794.310467,15.378,0.018
53794.322251,15.359,0.018
53794.334366,15.316,0.076
53813.259985,15.229,0.021
53813.272597,15.216,0.021
53813.284057,15.234,0.023
53813.295401,15.267,0.023
53813.306886,15.301,0.025
53817.332958,15.059,0.02
53817.343822,15.078,0.02
53817.354679,15.1,0.022
53817.365552,15.109,0.022
53818.229625,15.315,0.022
53818.240172,15.358,0.022
53818.250723,15.362,0.022
53818.261303,15.362,0.024
53818.271892,15.373,0.024
53820.231849,14.703,0.048
53823.253212,14.754,0.013
53823.264536,14.666,0.011
53823.275141,14.591,0.011
53823.286125,14.581,0.011
53823.298604,14.629,0.013
53825.230079,14.88,0.015
53825.240459,14.896,0.015
53825.250828,14.921,0.015
53825.261222,14.965,0.017
53825.271608,14.954,0.017
53829.180965,15.257,0.024
53829.191184,15.259,0.024
53829.201327,15.27,0.026
53829.21149,15.229,0.024
53829.221653,15.248,0.031
53844.186566,14.835,0.015
53844.197892,14.869,0.015
53844.209085,14.864,0.016
53844.220385,14.884,0.016
53844.231593,14.901,0.018
53848.189496,15.219,0.024
53848.20012,15.204,0.026
53848.210826,15.164,0.024
53848.221471,15.213,0.026
53848.232802,15.19,0.026
53849.195521,14.919,0.017
53849.206303,14.953,0.017
53849.217329,14.979,0.017
53849.228316,14.997,0.018
53849.239259,15.005,0.018
53852.189644,14.806,0.018
53852.196303,14.79,0.017
53852.199982,14.859,0.018
53852.208207,14.827,0.017
53852.2102,14.859,0.02
53852.219616,14.857,0.018
53852.220355,14.858,0.02
53852.230505,14.869,0.021
53852.231037,14.864,0.018
53852.246162,14.86,0.018
53855.194042,14.912,0.018
53855.204737,14.86,0.017
53855.21541,14.786,0.017
53855.226098,14.745,0.017
53855.236741,14.725,0.017
53858.1464,15.18,0.05
53858.15662,15.317,0.055
53858.166966,15.381,0.043
53858.177209,15.26,0.043
54027.45543,15.076,0.026
54027.480914,15.134,0.028
54027.49324,15.147,0.026
54037.439975,15.197,0.025
54037.45251,15.197,0.023
54037.464456,15.208,0.021
54037.476767,15.229,0.021
54037.490659,15.283,0.023
54041.43199,14.849,0.021
54041.445643,14.908,0.021
54041.457983,14.963,0.021
54041.470541,14.943,0.021
54041.48281,14.958,0.02
54054.413083,15.024,0.02
54054.424875,14.997,0.018
54054.436364,15.009,0.018
54054.447937,15.042,0.018
54054.459433,15.058,0.018
54055.41768,15.093,0.017
54055.429349,15.043,0.017
54055.441016,15.009,0.017
54055.452689,14.959,0.015
54055.464362,14.933,0.015
54057.44141,14.976,0.018
54057.455233,15.006,0.018
54057.482459,15.011,0.018
54057.495384,15.019,0.018
54058.431122,15.287,0.018
54058.456159,15.266,0.018
54058.468689,15.239,0.017
54058.48119,15.172,0.017
54061.445665,15.242,0.018
54061.458213,15.277,0.017
54061.47077,15.27,0.017
54066.410732,15.197,0.048
54068.39392,14.679,0.011
54068.406963,14.69,0.011
54068.420018,14.7,0.011
54068.433077,14.772,0.011
54068.446134,14.79,0.011
54083.393573,15.192,0.028
54083.406666,15.196,0.035
54083.419628,15.23,0.04
54083.432471,15.216,0.033
54083.445302,15.239,0.03
54084.40019,14.86,0.015
54084.419899,14.893,0.015
54084.436695,14.932,0.015
54084.453188,14.937,0.015
54084.468764,14.969,0.015
54087.401455,14.828,0.015
54087.414464,14.784,0.022
54087.427477,14.763,0.015
54087.440492,14.782,0.018
54087.453507,14.798,0.013
54121.333649,14.991,0.015
54121.346139,15.016,0.015
54121.358614,15.026,0.015
54121.371239,15.008,0.015
54121.383736,15.067,0.016
54124.274815,14.811,0.011
54124.287166,14.798,0.011
54124.299429,14.831,0.011
54124.311692,14.824,0.011
54124.323968,14.851,0.011
54149.27892,15.239,0.018
54149.290739,15.236,0.018
54149.302564,15.256,0.018
54149.314357,15.283,0.02
54149.326138,15.303,0.02
54154.275563,15.289,0.021
54154.28718,15.26,0.02
54154.298901,15.165,0.018
54154.310478,15.103,0.016
54154.321968,15.039,0.016
54169.222774,14.915,0.015
54169.233809,14.916,0.015
54169.244817,14.951,0.015
54169.255772,14.962,0.016
54169.26678,14.966,0.015
54175.266382,14.758,0.011
54175.277066,14.75,0.009
54175.28771,14.741,0.011
54175.298359,14.765,0.011
54175.30902,14.774,0.011
54205.179206,15.273,0.023
54205.188575,15.255,0.023
54205.197923,15.248,0.023
54205.207378,15.304,0.025
54205.216719,15.272,0.025
54207.217454,14.705,0.011
54207.2268,14.704,0.011
54207.235916,14.713,0.013
54207.245165,14.745,0.013
54207.254325,14.747,0.013
54210.180798,15.376,0.022
54210.198589,15.356,0.02
54210.207467,15.361,0.02
54210.216367,15.278,0.02
54410.439187,15.308,0.033
54410.451512,15.315,0.041
54410.463714,15.298,0.046
54410.475923,15.259,0.039
54410.488216,15.101,0.018
54422.465997,15.133,0.011
54422.491278,15.157,0.011
54422.503925,15.16,0.011
54422.516527,15.15,0.011
54424.390102,15.185,0.013
54424.402682,15.185,0.013
54424.415264,15.212,0.013
54424.427836,15.208,0.013
54424.440428,15.221,0.013
54447.402148,14.902,0.009
54447.415129,14.856,0.009
54447.428097,14.895,0.009
54447.441066,14.898,0.009
54454.327095,14.987,0.015
54454.340285,15.005,0.015
54454.353598,15.024,0.013
54454.36679,15.048,0.015
54454.380024,15.076,0.013
54474.33551,15.275,0.083
54474.34848,15.174,0.031
54474.361629,15.068,0.024
54474.374605,15.02,0.017
54474.387583,14.985,0.022
54483.206426,14.974,0.026
54483.219337,14.993,0.026
54483.232371,15.042,0.024
54483.245325,15.038,0.024
54483.258257,15.042,0.022
54495.395777,14.937,0.013
54495.408312,14.934,0.013
54495.420958,14.937,0.013
54495.433618,14.938,0.013
54495.446392,14.948,0.013
54508.290389,14.887,0.011
54508.302657,14.946,0.011
54508.314952,14.96,0.011
54508.327162,14.979,0.009
54508.339373,14.968,0.009
54524.327562,14.982,0.011
54524.339055,14.978,0.009
54524.350714,15.005,0.009
54524.362246,15.015,0.011
54524.373798,15.055,0.011
54537.21561,14.978,0.009
54537.226634,15.0,0.009
54537.237881,15.026,0.009
54537.249026,15.036,0.011
54537.26048,15.037,0.011
54555.250743,15.222,0.013
54555.2745,15.231,0.013
54555.286265,15.237,0.013
54564.202275,14.877,0.009
54564.213738,14.917,0.009
54564.225018,14.93,0.009
54564.236413,14.938,0.011
54581.185506,15.222,0.038
54581.195507,15.246,0.038
54581.205232,15.313,0.04
54581.21498,15.303,0.04
54581.224661,15.223,0.038
54585.192546,14.958,0.067
54585.202987,15.006,0.035
54585.233753,15.037,0.022
54592.146183,15.189,0.015
54592.167025,15.239,0.017
54592.177457,15.226,0.017
54592.187882,15.257,0.017
54594.159648,15.293,0.048
54594.188267,14.915,0.048
54594.197798,14.889,0.033
54612.15976,14.973,0.028
54612.168738,15.04,0.028
54612.177271,15.027,0.03
54612.185979,14.994,0.03
54612.194628,15.059,0.03
