mjd,m,merr
52639.371619,14.762,0.011
52639.3864,15.239,0.017
52639.401081,15.658,0.022
52639.416048,14.956,0.013
52639.43109,14.677,0.009
52643.401596,15.36,0.023
52643.417899,15.366,0.023
52643.434052,14.76,0.013
52643.450311,14.603,0.012
52643.466681,14.488,0.01
52648.321836,14.618,0.011
52648.336472,14.73,0.011
52648.351154,15.084,0.017
52648.380749,15.052,0.015
52670.34681,14.685,0.012
52670.362787,14.573,0.012
52670.37833,14.548,0.012
52670.39412,14.567,0.012
52670.412633,14.711,0.013
52674.324562,15.683,0.024
52674.340576,15.131,0.015
52674.354825,14.745,0.011
52674.369049,14.615,0.011
52674.383164,14.552,0.009
52677.311163,14.615,0.009
52677.325604,14.55,0.009
52677.340056,14.552,0.02
52697.274491,14.561,0.02
52703.242191,14.925,0.015
52703.255482,14.768,0.018
52703.268444,14.672,0.026
52703.282004,14.586,0.012
52703.295177,14.555,0.012
52706.242399,14.531,0.009
52706.255468,14.525,0.009
52706.26864,14.575,0.009
52706.281742,14.642,0.009
52706.294831,14.774,0.011
52730.184743,14.608,0.012
52730.196894,14.56,0.012
52730.20959,14.542,0.012
52730.222143,14.573,0.012
52730.234523,14.668,0.013
52753.174188,15.115,0.017
52761.158337,14.703,0.013
52761.170108,15.006,0.017
52761.181869,15.569,0.031
52761.193703,15.384,0.033
52764.146914,14.868,0.016
52764.159158,14.777,0.015
52764.171191,14.626,0.013
52764.18382,14.585,0.013
52764.19588,14.549,0.013
52945.437991,14.552,0.013
52945.449853,14.513,0.013
52945.461847,14.499,0.011
52945.473792,14.522,0.011
52945.485713,14.609,0.013
52962.445481,14.538,0.009
52962.45858,14.525,0.009
52962.471073,14.603,0.009
52962.483275,14.741,0.009
52962.495999,15.061,0.013
52974.411301,14.718,0.012
52974.426363,14.918,0.013
52974.438785,14.83,0.012
52974.451255,14.61,0.01
52992.397503,14.613,0.009
52996.341886,14.659,0.007
52996.355395,14.759,0.009
52996.368318,14.885,0.009
52996.381365,14.897,0.009
52996.394285,14.717,0.007
53001.41045,14.62,0.006
53001.423439,14.725,0.007
53001.436423,15.151,0.009
53001.449677,15.66,0.015
53034.335767,14.643,0.009
53034.348108,14.731,0.011
53034.360804,14.865,0.013
53034.373007,14.912,0.013
53034.385691,14.814,0.011
53051.27589,14.776,0.009
53051.287621,14.657,0.009
53051.299298,14.605,0.007
53051.310994,14.596,0.007
53051.322632,14.632,0.007
53078.265991,14.934,0.015
53078.277128,14.885,0.013
53078.288085,14.717,0.012
53078.299227,14.623,0.012
53078.310148,14.558,0.01
53080.228771,14.561,0.009
53080.232386,14.566,0.008
53080.239706,14.605,0.009
53080.239813,14.641,0.009
53080.243618,14.651,0.01
53080.254725,14.767,0.011
53080.254833,14.81,0.011
53080.255387,14.815,0.012
53080.266,15.163,0.015
53080.266444,15.205,0.015
53084.228842,14.642,0.007
53084.239772,14.762,0.007
53084.250797,14.699,0.007
53084.261671,14.716,0.007
53084.272454,14.952,0.009
53087.278442,14.623,0.007
53087.288948,14.608,0.007
53087.299615,14.578,0.007
53087.310563,14.633,0.007
53087.321251,14.645,0.007
53109.185974,14.903,0.015
53109.196311,14.908,0.015
53109.206723,14.808,0.013
53109.217181,14.682,0.012
53109.227426,14.599,0.012
53137.155356,15.462,0.025
53137.165154,15.648,0.03
53137.175152,15.154,0.021
53137.185412,14.856,0.016
53137.196999,14.694,0.015
53148.157819,14.714,0.011
53148.166732,14.676,0.011
53148.175644,14.532,0.013
53148.184718,14.523,0.011
53148.193631,14.582,0.011
53299.44887,14.755,0.022
53299.483965,14.547,0.018
53299.495637,14.557,0.015
53328.442364,14.835,0.017
53328.454841,14.934,0.017
53328.479801,14.699,0.015
53348.390915,15.655,0.03
53348.404373,15.248,0.018
53348.417666,14.77,0.013
53348.431042,14.6,0.011
53348.443882,14.538,0.011
53354.387731,14.676,0.011
53354.400847,14.858,0.013
53354.413992,14.94,0.013
53354.427135,14.819,0.011
53354.440279,14.687,0.009
53357.466949,14.89,0.018
53357.481487,15.022,0.02
53357.496049,14.903,0.018
53357.510564,14.766,0.02
53377.343626,14.608,0.009
53377.356989,14.587,0.009
53377.370269,14.576,0.009
53377.383616,14.637,0.009
53377.396993,14.781,0.011
53404.308513,15.072,0.012
53404.321354,15.478,0.016
53404.335302,15.345,0.015
53404.353969,15.007,0.012
53404.367686,14.865,0.01
53500.1429,15.059,0.017
53500.154153,15.617,0.026
53500.164303,15.291,0.02
53500.174318,14.911,0.015
53500.18468,14.702,0.013
53676.451449,15.171,0.028
53676.463501,15.663,0.035
53676.475497,15.117,0.022
53676.487453,14.723,0.015
53676.499484,14.632,0.015
53703.452862,14.562,0.009
53703.465873,14.728,0.011
53703.478635,14.92,0.013
53703.491306,14.908,0.011
53703.504065,14.761,0.011
53714.39417,14.581,0.009
53714.407177,14.606,0.009
53714.420029,14.63,0.009
53714.432817,14.752,0.011
53714.445559,15.15,0.015
53740.344858,14.593,0.009
53740.357841,14.564,0.009
53740.37059,14.594,0.009
53740.383385,14.64,0.009
53740.396306,14.828,0.011
53770.283202,14.863,0.011
53770.296042,14.683,0.011
53770.309165,14.583,0.009
53770.322468,14.544,0.009
53770.337093,14.561,0.009
53813.254449,14.689,0.015
53813.265494,14.605,0.015
53813.276707,14.573,0.013
53813.288123,14.568,0.015
53813.29927,14.553,0.015
53823.193954,14.571,0.01
53823.204824,14.561,0.01
53823.215715,14.596,0.01
53823.226528,14.658,0.01
53823.237347,14.798,0.012
53844.184323,14.595,0.013
53844.194563,14.562,0.013
53844.204852,14.567,0.013
53844.215122,14.531,0.013
53844.225563,14.574,0.015
53853.188344,14.555,0.015
53853.198805,14.628,0.015
53853.209357,14.691,0.016
53881.156017,14.597,0.013
53881.176055,14.587,0.015
53881.186387,14.67,0.015
53883.158189,14.664,0.021
53883.16853,14.614,0.021
53883.178939,14.707,0.023
53883.18944,14.853,0.026
53883.201769,15.222,0.038
53886.153771,14.842,0.021
53886.163909,14.991,0.023
53886.173791,14.972,0.023
53886.186129,14.616,0.021
53886.195964,14.576,0.021
54042.481336,14.552,0.01
54042.493676,14.647,0.012
54056.439442,15.233,0.021
54056.454198,15.585,0.028
54056.46696,14.958,0.016
54056.479955,14.69,0.013
54056.49253,14.587,0.012
54066.391034,14.628,0.02
54066.404316,14.598,0.012
54084.390624,14.609,0.015
54084.403795,14.829,0.018
54084.416657,14.913,0.018
54084.429702,14.762,0.016
54084.442727,14.681,0.016
54110.332001,14.566,0.02
54110.35715,14.73,0.018
54110.369717,14.86,0.02
54110.382704,14.844,0.02
54206.180583,14.705,0.013
54206.189776,14.84,0.015
54206.198963,14.937,0.016
54206.208559,14.835,0.016
54206.217869,14.769,0.015
54412.443916,14.54,0.007
54412.456182,14.601,0.007
54412.468566,14.769,0.007
54412.480922,14.943,0.009
54412.493201,14.858,0.009
54421.44542,14.881,0.009
54421.457939,14.905,0.009
54421.4704,14.734,0.007
54421.482863,14.597,0.007
54421.495331,14.552,0.007
54424.416509,15.057,0.011
54424.429083,14.732,0.007
54424.441683,14.622,0.007
54450.393069,14.67,0.007
54450.40622,14.573,0.006
54450.419272,14.526,0.006
54450.432316,14.534,0.006
54450.445349,14.598,0.007
54454.32841,14.569,0.009
54454.341594,14.67,0.009
54454.354917,14.914,0.011
54454.368106,15.558,0.02
54454.381341,15.332,0.017
54475.332837,14.571,0.007
54475.345575,14.66,0.007
54475.358306,14.898,0.009
54475.371107,15.473,0.017
54475.383835,15.408,0.015
54483.23397,14.523,0.013
54483.246924,14.539,0.013
54483.259855,14.632,0.013
54495.39657,14.605,0.007
54495.409107,14.688,0.009
54495.421756,14.987,0.011
54495.434415,15.62,0.02
54495.447189,15.289,0.017
54509.23251,14.843,0.009
54509.244525,14.89,0.009
54509.256556,14.84,0.009
54509.268484,14.685,0.007
54532.26998,15.067,0.009
54532.281329,14.754,0.007
54532.292679,14.612,0.006
54532.303916,14.556,0.006
54532.316292,14.515,0.006
