mjd,m,merr
52613.457482,14.584,0.013
52613.473739,14.456,0.018
52613.489165,14.387,0.018
52613.504645,14.477,0.015
52613.520516,14.489,0.01
52614.428492,14.584,0.013
52614.44321,14.456,0.018
52614.457841,14.387,0.018
52614.472475,14.477,0.015
52614.486895,14.489,0.01
52622.370144,14.522,0.012
52622.414221,14.486,0.01
52622.428978,14.505,0.01
52638.37496,14.503,0.01
52638.405001,14.394,0.01
52646.395615,14.776,0.013
52646.410806,14.671,0.013
52646.426552,14.559,0.012
52646.441527,14.52,0.01
52649.398673,14.453,0.009
52649.415309,14.586,0.009
52649.432947,14.709,0.011
52649.449739,14.652,0.011
52672.32171,14.558,0.012
52672.336834,14.513,0.012
52676.280331,14.518,0.009
52676.295747,14.394,0.009
52676.311176,14.321,0.009
52676.32676,14.288,0.007
52676.342502,14.303,0.009
52677.326341,14.682,0.013
52677.361411,14.559,0.025
52677.377641,14.521,0.015
52696.276172,14.42,0.007
52696.288796,14.401,0.007
52696.301316,14.413,0.007
52696.314548,14.506,0.007
52696.327983,14.507,0.009
52701.245266,14.728,0.008
52701.245623,14.703,0.013
52701.258773,14.624,0.012
52701.271888,14.482,0.01
52723.227648,14.388,0.011
52723.239065,14.348,0.011
52723.250528,14.304,0.011
52723.262036,14.316,0.007
52729.178466,14.44,0.012
52729.190489,14.401,0.01
52729.202655,14.4,0.01
52729.214698,14.403,0.01
52729.227127,14.432,0.01
52732.189562,14.619,0.02
52732.201452,14.546,0.013
52732.213742,14.482,0.012
52732.225803,14.454,0.013
52732.237904,14.405,0.012
52752.182983,14.401,0.009
52752.193162,14.369,0.009
52752.203354,14.321,0.009
52752.213489,14.306,0.009
52752.223619,14.321,0.009
52761.146066,14.587,0.036
52761.157924,14.55,0.015
52761.170218,14.472,0.015
52761.182175,14.443,0.016
52761.194053,14.467,0.018
52787.162605,14.565,0.011
52787.173176,14.669,0.013
52787.183701,14.707,0.015
52787.194418,14.669,0.015
52787.20505,14.611,0.013
52945.448198,14.389,0.012
52945.460326,14.453,0.012
52945.472471,14.522,0.013
52945.484703,14.627,0.013
52945.496885,14.646,0.013
53001.357394,14.396,0.005
53001.370669,14.455,0.007
53001.383981,14.526,0.007
53001.39731,14.643,0.007
53001.411054,14.731,0.008
53024.349962,14.333,0.011
53024.388542,14.527,0.024
53035.35696,14.448,0.009
53035.369553,14.527,0.009
53035.383363,14.569,0.009
53035.395938,14.571,0.009
53050.307109,14.549,0.007
53050.318816,14.611,0.009
53062.292911,14.38,0.013
53062.304339,14.438,0.015
53078.24079,14.455,0.007
53078.251548,14.496,0.022
53087.233815,14.403,0.008
53087.244785,14.383,0.007
53087.256273,14.376,0.007
53087.267451,14.369,0.007
53087.278534,14.4,0.007
53089.231467,14.332,0.007
53089.242442,14.352,0.007
53089.253411,14.307,0.007
53089.264349,14.341,0.007
53089.275214,14.325,0.007
53109.19921,14.374,0.007
53109.231413,14.371,0.009
53118.242717,14.387,0.007
53137.156008,14.516,0.011
53137.165502,14.595,0.011
53137.175033,14.64,0.013
53137.184576,14.627,0.013
53137.194077,14.597,0.013
53148.158704,14.615,0.01
53148.167622,14.582,0.01
53148.176481,14.534,0.012
53148.185772,14.415,0.012
53148.194923,14.42,0.01
53328.411554,14.667,0.016
53331.451904,14.714,0.015
53331.464326,14.644,0.013
53331.476798,14.581,0.013
53331.492388,14.544,0.012
53348.413908,14.356,0.01
53348.428179,14.319,0.01
53348.442486,14.357,0.01
53348.456741,14.415,0.012
53348.471002,14.465,0.013
53354.423447,14.533,0.01
53354.43789,14.605,0.01
53354.452321,14.649,0.01
53354.467139,14.553,0.01
53354.481454,14.44,0.008
53404.309018,14.512,0.008
53404.321858,14.434,0.008
53404.341132,14.374,0.007
53404.354469,14.366,0.007
53404.368189,14.386,0.007
53443.328586,14.397,0.007
53443.339275,14.349,0.007
53443.349936,14.322,0.007
53443.360591,14.309,0.009
53443.371248,14.326,0.011
53473.231497,14.317,0.009
53473.241715,14.335,0.009
53473.251529,14.384,0.009
53473.261675,14.438,0.009
53498.152168,14.635,0.013
53498.162321,14.537,0.018
53498.172612,14.438,0.011
53499.159571,14.392,0.009
53499.180707,14.536,0.011
53499.190936,14.627,0.011
53499.201157,14.634,0.013
53741.350533,14.371,0.007
53771.284301,14.425,0.011
53771.298164,14.512,0.011
53771.310959,14.601,0.017
53771.323829,14.631,0.017
53786.280248,14.487,0.007
53786.292137,14.422,0.007
53786.327939,14.312,0.007
53812.25602,14.369,0.01
53812.267403,14.406,0.01
53812.278927,14.49,0.012
53812.29053,14.582,0.013
53843.200786,14.378,0.008
53843.21222,14.45,0.01
53843.223741,14.535,0.01
53843.23552,14.583,0.012
53843.247165,14.577,0.012
53854.188701,14.469,0.013
53854.199102,14.546,0.038
53854.209379,14.606,0.018
53854.219631,14.552,0.015
53854.229845,14.523,0.015
53882.157234,14.315,0.013
53882.168046,14.299,0.013
53882.178878,14.275,0.012
53882.189697,14.305,0.012
53882.200764,14.331,0.013
53886.168386,14.404,0.017
53886.178979,14.429,0.017
53886.189665,14.549,0.018
53886.200417,14.61,0.02
53886.211223,14.619,0.02
54055.435834,14.401,0.01
54055.448668,14.457,0.012
54055.461224,14.533,0.012
54055.474381,14.678,0.012
54055.489581,14.693,0.012
54067.39594,14.504,0.01
54067.408872,14.425,0.01
54067.421609,14.375,0.008
54067.434932,14.333,0.008
54067.447774,14.328,0.008
54085.399247,14.386,0.012
54085.412474,14.331,0.018
54085.425387,14.355,0.012
54085.438397,14.341,0.012
54085.451422,14.368,0.015
54110.348224,14.676,0.013
54110.364008,14.576,0.011
54110.393638,14.384,0.011
54110.411903,14.35,0.011
54123.334516,14.491,0.007
54156.21389,14.595,0.012
54156.22523,14.545,0.012
54156.236318,14.511,0.012
54156.247385,14.392,0.01
54156.258335,14.367,0.01
54207.180645,14.374,0.012
54207.189945,14.395,0.012
54207.199186,14.474,0.012
54207.209095,14.505,0.013
54207.218659,14.625,0.013
54395.443938,14.589,0.018
54395.46056,14.501,0.016
54397.435229,14.547,0.015
54397.447007,14.508,0.013
54397.458638,14.411,0.011
54397.470273,14.367,0.009
54397.481914,14.354,0.007
54452.401258,14.673,0.007
54470.326784,14.485,0.02
54470.339657,14.434,0.006
54470.365281,14.658,0.024
54470.377987,14.665,0.031
54539.159088,14.346,0.009
54539.169712,14.342,0.007
54539.180487,14.472,0.009
54539.191157,14.563,0.009
54539.201987,14.47,0.007
54567.180947,14.369,0.007
54567.192332,14.322,0.007
54567.203406,14.321,0.007
54567.214608,14.327,0.007
54567.225974,14.36,0.007
54582.190547,14.582,0.021
54582.210773,14.64,0.023
54582.221155,14.643,0.023
54582.231403,14.644,0.025
54587.195689,14.378,0.007
54587.206231,14.414,0.007
54587.216821,14.459,0.009
54587.227373,14.548,0.011
54587.237869,14.613,0.009
54595.151729,14.599,0.011
54595.161626,14.632,0.013
54595.171487,14.647,0.013
54595.181363,14.622,0.013
54595.191313,14.506,0.011
54613.154488,14.649,0.021
54613.164767,14.605,0.02
54613.175075,14.496,0.02
54613.185397,14.427,0.018
54613.195594,14.38,0.018
