mjd,m,merr
52608.457482,16.633,0.089
52608.472444,16.558,0.067
52608.487328,16.532,0.128
52608.50228,16.479,0.104
52619.450834,16.528,0.069
52619.465821,16.458,0.066
52619.48123,16.453,0.068
52619.496211,16.495,0.073
52619.511201,16.608,0.079
52640.400562,16.135,0.04
52640.415582,16.068,0.038
52640.431015,15.997,0.035
52640.446692,16.07,0.036
52646.38819,16.344,0.048
52646.402998,16.297,0.048
52646.41747,16.336,0.048
52646.432014,16.364,0.05
52646.446565,16.422,0.055
52647.384913,16.27,0.054
52647.399477,16.254,0.054
52647.414311,16.212,0.053
52647.429126,16.354,0.059
52647.444118,16.338,0.061
52667.32019,16.5,0.056
52667.334885,16.501,0.056
52667.349566,16.456,0.053
52667.364238,16.532,0.056
52667.378964,16.408,0.053
52672.337882,16.292,0.046
52672.352041,16.283,0.043
52672.3659,16.272,0.041
52672.379966,16.292,0.044
52673.291281,16.287,0.048
52673.30633,16.239,0.046
52673.322126,16.221,0.045
52673.338559,16.179,0.045
52673.353563,16.231,0.046
52705.237231,16.243,0.043
52705.240326,16.26,0.037
52705.2502,16.278,0.045
52705.254336,16.268,0.037
52705.263156,16.281,0.045
52705.268434,16.281,0.037
52705.276203,16.269,0.045
52705.2815,16.409,0.043
52705.28917,16.32,0.048
52705.294691,16.35,0.041
52707.246694,16.388,0.044
52707.260076,16.315,0.041
52707.273254,16.309,0.041
52707.286517,16.316,0.041
52707.299799,16.253,0.039
52729.229265,16.45,0.046
52729.240901,16.482,0.05
52729.252369,16.574,0.054
52729.264512,16.574,0.054
52729.276028,16.578,0.054
52734.250343,16.381,0.05
52734.262691,16.374,0.048
52734.274934,16.422,0.05
52738.183242,16.353,0.054
52738.194654,16.42,0.057
52738.206195,16.434,0.059
52738.21763,16.447,0.061
52738.229102,16.462,0.061
52755.145298,16.244,0.053
52755.157648,16.317,0.056
52755.169673,16.249,0.054
52755.182286,16.326,0.058
52755.19464,16.265,0.058
52760.147715,16.488,0.063
52760.172006,16.409,0.061
52760.184042,16.528,0.069
52760.196113,16.537,0.068
52765.146727,16.243,0.064
52765.158666,16.211,0.066
52765.182573,16.215,0.058
52765.195083,16.257,0.059
52938.439814,16.369,0.064
52938.451798,16.415,0.059
52938.463752,16.458,0.061
52938.475666,16.464,0.058
52973.425193,16.376,0.054
52973.437219,16.409,0.056
52973.449381,16.367,0.053
52973.46171,16.487,0.059
52973.473623,16.499,0.059
52995.384689,16.496,0.038
52995.397113,16.479,0.036
52995.409802,16.419,0.035
52995.422184,16.446,0.035
52995.434607,16.331,0.031
53027.400453,16.242,0.028
53027.413447,16.328,0.031
53027.426287,16.257,0.028
53027.439109,16.302,0.031
53027.451895,16.343,0.031
53029.341787,16.51,0.045
53033.329361,16.367,0.046
53033.341649,16.403,0.044
53033.353789,16.379,0.044
53033.365909,16.486,0.048
53053.290102,16.39,0.061
53053.301885,16.39,0.08
53053.315421,16.348,0.087
53053.328751,16.126,0.072
53053.340437,16.249,0.041
53058.290229,16.411,0.028
53058.303249,16.459,0.033
53058.315371,16.471,0.031
53058.339971,16.549,0.033
53060.304193,16.285,0.028
53060.316319,16.335,0.03
53060.328433,16.354,0.031
53060.3404,16.361,0.031
53060.353652,16.409,0.033
53061.270753,16.307,0.028
53061.28231,16.284,0.028
53061.287293,16.266,0.026
53061.293522,16.263,0.028
53061.304694,16.294,0.03
53061.311354,16.247,0.026
53061.315854,16.272,0.028
53061.323485,16.28,0.028
53061.335399,16.243,0.026
53062.308998,16.027,0.14
53062.333474,16.21,0.091
53079.250163,16.441,0.044
53079.260778,16.384,0.041
53079.271467,16.323,0.039
53079.282272,16.373,0.041
53079.293007,16.271,0.037
53083.29123,16.479,0.038
53083.302528,16.549,0.041
53083.313838,16.558,0.045
53083.325116,16.492,0.056
53083.33626,16.499,0.045
53084.227709,16.298,0.03
53084.239247,16.371,0.031
53084.251712,16.423,0.033
53084.263085,16.48,0.035
53084.274417,16.495,0.035
53085.332946,16.449,0.045
53085.345174,16.444,0.043
53085.356608,16.513,0.053
53085.369767,16.551,0.101
53085.380979,16.516,0.094
53110.18649,16.287,0.05
53110.19718,16.304,0.052
53110.207868,16.272,0.05
53110.218556,16.342,0.055
53110.229306,16.284,0.052
53114.198966,16.581,0.041
53114.210131,16.519,0.04
53114.221128,16.464,0.04
53114.231806,16.477,0.04
53114.242449,16.396,0.038
53116.202202,16.469,0.064
53116.21301,16.516,0.089
53116.23445,16.722,0.162
53116.247159,16.356,0.106
53138.154014,16.379,0.054
53138.163896,16.38,0.054
53138.173776,16.292,0.048
53138.1836,16.288,0.048
53138.1934,16.262,0.048
53142.159484,16.43,0.046
53142.172639,16.504,0.054
53142.182167,16.494,0.049
53142.192006,16.522,0.049
53142.201644,16.566,0.112
53144.169765,16.375,0.054
53144.179152,16.413,0.059
53144.188543,16.446,0.078
53327.387036,16.2,0.069
53327.399556,16.283,0.083
53327.412059,16.264,0.066
53327.424298,16.337,0.074
53327.436757,16.3,0.073
53346.384519,16.219,0.051
53346.40942,16.273,0.056
53346.421892,16.316,0.058
53346.434105,16.312,0.058
53347.440977,16.284,0.048
53347.454787,16.301,0.053
53347.468839,16.28,0.053
53347.482625,16.306,0.053
53351.423551,16.533,0.079
53351.437847,16.55,0.074
53351.467196,16.478,0.074
53351.481888,16.555,0.078
53352.449136,16.501,0.071
53352.464093,16.414,0.069
53352.478864,16.614,0.089
53352.493536,16.542,0.091
53352.50837,16.5,0.081
53353.4172,16.347,0.059
53353.431263,16.412,0.064
53353.445414,16.44,0.068
53353.459612,16.575,0.081
53353.473653,16.596,0.078
53359.41146,16.671,0.061
53359.430748,16.689,0.065
53359.446952,16.603,0.055
53359.460146,16.581,0.052
53359.472998,16.49,0.048
53383.347857,16.626,0.054
53383.362009,16.481,0.05
53383.375091,16.448,0.05
53383.388741,16.424,0.048
53383.403084,16.331,0.046
53403.356548,16.539,0.058
53403.369679,16.59,0.058
53403.383217,16.605,0.063
53403.397472,16.554,0.063
53403.411054,16.545,0.066
53436.1974,16.451,0.048
53436.2088,16.496,0.05
53436.220153,16.541,0.052
53436.231542,16.536,0.052
53436.242921,16.545,0.052
53437.229105,16.419,0.046
53437.240675,16.404,0.046
53437.253147,16.453,0.048
53437.264772,16.472,0.048
53437.27625,16.567,0.054
53466.263547,16.254,0.048
53466.273414,16.332,0.054
53466.283053,16.284,0.054
53466.293627,16.354,0.057
53466.303984,16.364,0.059
53468.216077,16.651,0.191
53468.225586,16.542,0.128
53496.149532,16.506,0.072
53496.159467,16.455,0.065
53496.169542,16.521,0.072
53496.179492,16.598,0.081
53496.189463,16.637,0.087
53503.181081,16.665,0.089
53503.189797,16.683,0.087
53503.198637,16.611,0.081
53503.208499,16.555,0.081
53503.218886,16.515,0.08
53704.451721,16.54,0.057
53704.46424,16.469,0.052
53704.476681,16.471,0.054
53704.489332,16.435,0.05
53704.501998,16.391,0.048
53707.452358,16.534,0.074
53707.465156,16.55,0.067
53707.477781,16.529,0.061
53707.490414,16.553,0.052
53707.503014,16.589,0.052
53710.446828,16.225,0.046
53710.459355,16.219,0.05
53710.472746,16.283,0.054
53710.485402,16.222,0.05
53710.497992,16.328,0.054
53734.41016,16.409,0.05
53734.423102,16.416,0.05
53734.436056,16.436,0.052
53734.449283,16.517,0.057
53734.462396,16.512,0.059
53746.342679,16.807,0.12
53746.356097,16.794,0.117
53746.368612,16.636,0.098
53746.381459,16.693,0.102
53746.393928,16.633,0.096
53758.342792,16.467,0.044
53758.355302,16.443,0.05
53758.36782,16.574,0.057
53758.380553,16.581,0.057
53758.393179,16.601,0.061
53787.418006,16.401,0.063
53787.429923,16.415,0.065
53787.441951,16.462,0.068
53787.454045,16.447,0.074
53789.340492,16.606,0.172
53789.364233,16.489,0.179
53789.376112,16.285,0.068
53789.38798,16.292,0.05
53790.288557,16.614,0.063
53790.300471,16.537,0.061
53790.312436,16.559,0.059
53790.324468,16.536,0.058
53790.336375,16.561,0.058
53792.338495,16.549,0.057
53792.350278,16.575,0.07
53792.362057,16.567,0.076
53792.373833,16.608,0.087
53792.385612,16.657,0.081
53802.283348,16.457,0.072
53802.29472,16.481,0.072
53802.306144,16.577,0.1
53802.317539,16.353,0.078
53817.209736,16.398,0.049
53817.221617,16.364,0.046
53817.233032,16.419,0.051
53817.244518,16.476,0.053
53817.256079,16.389,0.049
53821.289097,16.272,0.05
53821.304521,16.293,0.063
53821.332162,16.354,0.13
53821.348051,16.229,0.07
53824.289344,16.56,0.093
53824.303247,16.648,0.239
53824.31744,16.61,0.339
53824.335442,16.466,0.113
53828.28558,16.394,0.124
53828.297782,16.376,0.072
53828.312521,16.449,0.068
53828.327751,16.454,0.068
53828.342564,16.443,0.096
53831.183875,16.99,0.137
53831.193426,16.857,0.122
53831.202975,16.801,0.117
53831.212533,16.909,0.133
53831.222099,16.861,0.128
53845.185875,16.217,0.054
53845.196975,16.218,0.054
53845.208136,16.31,0.061
53845.219204,16.203,0.058
53845.230291,16.349,0.069
53846.19567,16.343,0.076
53846.206323,16.292,0.072
53846.217,16.213,0.067
53846.227736,16.26,0.07
53846.238459,16.332,0.076
53850.146155,16.383,0.084
53850.156442,16.458,0.096
53850.166815,16.471,0.074
53850.177124,16.223,0.19
53850.187521,16.505,0.073
53851.23599,16.555,0.081
53851.24756,16.627,0.089
53851.258211,16.666,0.1
53851.269122,16.663,0.104
53851.279292,16.656,0.111
53854.21364,16.284,0.065
53854.224504,16.283,0.065
53854.237873,16.391,0.078
53854.248983,16.373,0.081
54035.440065,16.308,0.079
54035.452643,16.273,0.069
54035.464448,16.449,0.084
54035.476491,16.414,0.073
54035.488184,16.407,0.069
54053.428288,16.411,0.113
54053.451916,16.5,0.072
54053.463797,16.388,0.076
54053.475647,16.556,0.08
54056.429639,16.383,0.052
54056.441898,16.344,0.05
54056.454149,16.385,0.05
54056.466588,16.321,0.046
54056.478839,16.277,0.043
54059.436314,16.503,0.057
54059.443736,16.57,0.074
54059.448813,16.527,0.055
54059.461131,16.527,0.055
54059.46747,16.479,0.068
54059.474231,16.493,0.052
54059.481245,16.559,0.064
54059.486888,16.563,0.052
54059.493798,16.542,0.064
54059.506547,16.496,0.059
54064.444635,16.264,0.041
54064.457495,16.282,0.041
54064.470357,16.224,0.039
54064.483227,16.269,0.039
54064.496099,16.292,0.039
54082.395713,16.625,0.083
54082.408599,16.59,0.078
54082.421843,16.605,0.08
54082.434728,16.664,0.081
54082.447626,16.542,0.072
54085.460704,16.564,0.052
54085.473662,16.551,0.05
54085.486629,16.543,0.044
54085.499594,16.473,0.041
54085.512556,16.408,0.041
54091.349156,16.615,0.084
54091.362338,16.479,0.071
54091.374971,16.465,0.069
54091.386876,16.354,0.063
54091.398777,16.408,0.068
54114.358714,16.364,0.064
54114.371425,16.298,0.066
54153.276164,16.559,0.041
54153.287656,16.56,0.043
54153.299154,16.581,0.043
54153.310659,16.57,0.043
54153.322231,16.629,0.044
54155.291706,16.426,0.054
54155.293432,16.514,0.057
54155.303306,16.543,0.059
54155.305043,16.538,0.057
54155.314977,16.469,0.054
54155.316725,16.587,0.057
54155.326711,16.547,0.057
54155.328466,16.566,0.055
54155.340674,16.677,0.057
54156.25956,16.313,0.056
54156.263075,16.321,0.044
54156.270588,16.319,0.056
54156.274612,16.332,0.044
54156.281671,16.351,0.059
54156.286142,16.391,0.048
54156.293095,16.403,0.061
54156.29768,16.441,0.05
54156.304862,16.342,0.058
54156.30924,16.428,0.052
54174.219206,16.229,0.051
54174.229949,16.233,0.045
54174.240784,16.279,0.046
54174.251716,16.305,0.046
54174.26254,16.237,0.045
54174.267319,16.311,0.039
54174.278033,16.349,0.044
54174.288729,16.281,0.05
54174.299434,16.308,0.061
54174.310145,16.404,0.072
54180.229104,16.381,0.063
54180.239516,16.362,0.056
54180.250037,16.481,0.059
54180.260531,16.405,0.053
54180.270953,16.463,0.053
54180.283367,16.576,0.05
54180.294118,16.568,0.048
54180.305116,16.569,0.05
54180.315782,16.626,0.052
54180.326467,16.581,0.052
54200.174131,16.397,0.076
54200.183906,16.343,0.071
54200.193353,16.288,0.144
54200.212547,16.238,0.061
54205.222617,16.511,0.054
54205.231802,16.527,0.055
54205.241077,16.554,0.057
54205.250263,16.55,0.059
54205.259486,16.602,0.059
54208.218179,16.3,0.046
54208.227197,16.239,0.044
54208.236258,16.22,0.043
54208.245332,16.268,0.044
54208.254413,16.28,0.048
54212.225712,16.683,0.072
54212.234732,16.673,0.072
54212.243748,16.727,0.076
54212.252902,16.616,0.07
54212.262063,16.558,0.068
54416.439731,16.339,0.041
54416.45219,16.389,0.043
54416.464514,16.393,0.041
54416.476836,16.486,0.044
54416.489179,16.441,0.043
54438.449142,16.689,0.043
54438.462382,16.561,0.039
54438.47572,16.54,0.039
54438.489153,16.472,0.037
54438.502418,16.395,0.033
54478.465336,16.366,0.092
54478.477608,16.298,0.086
54478.490056,16.334,0.092
54478.502191,16.41,0.101
54481.273846,16.533,0.065
54481.286761,16.526,0.059
54481.299693,16.546,0.055
54481.312613,16.475,0.052
54481.325529,16.508,0.046
54498.33504,16.612,0.039
54498.34757,16.577,0.039
54498.360116,16.592,0.041
54498.372767,16.533,0.037
54498.385449,16.489,0.037
54506.278922,16.591,0.039
54506.291103,16.641,0.041
54506.303394,16.631,0.039
54506.315722,16.7,0.043
54506.327929,16.608,0.041
54507.265119,16.577,0.056
54507.266679,16.558,0.037
54507.277276,16.643,0.059
54507.278911,16.566,0.039
54507.289431,16.625,0.059
54507.291167,16.597,0.041
54507.302305,16.687,0.059
54507.303562,16.635,0.041
54507.314771,16.699,0.059
54507.315835,16.612,0.039
54507.392,16.509,0.056
54507.405711,16.392,0.051
54507.417611,16.368,0.051
54507.429603,16.33,0.049
54507.441498,16.261,0.048
54521.395135,16.312,0.054
54521.406898,16.379,0.067
54521.442173,16.334,0.067
54527.288224,16.335,0.068
54527.299634,16.382,0.039
54527.311019,16.367,0.031
54527.322436,16.478,0.031
54535.273436,16.373,0.03
54535.284511,16.406,0.03
54535.29559,16.442,0.031
54535.306678,16.475,0.031
54535.31776,16.54,0.033
54535.33585,16.499,0.053
54535.346901,16.619,0.058
54535.358805,16.602,0.059
54535.370203,16.582,0.059
54535.381214,16.666,0.066
54540.164374,16.463,0.05
54540.17527,16.497,0.052
54540.186389,16.549,0.052
54540.197267,16.586,0.054
54540.208274,16.543,0.05
54552.299699,16.656,0.05
54552.311804,16.674,0.054
54552.323879,16.637,0.059
54552.336131,16.75,0.068
54558.123182,16.34,0.037
54558.134836,16.376,0.037
54558.146395,16.382,0.037
54558.157956,16.473,0.039
54558.169517,16.423,0.037
54561.241137,16.393,0.028
54561.252622,16.345,0.028
54561.264079,16.451,0.031
54561.275555,16.453,0.033
54561.287026,16.47,0.055
54580.189179,16.255,0.039
54580.199803,16.198,0.039
54580.210414,16.139,0.037
54580.221025,16.154,0.041
54580.231694,16.185,0.046
54583.199557,16.568,0.063
54590.149543,16.589,0.109
54590.159215,16.465,0.092
54590.178547,16.526,0.109
54590.1882,16.532,0.112
54590.199911,16.46,0.054
54590.210219,16.483,0.061
54590.220574,16.413,0.048
54590.230941,16.356,0.046
54590.24129,16.296,0.044
