mjd,m,merr
52608.457482,14.586,0.015
52608.472444,14.601,0.013
52608.487328,14.63,0.026
52608.50228,14.611,0.02
52619.451729,14.232,0.01
52619.466718,14.258,0.01
52619.482124,14.316,0.01
52619.497107,14.367,0.01
52619.5121,14.394,0.012
52640.386408,14.488,0.01
52640.416475,14.548,0.01
52640.432395,14.597,0.012
52640.447587,14.575,0.01
52646.38819,14.608,0.011
52646.402998,14.617,0.013
52646.41747,14.587,0.011
52646.432014,14.58,0.011
52646.446565,14.618,0.013
52647.385034,14.599,0.013
52647.399597,14.609,0.013
52647.414432,14.601,0.013
52647.429247,14.625,0.013
52647.444239,14.622,0.013
52667.321076,14.775,0.013
52667.335769,14.731,0.012
52667.350452,14.555,0.01
52667.365122,14.075,0.008
52667.379851,13.748,0.007
52672.323943,14.285,0.009
52672.337882,14.286,0.009
52672.352041,14.349,0.009
52672.3659,14.36,0.009
52672.379966,14.406,0.009
52673.32289,13.989,0.008
52673.339323,14.045,0.008
52705.237832,14.758,0.013
52705.240326,14.692,0.011
52705.250801,14.678,0.012
52705.254336,14.614,0.009
52705.263757,14.471,0.01
52705.268434,14.372,0.007
52705.276805,14.18,0.008
52705.289771,13.892,0.007
52705.294691,13.892,0.006
52707.246694,14.592,0.011
52707.260076,14.599,0.011
52707.273254,14.605,0.011
52707.286517,14.606,0.011
52707.299799,14.608,0.011
52729.229265,14.64,0.011
52729.240901,14.701,0.011
52729.252369,14.695,0.011
52729.264512,14.684,0.011
52729.276028,14.651,0.011
52734.250343,14.221,0.009
52734.262691,14.255,0.009
52734.274934,14.292,0.009
52734.287174,14.508,0.037
52738.183242,14.558,0.011
52738.194654,14.581,0.013
52738.206195,14.572,0.013
52738.21763,14.587,0.013
52738.229102,14.584,0.013
52755.194984,14.469,0.013
52755.206873,14.514,0.016
52755.218835,14.545,0.018
52755.230768,14.558,0.015
52755.242743,14.562,0.015
52760.148061,14.624,0.015
52760.160326,14.663,0.015
52760.172353,14.64,0.015
52760.184389,14.631,0.015
52760.196461,14.65,0.015
52765.147068,13.848,0.008
52765.159008,13.913,0.01
52765.182915,14.014,0.01
52765.195425,14.067,0.01
52938.427779,14.465,0.015
52938.439814,14.551,0.013
52938.451798,14.533,0.013
52938.463752,14.544,0.013
52938.475666,14.53,0.012
52965.467424,14.181,0.044
52973.425193,13.968,0.008
52973.437219,14.009,0.007
52973.449381,14.063,0.007
52973.46171,14.095,0.008
52973.473623,14.099,0.008
52995.384689,14.157,0.005
52995.397113,14.239,0.005
52995.422184,14.327,0.005
52997.440268,13.972,0.012
53029.354322,14.721,0.028
53029.366885,14.783,0.033
53033.329361,14.333,0.009
53033.341649,14.334,0.009
53033.353789,14.36,0.009
53033.365909,14.389,0.009
53053.290102,14.622,0.011
53053.301885,14.648,0.017
53053.315421,14.642,0.02
53053.328751,14.614,0.02
53053.340437,14.626,0.011
53058.290229,13.97,0.005
53058.303249,13.921,0.005
53058.315371,13.99,0.005
53058.327674,13.9,0.003
53061.287293,14.59,0.007
53079.250163,14.285,0.007
53079.260778,14.27,0.007
53079.271467,14.315,0.007
53079.282272,14.351,0.007
53079.293007,14.358,0.007
53081.265428,13.951,0.006
53081.276832,13.987,0.006
53081.288235,14.037,0.006
53083.29123,14.672,0.008
53083.302528,14.69,0.01
53083.313838,14.677,0.008
53083.325116,14.664,0.012
53083.33626,14.604,0.008
53085.332946,14.582,0.008
53085.356608,14.605,0.01
53085.369767,14.619,0.016
53085.380979,14.709,0.018
53110.18649,14.198,0.009
53110.19718,14.21,0.009
53110.207868,14.274,0.009
53110.218556,14.275,0.009
53110.229306,14.33,0.009
53114.198966,14.567,0.008
53114.210131,14.543,0.008
53114.221128,14.55,0.008
53114.231806,14.539,0.008
53114.242449,14.587,0.008
53116.202202,14.508,0.013
53116.21301,14.54,0.016
53116.22375,14.559,0.02
53116.23445,14.585,0.018
53116.247159,14.579,0.021
53138.154014,14.602,0.013
53138.163896,14.625,0.013
53138.173776,14.609,0.013
53138.1836,14.638,0.013
53138.1934,14.651,0.013
53142.159484,13.856,0.005
53142.172639,13.949,0.007
53142.182167,13.936,0.007
53142.192006,14.094,0.007
53142.201644,13.996,0.013
53144.169765,14.663,0.013
53144.179152,14.731,0.015
53144.2079,14.804,0.052
53315.461928,14.539,0.023
53321.467681,14.657,0.049
53327.387036,14.757,0.02
53327.399556,14.565,0.018
53327.412059,14.148,0.012
53327.424298,13.849,0.008
53327.436757,13.647,0.008
53346.384519,14.553,0.013
53346.396775,14.604,0.015
53346.40942,14.596,0.013
53346.421892,14.612,0.013
53346.434105,14.61,0.013
53347.440977,14.508,0.012
53347.454787,14.54,0.012
53347.468839,14.559,0.012
53347.482625,14.575,0.012
53351.423551,14.58,0.013
53351.437847,14.258,0.01
53351.452272,13.913,0.008
53351.467196,13.81,0.008
53351.481888,13.847,0.008
53352.449136,14.731,0.015
53352.464093,14.754,0.016
53352.478864,14.692,0.016
53352.493536,14.541,0.015
53352.50837,14.188,0.01
53353.4172,14.634,0.013
53353.431263,14.671,0.013
53353.445414,14.668,0.015
53353.459612,14.663,0.015
53353.473653,14.658,0.013
53359.41146,14.706,0.011
53359.411563,14.675,0.011
53359.417546,14.701,0.011
53359.430748,14.569,0.011
53359.430852,14.542,0.011
53359.430956,14.578,0.011
53359.446952,14.246,0.007
53359.447055,14.225,0.007
53359.447508,14.265,0.007
53359.460146,13.987,0.006
53359.460249,13.967,0.006
53359.460354,14.0,0.006
53359.472998,13.851,0.006
53359.473101,13.887,0.006
53383.347857,14.569,0.011
53383.362009,14.601,0.011
53383.375091,14.553,0.011
53383.388741,14.587,0.011
53383.403084,14.663,0.011
53403.356548,14.086,0.007
53403.369679,14.126,0.008
53403.383217,14.179,0.008
53403.397472,14.254,0.008
53403.411054,14.269,0.01
53466.263547,14.035,0.007
53466.273414,13.881,0.007
53466.283053,13.887,0.007
53466.293627,13.912,0.007
53466.303984,13.94,0.007
53468.200512,14.678,0.189
53468.216077,14.614,0.031
53468.225586,14.58,0.024
53496.149532,14.443,0.013
53496.159467,14.163,0.009
53496.169542,13.943,0.007
53496.179492,13.84,0.007
53496.189463,13.825,0.007
53503.181081,14.021,0.009
53503.189797,14.033,0.009
53503.198637,14.073,0.009
53503.208499,14.109,0.009
53503.218886,14.16,0.011
53704.451721,13.735,0.006
53704.46424,13.781,0.006
53704.476681,13.814,0.006
53704.489332,13.913,0.007
53704.501998,13.988,0.007
53707.452358,14.627,0.015
53707.465156,14.624,0.013
53707.477781,14.633,0.013
53707.490414,14.633,0.011
53707.503014,14.64,0.011
53710.446828,14.224,0.009
53710.459355,14.276,0.011
53710.472746,14.295,0.011
53710.485402,14.339,0.011
53710.497992,14.369,0.011
53734.423102,14.074,0.007
53734.436056,14.121,0.007
53734.449283,14.163,0.007
53734.462396,14.204,0.009
53746.342679,14.482,0.017
53746.356097,14.523,0.017
53746.368612,14.531,0.017
53746.381459,14.549,0.015
53746.393928,14.557,0.015
53758.342792,14.53,0.009
53758.355302,14.278,0.009
53758.36782,14.073,0.007
53758.380553,13.893,0.006
53758.393179,13.884,0.007
53787.418006,14.438,0.013
53787.429923,14.449,0.011
53787.441951,14.487,0.013
53787.454045,14.524,0.015
53789.340492,13.934,0.017
53789.352367,13.718,0.018
53789.376112,13.758,0.009
53789.38798,13.833,0.007
53790.288557,14.605,0.012
53790.300471,14.603,0.012
53790.312436,14.637,0.012
53790.324468,14.665,0.012
53790.336375,14.695,0.012
53792.338495,14.624,0.011
53792.350278,14.643,0.013
53792.362057,14.617,0.015
53792.373833,14.631,0.017
53792.385612,14.657,0.015
53802.283348,14.189,0.009
53802.29472,14.239,0.011
53802.306144,14.258,0.015
53802.317539,14.251,0.015
53802.328932,14.304,0.026
53817.209736,14.08,0.007
53817.233032,14.153,0.007
53817.244518,14.188,0.007
53817.256079,14.212,0.007
53821.289097,14.648,0.013
53821.304521,14.673,0.017
53821.332162,14.702,0.033
53821.348051,14.63,0.018
53824.289344,14.467,0.017
53824.303247,14.489,0.039
53824.31744,14.577,0.067
53824.335442,14.47,0.024
53828.28558,14.689,0.03
53828.297782,14.477,0.015
53828.312521,14.25,0.011
53828.327751,13.974,0.009
53828.342564,13.853,0.011
53831.183875,14.417,0.015
53831.193426,14.457,0.015
53831.202975,14.437,0.015
53831.212533,14.477,0.015
53831.222099,14.513,0.015
53845.185875,14.566,0.013
53845.196975,14.599,0.013
53845.208136,14.573,0.013
53845.219204,14.582,0.015
53845.230291,14.6,0.015
53846.19567,14.471,0.017
53846.206323,14.491,0.017
53846.217,14.518,0.017
53846.227736,14.534,0.017
53846.238459,14.562,0.017
53850.146155,14.673,0.018
53850.156442,14.706,0.021
53850.166815,14.714,0.015
53850.177124,14.712,0.046
53850.187521,14.634,0.015
53851.23599,14.724,0.017
53851.24756,14.663,0.017
53851.258211,14.596,0.017
53851.269122,14.409,0.015
53851.279292,14.203,0.013
53854.21364,14.528,0.015
53854.224504,14.534,0.015
53854.237873,14.598,0.015
53854.248983,14.552,0.017
54035.440065,14.646,0.018
54035.452643,14.679,0.018
54035.464448,14.723,0.016
54035.476491,14.709,0.015
54035.488184,14.698,0.015
54053.451916,14.581,0.015
54053.463797,14.608,0.017
54053.475647,14.59,0.015
54056.429639,14.006,0.007
54056.441898,14.059,0.007
54056.454149,14.099,0.007
54056.466588,14.156,0.007
54056.478839,14.194,0.007
54059.436314,14.626,0.011
54059.443736,14.595,0.013
54059.448813,14.615,0.011
54059.461131,14.651,0.011
54059.46747,14.682,0.015
54059.474231,14.681,0.013
54059.481245,14.705,0.013
54059.486888,14.72,0.011
54059.493798,14.743,0.013
54059.506547,14.757,0.013
54064.444635,14.031,0.007
54064.457495,14.082,0.007
54064.470357,14.139,0.007
54064.496099,14.224,0.007
54082.395713,14.556,0.017
54082.434728,14.578,0.015
54082.447626,14.668,0.015
54085.460704,14.524,0.009
54085.473662,14.539,0.009
54085.486629,14.561,0.009
54085.499594,14.58,0.009
54085.512556,14.557,0.009
54091.349156,14.564,0.015
54091.362338,14.583,0.013
54091.374971,14.581,0.013
54091.386876,14.59,0.013
54091.398777,14.596,0.013
54114.358714,14.586,0.013
54114.371425,14.59,0.016
54153.276164,14.532,0.009
54153.287656,14.585,0.009
54153.299154,14.598,0.009
54153.310659,14.604,0.009
54153.322231,14.61,0.009
54154.269726,14.364,0.007
54154.272185,14.377,0.01
54154.283709,14.405,0.01
54154.292691,14.423,0.007
54154.295523,14.452,0.01
54154.307118,14.475,0.01
54154.318634,14.479,0.01
54155.291391,14.28,0.007
54155.293432,14.295,0.009
54155.30299,14.31,0.007
54155.305043,14.312,0.009
54155.31466,14.348,0.007
54155.316725,14.32,0.009
54155.326395,14.355,0.007
54155.328466,14.361,0.009
54155.338418,14.406,0.007
54155.340674,14.402,0.009
54174.219206,14.626,0.013
54174.229949,14.621,0.012
54174.240784,14.64,0.012
54174.251716,14.616,0.012
54174.26254,14.619,0.012
54174.267319,14.638,0.009
54174.278033,14.671,0.011
54174.288729,14.701,0.011
54174.299434,14.76,0.018
54174.310145,14.774,0.015
54177.330118,14.533,0.046
54180.229104,14.247,0.01
54180.239516,14.003,0.008
54180.250037,13.816,0.007
54180.260531,13.791,0.007
54180.270953,13.818,0.007
54180.305116,13.997,0.006
54180.315782,14.027,0.006
54180.326467,14.084,0.006
54200.174131,14.305,0.012
54200.183906,14.321,0.012
54200.193353,14.385,0.033
54200.203151,14.43,0.018
54200.212547,14.413,0.012
54205.222617,14.608,0.011
54205.231802,14.614,0.011
54205.241077,14.614,0.011
54205.250263,14.647,0.011
54205.259486,14.689,0.011
54208.218179,14.391,0.009
54208.227197,14.426,0.009
54208.236258,14.429,0.009
54208.245332,14.452,0.009
54208.254413,14.475,0.011
54212.225712,14.683,0.013
54212.234732,14.667,0.013
54212.243748,14.628,0.013
54212.252902,14.562,0.013
54212.262063,14.411,0.011
54416.439731,14.299,0.007
54416.45219,14.31,0.007
54416.464514,14.339,0.007
54416.476836,14.346,0.007
54416.489179,14.36,0.007
54438.449142,14.565,0.007
54438.462382,14.584,0.007
54478.502191,14.566,0.008
54481.273846,14.529,0.011
54481.286761,14.543,0.011
54481.299693,14.572,0.011
54481.312613,14.551,0.011
54481.325529,14.583,0.009
54498.33504,14.565,0.007
54498.360116,14.578,0.007
54498.372767,14.609,0.007
54498.385449,14.593,0.007
54506.278922,14.563,0.007
54506.303394,14.57,0.007
54506.315722,14.593,0.007
54506.327929,14.597,0.007
54507.392,14.581,0.015
54507.405711,14.588,0.015
54507.417611,14.597,0.015
54507.429603,14.611,0.015
54507.441498,14.634,0.015
54521.395135,14.597,0.013
54527.276817,14.682,0.041
54527.288224,14.794,0.022
54527.299634,14.782,0.013
54527.311019,14.7,0.009
54535.273436,14.661,0.007
54535.306678,14.756,0.007
54535.33585,14.641,0.015
54535.346901,14.342,0.013
54535.358805,13.991,0.01
54535.370203,13.748,0.01
54535.381214,13.654,0.01
54540.164374,14.104,0.007
54540.17527,13.95,0.006
54540.186389,13.885,0.006
54540.197267,13.918,0.006
54540.208274,13.923,0.006
54552.299699,14.612,0.009
54552.311804,14.626,0.009
54552.323879,14.636,0.011
54552.348331,14.635,0.011
54558.123182,14.57,0.009
54558.134836,14.581,0.009
54558.157956,14.606,0.009
54558.169517,14.612,0.009
54561.264079,14.49,0.007
54561.287026,14.501,0.013
54580.189179,14.568,0.009
54580.199803,14.406,0.009
54580.210414,14.245,0.007
54580.221025,14.044,0.007
54580.231694,13.875,0.007
54583.199557,14.541,0.011
54590.199911,14.568,0.011
54590.210219,14.6,0.013
54590.220574,14.602,0.011
54590.230941,14.614,0.011
54590.24129,14.61,0.011
