mjd,m,merr
52612.455656,16.856,0.096
52612.470942,17.029,0.116
52612.486103,16.615,0.074
52612.501366,16.371,0.063
52650.380179,16.409,0.056
52664.314782,16.833,0.079
52664.331635,16.719,0.076
52696.276615,16.516,0.056
52696.289979,16.53,0.056
52696.290095,16.581,0.056
52696.303581,16.886,0.078
52696.316937,16.998,0.084
52696.317053,16.871,0.074
52696.330418,16.658,0.063
52696.330533,16.772,0.069
52711.184257,16.293,0.063
52711.197708,16.408,0.068
52711.211294,16.516,0.072
52711.22494,16.789,0.094
52711.238924,17.082,0.118
52723.182406,16.314,0.048
52723.195079,16.236,0.058
52723.20663,16.182,0.091
52723.218852,16.36,0.063
52723.230974,16.421,0.064
52752.171192,16.184,0.051
52769.186342,16.598,0.161
52782.15799,16.152,0.064
52782.179849,16.32,0.13
52782.190739,16.869,0.165
52946.450598,16.413,0.097
52966.363914,16.478,0.054
52966.371902,16.508,0.059
52976.394129,16.269,0.033
52976.420487,16.361,0.037
52976.433479,16.453,0.043
52976.446765,16.778,0.055
52990.447801,16.457,0.064
53003.322552,16.306,0.026
53003.35899,16.426,0.03
53003.371065,16.585,0.036
53006.330545,16.535,0.061
53006.34265,16.33,0.055
53006.355491,16.317,0.052
53006.367586,16.291,0.044
53006.379686,16.308,0.052
53035.330252,16.326,0.051
53037.340273,16.271,0.046
53037.365464,16.255,0.048
53037.393497,16.609,0.068
53046.291739,16.41,0.052
53046.303706,16.396,0.05
53046.315652,16.308,0.046
53046.327838,16.255,0.044
53046.340131,16.281,0.046
53077.300096,16.42,0.078
53092.236881,16.362,0.046
53092.24681,16.478,0.049
53092.256729,16.453,0.049
53092.266587,16.514,0.053
53107.201421,16.443,0.043
53107.2126,16.662,0.054
53107.223912,16.893,0.065
53107.235153,16.886,0.067
53121.188539,16.41,0.058
53121.199925,16.431,0.059
53121.210378,16.419,0.059
53121.220736,16.535,0.068
53127.192787,16.575,0.122
53127.202733,17.036,0.189
53127.212638,16.901,0.168
53127.222544,17.012,0.179
53127.23248,16.771,0.155
53136.155754,16.423,0.052
53136.164983,16.442,0.054
53136.174207,16.628,0.068
53136.183427,16.798,0.083
53136.192697,17.043,0.107
53154.163896,17.143,0.189
53154.172707,16.808,0.141
53154.181461,16.587,0.115
53154.190231,16.399,0.093
53154.199045,16.312,0.089
53294.459144,16.303,0.049
53294.470585,16.349,0.049
53294.482106,16.28,0.046
53302.451599,16.302,0.063
53302.463504,16.346,0.065
53302.475419,16.482,0.07
53302.48734,16.517,0.076
53313.43026,16.315,0.085
53313.44219,16.356,0.089
53313.454115,16.339,0.083
53313.466034,16.392,0.089
53313.477958,16.396,0.085
53329.460212,16.758,0.083
53329.472706,16.493,0.066
53329.485499,16.422,0.061
53329.498278,16.38,0.058
53329.510872,16.296,0.054
53331.393669,16.254,0.063
53331.406567,16.313,0.059
53331.419235,16.306,0.057
53331.43159,16.419,0.061
53341.408203,16.295,0.096
53341.420208,16.328,0.098
53341.432678,16.333,0.098
53341.444692,16.551,0.12
53341.456709,16.894,0.157
53349.404074,16.642,0.083
53349.417902,16.983,0.122
53349.445192,16.622,0.084
53349.45869,16.48,0.068
53355.472636,16.606,0.056
53355.485847,16.88,0.074
53355.499005,17.131,0.092
53355.51428,16.627,0.059
53360.355818,16.308,0.058
53360.369515,16.269,0.054
53360.38377,16.388,0.056
53360.397958,16.443,0.058
53360.412072,16.658,0.068
53385.479072,16.731,0.072
53385.492284,16.471,0.055
53385.505265,16.297,0.048
53385.518312,16.344,0.05
53385.531254,16.219,0.046
53401.316404,16.501,0.061
53401.328915,16.479,0.061
53401.341438,16.513,0.063
53403.27927,16.416,0.044
53403.292089,16.788,0.061
53403.304877,16.815,0.063
53403.317704,16.551,0.052
53403.330433,16.364,0.044
53415.414317,16.334,0.048
53415.453259,16.735,0.141
53437.29795,16.519,0.046
53437.309971,16.727,0.055
53437.32159,17.037,0.078
53437.333315,16.777,0.061
53437.346331,16.498,0.048
53450.220525,16.977,0.17
53450.231338,16.858,0.152
53450.24216,16.744,0.135
53450.264214,16.448,0.098
53684.435456,16.572,0.08
53684.447849,16.909,0.104
53684.46043,16.905,0.094
53684.473157,16.556,0.076
53684.485632,16.455,0.067
53701.445623,16.277,0.061
53701.483415,16.341,0.105
53701.49587,16.329,0.068
53728.394966,16.349,0.063
53728.408309,16.326,0.046
53728.421838,16.351,0.059
53728.434991,16.39,0.07
53728.448061,16.647,0.067
53742.353936,16.543,0.046
53742.366856,16.926,0.065
53742.379909,16.928,0.065
53742.405775,16.391,0.041
53772.228924,16.911,0.096
53772.241806,16.583,0.07
53772.254643,16.42,0.059
53772.267663,16.342,0.055
53772.281323,16.282,0.05
53812.257149,16.297,0.063
53812.26824,16.276,0.063
53812.279307,16.406,0.07
53812.301466,16.746,0.096
53825.23986,16.546,0.049
53825.251003,16.459,0.046
53825.27342,16.311,0.043
53843.196344,16.63,0.074
53843.207759,16.347,0.059
53843.219078,16.279,0.055
53843.230404,16.304,0.057
53855.188388,17.062,0.117
53855.199154,17.064,0.116
53855.209672,16.757,0.089
53855.22027,16.502,0.071
53855.2308,16.397,0.069
53878.158591,16.268,0.079
53878.174243,16.335,0.094
53878.193253,16.505,0.109
53878.208091,16.797,0.147
53878.225147,16.65,0.127
54025.435655,16.925,0.122
54025.44798,16.806,0.116
54025.460563,16.493,0.079
54053.441888,16.242,0.073
54053.457028,16.351,0.066
54053.470264,16.473,0.081
54053.482889,16.72,0.122
54070.406428,16.311,0.061
54070.419291,16.393,0.059
54070.432405,16.53,0.061
54081.387357,16.289,0.05
54081.400455,16.309,0.055
54081.413776,16.359,0.057
54081.426771,16.515,0.059
54081.439657,16.801,0.076
54086.332286,16.358,0.158
54086.345871,16.331,0.079
54086.359415,16.538,0.081
54109.318862,16.338,0.087
54109.34251,16.168,0.089
54109.354278,16.253,0.092
54109.366513,16.306,0.102
54169.222403,17.043,0.072
54169.244376,16.562,0.046
54169.25528,16.396,0.043
54187.246631,16.735,0.167
54187.257843,16.564,0.149
54187.268268,16.622,0.157
54200.2213,16.821,0.059
54200.231289,16.549,0.059
54209.174527,16.657,0.074
54209.183349,16.94,0.097
54209.192079,17.201,0.421
54209.201571,16.972,0.157
54209.210229,16.767,0.112
54396.436343,16.375,0.071
54396.449438,16.205,0.063
54509.268984,16.446,0.054
54509.281026,16.592,0.061
54509.292892,16.731,0.068
54509.304656,17.005,0.081
54509.316527,16.989,0.079
54527.270404,17.077,0.328
54527.311238,16.415,0.051
54527.322683,16.355,0.049
54536.217579,16.429,0.056
54536.2288,16.571,0.061
54536.239691,16.969,0.081
54536.250866,16.976,0.086
54536.261701,16.843,0.076
54568.181982,16.317,0.054
54568.193223,16.353,0.054
54568.203989,16.357,0.055
54568.214845,16.445,0.067
54568.225638,16.546,0.076
54584.190538,17.187,0.139
54584.20061,16.793,0.099
54584.210612,16.552,0.081
54584.220614,16.501,0.078
54584.230821,16.386,0.069
54589.19324,16.311,0.046
54589.203624,16.382,0.048
54589.213983,16.497,0.05
54589.224313,16.594,0.052
54589.234678,16.784,0.063
54615.193911,16.55,0.186
54621.167241,16.301,0.048
