mjd,m,merr
52642.451893,16.445,0.053
52642.46616,16.402,0.049
52642.480509,16.463,0.056
52642.494892,16.542,0.058
52642.509296,16.427,0.054
52644.465248,16.9,0.084
52644.48016,16.817,0.084
52644.495391,16.882,0.097
52644.510375,16.916,0.116
52644.52699,16.82,0.111
52648.411919,16.659,0.087
52648.434988,16.618,0.083
52648.450767,16.582,0.074
52648.466431,16.696,0.086
52648.481705,16.687,0.087
52700.370195,16.631,0.073
52700.386166,16.482,0.049
52700.386557,16.538,0.068
52700.401927,16.482,0.071
52700.417316,16.417,0.064
52700.432762,16.425,0.069
52708.309454,16.713,0.063
52708.322896,16.799,0.067
52708.336044,16.809,0.07
52708.349243,16.857,0.076
52708.362557,16.869,0.076
52709.358654,16.46,0.048
52728.292323,16.859,0.073
52728.292682,16.962,0.097
52728.305024,16.899,0.091
52728.31677,16.607,0.064
52728.317513,16.882,0.091
52728.32914,16.973,0.089
52728.329498,16.955,0.104
52728.341108,16.691,0.076
52728.341468,16.849,0.091
52731.313332,16.953,0.191
52731.325775,16.936,0.186
52731.349899,16.975,0.13
52736.245136,16.449,0.063
52736.257041,16.537,0.069
52736.268872,16.536,0.066
52736.280674,16.531,0.068
52736.293299,16.615,0.073
52757.208472,16.862,0.083
52757.220496,16.797,0.081
52757.232356,16.705,0.074
52757.244169,16.587,0.07
52757.256028,16.473,0.065
52986.439384,16.998,0.163
52986.450924,17.352,0.221
52986.463047,17.101,0.167
52986.4752,17.201,0.181
52986.486789,17.043,0.152
53032.394785,16.426,0.045
53032.407205,16.381,0.045
53032.419653,16.412,0.046
53032.432569,16.543,0.056
53032.444967,16.564,0.056
53054.350627,16.755,0.054
53054.362563,16.776,0.056
53054.374344,16.765,0.056
53054.386248,16.779,0.059
53054.398481,16.842,0.063
53080.281293,16.868,0.076
53080.292733,16.897,0.079
53080.303984,16.796,0.071
53080.315121,16.922,0.079
53080.326341,16.855,0.074
53081.285468,16.831,0.064
53081.297368,16.851,0.064
53081.310342,16.779,0.063
53081.311717,16.918,0.065
53081.322322,16.852,0.068
53081.323089,16.855,0.063
53081.33439,16.827,0.066
53081.334405,16.87,0.063
53081.345694,16.928,0.067
53081.356979,16.903,0.068
53082.286354,16.398,0.036
53082.298589,16.498,0.04
53082.310373,16.491,0.04
53082.321908,16.54,0.041
53082.333902,16.588,0.043
53095.225401,16.676,0.097
53095.23505,16.639,0.094
53095.244893,16.59,0.089
53095.255546,16.646,0.092
53095.265279,16.635,0.091
53111.1917,16.802,0.092
53111.202643,16.808,0.092
53111.21334,16.868,0.096
53111.224216,16.974,0.107
53111.235291,16.743,0.084
53139.15781,16.484,0.064
53139.167795,16.442,0.061
53139.177109,16.486,0.061
53139.18641,16.534,0.064
53139.195783,16.614,0.073
53327.446699,16.535,0.12
53347.494895,16.702,0.094
53347.508829,16.698,0.087
53347.522697,16.733,0.086
53350.484614,16.752,0.104
53350.497523,16.781,0.097
53350.51039,16.742,0.099
53350.523337,16.888,0.111
53353.485062,16.833,0.104
53353.499547,16.892,0.104
53353.513797,16.858,0.096
53436.262206,16.809,0.067
53436.273881,16.868,0.07
53436.285539,16.83,0.067
53436.29791,16.876,0.074
53436.309561,16.92,0.072
53466.313147,16.536,0.067
53466.322366,16.515,0.068
53466.331661,16.567,0.078
53466.341595,16.527,0.074
53466.351061,16.575,0.078
53467.231325,16.742,0.074
53467.241488,16.722,0.072
53467.251607,16.765,0.076
53467.261422,16.748,0.076
53467.272956,16.762,0.089
53506.149678,16.294,0.096
53506.159009,16.291,0.096
53506.168309,16.267,0.096
53506.177654,16.179,0.091
53506.186967,16.261,0.096
53745.340983,16.789,0.131
53745.354,16.804,0.13
53745.366965,16.667,0.107
53745.379748,16.631,0.1
53745.392608,16.613,0.096
53815.290091,16.583,0.086
53815.301709,16.559,0.071
53815.313431,16.473,0.058
53815.325223,16.528,0.063
53815.337017,16.464,0.066
53848.196041,16.475,0.054
53848.206624,16.465,0.056
53848.217247,16.593,0.063
53848.227842,16.519,0.061
53848.238421,16.555,0.063
54148.343495,16.241,0.037
54148.355552,16.263,0.039
54148.367683,16.325,0.041
54148.379753,16.373,0.043
54148.391999,16.42,0.046
54158.333662,16.386,0.065
54158.345334,16.447,0.067
54158.357021,16.42,0.067
54158.368834,16.503,0.07
54158.380554,16.545,0.074
54176.270135,16.858,0.084
54176.280708,16.731,0.076
54176.291316,16.752,0.076
54176.301925,16.802,0.081
54176.312521,16.712,0.074
54186.234647,16.74,0.102
54186.245764,16.789,0.105
54186.257036,16.807,0.104
54186.268467,16.761,0.098
54186.279804,16.637,0.087
54476.456822,16.877,0.092
54476.469944,16.87,0.089
54476.483385,16.839,0.086
54476.496531,16.872,0.094
54476.510001,16.868,0.089
54480.399451,16.545,0.041
54480.412592,16.546,0.043
54480.425854,16.581,0.044
54480.438944,16.604,0.044
54480.452176,16.686,0.048
54497.398385,16.596,0.089
54497.411303,16.663,0.068
54497.424227,16.708,0.078
54497.437136,16.737,0.061
54497.450032,16.665,0.057
54505.398351,16.272,0.028
54505.410865,16.133,0.024
54505.423348,16.122,0.026
54505.43586,16.131,0.026
54505.442728,16.139,0.045
54505.448381,16.206,0.028
54505.454359,16.249,0.048
54505.46596,16.249,0.049
54505.47751,16.272,0.056
54505.489056,16.399,0.063
54526.339621,16.769,0.046
54526.35107,16.777,0.048
54526.362497,16.777,0.048
54526.373942,16.781,0.048
54526.385385,16.821,0.052
54533.387196,16.871,0.074
54533.398302,16.75,0.064
54533.4093,16.814,0.068
54533.420282,16.769,0.066
54533.431628,16.726,0.066
54534.347736,16.555,0.03
54534.358898,16.626,0.033
54534.369969,16.614,0.033
54534.381196,16.631,0.035
54534.392415,16.703,0.041
54540.225004,16.589,0.055
54540.236046,16.621,0.054
54540.247118,16.642,0.054
54540.258138,16.625,0.05
54540.269154,16.68,0.052
54552.360004,16.024,0.035
54552.37233,16.034,0.039
54552.384584,16.082,0.043
54552.396895,16.09,0.05
54552.409196,16.163,0.055
54567.204829,16.897,0.102
54567.215861,16.922,0.102
54567.227027,17.032,0.116
54567.238257,17.028,0.114
54567.249284,17.216,0.132
54569.182511,16.835,0.076
54569.193489,16.764,0.07
54569.204512,16.78,0.074
54569.215484,16.804,0.07
54569.226445,16.811,0.07
54583.251984,17.036,0.355
54583.262611,16.796,0.137
54583.273182,16.803,0.093
54583.28383,16.949,0.135
54583.294499,16.829,0.096
54590.251275,16.843,0.068
54590.261561,16.935,0.12
54590.271893,16.951,0.276
54590.282184,16.758,0.093
54590.292482,16.79,0.098
54598.155742,16.332,0.1
54598.166297,16.216,0.093
54598.176865,16.241,0.093
54598.187399,16.295,0.102
54598.198074,16.327,0.102
