mjd,m,merr
52707.448631,15.922,0.035
52707.462459,15.886,0.033
52707.476327,15.901,0.031
52707.48972,15.887,0.033
52707.502993,15.802,0.031
52711.452164,15.665,0.024
52711.46586,15.684,0.024
52711.479668,15.699,0.024
52711.493409,15.711,0.024
52712.444393,15.83,0.038
52712.457445,15.861,0.036
52712.470534,15.847,0.036
52712.483659,15.901,0.038
52712.496751,15.838,0.038
52738.360045,15.871,0.028
52738.372759,15.817,0.028
52738.384302,15.797,0.028
52738.395835,15.763,0.026
52738.407346,15.701,0.024
52739.358801,15.628,0.028
52739.370083,15.603,0.026
52739.381393,15.594,0.026
52739.392853,15.574,0.026
52739.404155,15.592,0.026
52755.320302,15.959,0.045
52755.332449,15.894,0.041
52755.345212,15.889,0.041
52755.357682,15.782,0.036
52755.370415,15.735,0.035
52769.329892,15.867,0.044
52769.341707,15.856,0.043
52769.353135,15.802,0.041
52769.364679,15.858,0.043
52769.376212,15.839,0.039
52819.245389,15.802,0.031
52819.255215,15.833,0.033
52819.265065,15.863,0.035
52823.17963,15.639,0.03
52823.189562,15.644,0.028
52823.199507,15.623,0.028
52823.209464,15.588,0.028
52825.224385,15.929,0.043
52825.234407,15.922,0.043
52825.244442,15.98,0.046
52825.254551,15.927,0.043
52825.2646,15.949,0.043
53053.473974,15.495,0.052
53053.485766,15.565,0.041
53053.497483,15.592,0.028
53053.511612,15.6,0.041
53079.422444,15.85,0.028
53079.434054,15.807,0.028
53079.444805,15.862,0.03
53079.455963,15.811,0.03
53079.466734,15.851,0.03
53093.373007,15.68,0.02
53093.382827,15.699,0.02
53093.392774,15.723,0.02
53093.402728,15.731,0.02
53093.414663,15.801,0.021
53110.349151,15.751,0.028
53110.359988,15.766,0.028
53110.371051,15.773,0.03
53110.381884,15.797,0.03
53110.3929,15.856,0.031
53121.302683,15.633,0.025
53121.312929,15.657,0.026
53121.334748,15.703,0.025
53121.345965,15.72,0.026
53138.299875,15.716,0.028
53138.309538,15.743,0.028
53138.319203,15.772,0.028
53138.328885,15.792,0.03
53138.338513,15.817,0.03
53166.28936,15.811,0.031
53166.29876,15.809,0.03
53166.308224,15.861,0.031
53166.31763,15.877,0.033
53166.327033,15.886,0.035
53177.229062,15.725,0.025
53177.238731,15.737,0.023
53177.248216,15.724,0.023
53177.257708,15.701,0.023
53177.267165,15.749,0.023
53414.45936,15.542,0.026
53414.472094,15.585,0.024
53414.484734,15.548,0.022
53414.497294,15.588,0.024
53414.511096,15.544,0.022
53447.411351,15.953,0.035
53447.421742,15.884,0.031
53447.432045,15.896,0.057
53447.452667,15.721,0.031
53478.412949,15.68,0.031
53478.421982,15.659,0.03
53478.431277,15.632,0.03
53478.440886,15.686,0.03
53478.449975,15.675,0.03
53479.385491,15.651,0.041
53479.394575,15.653,0.037
53479.403688,15.66,0.035
53479.412992,15.669,0.033
53479.42215,15.69,0.031
53496.301676,15.659,0.031
53496.311824,15.623,0.03
53496.321914,15.675,0.031
53496.33214,15.661,0.03
53496.342317,15.675,0.03
53503.376297,15.652,0.044
53503.384989,15.678,0.03
53503.39425,15.625,0.035
53503.402948,15.63,0.041
53503.411707,15.613,0.046
53527.222095,15.506,0.03
53527.231961,15.533,0.03
53527.241919,15.526,0.03
53527.251794,15.583,0.031
53527.26162,15.578,0.031
53579.163125,15.917,0.041
53579.174494,15.884,0.035
53579.185862,15.891,0.035
53579.197181,15.874,0.039
53579.208523,15.901,0.039
53790.465824,15.561,0.025
53790.477646,15.553,0.033
53790.489464,15.579,0.036
53790.501363,15.633,0.043
53790.514624,15.665,0.028
53845.352771,15.951,0.064
53845.364637,15.934,0.058
53845.375849,15.864,0.059
53845.387093,15.856,0.059
53845.399031,15.794,0.061
53850.302806,15.762,0.038
53850.313482,15.827,0.038
53850.324013,15.792,0.036
53850.334546,15.824,0.038
53850.34536,15.841,0.038
53884.280294,15.832,0.039
53884.291862,15.876,0.041
53884.303436,15.858,0.039
53884.315053,15.814,0.037
53884.326593,15.812,0.037
53911.251915,15.59,0.056
53911.261606,15.705,0.059
53911.271196,15.64,0.063
53937.181518,15.753,0.045
53937.191634,15.759,0.045
53937.20184,15.81,0.045
53937.212053,15.842,0.046
53975.134766,15.613,0.035
53975.145199,15.606,0.035
53975.155586,15.576,0.036
53975.166073,15.569,0.036
53975.177159,15.563,0.036
54155.471539,15.877,0.03
54155.48342,15.855,0.03
54155.495254,15.896,0.03
54155.507091,15.89,0.03
54155.518962,15.858,0.03
54174.416267,15.636,0.03
54174.427227,15.667,0.031
54180.387748,15.759,0.033
54180.398101,15.781,0.035
54180.408566,15.781,0.035
54180.419067,15.824,0.035
54180.429521,15.807,0.035
54200.319271,15.804,0.046
54200.328678,15.787,0.043
54200.338281,15.779,0.043
54200.347643,15.807,0.045
54200.357096,15.816,0.048
54544.334692,15.777,0.05
54544.345267,15.758,0.046
54544.355841,15.756,0.043
54558.304629,15.673,0.043
54558.316208,15.578,0.035
54558.351272,15.579,0.057
54580.304734,15.462,0.035
54580.315324,15.479,0.035
54580.325943,15.495,0.035
54580.336551,15.54,0.035
54580.347138,15.539,0.035
54589.305673,15.681,0.022
54589.316229,15.674,0.022
54589.32679,15.706,0.022
54589.337309,15.733,0.022
54589.347829,15.71,0.024
54590.307646,15.93,0.074
54590.337564,16.029,0.081
54611.304537,15.68,0.026
54611.314674,15.668,0.028
54611.324707,15.691,0.028
54611.334713,15.674,0.03
54611.344743,15.661,0.033
54621.261593,15.882,0.028
54621.271765,15.883,0.031
54621.28192,15.827,0.028
54621.292096,15.823,0.028
54621.302243,15.751,0.026
