mjd,m,merr
52722.471386,16.289,0.048
52722.491516,16.365,0.054
52722.506888,16.38,0.076
52751.371683,16.133,0.044
52751.382678,16.182,0.046
52751.393974,16.238,0.05
52751.404638,16.187,0.048
52751.415271,16.182,0.048
52800.267972,16.216,0.091
52800.278052,16.237,0.096
52800.288062,16.272,0.093
52800.298071,16.302,0.093
52800.308113,16.315,0.094
52810.238875,16.468,0.081
52810.268239,15.848,0.041
52812.273212,16.354,0.046
52812.28313,16.37,0.048
52812.293029,16.321,0.044
52812.302859,16.313,0.044
52812.312731,16.333,0.046
52839.1676,16.35,0.054
52839.187717,16.312,0.054
52839.197729,16.37,0.115
52899.110896,16.169,0.05
52899.122887,16.161,0.052
52899.135264,16.225,0.056
52899.147891,16.108,0.066
52899.160079,16.208,0.059
53023.469222,16.513,0.046
53023.481874,16.517,0.044
53023.494772,16.348,0.037
53023.50764,15.973,0.026
53023.520653,15.851,0.022
53046.46701,16.397,0.061
53046.479674,16.396,0.057
53046.492118,16.337,0.055
53046.50405,16.31,0.052
53046.516055,16.376,0.055
53107.350409,15.714,0.02
53107.361419,15.75,0.022
53107.372993,15.789,0.024
53107.384065,15.852,0.026
53107.39509,15.853,0.028
53127.297103,15.92,0.054
53127.307191,15.969,0.055
53127.31731,16.017,0.055
53127.327533,16.047,0.057
53127.337603,16.077,0.059
53136.29072,16.435,0.15
53136.300011,16.078,0.035
53136.309363,15.921,0.033
53136.318797,15.809,0.03
53136.328134,15.657,0.026
53154.294503,16.282,0.054
53154.303341,16.236,0.054
53154.312113,16.257,0.052
53154.320882,16.302,0.055
53154.329715,16.294,0.055
53164.269798,15.62,0.022
53164.279943,15.656,0.024
53164.290088,15.703,0.03
53164.300304,15.699,0.03
53164.31045,15.767,0.033
53194.222757,16.385,0.076
53194.232774,16.337,0.067
53194.242795,16.394,0.07
53194.252872,16.378,0.067
53194.262907,16.477,0.074
53281.093918,16.325,0.051
53281.104776,16.298,0.053
53281.115548,16.43,0.059
53281.126571,16.455,0.089
53281.137293,16.412,0.066
53421.41301,16.365,0.07
53421.425362,16.318,0.065
53421.439012,16.323,0.061
53421.465929,16.374,0.063
53430.431848,16.303,0.061
53430.442995,16.338,0.061
53430.454701,16.349,0.063
53430.46583,16.392,0.065
53430.477498,16.315,0.061
53475.321417,15.758,0.031
53475.331232,15.856,0.031
53475.341044,15.853,0.033
53475.351409,15.921,0.033
53475.362241,15.903,0.033
53491.312351,16.422,0.052
53491.322479,16.484,0.054
53491.333314,16.442,0.052
53491.343283,16.323,0.046
53491.353223,16.128,0.041
53520.285226,16.403,0.063
53520.295813,16.367,0.057
53520.306332,16.377,0.059
53520.316991,16.463,0.063
53537.227963,16.059,0.083
53537.237846,16.188,0.083
53537.258117,16.283,0.105
53566.261634,16.16,0.055
53566.272128,16.254,0.055
53566.282641,16.224,0.057
53566.293135,16.299,0.054
53566.303617,16.261,0.05
53610.150091,15.792,0.033
53610.161319,15.871,0.033
53610.172543,15.929,0.037
53610.183756,15.963,0.041
53629.113714,16.216,0.08
53629.126059,16.331,0.091
53629.138634,16.2,0.081
53629.151038,16.238,0.091
53629.163357,16.314,0.102
53757.451627,16.159,0.063
53757.46421,16.177,0.059
53757.478636,16.111,0.054
53757.491272,16.245,0.059
53757.50488,16.208,0.057
53773.48208,15.913,0.033
53773.496181,15.985,0.037
53773.509035,16.019,0.035
53773.521875,16.064,0.035
53773.534643,16.068,0.039
53826.343573,16.42,0.053
53826.354491,16.345,0.059
53826.365256,16.386,0.114
53827.363512,16.28,0.041
53827.374156,16.286,0.043
53827.385349,16.312,0.046
53827.396028,16.329,0.045
53827.40668,16.333,0.045
53835.338916,16.154,0.063
53856.321217,16.201,0.048
53856.33107,16.208,0.048
53856.341218,16.259,0.048
53856.351376,16.281,0.051
53856.361291,16.255,0.051
53877.276541,16.269,0.038
53877.297926,16.33,0.028
53877.319104,16.242,0.058
53904.225065,16.298,0.061
53904.23497,16.393,0.067
53904.244841,16.34,0.061
53904.25473,16.355,0.061
53904.264671,16.356,0.063
53918.231215,16.386,0.175
53918.250996,16.58,0.196
53933.220153,16.39,0.072
53933.23074,16.398,0.076
53933.241364,16.337,0.067
53933.251969,16.345,0.067
53933.263108,16.388,0.089
53960.194998,16.482,0.12
53996.112064,16.387,0.054
53996.12389,16.375,0.056
53996.135719,16.428,0.061
53996.160189,16.421,0.066
54011.102445,16.292,0.087
54011.115183,16.462,0.107
54011.12796,16.538,0.127
54011.140822,16.404,0.117
54124.458603,16.366,0.059
54124.47163,16.375,0.061
54124.484462,16.44,0.064
54124.497185,16.398,0.059
54124.509753,16.377,0.059
54140.4561,16.166,0.054
54140.469119,16.164,0.053
54140.482019,16.155,0.056
54140.494459,16.295,0.061
54198.32421,15.859,0.061
54198.343532,15.822,0.057
54198.362828,16.011,0.078
54210.309862,16.165,0.048
54210.318546,16.262,0.051
54210.327231,16.239,0.051
54210.335907,16.271,0.051
54210.34459,16.324,0.053
54218.312318,16.113,0.061
54218.321185,16.116,0.061
54218.329827,16.156,0.063
54218.338651,16.112,0.061
54218.347241,16.19,0.065
54498.449462,16.463,0.063
54498.461279,16.544,0.066
54498.484921,16.42,0.058
54498.496716,16.339,0.054
54526.398089,16.481,0.054
54526.409453,16.443,0.054
54526.420794,16.35,0.053
54526.432185,16.063,0.041
54526.443622,15.909,0.035
54537.379156,16.072,0.054
54537.390225,16.162,0.049
54537.401181,16.107,0.054
54537.412397,16.238,0.079
54537.423362,16.174,0.043
54559.355459,16.136,0.048
54559.367122,16.079,0.046
54559.37868,16.155,0.049
54559.39014,16.197,0.049
54559.401745,16.226,0.051
54569.346017,16.456,0.061
54569.357621,16.521,0.064
54569.368867,16.428,0.058
54569.380293,16.425,0.058
54569.39158,16.335,0.054
54585.291604,16.338,0.066
54585.301936,16.329,0.058
54585.312037,16.29,0.063
54585.322427,16.39,0.059
54585.332538,16.291,0.056
54599.289274,16.413,0.066
54599.298602,16.371,0.063
54599.307964,16.368,0.061
54599.317544,16.466,0.063
54599.327073,16.448,0.059
54618.26495,16.384,0.079
54618.275413,16.392,0.081
