mjd,m,merr
52664.43197,16.72,0.222
52722.471264,16.52,0.061
52722.491393,16.556,0.063
52722.506765,16.567,0.093
52751.371564,16.636,0.07
52751.382559,16.603,0.067
52751.393856,16.521,0.065
52751.404519,16.487,0.063
52751.415152,16.526,0.067
52801.267386,16.72,0.223
52801.277634,16.974,0.285
52801.287964,16.887,0.259
52801.298254,16.874,0.261
52801.308706,16.744,0.233
52809.229177,16.96,0.101
52809.239156,16.861,0.092
52809.249142,16.777,0.084
52809.259292,16.613,0.073
52830.221558,16.907,0.162
52830.231446,16.758,0.15
52830.241729,16.923,0.17
52830.251675,16.961,0.186
52830.261553,16.612,0.132
52899.111021,16.808,0.081
52899.123011,16.768,0.078
52899.135388,16.714,0.077
52899.148013,16.714,0.098
52899.160203,16.712,0.084
53008.472617,16.708,0.117
53008.51037,16.723,0.094
53008.522963,16.795,0.093
53038.475259,16.876,0.125
53038.488436,17.15,0.186
53038.500809,17.368,0.216
53045.415118,16.661,0.094
53045.426968,16.676,0.092
53045.438857,16.531,0.078
53045.45127,16.48,0.076
53045.463384,16.373,0.068
53096.365011,16.9,0.122
53096.374539,16.682,0.096
53096.384053,17.023,0.13
53096.393569,17.104,0.135
53096.40336,17.026,0.125
53125.293918,16.529,0.091
53125.303626,16.681,0.104
53125.313289,16.612,0.092
53125.323281,16.669,0.096
53125.332881,16.787,0.109
53134.285987,16.528,0.058
53134.295012,16.505,0.059
53134.304064,16.566,0.068
53134.312997,16.62,0.074
53134.321837,16.695,0.084
53155.293793,16.521,0.094
53155.302586,16.543,0.094
53155.311413,16.499,0.091
53155.32018,16.661,0.107
53155.328841,16.752,0.117
53169.266475,16.624,0.063
53169.276359,16.707,0.073
53169.28615,16.827,0.078
53169.296123,16.942,0.087
53169.305925,16.882,0.087
53193.242651,16.617,0.104
53193.252082,16.609,0.074
53193.261302,16.748,0.096
53244.137137,16.865,0.112
53244.147622,17.003,0.129
53244.158092,16.909,0.122
53244.168801,16.619,0.096
53244.180377,16.607,0.094
53281.093821,16.625,0.069
53281.104678,16.609,0.069
53281.126473,16.495,0.064
53281.137195,16.482,0.071
53421.413129,16.681,0.093
53421.425481,16.511,0.078
53421.439132,16.569,0.076
53421.453561,16.694,0.183
53421.46605,16.464,0.07
53430.431968,16.51,0.08
53430.443114,16.505,0.076
53430.45482,16.459,0.072
53430.465952,16.518,0.078
53430.477617,16.545,0.08
53480.317176,16.879,0.133
53480.32615,16.882,0.131
53480.335105,16.91,0.133
53480.344091,16.746,0.113
53480.353048,16.715,0.102
53491.31225,16.559,0.061
53491.322379,16.597,0.061
53491.333214,16.582,0.059
53491.343183,16.498,0.057
53491.353123,16.539,0.057
53536.267045,16.912,0.139
53536.277091,16.96,0.135
53536.287193,17.016,0.139
53536.297264,16.823,0.113
53536.307347,16.687,0.096
53566.261732,17.206,0.144
53566.272226,17.119,0.126
53566.282738,17.049,0.118
53566.29323,17.05,0.105
53566.303715,16.905,0.091
53610.149996,16.542,0.065
53610.161224,16.591,0.067
53610.172447,16.705,0.072
53610.183661,16.795,0.089
53629.113613,16.83,0.163
53629.125959,16.823,0.161
53629.138532,16.777,0.154
53629.150937,16.689,0.15
53629.163256,16.442,0.124
53757.451501,17.03,0.135
53757.464083,16.808,0.105
53757.47851,16.784,0.102
53757.491146,16.782,0.096
53757.504754,16.571,0.076
53773.482212,16.885,0.081
53773.496313,17.044,0.1
53773.509165,16.956,0.083
53773.522006,16.994,0.083
53773.534774,16.746,0.072
53826.343719,16.508,0.056
53827.363657,16.813,0.068
53827.374299,16.728,0.061
53827.385493,16.645,0.063
53827.396172,16.624,0.056
53827.406825,16.549,0.054
53835.339055,16.487,0.084
53856.321118,16.707,0.074
53856.330969,16.572,0.066
53856.34112,16.602,0.066
53856.351278,16.536,0.063
53856.361193,16.618,0.069
53877.27662,16.875,0.058
53877.287314,16.869,0.054
53877.298007,16.792,0.041
53877.319185,16.705,0.078
53904.224967,16.575,0.078
53904.234872,16.59,0.081
53904.244742,16.603,0.076
53904.254632,16.749,0.089
53904.264573,16.758,0.091
53918.221233,16.857,0.251
53918.23112,16.974,0.297
53918.250901,16.784,0.233
53933.220046,16.853,0.105
53933.230633,16.923,0.126
53933.241257,16.961,0.12
53933.251846,16.922,0.117
53933.262995,17.024,0.141
53960.194887,16.635,0.131
53996.112638,16.744,0.074
53996.124465,16.64,0.069
53996.136293,16.621,0.071
53996.14875,16.529,0.068
53996.160763,16.526,0.073
54011.102568,16.779,0.132
54011.115306,16.728,0.137
54011.128084,16.815,0.16
54011.140946,16.646,0.144
54124.458474,16.708,0.081
54124.471502,16.737,0.083
54124.484334,16.593,0.074
54124.497057,16.501,0.066
54124.509626,16.587,0.069
54140.477057,17.011,0.098
54140.490089,16.835,0.085
54140.503511,16.745,0.104
54140.516241,16.645,0.072
54198.324108,16.733,0.141
54198.343431,16.959,0.142
54198.362726,17.004,0.202
54212.304984,16.816,0.091
54212.313394,16.956,0.104
54212.321819,16.929,0.099
54212.330494,16.751,0.084
54212.338902,16.73,0.083
54218.312431,16.937,0.133
54218.321296,17.011,0.142
54218.32994,16.799,0.117
54218.33876,16.815,0.118
54218.34735,16.708,0.105
54498.449286,17.264,0.124
54498.484745,16.906,0.089
54498.496544,16.889,0.089
54526.397923,16.458,0.053
54526.409287,16.567,0.059
54526.42063,16.502,0.059
54526.432019,16.526,0.058
54526.443457,16.608,0.061
54537.379634,16.584,0.101
54537.390702,16.436,0.066
54537.401655,16.57,0.109
54537.412868,16.769,0.122
54537.423839,16.787,0.071
54559.355317,17.033,0.109
54559.36698,16.935,0.097
54559.389998,16.787,0.083
54559.401602,16.665,0.076
54569.346153,16.674,0.071
54569.357755,16.699,0.073
54569.369002,16.967,0.087
54569.380428,16.991,0.092
54569.391715,17.093,0.096
54585.291734,16.924,0.096
54585.302066,16.818,0.081
54585.312167,16.678,0.083
54585.322558,16.608,0.071
54585.332669,16.592,0.068
54599.289156,16.566,0.074
54599.298482,16.568,0.074
54599.307845,16.579,0.071
54599.317425,16.571,0.068
54599.326955,16.722,0.074
54618.265067,16.741,0.109
54618.275531,16.753,0.109
