mjd,m,merr
52613.455088,16.862,0.098
52613.470367,16.909,0.1
52613.485608,16.93,0.098
52613.500811,16.71,0.078
52613.516101,16.735,0.081
52618.461662,16.856,0.133
52618.476901,16.796,0.183
52618.492348,16.824,0.135
52618.507912,17.07,0.189
52618.523564,16.954,0.205
52641.457492,16.894,0.076
52641.472882,16.88,0.074
52641.488196,16.808,0.072
52641.503007,16.862,0.074
52641.518487,16.831,0.07
52643.443194,16.874,0.078
52643.457194,16.817,0.07
52643.471141,16.811,0.067
52643.485196,16.874,0.068
52643.499544,16.887,0.067
52647.46009,16.827,0.083
52647.474955,16.845,0.081
52647.489308,17.012,0.096
52647.503983,16.829,0.081
52647.518321,16.396,0.179
52667.398548,16.769,0.067
52667.413956,16.966,0.08
52667.429244,16.932,0.083
52667.444566,16.781,0.072
52667.459913,16.965,0.091
52670.400182,16.658,0.068
52670.414095,16.958,0.091
52670.428084,16.718,0.074
52670.44202,16.842,0.08
52670.455943,16.822,0.078
52673.370604,16.748,0.067
52673.385813,16.781,0.067
52673.401058,16.804,0.065
52673.416412,16.819,0.067
52673.431799,16.832,0.068
52703.314497,16.693,0.128
52703.327657,16.562,0.198
52703.340989,16.639,0.072
52703.355099,16.524,0.135
52703.368361,16.876,0.146
52707.30672,16.753,0.074
52707.307081,16.538,0.069
52707.319774,16.83,0.079
52707.320133,16.644,0.078
52707.332816,16.786,0.074
52707.333175,16.611,0.076
52707.346251,16.902,0.086
52707.34661,16.563,0.074
52707.359362,16.865,0.084
52707.360192,16.72,0.089
52730.290917,16.672,0.061
52730.302489,16.721,0.065
52730.31413,16.617,0.059
52730.32568,16.736,0.067
52730.337238,16.802,0.07
52733.25428,16.46,0.054
52733.266337,16.477,0.054
52733.278745,16.546,0.059
52733.291385,16.557,0.091
52737.248271,16.569,0.065
52737.261039,16.614,0.067
52737.272778,16.694,0.07
52737.284568,16.599,0.063
52737.296415,16.714,0.068
52756.200093,16.453,0.061
52756.212342,16.514,0.066
52756.224395,16.433,0.063
52756.236576,16.541,0.071
52756.248823,16.528,0.073
52758.206943,16.289,0.041
52758.218798,16.333,0.043
52758.230691,16.417,0.048
52758.242694,16.482,0.052
52758.254547,16.456,0.052
52788.172799,16.711,0.248
52788.183059,16.707,0.078
52788.19337,16.419,0.126
52788.214401,16.57,0.285
52793.223326,16.63,0.098
52793.233345,16.767,0.12
52793.243291,16.716,0.115
52966.468012,16.778,0.089
52966.480428,16.832,0.093
52966.493006,16.736,0.08
52966.505547,16.709,0.076
52972.452413,16.812,0.072
52972.465339,16.77,0.065
52972.478112,16.733,0.063
52972.490862,16.701,0.061
52972.503736,16.516,0.052
52987.504951,16.652,0.118
52994.47743,17.05,0.061
52994.491454,17.053,0.059
52994.504789,16.878,0.05
52994.517961,16.384,0.033
52994.531465,16.011,0.022
52997.494479,16.944,0.366
53025.377629,16.791,0.063
53025.390828,17.04,0.146
53028.400904,16.893,0.044
53028.413294,16.858,0.048
53028.425687,16.892,0.054
53028.438204,16.899,0.046
53028.450593,16.821,0.061
53033.338022,16.98,0.085
53033.350234,16.907,0.078
53033.362298,16.906,0.078
53033.387174,16.958,0.104
53054.367882,16.823,0.057
53054.382399,16.774,0.055
53054.394395,16.824,0.059
53054.407061,16.805,0.057
53054.418995,16.842,0.061
53061.330037,16.82,0.046
53061.341101,16.692,0.044
53061.352166,16.685,0.046
53061.363282,16.691,0.046
53061.374454,16.718,0.05
53080.283398,16.931,0.07
53080.294986,16.958,0.074
53080.306932,16.936,0.072
53080.318279,17.009,0.076
53080.329564,16.936,0.072
53082.338809,16.8,0.054
53082.350231,16.746,0.054
53082.361345,16.792,0.055
53082.372547,16.796,0.055
53082.38979,16.867,0.065
53084.278076,16.808,0.05
53084.288983,16.972,0.054
53084.299873,16.962,0.054
53084.311115,16.954,0.054
53084.32431,16.949,0.055
53085.329425,16.982,0.086
53085.342079,16.928,0.061
53085.353553,16.93,0.058
53085.366721,16.894,0.116
53085.377872,16.834,0.106
53091.284798,16.865,0.054
53091.295287,16.797,0.05
53091.305859,16.835,0.05
53091.316274,16.88,0.054
53091.326909,16.851,0.052
53111.191584,16.688,0.078
53111.20236,16.604,0.072
53111.213111,16.696,0.076
53111.22385,16.624,0.072
53111.234675,16.779,0.08
53116.309192,16.75,0.072
53116.320415,16.574,0.059
53116.332025,16.92,0.068
53116.34403,16.737,0.063
53116.355266,16.699,0.061
53139.199462,16.7,0.074
53139.208775,16.804,0.083
53139.218078,16.746,0.078
53139.227377,16.867,0.094
53139.236839,16.778,0.087
53141.212282,16.73,0.063
53141.222466,16.788,0.072
53141.232148,16.85,0.078
53141.242368,16.768,0.074
53141.252042,16.83,0.08
53144.209599,16.884,0.135
53144.218534,16.929,0.135
53144.227391,16.993,0.195
53144.236665,17.184,0.361
53346.453718,16.075,0.055
53346.467052,16.138,0.059
53346.480732,16.109,0.057
53346.493384,16.117,0.057
53346.505527,16.159,0.057
53353.459448,16.104,0.052
53353.472861,16.18,0.054
53353.485698,16.258,0.055
53353.498541,16.48,0.063
53353.511385,16.425,0.057
53376.483622,16.486,0.05
53376.497584,16.498,0.052
53376.511368,16.521,0.05
53376.528642,16.569,0.054
53381.438254,16.441,0.118
53381.477095,16.671,0.178
53403.354691,16.138,0.044
53403.368156,16.059,0.041
53403.381006,16.143,0.044
53403.394968,16.185,0.046
53403.407809,16.225,0.048
53432.360631,16.308,0.279
53432.372087,16.077,0.061
53432.383448,15.812,0.033
53432.395133,16.032,0.046
53437.349067,16.54,0.052
53437.360398,16.234,0.041
53437.372032,15.96,0.031
53437.383343,15.935,0.031
53437.3965,15.99,0.035
53443.274277,16.956,0.07
53443.285753,17.033,0.074
53443.296623,16.994,0.072
53443.308026,16.903,0.07
53443.318879,16.878,0.068
53446.282321,17.112,0.198
53446.293247,17.073,0.131
53446.304143,16.939,0.08
53446.315222,16.696,0.113
53446.326152,16.766,0.063
53464.294072,16.744,0.07
53464.304263,16.544,0.057
53464.314432,16.47,0.055
53464.324603,16.429,0.059
53464.334757,16.354,0.054
53478.233199,16.235,0.109
53478.242988,16.371,0.128
53478.253063,16.416,0.128
53478.263742,16.276,0.118
53495.246829,16.975,0.202
53495.256871,16.926,0.22
53495.266995,16.797,0.222
53495.277043,16.502,0.165
53495.28711,16.731,0.242
53496.197686,16.849,0.098
53496.207959,16.934,0.111
53496.218281,16.858,0.104
53496.22847,16.892,0.109
53496.238729,16.99,0.128
53525.185186,17.011,0.131
53525.195364,16.963,0.131
53525.205529,16.914,0.126
53527.166548,17.076,0.133
53527.176821,17.049,0.126
53527.186699,17.154,0.146
53527.196499,16.966,0.128
53527.206265,16.916,0.128
53708.461681,16.649,0.076
53708.474651,16.676,0.074
53708.487489,16.768,0.081
53708.500134,16.796,0.081
53708.512924,16.805,0.078
53710.454158,16.645,0.091
53710.467503,16.593,0.087
53710.480189,16.687,0.093
53710.492775,16.765,0.1
53710.505342,16.714,0.093
53732.476798,16.687,0.098
53732.490337,16.764,0.109
53732.503165,16.731,0.098
53732.516031,16.917,0.126
53732.528752,16.888,0.107
53735.468452,16.753,0.135
53735.494615,16.955,0.159
53735.507471,16.879,0.192
53735.52041,16.967,0.309
53746.403924,16.612,0.104
53746.416388,16.616,0.098
53746.428942,16.703,0.105
53746.441631,16.657,0.096
53746.454095,16.67,0.096
53759.409221,16.573,0.067
53759.422008,16.634,0.091
53759.4346,16.674,0.105
53759.447222,16.766,0.12
53759.459804,16.161,0.135
53762.413782,16.706,0.074
53762.426482,16.597,0.076
53762.439164,16.647,0.126
53762.451891,16.68,0.146
53762.464647,16.8,0.078
53790.343137,16.45,0.055
53790.354838,16.465,0.059
53790.366526,16.519,0.061
53790.378224,16.52,0.063
53790.389929,16.562,0.065
53791.353283,16.481,0.049
53791.365088,16.573,0.056
53791.376996,16.5,0.053
53791.388635,16.612,0.058
53791.400525,16.69,0.063
53793.348024,16.452,0.055
53793.359757,16.615,0.07
53793.371486,16.562,0.067
53793.383232,16.662,0.059
53793.394976,16.522,0.148
53794.349485,16.49,0.052
53794.349619,16.463,0.048
53794.361323,16.493,0.052
53794.361457,16.474,0.048
53794.372946,16.563,0.055
53794.37308,16.574,0.054
53794.384578,16.57,0.055
53794.384712,16.593,0.055
53797.320387,16.46,0.052
53797.331959,16.467,0.044
53797.343595,16.504,0.05
53799.337492,16.362,0.048
53799.348925,16.554,0.057
53799.360354,16.695,0.076
53799.371789,16.779,0.093
53799.383233,17.023,0.135
53815.287607,16.525,0.094
53815.29877,16.527,0.094
53815.309942,16.603,0.076
53815.321139,16.597,0.076
53815.332329,16.531,0.078
53817.264899,16.536,0.056
53817.276375,16.601,0.061
53817.287638,16.52,0.058
53817.298965,16.635,0.066
53817.310292,16.549,0.061
53819.340294,16.62,0.067
53819.369135,16.608,0.081
53819.382746,16.752,0.113
53819.394938,16.744,0.096
53826.287753,16.485,0.065
53826.312767,16.607,0.068
53826.324429,16.628,0.076
53826.335815,16.544,0.072
53827.345447,16.689,0.081
53827.357971,16.554,0.083
53827.369849,16.707,0.1
53827.382312,16.762,0.131
53827.395682,16.636,0.1
53832.226726,16.269,0.065
53832.238568,16.334,0.065
53832.248797,16.333,0.065
53832.259808,16.325,0.065
53832.271005,16.434,0.074
53846.191469,16.104,0.048
53846.202145,16.062,0.048
53846.212959,15.931,0.043
53846.223689,16.017,0.045
53846.234382,16.099,0.046
53846.248102,16.173,0.065
53846.258899,16.328,0.068
53846.269704,16.323,0.07
53846.280512,16.441,0.08
53846.291313,16.464,0.085
53850.196318,16.017,0.046
53850.206708,15.895,0.041
53850.217195,15.912,0.045
53850.227716,16.049,0.049
53850.238388,16.149,0.058
53850.275093,16.299,0.054
53850.286205,16.479,0.07
53850.298617,16.419,0.065
53850.309461,16.476,0.067
53850.32107,16.477,0.067
53852.190639,16.177,0.054
53852.20312,15.948,0.043
53852.214344,15.928,0.044
53852.225907,16.044,0.05
53852.23717,16.115,0.054
53853.244959,16.242,0.057
53853.255362,16.275,0.059
53853.266402,16.293,0.061
53853.277169,16.378,0.065
53853.287606,16.349,0.067
53856.277773,16.382,0.065
53856.290539,16.353,0.063
53856.302074,16.478,0.07
53856.312213,16.515,0.076
53856.32238,16.614,0.085
53879.163937,16.669,0.064
53879.174747,16.454,0.053
53879.185478,16.451,0.056
53879.196517,16.31,0.049
53879.207842,16.206,0.046
53882.169131,16.533,0.067
53882.182002,16.464,0.063
53882.19492,16.389,0.059
53882.206155,16.231,0.052
53882.218057,16.254,0.054
53884.162731,16.517,0.081
53884.174481,16.49,0.085
53884.186233,16.419,0.08
53884.198035,16.387,0.078
53884.209808,16.289,0.074
53885.159711,16.545,0.068
53885.170874,16.51,0.066
53885.181663,16.468,0.064
53885.192747,16.392,0.061
53885.203725,16.37,0.063
54080.498606,16.807,0.216
54086.427297,16.758,0.083
54086.440244,16.847,0.089
54086.453092,16.891,0.089
54086.465947,16.812,0.08
54086.478917,16.832,0.083
54091.359714,16.906,0.155
54091.372335,16.936,0.15
54091.384242,16.825,0.124
54091.396139,16.692,0.106
54091.408263,16.706,0.102
54113.406049,16.773,0.094
54113.420112,16.87,0.114
54113.445802,16.647,0.097
54115.413427,16.903,0.106
54115.426158,16.946,0.112
54115.43932,16.75,0.092
54115.452519,16.788,0.092
54115.465302,16.957,0.116
54123.396183,16.973,0.101
54123.40859,16.981,0.102
54123.421004,16.925,0.096
54123.434047,16.876,0.097
54123.446408,16.912,0.102
54144.362901,16.825,0.063
54144.373982,16.787,0.061
54144.385646,16.877,0.067
54144.396721,16.869,0.067
54144.409068,16.833,0.068
54148.340111,16.794,0.079
54148.351707,16.74,0.081
54148.363294,16.797,0.084
54148.374904,16.791,0.087
54148.386869,16.886,0.096
54154.330887,16.833,0.057
54154.343228,16.898,0.061
54154.354833,16.803,0.057
54154.366472,16.871,0.063
54154.378082,16.89,0.061
54155.302085,16.739,0.074
54155.313748,16.806,0.072
54155.325477,16.841,0.074
54155.337498,16.836,0.07
54155.349686,16.848,0.067
54156.321649,16.789,0.065
54156.333255,16.744,0.061
54156.34477,16.806,0.067
54156.356294,16.81,0.065
54156.367824,16.807,0.065
54173.316131,16.91,0.067
54173.326856,16.907,0.072
54173.337594,16.918,0.068
54173.348325,16.919,0.068
54173.359962,16.897,0.065
54174.2716,16.905,0.086
54174.282551,16.883,0.084
54174.293628,16.817,0.089
54174.304506,16.906,0.106
54174.315786,16.803,0.094
54176.32209,16.879,0.068
54176.332907,16.882,0.07
54176.3438,16.807,0.065
54176.354887,16.85,0.068
54176.365762,16.867,0.068
54179.338919,16.883,0.074
54179.349928,16.858,0.072
54179.360811,16.842,0.07
54179.371722,16.893,0.076
54179.382981,16.853,0.078
54180.279845,16.731,0.068
54180.290179,16.787,0.069
54180.300653,16.822,0.071
54180.311385,16.895,0.076
54180.32174,16.858,0.076
54186.341378,16.9,0.067
54186.353095,16.898,0.072
54186.364388,16.912,0.068
54186.375757,16.918,0.068
54186.387776,16.89,0.067
54200.220276,16.6,0.081
54200.229753,16.618,0.083
54200.258769,16.804,0.127
54206.265031,16.866,0.065
54206.274527,16.822,0.063
54206.283667,16.864,0.07
54206.292823,16.856,0.07
54206.30195,17.079,0.089
54209.260912,16.763,0.187
54209.269984,16.902,0.144
54209.279043,16.837,0.185
54209.288108,16.681,0.191
54209.297169,17.062,0.303
54439.450961,15.966,0.03
54439.463853,16.114,0.031
54439.476729,16.171,0.033
54439.4896,16.255,0.035
54439.502479,16.252,0.035
54507.334608,16.834,0.057
54507.346694,16.749,0.048
54507.358799,16.609,0.043
54507.370855,16.467,0.039
54507.382915,16.328,0.033
54507.454511,16.4,0.056
54507.466447,16.372,0.056
54507.478389,16.449,0.061
54507.491203,16.507,0.056
54507.503188,16.347,0.048
54522.397766,15.92,0.035
54522.409415,15.927,0.035
54522.421088,16.047,0.037
54522.432742,15.988,0.039
54522.444371,16.125,0.044
54529.328459,16.975,0.059
54529.339766,16.919,0.057
54529.351067,16.904,0.057
54529.362364,16.797,0.05
54529.373673,16.541,0.041
54534.39278,16.223,0.043
54536.274475,16.846,0.048
54536.285483,16.857,0.046
54536.296433,16.935,0.052
54536.307437,16.87,0.048
54536.318418,16.98,0.052
54553.307337,16.69,0.083
54553.319234,17.02,0.068
54553.331111,16.959,0.07
54553.343182,17.057,0.078
54553.355119,16.946,0.074
54562.29929,16.96,0.052
54562.310823,16.982,0.055
54562.322336,17.023,0.052
54562.333896,16.945,0.054
54562.345427,16.926,0.055
54568.245071,17.12,0.134
54568.256053,17.039,0.124
54568.266928,17.103,0.125
54568.277885,16.956,0.112
54568.28869,17.238,0.145
54580.197163,16.991,0.074
54580.207777,17.064,0.078
54580.218385,16.97,0.076
54580.228998,16.958,0.081
54580.239669,17.014,0.096
54584.251737,16.931,0.072
54584.262396,16.943,0.074
54584.272974,16.93,0.072
54584.283555,16.928,0.07
54584.294186,16.833,0.067
54590.19587,16.641,0.104
54590.215348,16.564,0.107
54590.234967,16.6,0.112
54591.245572,16.664,0.067
54591.255721,16.902,0.085
54591.265891,16.73,0.074
54591.276054,16.916,0.093
54591.286211,16.682,0.078
54611.162955,17.029,0.074
54611.173273,16.994,0.07
54611.183229,17.007,0.072
54611.193143,16.944,0.068
54611.202953,16.981,0.072
54614.165919,16.901,0.07
54614.175868,16.974,0.074
54614.185841,16.977,0.078
54614.195846,17.061,0.083
54614.205796,16.886,0.07
