mjd,m,merr
52643.413814,16.736,0.078
52643.429956,16.708,0.074
52643.446254,16.794,0.071
52643.462561,16.846,0.073
52649.464471,16.977,0.085
52649.481743,17.044,0.091
52649.496365,16.922,0.083
52649.510644,16.976,0.089
52649.525023,17.089,0.102
52666.437168,17.13,0.091
52670.439199,16.579,0.063
52670.468395,15.977,0.04
52676.291185,17.053,0.105
52676.306604,17.033,0.102
52676.322147,17.126,0.109
52676.337728,17.108,0.109
52676.353458,17.094,0.105
52698.30649,16.65,0.054
52698.320083,16.657,0.054
52698.334876,16.665,0.054
52698.34935,16.767,0.061
52698.363849,16.806,0.067
52703.308185,16.786,0.19
52703.330181,16.7,0.152
52703.348359,16.827,0.081
52703.36388,16.786,0.272
52703.378741,17.109,0.196
52725.318677,17.086,0.127
52725.3321,17.155,0.18
52725.344581,17.13,0.158
52725.357582,17.002,0.175
52725.370552,17.045,0.135
52730.244206,17.032,0.089
52730.256884,16.903,0.081
52730.268874,17.013,0.089
52730.280916,17.124,0.099
52730.293122,17.096,0.099
52754.203716,16.587,0.057
52754.215875,16.581,0.057
52754.228172,16.596,0.061
52754.240353,16.627,0.063
52754.252478,16.626,0.063
52761.202585,16.738,0.098
52761.214572,16.642,0.135
52761.226695,16.81,0.104
52761.238784,16.887,0.094
52761.250791,16.826,0.076
52764.204802,16.779,0.079
52764.216749,16.855,0.084
52764.2287,16.775,0.078
52764.240921,16.865,0.083
52764.252891,16.833,0.079
52789.167819,16.912,0.116
52789.178426,17.012,0.129
52789.188975,17.143,0.14
52789.199671,17.029,0.124
52789.210248,17.251,0.149
52791.168438,17.295,0.333
52962.455865,17.021,0.12
52962.468957,17.041,0.113
52962.481158,16.896,0.096
52962.49388,16.466,0.063
52962.506748,16.161,0.046
52974.461092,16.425,0.055
52974.473773,16.463,0.055
52974.486484,16.592,0.061
52974.499341,16.52,0.054
52974.512469,16.616,0.057
52993.400948,16.884,0.068
52993.413368,16.924,0.066
52993.425809,16.942,0.071
52993.438218,17.098,0.076
52993.450584,17.026,0.068
53000.436303,17.004,0.054
53000.45097,16.976,0.051
53000.465433,17.052,0.056
53000.480667,17.003,0.053
53000.494988,17.043,0.053
53002.456419,17.062,0.055
53002.469758,17.021,0.052
53002.483294,17.037,0.055
53002.496778,16.989,0.052
53002.510249,17.017,0.054
53033.339711,16.266,0.045
53033.351926,16.361,0.049
53033.36425,16.442,0.051
53033.376776,16.505,0.078
53033.38907,16.535,0.076
53052.331007,16.923,0.072
53052.343331,16.909,0.068
53052.355796,16.964,0.072
53052.367668,17.015,0.074
53052.379513,16.987,0.07
53062.350915,16.876,0.178
53062.363069,16.603,0.172
53062.376234,17.129,0.112
53062.388527,17.057,0.083
53062.400527,17.11,0.271
53079.277763,17.166,0.094
53079.288915,17.071,0.086
53079.299898,16.724,0.064
53079.310895,16.454,0.049
53079.321905,16.131,0.038
53087.286376,16.213,0.028
53087.296968,16.271,0.03
53087.307864,16.307,0.03
53087.318663,16.364,0.033
53087.329319,16.413,0.035
53110.239894,16.915,0.094
53110.25078,16.91,0.094
53110.261621,17.046,0.104
53110.272532,16.93,0.092
53110.283525,17.017,0.099
53138.202058,16.87,0.079
53138.211925,16.522,0.056
53138.22181,16.275,0.046
53138.231594,16.109,0.043
53138.241432,16.14,0.046
53148.199821,16.424,0.055
53148.20877,16.443,0.054
53148.21772,16.463,0.063
53148.226676,16.508,0.072
53148.23566,16.567,0.065
53166.169292,16.881,0.117
53166.179996,16.794,0.111
53166.190023,16.919,0.132
53166.199901,16.996,0.147
53166.209661,16.815,0.125
53348.481388,17.033,0.127
53348.495249,16.957,0.15
53348.509178,17.105,0.249
53348.523541,17.051,0.111
53355.404953,16.308,0.076
53355.41779,16.049,0.198
53404.379179,16.977,0.069
53404.392576,17.073,0.079
53404.405537,17.042,0.083
53404.418512,17.048,0.087
53404.431453,16.995,0.086
53410.478247,16.104,0.031
53410.490708,16.07,0.03
53410.503168,16.145,0.033
53410.515596,16.222,0.035
53438.40919,16.848,0.076
53438.421553,16.888,0.08
53438.433525,16.939,0.087
53438.445309,16.993,0.093
53438.457191,16.938,0.093
53445.409056,16.998,0.081
53445.420824,17.017,0.083
53445.432354,16.979,0.081
53445.444735,17.015,0.083
53445.456261,16.988,0.091
53471.264697,16.968,0.093
53471.275329,16.976,0.093
53471.285392,17.075,0.104
53471.295304,17.109,0.109
53471.305046,17.267,0.124
53502.193712,16.667,0.074
53502.204888,16.706,0.08
53502.215354,16.761,0.085
53502.226957,16.704,0.08
53502.239405,16.824,0.093
53523.169009,16.988,0.109
53523.179538,17.015,0.111
53523.190098,16.979,0.111
53523.200614,16.911,0.107
53523.211145,17.012,0.113
53712.464878,16.309,0.057
53712.478678,16.294,0.054
53712.491948,16.372,0.057
53712.505059,16.458,0.061
53712.518015,16.425,0.057
53738.411779,16.95,0.1
53738.424812,17.015,0.105
53738.437799,16.991,0.098
53738.450833,17.101,0.107
53769.389062,16.264,0.039
53769.402792,16.287,0.041
53769.416154,16.361,0.041
53769.429425,16.458,0.055
53769.442629,16.57,0.065
53789.353104,16.81,0.193
53789.365753,17.033,0.206
53789.378221,16.873,0.081
53789.390878,16.916,0.079
53789.403246,16.997,0.084
53845.238743,17.303,0.599
53845.271588,16.874,0.131
53845.282434,16.886,0.109
53852.197541,16.783,0.097
53852.20782,16.824,0.101
53852.218016,16.799,0.102
53852.228183,16.897,0.112
53852.238365,17.008,0.125
53881.163455,17.321,0.153
53881.165662,17.139,0.133
53881.173425,17.259,0.145
53881.17683,17.188,0.137
53881.183636,17.182,0.129
53881.187896,17.014,0.117
53881.196049,16.809,0.096
53881.199069,16.697,0.089
53881.20614,16.498,0.073
53881.210222,16.338,0.072
53886.16078,16.275,0.064
53886.170696,16.128,0.058
53886.180715,16.064,0.054
53886.193222,16.005,0.051
53886.203026,16.256,0.066
53887.167749,16.03,0.071
53887.177892,16.021,0.076
53887.188302,16.099,0.086
53887.19869,16.143,0.092
53887.209084,16.248,0.101
53902.169151,16.849,0.159
53902.189067,16.837,0.157
54058.449685,16.124,0.066
54058.462114,16.248,0.073
54058.474691,16.267,0.071
54058.487178,16.312,0.068
54058.499613,16.434,0.074
54064.445564,16.517,0.079
54064.460558,16.469,0.074
54064.474661,16.624,0.084
54064.487735,16.72,0.086
54064.50031,16.656,0.076
54067.459008,16.595,0.052
54067.472086,16.61,0.055
54067.485168,16.661,0.057
54067.498419,16.69,0.055
54067.511504,16.75,0.055
54144.331514,16.92,0.084
54144.343435,17.038,0.096
54144.355357,17.177,0.119
54144.367331,17.153,0.119
54144.379593,17.066,0.116
54153.335867,17.063,0.096
54153.347776,17.15,0.107
54153.359507,17.089,0.117
54153.371432,17.087,0.117
54153.383197,17.04,0.152
54208.21486,17.078,0.111
54208.223621,17.093,0.116
54208.2324,17.025,0.109
54208.241159,17.138,0.12
54208.249896,17.014,0.104
54450.456176,16.36,0.037
54450.469347,16.069,0.026
54450.482501,16.086,0.024
54450.495692,16.174,0.026
54450.508848,16.235,0.028
54476.399787,16.814,0.046
54476.412658,16.78,0.044
54476.42552,16.792,0.046
54476.438521,16.811,0.048
54476.451765,16.9,0.05
54484.304124,16.526,0.109
54484.330116,16.633,0.098
54509.281085,17.041,0.063
54509.293161,17.08,0.061
54509.305162,17.078,0.057
54509.317375,17.058,0.054
54509.329377,17.047,0.054
54532.280344,16.62,0.037
54532.291674,16.65,0.037
54532.302924,16.717,0.041
54532.315302,16.78,0.043
54532.326559,16.757,0.041
54538.303839,16.856,0.05
54538.314952,16.89,0.05
54538.325958,16.935,0.054
54538.337052,16.93,0.052
54538.348203,16.963,0.054
54559.181339,16.988,0.061
54559.192903,17.032,0.063
54559.204471,17.039,0.063
54559.216174,17.035,0.063
54559.227756,17.039,0.063
54581.198439,16.355,0.044
54581.20912,16.414,0.046
54581.219782,16.447,0.048
54581.230482,16.461,0.046
54581.241178,16.512,0.05
54587.203531,16.554,0.054
54587.214091,16.583,0.054
54587.224685,16.615,0.054
54587.235189,16.662,0.057
54587.245687,16.731,0.063
54592.189791,17.084,0.144
54592.200017,17.001,0.135
54592.209801,17.228,0.172
54592.219647,17.329,0.183
54592.229492,17.187,0.158
54595.198751,16.848,0.078
54595.208724,16.899,0.083
54595.218792,16.891,0.093
54595.228813,16.984,0.091
54595.238766,16.971,0.089
54619.162785,17.016,0.091
54619.17309,17.063,0.091
54619.183288,17.048,0.083
54619.193542,17.121,0.12
54619.203736,17.149,0.102
