mjd,m,merr
52677.490923,15.99,0.046
52677.506733,15.949,0.041
52677.521921,15.981,0.041
52723.417075,15.922,0.03
52723.429049,15.896,0.037
52752.337087,15.975,0.035
52752.347274,16.011,0.035
52752.357443,16.168,0.041
52752.367616,16.257,0.05
52752.377986,16.26,0.048
52772.276129,15.809,0.072
52772.299651,15.965,0.074
52772.311554,15.9,0.1
52772.323355,16.079,0.122
52787.271235,15.918,0.03
52787.281879,15.914,0.03
52787.292482,15.963,0.031
52787.303192,15.993,0.033
52787.31387,15.935,0.033
52798.294498,15.989,0.054
52798.305778,15.971,0.051
52798.316077,15.89,0.046
52798.326546,15.936,0.045
52811.228831,16.042,0.046
52811.238643,16.005,0.045
52811.248451,16.041,0.048
52811.258259,15.999,0.045
52811.268096,15.957,0.043
52842.252781,16.069,0.054
52847.178834,15.955,0.043
52847.188939,15.959,0.043
52847.199222,15.917,0.039
52847.209719,15.974,0.041
52906.103247,15.947,0.124
52906.12829,16.267,0.089
52906.140794,16.212,0.089
52906.153336,16.015,0.081
53024.512591,15.948,0.041
53035.479914,16.261,0.046
53035.49264,16.109,0.039
53035.505356,15.982,0.035
53035.518645,16.032,0.035
53050.394094,16.004,0.076
53050.405742,15.931,0.046
53050.41748,15.953,0.033
53050.429241,15.955,0.03
53050.440886,15.898,0.03
53078.408722,16.006,0.041
53109.346431,16.179,0.037
53109.357325,16.379,0.044
53109.368227,16.464,0.046
53109.379183,16.333,0.043
53109.390418,16.11,0.035
53137.295407,15.941,0.033
53137.304887,15.922,0.033
53137.314373,15.953,0.033
53137.323907,15.93,0.031
53137.333394,15.929,0.031
53165.268584,15.918,0.033
53165.278705,15.911,0.033
53165.288814,15.961,0.037
53165.298924,15.959,0.037
53165.309084,15.948,0.039
53165.369155,15.993,0.055
53165.379362,15.964,0.057
53165.389671,16.052,0.067
53165.399892,16.027,0.065
53165.410201,16.094,0.078
53242.139065,15.923,0.045
53242.149092,15.88,0.045
53242.159555,15.881,0.045
53242.169515,15.89,0.046
53242.179496,15.934,0.048
53264.110293,15.891,0.033
53264.121834,15.899,0.035
53264.13341,15.938,0.036
53264.144854,15.953,0.036
53264.156325,16.005,0.038
53271.101463,15.879,0.043
53271.113573,15.848,0.041
53271.12568,15.883,0.043
53271.137833,15.901,0.046
53271.149936,15.896,0.048
53439.38729,16.284,0.048
53439.398395,16.463,0.055
53439.409631,16.288,0.044
53439.420706,16.116,0.037
53439.431859,15.996,0.033
53498.378809,15.956,0.033
53498.391105,15.973,0.033
53498.402463,16.014,0.037
53498.413407,16.069,0.039
53498.423505,16.217,0.044
53499.385831,15.949,0.033
53499.399963,15.923,0.033
53499.411998,15.965,0.033
53499.424272,15.942,0.033
53499.435403,15.924,0.035
53528.276677,15.95,0.041
53528.287757,15.933,0.041
53528.299084,15.916,0.039
53528.31031,15.918,0.041
53528.321469,15.944,0.043
53539.224969,16.298,0.093
53539.234578,16.149,0.083
53539.244148,16.011,0.07
53539.253715,15.931,0.063
53539.263279,15.933,0.063
53553.229568,16.483,0.067
53553.239943,16.289,0.055
53553.250362,16.124,0.046
53553.260711,15.991,0.041
53553.271074,15.98,0.039
53570.219432,16.347,0.117
53570.230089,16.417,0.126
53570.251412,15.93,0.085
53576.217488,15.966,0.043
53576.251565,15.937,0.048
53583.212978,15.983,0.035
53583.224277,15.977,0.037
53583.235608,15.979,0.039
53583.246938,16.002,0.052
53627.115307,16.023,0.054
53627.127615,16.204,0.065
53627.140172,16.529,0.087
53627.152306,16.266,0.072
53627.164397,16.049,0.063
53771.526244,16.206,0.109
53771.539254,16.265,0.08
53786.407329,16.112,0.126
53786.431505,16.288,0.063
53786.443637,15.976,0.043
53786.455675,15.959,0.041
53882.267502,15.882,0.04
53882.278151,15.895,0.038
53882.29976,15.926,0.04
53886.280744,15.903,0.043
53886.291855,15.952,0.044
53886.302867,15.923,0.043
53886.313891,15.91,0.043
53886.324954,15.897,0.041
53903.228759,16.402,0.072
53903.238673,16.183,0.059
53903.248677,15.997,0.048
53903.258649,15.982,0.05
53903.268635,15.963,0.05
53916.228476,15.906,0.135
53916.248179,15.836,0.038
53916.257948,15.895,0.043
53931.243687,16.222,0.084
53970.138716,16.03,0.045
53970.157985,15.851,0.04
53970.167698,15.871,0.04
53970.177317,15.895,0.045
53998.095105,15.917,0.041
53998.107341,15.894,0.038
53998.119665,15.963,0.04
53998.13195,15.974,0.041
53998.145485,16.125,0.048
54123.489143,15.926,0.037
54123.501513,15.904,0.035
54156.381799,16.133,0.056
54156.392765,16.048,0.046
54156.403805,15.974,0.04
54156.414918,15.952,0.036
54156.426078,15.908,0.035
54207.368044,16.046,0.107
54216.307461,15.941,0.035
54216.316215,15.961,0.035
54216.325237,15.97,0.033
54216.333969,15.942,0.033
54216.342699,15.948,0.031
54529.406257,15.891,0.041
54555.305686,15.839,0.049
54555.319957,15.817,0.048
54555.331753,15.842,0.048
54555.343371,15.853,0.049
54562.259678,15.913,0.059
54562.273048,15.895,0.056
54562.308145,15.861,0.048
54573.344197,15.848,0.044
54573.355088,15.876,0.046
54573.365896,15.902,0.046
54573.376695,15.857,0.044
54573.387515,15.878,0.044
54582.298616,15.901,0.059
54582.329788,15.902,0.063
54613.261266,15.956,0.054
54613.271708,15.839,0.049
