mjd,m,merr
52693.427182,16.291,0.054
52693.443629,16.295,0.054
52693.459076,16.339,0.054
52693.474565,16.329,0.054
52693.4898,16.394,0.055
52721.374719,16.349,0.052
52721.387622,16.343,0.052
52721.400548,16.4,0.054
52721.413442,16.354,0.052
52721.426287,16.489,0.057
52750.340135,16.095,0.044
52750.350951,16.134,0.046
52750.3617,16.148,0.083
52750.372552,16.269,0.109
52781.270513,16.286,0.046
52781.281234,16.353,0.046
52781.291967,16.313,0.044
52781.302808,16.379,0.048
52781.31363,16.398,0.048
52801.266656,16.348,0.131
52801.276756,16.279,0.13
52801.28683,16.399,0.139
52801.296981,16.375,0.135
52801.307195,16.268,0.12
52809.228459,16.413,0.054
52809.23826,16.45,0.054
52809.248199,16.425,0.052
52809.258077,16.488,0.057
52830.220403,16.654,0.109
52830.230338,16.638,0.107
52830.240285,16.653,0.107
52830.250197,16.723,0.115
52830.260106,16.562,0.1
52846.168296,16.549,0.07
52846.178378,16.623,0.074
52846.188454,16.614,0.074
52846.198498,16.5,0.066
52846.208532,16.474,0.066
52897.124362,16.63,0.068
52897.136116,16.505,0.063
52897.147848,16.532,0.07
52897.159824,16.517,0.076
52897.171542,16.672,0.1
52927.081358,16.352,0.061
52927.092672,16.28,0.057
52927.105164,16.203,0.054
52927.117405,16.171,0.054
52927.129345,16.103,0.052
53045.38723,16.444,0.091
53045.398509,16.365,0.083
53045.409762,16.479,0.087
53045.421022,16.521,0.087
53045.432208,16.454,0.081
53096.378873,16.47,0.08
53096.388923,16.496,0.08
53096.39897,16.451,0.076
53096.409017,16.399,0.072
53096.41912,16.446,0.072
53108.357096,16.526,0.05
53108.36813,16.549,0.05
53108.379217,16.569,0.054
53108.390312,16.518,0.052
53108.40143,16.586,0.055
53125.29709,16.21,0.07
53125.307033,16.193,0.07
53125.326973,16.325,0.08
53125.337001,16.284,0.07
53134.29203,16.292,0.052
53134.301587,16.406,0.061
53134.311116,16.358,0.061
53134.320627,16.377,0.063
53134.330217,16.46,0.074
53155.294627,16.607,0.1
53155.303577,16.535,0.094
53155.312537,16.565,0.094
53155.321495,16.661,0.105
53155.330409,16.658,0.109
53163.279997,16.009,0.13
53193.24701,16.67,0.118
53193.25711,16.647,0.087
53193.267202,16.541,0.08
53244.140497,16.373,0.078
53244.1507,16.442,0.081
53244.16089,16.558,0.093
53244.171079,16.411,0.081
53244.181279,16.55,0.096
53283.114193,16.068,0.039
53283.124372,16.098,0.043
53283.134563,16.127,0.043
53283.144774,16.187,0.048
53283.154961,16.137,0.046
53451.397075,16.6,0.076
53451.407839,16.53,0.07
53451.418602,16.571,0.07
53451.429367,16.638,0.074
53451.440142,16.673,0.076
53461.386403,16.557,0.063
53461.396766,16.586,0.065
53461.407067,16.675,0.068
53461.417401,16.625,0.065
53461.427748,16.694,0.067
53489.341825,16.69,0.074
53489.353116,16.639,0.08
53535.266692,16.195,0.048
53535.276622,16.205,0.046
53535.286571,16.261,0.05
53535.296518,16.281,0.048
53535.306537,16.258,0.046
53563.233489,16.336,0.068
53563.244106,16.353,0.059
53563.254681,16.502,0.07
53563.265257,16.398,0.067
53599.151834,16.577,0.1
53599.164451,16.814,0.139
53599.177047,16.83,0.126
53599.189649,16.702,0.118
53599.20224,16.747,0.133
53607.147503,16.291,0.061
53607.181843,16.337,0.068
53635.11002,16.448,0.063
53635.120594,16.437,0.055
53635.131032,16.48,0.055
53635.141449,16.446,0.057
53635.151869,16.42,0.076
53664.076398,16.227,0.052
53664.087511,16.271,0.055
53664.098598,16.222,0.054
53664.109554,16.27,0.067
53664.120508,16.359,0.083
53755.469541,16.332,0.068
53755.482299,16.321,0.067
53755.495138,16.322,0.065
53755.50796,16.396,0.067
53755.520827,16.398,0.065
53774.479876,16.334,0.052
53774.492975,16.322,0.05
53774.505741,16.353,0.05
53774.518942,16.33,0.048
53803.407693,16.073,0.046
53803.4208,16.094,0.045
53803.444768,16.166,0.045
53803.45675,16.198,0.043
53807.424961,16.428,0.15
53829.332242,16.608,0.083
53829.342851,16.63,0.083
53829.353431,16.715,0.084
53829.364019,16.551,0.104
53833.320026,16.528,0.066
53833.331456,16.539,0.066
53833.342885,16.54,0.061
53833.354347,16.555,0.064
53833.365257,16.517,0.061
53858.299502,16.565,0.081
53858.30958,16.576,0.079
53858.319542,16.583,0.196
53864.292577,16.678,0.125
53864.302199,16.787,0.135
53864.312089,16.663,0.122
53864.321743,16.773,0.134
53864.331382,16.832,0.139
53876.265473,16.681,0.091
53876.27644,16.687,0.132
53876.287353,16.557,0.188
53905.265772,16.617,0.071
53905.275407,16.57,0.064
53905.285314,16.634,0.071
53905.29494,16.57,0.064
53905.304562,16.591,0.066
53933.217415,16.735,0.086
53933.227741,16.639,0.106
53933.238023,16.538,0.084
53933.248406,16.52,0.074
53933.258677,16.415,0.068
53954.155647,16.386,0.124
53954.179825,16.391,0.118
53991.117263,16.44,0.079
53991.129659,16.517,0.076
53991.141615,16.491,0.074
53991.153496,16.56,0.084
53991.165148,16.569,0.086
54022.077441,16.666,0.073
54022.088794,16.664,0.076
54022.100253,16.633,0.073
54022.111602,16.647,0.076
54022.124448,16.688,0.083
54108.45741,16.275,0.087
54108.47021,16.272,0.089
54108.482949,16.314,0.083
54108.495741,16.358,0.083
54108.508492,16.304,0.074
54125.442138,16.578,0.097
54125.454209,16.645,0.101
54125.466319,16.629,0.099
54125.478322,16.437,0.083
54125.490343,16.371,0.074
54139.443655,16.434,0.114
54139.455876,16.528,0.14
54139.468498,16.235,0.142
54139.480255,16.452,0.134
54139.492353,16.392,0.104
54157.392471,16.699,0.094
54157.403761,16.687,0.091
54157.414732,16.679,0.084
54157.425691,16.659,0.078
54524.447457,16.48,0.061
54524.459696,16.51,0.061
54524.471424,16.502,0.063
54524.482914,16.545,0.064
54539.372593,16.533,0.056
54539.383397,16.526,0.056
54539.394154,16.622,0.059
54539.405551,16.584,0.058
54539.416787,16.586,0.058
54571.34791,16.47,0.079
54571.359459,16.464,0.076
54571.372877,16.508,0.078
54571.383659,16.479,0.076
54571.394424,16.509,0.074
54587.301993,16.364,0.089
54587.312145,16.415,0.092
54587.322354,16.382,0.086
54587.332781,16.384,0.086
54587.342841,16.539,0.099
54620.265994,16.638,0.084
54620.27632,16.65,0.087
54620.287132,16.459,0.076
54620.297302,16.379,0.073
54620.307495,16.268,0.064
