mjd,m,merr
52721.374985,16.388,0.057
52721.387889,16.341,0.054
52721.400812,16.276,0.05
52721.413708,16.334,0.052
52721.42655,16.4,0.055
52750.340377,16.405,0.061
52750.351192,16.392,0.063
52750.361943,16.567,0.139
52781.273326,16.359,0.061
52781.283961,16.355,0.058
52781.294878,16.437,0.061
52781.306257,16.419,0.061
52781.317359,16.356,0.058
52801.266939,16.364,0.139
52801.277033,16.317,0.133
52801.287102,16.557,0.161
52801.297275,16.438,0.144
52801.30747,16.394,0.137
52809.288125,16.337,0.059
52809.298211,16.384,0.063
52809.308112,16.298,0.057
52830.220675,16.304,0.08
52830.230621,16.214,0.074
52830.240562,16.214,0.074
52830.250469,16.228,0.076
52830.260386,16.258,0.078
52845.169444,16.477,0.091
52845.179268,16.377,0.073
52845.189176,16.408,0.07
52845.198995,16.368,0.066
52845.208931,16.394,0.066
52873.143628,16.47,0.07
52873.15564,16.394,0.069
52873.167644,16.378,0.067
52873.179863,16.405,0.07
52873.191951,16.598,0.113
52897.124554,16.296,0.054
52897.136309,16.363,0.057
52897.148041,16.375,0.063
52897.160016,16.355,0.07
52897.171734,16.51,0.093
52927.08156,16.391,0.067
52927.092874,16.263,0.061
52927.105366,16.345,0.065
52927.117607,16.394,0.07
52927.129547,16.411,0.072
53045.387523,16.344,0.081
53045.398875,16.298,0.078
53045.410095,16.314,0.074
53045.421317,16.344,0.074
53045.432503,16.28,0.068
53096.37915,16.428,0.081
53096.3892,16.363,0.074
53096.399247,16.418,0.076
53096.409294,16.432,0.078
53096.419397,16.408,0.074
53108.357371,16.432,0.046
53108.368404,16.368,0.044
53108.379492,16.398,0.048
53108.390587,16.412,0.05
53108.401706,16.333,0.046
53125.297347,16.407,0.087
53125.30729,16.378,0.087
53125.32723,16.373,0.081
53125.337258,16.335,0.076
53134.292281,16.392,0.059
53134.301838,16.311,0.057
53134.311366,16.364,0.063
53134.320877,16.311,0.061
53134.330467,16.333,0.068
53155.294866,16.417,0.091
53155.303815,16.38,0.087
53155.312776,16.409,0.089
53155.321733,16.347,0.085
53155.330647,16.426,0.093
53193.25735,16.401,0.072
53193.267442,16.468,0.08
53244.140758,16.361,0.081
53244.150962,16.447,0.087
53244.161152,16.349,0.083
53244.17134,16.464,0.093
53244.181541,16.431,0.093
53283.114488,16.364,0.054
53283.124668,16.359,0.054
53283.134859,16.359,0.055
53283.14507,16.351,0.057
53283.155257,16.404,0.061
53390.474016,16.263,0.05
53390.486723,16.248,0.048
53390.499419,16.295,0.048
53390.512117,16.311,0.048
53390.525279,16.263,0.05
53400.437585,16.453,0.078
53400.450085,16.474,0.078
53400.462519,16.431,0.076
53400.47495,16.376,0.072
53429.389122,16.369,0.07
53429.40041,16.365,0.07
53429.411704,16.407,0.072
53429.422993,16.371,0.067
53429.434281,16.338,0.065
53461.386716,16.395,0.055
53461.397079,16.424,0.057
53461.407378,16.433,0.057
53461.417714,16.391,0.054
53461.428061,16.44,0.055
53489.341723,16.411,0.059
53489.353015,16.131,0.052
53535.267009,16.364,0.057
53535.276941,16.414,0.061
53535.286888,16.424,0.059
53535.296835,16.371,0.054
53535.306855,16.357,0.054
53563.233394,16.235,0.072
53563.24401,16.233,0.055
53563.254584,16.344,0.063
53599.164854,17.022,0.189
53599.17745,17.116,0.189
53599.190052,17.374,0.239
53599.202644,17.147,0.215
53607.1478,16.373,0.057
53607.18214,16.443,0.085
53635.109908,16.27,0.059
53635.120481,16.336,0.057
53635.130919,16.276,0.052
53635.141337,16.338,0.057
53635.151757,16.173,0.057
53664.076637,16.244,0.057
53664.08775,16.362,0.067
53664.098838,16.328,0.065
53664.109793,16.401,0.081
53664.120747,16.578,0.105
53755.469412,16.323,0.067
53755.48217,16.384,0.07
53755.495009,16.286,0.063
53755.50783,16.336,0.063
53755.520697,16.339,0.061
53803.408077,16.456,0.064
53803.421184,16.421,0.063
53803.43319,16.454,0.061
53803.445151,16.53,0.061
53803.457137,16.479,0.058
53807.42535,16.535,0.16
53829.332086,16.327,0.073
53829.342695,16.307,0.073
53829.353275,16.326,0.069
53829.363866,16.317,0.097
53833.342729,18.848,0.525
53858.299398,16.581,0.106
53858.309482,16.519,0.094
53864.292476,16.743,0.144
53864.302096,16.825,0.15
53864.311987,16.895,0.16
53864.32164,16.824,0.15
53864.33128,16.872,0.152
53876.265636,16.528,0.111
53876.276605,16.544,0.155
53905.265987,16.521,0.068
53905.275624,16.822,0.086
53905.28553,16.509,0.066
53905.295154,16.48,0.063
53905.304775,16.549,0.066
53933.217689,16.479,0.079
53933.228015,16.593,0.112
53933.238298,16.664,0.114
53933.24868,16.573,0.089
53933.258951,16.635,0.096
53955.158116,16.364,0.126
53955.170337,16.335,0.126
53955.182537,16.55,0.155
53955.194763,16.456,0.15
53955.20682,16.5,0.157
53991.117148,16.659,0.104
53991.129543,16.8,0.107
53991.141501,16.953,0.127
53991.153381,16.626,0.096
53991.165037,16.696,0.102
54021.078893,16.685,0.097
54021.11356,16.812,0.117
54108.457274,16.276,0.089
54108.470075,16.288,0.091
54108.482814,16.394,0.091
54108.495607,16.348,0.081
54108.508358,16.276,0.072
54139.444073,16.236,0.092
54139.456342,16.493,0.132
54139.492769,16.319,0.102
54524.460031,16.531,0.064
54524.471757,16.395,0.061
