mjd,m,merr
52712.440774,16.924,0.091
52712.453962,17.029,0.091
52712.467158,17.184,0.094
52712.48057,17.341,0.111
52712.493679,17.434,0.12
52738.367808,16.835,0.074
52738.379405,16.836,0.073
52738.391017,16.795,0.071
52738.402575,16.861,0.073
52738.414658,16.845,0.073
52754.326151,16.891,0.074
52754.338093,16.977,0.08
52754.350072,17.138,0.094
52754.362042,17.33,0.109
52754.374076,17.288,0.109
52770.273194,17.39,0.188
52770.284734,17.038,0.139
52770.296267,17.276,0.163
52770.30796,16.946,0.117
52770.319492,16.938,0.111
52797.271799,17.141,0.147
52797.282076,17.205,0.152
52797.29264,17.03,0.127
52797.303124,16.85,0.106
52797.31367,16.805,0.094
52813.274142,16.844,0.101
52813.284273,17.007,0.114
52813.294251,17.118,0.124
52813.304254,17.26,0.14
52813.31424,17.233,0.139
52825.225123,16.723,0.089
52825.235231,16.725,0.096
52825.245345,16.832,0.107
52825.25582,17.003,0.117
52825.26604,17.151,0.13
52849.166192,16.821,0.078
52849.176583,16.934,0.083
52849.187555,16.999,0.098
52849.198666,17.042,0.102
52849.209814,17.347,0.135
53033.46721,16.859,0.094
53033.4794,16.787,0.083
53033.491646,17.0,0.097
53033.5039,17.048,0.101
53033.516263,17.223,0.114
53052.452351,16.934,0.08
53052.46404,17.093,0.087
53052.475654,17.276,0.109
53052.487368,17.438,0.122
53052.499025,17.173,0.091
53065.398713,16.871,0.096
53065.40998,16.918,0.087
53065.421416,16.821,0.074
53065.432789,16.951,0.083
53065.444154,17.04,0.117
53079.392527,16.887,0.083
53079.403672,16.835,0.074
53079.41454,16.855,0.074
53079.425751,16.745,0.069
53079.4366,16.884,0.079
53080.44648,16.797,0.067
53080.457254,16.88,0.072
53080.468113,16.823,0.068
53080.479033,16.916,0.076
53080.490028,17.066,0.085
53094.371554,17.237,0.086
53094.381133,17.339,0.092
53094.391495,17.178,0.079
53094.40173,17.038,0.064
53094.412455,16.989,0.061
53110.347887,16.729,0.071
53110.358535,16.809,0.076
53110.369787,16.85,0.079
53110.381184,16.827,0.078
53110.391611,16.986,0.091
53122.301944,16.746,0.064
53122.312149,16.707,0.061
53122.322399,16.835,0.063
53122.332591,16.84,0.064
53122.342972,16.798,0.059
53138.300219,17.217,0.111
53138.309776,17.304,0.116
53138.319344,17.032,0.086
53138.328924,16.937,0.081
53138.338516,16.828,0.071
53153.256638,16.778,0.069
53153.265234,16.774,0.069
53153.274491,16.821,0.071
53153.283167,16.855,0.074
53153.291748,16.901,0.074
53154.292871,16.862,0.104
53154.301626,16.858,0.1
53154.310491,16.897,0.102
53154.319239,16.989,0.113
53154.328091,17.159,0.131
53155.292942,16.8,0.147
53155.310638,16.837,0.144
53155.319405,17.02,0.177
53166.266449,16.856,0.087
53166.276095,16.909,0.089
53166.286022,16.964,0.092
53166.295649,17.176,0.114
53166.305246,17.262,0.129
53178.225923,16.916,0.089
53178.254447,17.207,0.181
53263.111148,16.877,0.083
53263.122595,16.914,0.089
53263.134044,16.833,0.081
53263.1455,16.845,0.083
53263.156991,16.884,0.093
53471.41368,16.885,0.083
53471.42345,17.0,0.091
53471.433643,17.221,0.115
53471.443593,17.418,0.135
53471.453411,17.235,0.115
53502.388943,17.278,0.117
53502.399513,17.089,0.093
53502.409788,16.916,0.078
53502.420077,16.851,0.072
53502.431207,16.922,0.081
53505.266276,17.047,0.15
53505.275564,17.077,0.157
53505.284876,17.167,0.155
53505.294931,17.235,0.187
53505.30425,17.356,0.203
53523.273823,16.987,0.085
53523.28426,16.997,0.085
53523.294679,16.911,0.07
53523.305033,16.838,0.068
53523.315363,16.777,0.067
53551.227006,16.861,0.087
53551.236967,16.825,0.093
53551.246969,17.016,0.102
53551.257014,17.158,0.113
53551.266978,17.213,0.117
53552.170553,16.812,0.159
53552.180746,16.841,0.102
53552.190926,16.776,0.094
53552.201328,16.711,0.089
53552.211987,16.669,0.085
53580.165321,17.268,0.12
53580.176727,17.207,0.115
53580.188125,17.104,0.209
53580.19952,16.983,0.139
53580.210924,16.89,0.094
53623.117204,16.839,0.148
53623.12856,16.899,0.131
53624.12363,16.769,0.137
53624.157662,16.807,0.126
53799.410455,16.743,0.066
53799.422411,16.769,0.064
53799.434362,16.886,0.071
53799.4463,16.815,0.068
53799.458221,16.886,0.073
53845.350065,16.851,0.155
53845.361212,16.751,0.113
53845.372697,16.748,0.12
53845.383584,16.718,0.124
53845.394581,16.783,0.133
53880.271373,16.753,0.083
53880.282555,16.939,0.098
53880.29374,16.929,0.094
53880.304915,16.978,0.098
53880.316125,17.338,0.13
53885.282342,17.299,0.142
53885.294157,17.295,0.155
53885.305939,17.24,0.135
53885.317745,16.994,0.117
53885.329564,16.777,0.091
53912.226988,16.94,0.186
53993.107989,17.105,0.12
53993.119915,17.381,0.154
53993.131857,17.422,0.163
53993.143834,17.381,0.165
53993.155822,17.231,0.152
54144.476589,17.252,0.137
54144.488442,17.12,0.119
54153.494391,18.01,0.597
54201.374413,17.226,0.14
54201.383757,17.03,0.122
54201.393068,17.07,0.129
54201.402348,16.943,0.117
54201.412161,16.91,0.112
54559.306686,17.263,0.087
54559.318339,17.29,0.085
54559.329992,17.236,0.074
54559.341757,17.054,0.063
54559.353517,16.902,0.054
54581.348925,17.143,0.168
54581.35955,17.11,0.159
54581.370127,16.992,0.146
54581.380796,17.021,0.15
54581.391383,16.728,0.115
