mjd,m,merr
52681.42875,16.251,0.058
52681.443973,16.225,0.061
52681.458837,16.283,0.063
52681.473587,16.201,0.054
52681.488291,16.209,0.058
52723.420134,16.146,0.041
52723.432823,16.273,0.094
52723.444959,16.186,0.079
52752.350147,15.748,0.033
52752.360739,15.815,0.036
52752.371543,15.801,0.038
52752.382435,15.825,0.038
52752.393032,15.847,0.041
52772.386752,16.002,0.087
52772.398254,16.05,0.074
52800.270429,16.056,0.091
52800.28073,16.154,0.099
52800.291118,16.067,0.086
52800.301467,16.119,0.089
52800.311694,16.127,0.089
52810.269529,15.602,0.033
52812.281975,15.981,0.04
52812.291857,15.881,0.036
52812.302024,15.8,0.033
52812.311903,15.756,0.033
52812.322001,15.744,0.035
52840.212681,16.163,0.044
52840.222543,16.119,0.044
52840.232419,16.116,0.048
52840.242376,16.141,0.05
52840.252285,15.994,0.046
52872.143282,15.977,0.05
52872.191428,16.115,0.111
52918.092502,15.889,0.057
52918.106102,15.852,0.059
52918.119276,15.845,0.061
52918.13273,15.871,0.067
52918.145911,15.875,0.074
53035.516069,15.746,0.028
53037.492657,15.684,0.026
53037.505651,15.728,0.025
53037.518669,15.653,0.023
53037.531309,15.606,0.021
53049.4008,15.757,0.03
53049.412684,15.7,0.03
53049.424568,15.647,0.028
53049.436547,15.636,0.026
53049.449155,15.676,0.026
53107.337288,16.266,0.04
53107.34753,16.242,0.04
53107.357762,16.243,0.038
53107.368008,16.207,0.038
53107.378285,16.198,0.04
53136.287287,15.874,0.036
53136.29598,15.858,0.035
53136.304681,15.912,0.035
53136.313418,15.938,0.038
53136.322352,15.866,0.036
53154.289458,15.779,0.041
53154.298,15.732,0.04
53154.306339,15.698,0.036
53154.315227,15.627,0.035
53154.323699,15.631,0.035
53164.266656,15.886,0.035
53164.276269,15.897,0.036
53164.285831,15.845,0.036
53164.29532,15.901,0.04
53164.305223,15.918,0.043
53181.234564,16.098,0.038
53181.25403,16.105,0.099
53181.263789,16.07,0.036
53181.27348,16.086,0.035
53194.219066,15.636,0.04
53194.228135,15.666,0.046
53194.247568,15.714,0.041
53194.25681,15.747,0.041
53243.138742,15.681,0.038
53243.148949,15.659,0.036
53243.159328,15.64,0.038
53243.169568,15.642,0.038
53243.180374,15.665,0.04
53264.11262,15.622,0.024
53264.124069,15.63,0.024
53264.13551,15.613,0.024
53264.158392,15.668,0.026
53282.113224,16.044,0.041
53282.123996,16.065,0.046
53282.135278,16.096,0.048
53286.085098,15.946,0.036
53286.09606,15.962,0.045
53286.106858,15.98,0.045
53286.117792,15.958,0.038
53286.128587,15.998,0.043
53422.407439,15.767,0.087
53422.419378,15.932,0.07
53422.431295,15.912,0.083
53422.443848,15.935,0.054
53422.455767,15.937,0.048
53450.38734,15.852,0.041
53450.397868,15.869,0.039
53450.408396,15.867,0.041
53450.41898,15.904,0.041
53450.429511,15.886,0.039
53474.447764,16.231,0.052
53521.264025,16.053,0.046
53521.27434,16.134,0.068
53521.284667,16.073,0.044
53521.295024,16.124,0.041
53521.30533,16.149,0.044
53538.265571,15.639,0.046
53538.2751,15.633,0.046
53538.284648,15.713,0.048
53538.29418,15.724,0.05
53538.303691,15.659,0.046
53605.144571,16.033,0.039
53605.155606,15.976,0.039
53605.166659,16.007,0.048
53605.177663,16.046,0.059
53605.188729,16.046,0.065
53628.115063,15.904,0.059
53628.127251,15.994,0.065
53628.139493,16.039,0.068
53628.151667,16.025,0.07
53628.163788,15.988,0.072
53772.484519,15.631,0.028
53772.497208,15.648,0.028
53772.510079,15.599,0.026
53772.522867,15.642,0.028
53786.490391,15.652,0.03
53786.503588,15.656,0.03
53786.516776,15.67,0.031
53843.362809,16.004,0.063
53843.37401,15.949,0.061
53843.38524,15.999,0.063
53843.396468,15.98,0.063
53843.407713,15.995,0.065
53855.329896,16.01,0.041
53855.340047,16.067,0.041
53878.295064,15.9,0.043
53878.305658,15.909,0.045
53878.316232,15.893,0.043
53878.326915,15.928,0.045
53878.33754,15.964,0.045
53892.26669,15.881,0.065
53892.306522,15.821,0.08
53903.279836,15.691,0.038
53903.289459,15.664,0.038
53903.299058,15.68,0.038
53903.308647,15.674,0.04
53903.318494,15.694,0.041
53917.223355,15.783,0.045
53917.233046,15.725,0.092
53917.242986,15.735,0.056
53917.252743,15.729,0.045
53917.262523,15.572,0.079
53932.223275,15.901,0.044
53932.23394,15.912,0.05
53932.244594,15.869,0.05
53932.255205,15.878,0.057
53932.265806,15.872,0.068
53942.247746,16.022,0.124
53942.258433,16.055,0.091
53960.201736,15.829,0.056
53960.211585,15.862,0.068
53960.231298,15.85,0.068
53997.114387,15.83,0.033
53997.126423,15.849,0.033
53997.138585,15.849,0.036
53997.163316,15.872,0.043
54010.09237,16.177,0.079
54010.105048,16.206,0.083
54010.119784,16.195,0.086
54010.132504,16.187,0.091
54169.385861,16.024,0.043
54169.396924,15.996,0.039
54169.40802,16.025,0.041
54169.419256,16.033,0.039
54169.430365,16.055,0.046
54200.331139,16.129,0.035
54200.341712,16.133,0.035
54200.362758,16.133,0.037
54200.372873,16.134,0.039
54217.295715,15.631,0.035
54217.304544,15.615,0.033
54217.313282,15.603,0.033
54217.322014,15.639,0.033
54217.330719,15.631,0.033
54509.449557,16.208,0.046
