mjd,m,merr
52618.450835,16.815,0.14
52618.465939,16.793,0.145
52618.480971,16.776,0.15
52618.496037,16.917,0.142
52618.51107,16.692,0.101
52622.44051,16.445,0.064
52622.455251,16.274,0.053
52622.469922,15.998,0.041
52622.484349,15.932,0.038
52622.499779,15.872,0.036
52638.49375,16.714,0.084
52638.509121,16.781,0.073
52650.392078,16.961,0.083
52650.406781,16.841,0.073
52650.425641,16.797,0.071
52650.440371,16.753,0.066
52650.454968,16.508,0.053
52665.391868,16.832,0.078
52665.406601,16.625,0.063
52665.421636,16.411,0.051
52665.437375,16.264,0.045
52665.452123,16.078,0.04
52677.371695,16.546,0.084
52677.388066,16.538,0.078
52677.404177,16.494,0.063
52696.338129,16.598,0.05
52696.350845,16.659,0.054
52696.363145,16.629,0.052
52696.37562,16.659,0.08
52696.388675,16.64,0.059
52711.249239,16.531,0.067
52711.262837,16.502,0.065
52711.276535,16.559,0.068
52711.289749,16.518,0.065
52711.303264,16.559,0.067
52723.258875,16.815,0.065
52723.2704,16.826,0.068
52739.240884,16.46,0.059
52739.252391,16.382,0.055
52739.263803,16.453,0.059
52739.275202,16.459,0.059
52739.286681,16.481,0.061
52752.190754,16.229,0.044
52752.200886,16.251,0.044
52752.211089,16.316,0.046
52752.221214,16.325,0.05
52752.231405,16.356,0.05
52769.20616,16.478,0.148
52769.217966,16.506,0.141
52769.253445,16.54,0.154
52787.16872,16.719,0.065
52787.179274,16.667,0.063
52787.189999,16.589,0.063
52787.200594,16.46,0.052
52787.211346,16.364,0.048
52966.404681,16.231,0.053
52966.413424,16.277,0.051
52966.421722,16.219,0.046
52966.430187,16.193,0.045
52966.439194,16.253,0.046
52977.451309,16.192,0.046
52977.463684,16.182,0.044
52977.475869,16.144,0.044
52977.488289,16.196,0.046
52977.500605,16.216,0.048
52991.49892,16.731,0.055
52991.51209,16.73,0.057
52991.525829,16.695,0.063
53006.385662,16.637,0.071
53006.397987,16.711,0.073
53006.410311,16.78,0.073
53006.42267,16.872,0.081
53006.436052,16.84,0.079
53024.35742,16.091,0.072
53024.383182,16.116,0.043
53024.396021,16.156,0.059
53035.351623,16.78,0.072
53035.364676,16.562,0.059
53035.378647,16.189,0.041
53035.391078,15.943,0.031
53035.403656,15.858,0.028
53050.279608,16.877,0.059
53050.291264,16.88,0.057
53050.302861,16.767,0.05
53050.314568,16.865,0.072
53050.326164,16.902,0.141
53078.279807,16.873,0.063
53078.290599,16.82,0.059
53078.301373,16.729,0.055
53078.312015,16.613,0.052
53078.322777,16.445,0.046
53092.233559,16.464,0.043
53092.243422,16.489,0.045
53092.253351,16.547,0.046
53092.263269,16.503,0.045
53109.239423,16.592,0.054
53109.250545,16.582,0.054
53109.261621,16.6,0.054
53109.272729,16.665,0.059
53109.283817,16.61,0.055
53121.195578,16.753,0.054
53121.206053,16.782,0.056
53121.216244,16.871,0.061
53121.226668,16.928,0.064
53121.237086,16.892,0.063
53137.200584,16.525,0.061
53137.210165,16.555,0.061
53137.219687,16.547,0.061
53165.170874,16.418,0.083
53165.18086,16.468,0.076
53165.19084,16.37,0.091
53165.200818,16.527,0.098
53165.210836,16.53,0.104
53177.1715,16.798,0.073
53177.181631,16.806,0.074
53177.201444,16.796,0.091
53341.466911,16.81,0.178
53341.479453,16.489,0.132
53341.493241,16.105,0.092
53341.506252,15.861,0.071
53349.467631,16.451,0.073
53349.48113,16.415,0.068
53349.494803,16.536,0.076
53349.508484,16.535,0.078
53355.494169,16.717,0.063
53355.52258,16.732,0.096
53360.424794,16.118,0.053
53360.439914,16.152,0.087
53360.455078,16.219,0.16
53385.488496,16.627,0.063
53385.501716,16.672,0.067
53385.514806,16.622,0.063
53385.527746,16.658,0.065
53385.541218,16.639,0.067
53415.423176,16.646,0.074
53415.436801,16.658,0.2
53415.450002,16.68,0.203
53415.462106,16.67,0.072
53437.358013,16.368,0.043
53437.369637,16.352,0.043
53437.380964,16.34,0.044
53437.394119,16.384,0.044
53437.405409,16.394,0.048
53443.378146,16.696,0.102
53443.38879,16.617,0.065
53443.410053,16.726,0.313
53443.420676,16.793,0.237
53473.231268,16.522,0.057
53473.241485,16.533,0.059
53473.251298,16.528,0.057
53473.261445,16.471,0.055
53473.272493,16.54,0.059
53498.200165,16.672,0.361
53498.222818,16.809,0.161
53498.233445,16.756,0.087
53498.2439,16.739,0.08
53499.207155,16.345,0.048
53499.217714,16.396,0.05
53499.228533,16.473,0.054
53499.239106,16.433,0.054
53499.250042,16.374,0.052
53528.17062,16.703,0.1
53528.182108,16.866,0.117
53528.193084,16.663,0.1
53528.203884,16.654,0.098
53528.214504,16.861,0.12
53539.170303,16.56,0.15
53539.17982,16.813,0.194
53539.189341,16.854,0.207
53539.198866,16.667,0.178
53539.208375,16.831,0.218
53702.442479,16.46,0.061
53702.455115,16.487,0.063
53702.46787,16.427,0.059
53702.480539,16.416,0.055
53702.493378,16.524,0.061
53741.411199,15.895,0.026
53741.424232,15.996,0.028
53741.437249,16.056,0.03
53741.449876,16.107,0.03
53741.462735,16.145,0.031
53771.349195,16.167,0.109
53771.362122,16.182,0.107
53786.336049,16.266,0.041
53786.34799,16.225,0.063
53786.359925,16.359,0.113
53786.371865,16.283,0.065
53786.383908,16.249,0.1
53812.298481,16.748,0.086
53812.310121,16.468,0.071
53843.255712,16.669,0.074
53843.290096,16.706,0.092
53843.301475,16.661,0.094
53854.195078,16.386,0.125
53854.205604,16.345,0.172
53854.21587,16.462,0.107
53854.226034,16.383,0.102
53854.23624,16.509,0.111
53882.163366,16.339,0.058
53882.196129,16.388,0.061
53882.207214,16.365,0.063
53886.174713,16.528,0.081
53886.185369,16.519,0.08
53886.196102,16.534,0.087
53886.206892,16.635,0.091
53886.217774,16.635,0.089
53903.170954,16.472,0.093
53903.18103,16.647,0.118
53903.191173,16.513,0.107
53903.20149,16.567,0.102
53903.211685,16.436,0.093
54055.44428,16.354,0.074
54055.456815,16.44,0.078
54055.469283,16.385,0.073
54055.484701,16.504,0.073
54055.497733,16.448,0.064
54067.456367,16.823,0.078
54067.483105,16.815,0.078
54067.496285,16.826,0.076
54067.508891,16.87,0.076
54085.407778,16.482,0.078
54085.420767,16.507,0.078
54085.433586,16.529,0.086
54085.44659,16.49,0.079
54085.459591,16.623,0.083
54123.329982,16.636,0.072
54123.342475,16.667,0.07
54123.354687,16.575,0.065
54123.366893,16.682,0.07
54123.379187,16.662,0.07
54156.268152,15.975,0.041
54156.279245,15.974,0.04
54156.29066,16.027,0.041
54156.302441,16.12,0.046
54156.314025,16.191,0.048
54207.225843,16.519,0.109
54207.235445,16.629,0.114
54207.245257,16.619,0.111
54207.255916,16.526,0.107
54207.269369,16.613,0.107
54216.218375,16.207,0.055
54216.227016,16.161,0.055
54216.235667,16.253,0.059
54216.24432,16.232,0.059
54216.252975,16.3,0.061
54529.155267,16.739,0.089
54529.16808,16.712,0.084
54529.179779,16.868,0.094
54529.190874,16.578,0.078
54529.20243,16.708,0.084
54582.197357,16.334,0.074
54582.207482,16.276,0.074
54582.228112,16.181,0.071
54582.238189,16.282,0.074
54589.200185,16.787,0.068
54589.210547,16.836,0.067
54589.220889,16.803,0.061
54589.231244,16.82,0.065
54589.241611,16.651,0.052
54613.160765,16.883,0.152
54613.171075,16.651,0.122
54613.181252,16.869,0.153
54613.191573,16.623,0.127
54613.201808,16.821,0.142
54621.162912,16.892,0.07
54621.173071,16.817,0.068
54621.183212,16.799,0.067
54621.193577,16.674,0.059
54621.203726,16.509,0.054
