mjd,m,merr
52665.466803,15.456,0.028
52665.481103,15.454,0.026
52665.495398,15.431,0.026
52665.509816,15.417,0.024
52665.524132,15.411,0.022
52677.462959,15.682,0.035
52677.47724,15.768,0.039
52677.491524,15.804,0.039
52677.50585,15.651,0.031
52677.520139,15.516,0.028
52706.448225,15.434,0.023
52706.463586,15.436,0.023
52706.477972,15.451,0.023
52706.493007,15.475,0.025
52706.493609,15.437,0.021
52724.419784,15.411,0.02
52724.431535,15.387,0.02
52724.443104,15.415,0.022
52724.454662,15.413,0.022
52724.466221,15.446,0.024
52753.326612,15.392,0.022
52753.33863,15.444,0.022
52753.350657,15.448,0.022
52753.362735,15.527,0.024
52753.374783,15.608,0.024
52772.277388,15.41,0.044
52772.300906,15.39,0.043
52787.272511,15.456,0.02
52787.283156,15.432,0.02
52787.293762,15.408,0.02
52787.304478,15.419,0.02
52787.31524,15.391,0.02
52798.295941,15.538,0.038
52798.307187,15.491,0.033
52798.317457,15.5,0.031
52798.327929,15.489,0.031
52811.269449,15.412,0.026
52811.279396,15.41,0.026
52811.289494,15.475,0.03
52811.299592,15.478,0.03
52811.309511,15.486,0.031
52842.22381,15.447,0.078
52842.254232,15.44,0.033
52847.210723,15.397,0.026
52847.221065,15.388,0.026
52847.231437,15.41,0.026
52847.241938,15.434,0.024
52847.25227,15.433,0.026
52906.12961,15.479,0.08
52906.154722,15.429,0.05
52917.098343,15.715,0.048
52917.111306,15.801,0.055
52917.12421,15.756,0.057
52917.137437,15.667,0.059
53034.468008,15.429,0.026
53034.480329,15.441,0.024
53034.492886,15.485,0.026
53034.505297,15.487,0.024
53034.517644,15.527,0.026
53050.395367,15.655,0.068
53050.407014,15.555,0.039
53050.418754,15.506,0.026
53050.430514,15.424,0.02
53050.442158,15.435,0.022
53078.409927,15.559,0.031
53109.347576,15.433,0.02
53109.358448,15.445,0.02
53109.369426,15.43,0.02
53109.380306,15.415,0.02
53109.39154,15.399,0.02
53137.296445,15.455,0.022
53137.305925,15.496,0.022
53137.315413,15.528,0.022
53137.324945,15.578,0.024
53137.334433,15.617,0.024
53165.269633,15.498,0.024
53165.279753,15.447,0.022
53165.289863,15.458,0.024
53165.299973,15.452,0.024
53165.310133,15.422,0.026
53165.369328,15.431,0.033
53165.369414,15.482,0.035
53165.379534,15.439,0.035
53165.37962,15.485,0.037
53165.389844,15.451,0.037
53165.38993,15.522,0.039
53165.399911,15.63,0.051
53165.400064,15.528,0.043
53165.40015,15.582,0.044
53165.410374,15.575,0.046
53165.41046,15.648,0.05
53242.14022,15.709,0.035
53242.150393,15.755,0.038
53242.160708,15.8,0.04
53242.170672,15.671,0.036
53242.180651,15.603,0.035
53264.111571,15.513,0.021
53264.123109,15.489,0.021
53264.134688,15.461,0.025
53264.146129,15.462,0.021
53264.157601,15.463,0.023
53271.102554,15.43,0.028
53271.114665,15.426,0.028
53271.126819,15.411,0.028
53271.138924,15.434,0.03
53271.151031,15.43,0.031
53439.388542,15.424,0.022
53439.399647,15.436,0.022
53439.41088,15.466,0.022
53439.421961,15.474,0.022
53439.433107,15.53,0.024
53500.305408,15.453,0.022
53500.317387,15.486,0.022
53500.327956,15.539,0.024
53500.339316,15.583,0.026
53500.351956,15.736,0.028
53528.278036,15.483,0.028
53528.289284,15.468,0.028
53528.300243,15.45,0.026
53528.31134,15.442,0.028
53528.32251,15.411,0.026
53539.264263,15.462,0.041
53539.273915,15.437,0.041
53539.283515,15.502,0.043
53539.293277,15.526,0.044
53539.302907,15.539,0.044
53553.230604,15.442,0.028
53553.240974,15.423,0.026
53553.251393,15.417,0.026
53553.261752,15.403,0.026
53553.27211,15.397,0.026
53570.220687,15.514,0.054
53570.231351,15.501,0.054
53570.242002,15.513,0.055
53570.252669,15.458,0.054
53576.218785,15.419,0.026
53576.241107,15.498,0.033
53576.252864,15.506,0.033
53583.21442,15.537,0.024
53583.225715,15.508,0.024
53583.237048,15.497,0.026
53583.248371,15.576,0.039
53583.259705,15.458,0.033
53626.115993,15.808,0.046
53626.127513,15.793,0.048
53626.139003,15.752,0.046
53626.15049,15.622,0.043
53626.162006,15.547,0.041
53786.457125,15.543,0.031
53786.469331,15.544,0.031
53786.481406,15.533,0.03
53786.493664,15.48,0.028
53786.505743,15.446,0.026
53843.382525,15.462,0.038
53843.405686,15.51,0.041
53843.417438,15.521,0.041
53882.27965,15.434,0.025
53882.290323,15.424,0.025
53882.30113,15.483,0.026
53882.311786,15.511,0.026
53886.282153,15.681,0.035
53886.293266,15.777,0.039
53886.304273,15.814,0.041
53886.315305,15.754,0.037
53886.326366,15.665,0.033
53903.269924,15.57,0.037
53903.279788,15.654,0.041
53903.289648,15.727,0.044
53903.299528,15.755,0.044
53903.309385,15.871,0.052
53916.229749,15.466,0.071
53916.239569,15.407,0.026
53916.249456,15.406,0.026
53916.259225,15.408,0.026
53931.224294,15.466,0.038
53931.244723,15.438,0.041
53971.14041,15.547,0.051
53971.151345,15.546,0.043
53971.162267,15.476,0.035
53971.1729,15.472,0.031
53971.183559,15.443,0.036
54008.099522,15.793,0.054
54008.124459,15.613,0.043
54008.136921,15.49,0.041
54008.149486,15.51,0.045
54123.453639,15.393,0.03
54123.466032,15.412,0.028
54123.478418,15.398,0.026
54123.490893,15.447,0.026
54123.503261,15.439,0.026
54156.427696,15.504,0.025
54156.438753,15.479,0.025
54156.450134,15.433,0.023
54156.461554,15.427,0.023
54156.472646,15.402,0.023
54206.321881,15.424,0.025
54206.331205,15.418,0.023
54206.340603,15.435,0.023
54206.350053,15.468,0.023
54206.359397,15.5,0.025
54529.386211,15.342,0.03
54529.397456,15.439,0.031
54529.408716,15.441,0.033
54529.420051,15.445,0.031
54529.432524,15.424,0.031
54562.310483,15.53,0.041
54562.323227,15.482,0.038
54562.336362,15.478,0.038
54562.347742,15.452,0.036
54562.359113,15.444,0.036
54574.341695,15.766,0.044
54574.35251,15.762,0.044
54574.363275,15.752,0.043
54574.37403,15.641,0.039
54574.384757,15.577,0.037
54582.299936,15.527,0.046
54582.310138,15.537,0.049
54582.320943,15.463,0.048
54582.331107,15.436,0.046
54582.341277,15.45,0.046
54613.272908,15.481,0.053
54613.283405,15.46,0.049
54613.293659,15.525,0.053
54613.303946,15.524,0.051
