mjd,m,merr
52677.49561,16.231,0.061
52677.510569,16.313,0.061
52677.525756,16.221,0.056
52723.421201,16.282,0.044
52723.432398,16.315,0.055
52723.443889,16.281,0.072
52752.340228,15.568,0.026
52752.350414,15.631,0.026
52752.360586,15.719,0.028
52752.37085,15.715,0.033
52752.381126,15.806,0.033
52772.327715,15.999,0.098
52772.374491,16.131,0.076
52787.273825,15.691,0.026
52787.284483,15.499,0.022
52787.295052,15.486,0.022
52787.305782,15.495,0.022
52787.316532,15.574,0.024
52798.285864,15.565,0.059
52798.297342,15.581,0.051
52798.329323,15.718,0.051
52811.270817,15.985,0.049
52811.280766,15.767,0.04
52811.290864,15.714,0.038
52811.300961,15.495,0.031
52811.31088,15.443,0.031
52842.225074,15.927,0.131
52842.235119,15.995,0.302
52842.245273,15.975,0.081
52842.265669,16.037,0.05
52847.212368,16.256,0.054
52847.222766,16.226,0.052
52847.233086,16.299,0.057
52847.243565,16.362,0.057
52847.25394,16.351,0.076
52906.106418,16.37,0.44
52917.10041,16.264,0.076
52917.126285,16.282,0.091
52917.139612,16.204,0.089
52917.153225,16.165,0.093
53024.515908,15.809,0.152
53078.411811,16.094,0.05
53109.349259,16.268,0.043
53109.360154,16.328,0.044
53109.371108,16.376,0.046
53109.382045,16.387,0.044
53109.393225,16.369,0.044
53137.297997,16.008,0.037
53137.307479,16.042,0.037
53137.316968,16.042,0.035
53137.326501,16.071,0.037
53137.335986,16.074,0.035
53165.271115,16.401,0.054
53165.281237,16.298,0.05
53165.291347,16.163,0.043
53165.301455,15.922,0.037
53165.311617,15.705,0.031
53264.115476,15.817,0.028
53264.126928,15.859,0.03
53264.138367,15.853,0.03
53264.149808,15.915,0.033
53264.161249,15.938,0.031
53271.104888,16.241,0.055
53271.116997,16.174,0.054
53271.129152,16.173,0.054
53271.141258,16.2,0.057
53271.153368,16.26,0.063
53439.390292,16.393,0.048
53439.401399,16.361,0.044
53439.412632,16.339,0.043
53439.423715,16.214,0.039
53439.434858,15.893,0.028
53498.382129,16.392,0.048
53498.393912,16.336,0.048
53498.404781,16.414,0.054
53498.415823,16.333,0.05
53498.425826,16.146,0.041
53499.39051,16.264,0.044
53499.40228,16.363,0.048
53499.414362,16.321,0.046
53499.426587,16.356,0.05
53499.437714,16.359,0.05
53528.279688,15.676,0.033
53528.291248,15.734,0.033
53528.302381,15.773,0.035
53528.313182,15.8,0.037
53528.324111,15.859,0.039
53539.265655,15.816,0.055
53539.275302,15.793,0.057
53539.284894,15.779,0.055
53539.294663,15.787,0.055
53539.304309,15.843,0.057
53570.222326,16.045,0.089
53570.232988,16.06,0.089
53570.243641,16.136,0.096
53570.254304,16.073,0.091
53570.265019,16.169,0.102
53576.220481,16.267,0.057
53576.231751,16.061,0.048
53576.242803,15.802,0.043
53576.254555,15.593,0.035
53583.216152,16.002,0.035
53583.227448,16.051,0.039
53583.238784,16.084,0.043
53583.250101,16.043,0.104
53583.261447,16.149,0.078
53627.118536,16.098,0.057
53627.130799,16.09,0.057
53627.143242,16.114,0.059
53627.155377,16.227,0.068
53627.167461,16.193,0.068
53657.083085,16.433,0.137
53657.094353,16.32,0.098
53657.11696,16.325,0.111
53657.128282,16.409,0.12
53786.483286,16.223,0.054
53786.495544,16.197,0.05
53786.507621,16.218,0.052
53843.372705,16.236,0.071
53843.384236,16.261,0.073
53843.395984,16.269,0.073
53843.407389,16.32,0.071
53843.419152,16.246,0.071
53882.270211,15.532,0.028
53882.281003,15.594,0.03
53882.291862,15.652,0.03
53882.302489,15.733,0.033
53882.313142,15.708,0.033
53886.283565,16.228,0.059
53886.294675,16.181,0.057
53886.305686,16.233,0.059
53886.316711,16.218,0.057
53886.327778,16.279,0.057
53903.271211,15.934,0.05
53903.28108,16.011,0.054
53903.290952,16.035,0.057
53903.300823,16.028,0.057
53903.310673,16.105,0.063
53916.240844,15.748,0.033
53916.250735,15.759,0.035
53916.260505,15.804,0.036
53931.225815,16.318,0.079
53931.235937,16.455,0.096
53931.246248,16.478,0.107
53970.141258,16.016,0.04
53970.151026,16.066,0.041
53970.16067,16.066,0.043
53970.170244,16.114,0.048
53970.179882,16.091,0.048
53998.098223,16.386,0.054
53998.110649,16.368,0.053
53998.122768,16.295,0.049
53998.135057,15.965,0.038
53998.148601,15.766,0.031
54009.089806,16.249,0.064
54009.102554,15.988,0.054
54009.115486,15.727,0.045
54009.128401,15.505,0.038
54009.140944,15.488,0.038
54123.455394,15.898,0.037
54123.467783,15.689,0.03
54123.480167,15.51,0.024
54123.49264,15.465,0.022
54123.505008,15.523,0.022
54156.429599,15.697,0.03
54156.440662,15.734,0.03
54156.452041,15.79,0.031
54156.463476,15.851,0.033
54156.474559,15.864,0.033
54207.381615,16.243,0.068
54207.391015,16.262,0.049
54207.400428,16.225,0.049
54207.409868,16.287,0.051
54216.310186,16.246,0.052
54216.318943,16.272,0.052
54216.327954,16.334,0.052
54216.336687,16.349,0.055
54216.345416,16.389,0.055
54529.436238,16.249,0.053
54529.447491,16.138,0.048
54529.458787,16.204,0.049
54529.469955,16.268,0.051
54529.481293,16.289,0.053
54555.359172,15.667,0.043
54555.371423,15.722,0.043
54555.384457,15.794,0.045
54555.396576,15.823,0.046
54555.408569,15.857,0.048
54562.313948,16.189,0.061
54562.326793,16.306,0.063
54562.339822,16.192,0.058
54562.351198,16.213,0.059
54562.362572,16.331,0.064
54573.347169,16.271,0.068
54573.35801,16.235,0.065
54573.368824,16.3,0.068
54573.379612,16.234,0.063
54573.390529,16.292,0.067
54582.343139,16.216,0.083
54582.353507,16.261,0.087
54582.363684,16.364,0.092
54613.27433,15.518,0.036
54613.28483,15.543,0.036
54613.295114,15.613,0.038
54613.305366,15.626,0.038
