mjd,m,merr
52681.431125,14.637,0.018
52681.475851,14.741,0.015
52723.422163,14.989,0.016
52752.352134,15.107,0.02
52752.3628,15.105,0.021
52752.37353,15.116,0.023
52752.384422,15.115,0.021
52752.39502,15.092,0.021
52800.270605,14.615,0.022
52800.280673,14.572,0.02
52800.290694,14.572,0.018
52800.300685,14.626,0.02
52800.310719,14.623,0.02
52810.270873,14.62,0.013
52812.27587,15.013,0.015
52812.285792,15.037,0.017
52812.295647,15.047,0.015
52812.305477,15.068,0.017
52812.315352,15.079,0.017
52839.230346,14.816,0.015
52839.250229,14.888,0.018
52872.144628,14.759,0.022
52872.192889,14.826,0.044
52918.094396,14.81,0.022
52918.108004,14.834,0.022
52918.121111,14.855,0.024
52918.134628,14.878,0.026
52918.147961,14.916,0.028
53023.462053,14.913,0.015
53023.474151,14.906,0.015
53023.486297,14.927,0.013
53023.498295,14.929,0.013
53023.510369,14.965,0.013
53035.480838,15.207,0.02
53035.492971,15.167,0.02
53035.505225,15.181,0.02
53035.517408,15.158,0.018
53046.470434,14.951,0.017
53046.483613,14.975,0.017
53046.495543,14.992,0.017
53046.507549,15.033,0.018
53046.519479,15.03,0.018
53107.353066,15.21,0.015
53107.36459,15.228,0.015
53107.375706,15.249,0.017
53107.386729,15.204,0.017
53107.397747,15.198,0.017
53127.300536,15.184,0.028
53127.310624,15.183,0.028
53127.320811,15.205,0.028
53127.331003,15.193,0.026
53127.341033,15.181,0.026
53136.302005,14.453,0.009
53136.311357,14.473,0.009
53136.320824,14.505,0.011
53136.330129,14.526,0.011
53154.297215,15.103,0.018
53154.30605,15.096,0.02
53154.314823,15.115,0.02
53154.323658,15.104,0.02
53154.33244,15.114,0.018
53164.272514,15.077,0.015
53164.282661,15.073,0.017
53164.292804,15.059,0.017
53164.303019,15.083,0.017
53164.313168,15.091,0.02
53194.225437,15.073,0.024
53194.235455,15.061,0.022
53194.245475,15.072,0.022
53194.255571,15.101,0.022
53194.265588,15.131,0.022
53422.420402,14.905,0.03
53422.432892,14.883,0.039
53422.444869,14.919,0.022
53422.45679,14.925,0.02
53450.388383,15.196,0.024
53450.398915,15.213,0.024
53450.40944,15.219,0.024
53450.420021,15.222,0.026
53450.430553,15.221,0.022
53475.323907,14.767,0.013
53475.333724,14.78,0.013
53475.343537,14.802,0.015
53475.353903,14.822,0.013
53475.364736,14.838,0.015
53520.276897,15.003,0.028
53520.287321,15.135,0.024
53520.297931,15.137,0.02
53520.308529,15.135,0.018
53520.319155,15.148,0.02
53537.270213,14.987,0.028
53605.189783,15.187,0.028
53605.200827,15.188,0.026
53605.211856,15.207,0.028
53605.222882,15.219,0.03
53605.233946,15.239,0.031
53628.116508,15.151,0.03
53628.128639,15.166,0.03
53628.140849,15.182,0.031
53628.153015,15.158,0.031
53628.165131,15.198,0.031
53772.48716,14.572,0.013
53772.499846,14.586,0.013
53772.512733,14.636,0.013
53772.525545,14.695,0.013
53807.395948,14.929,0.033
53807.429306,15.023,0.033
53825.350059,14.95,0.03
53825.361804,14.969,0.059
53825.373058,14.916,0.021
53825.384317,14.952,0.025
53825.395547,14.914,0.018
53843.364631,15.076,0.028
53843.375837,15.041,0.028
53843.387063,15.096,0.028
53843.398296,15.078,0.028
53843.409545,15.101,0.03
53855.299564,15.276,0.025
53855.310573,15.268,0.025
53855.321064,15.282,0.025
53855.331275,15.312,0.023
53855.341398,15.321,0.023
53878.296309,15.13,0.023
53878.306902,15.068,0.023
53878.317472,14.988,0.021
53878.328154,14.929,0.02
53878.33899,14.865,0.018
53892.267484,15.085,0.033
53892.307315,15.148,0.037
53903.281055,14.966,0.02
53903.290657,14.965,0.021
53903.300259,14.99,0.021
53903.309871,14.999,0.021
53903.319697,14.981,0.023
53917.224573,14.741,0.021
53917.23449,14.663,0.033
53917.244227,14.633,0.018
53917.253967,14.618,0.018
53932.225834,15.158,0.031
53932.236247,15.136,0.026
53932.24654,15.185,0.026
53932.256916,15.189,0.031
53932.267292,15.17,0.045
53953.216442,14.8,0.026
53953.228478,14.826,0.026
53953.240529,14.838,0.026
53953.252448,14.865,0.028
53960.1933,15.555,0.048
53960.203095,15.417,0.04
53960.212944,14.779,0.038
53960.222843,14.794,0.028
53960.232683,14.824,0.026
53997.115884,15.202,0.018
53997.127924,15.244,0.02
53997.140095,15.24,0.021
53997.152742,15.26,0.023
53997.165273,15.264,0.023
54010.09393,15.246,0.026
54025.089653,14.934,0.016
54025.101092,14.948,0.018
54025.112606,14.985,0.018
54025.125324,15.002,0.021
54169.387559,15.09,0.02
54169.398617,15.091,0.018
54169.409732,15.11,0.018
54169.420956,15.118,0.018
54169.432068,15.106,0.02
54200.374269,14.746,0.013
54200.38436,14.761,0.013
54200.405631,14.785,0.013
54200.415502,14.81,0.013
54209.311451,14.928,0.041
54209.320421,14.95,0.031
54209.329268,14.951,0.03
54209.338381,14.962,0.031
54209.347231,14.988,0.02
54217.297195,15.083,0.02
54217.306023,15.033,0.02
54217.314773,14.998,0.018
54217.323491,14.956,0.017
54217.332197,14.942,0.017
54218.31954,15.141,0.03
54218.328839,15.142,0.03
54218.337805,15.108,0.03
54218.346888,15.131,0.03
54218.355677,15.11,0.028
54509.450715,15.002,0.02
54509.463228,15.004,0.02
54509.475837,15.006,0.02
54509.488736,15.03,0.021
54536.384117,14.703,0.018
54536.394984,14.73,0.018
54536.405833,14.761,0.018
54536.416695,14.772,0.018
54536.427771,14.789,0.018
54560.36339,15.194,0.03
54560.374809,15.177,0.028
54560.386194,15.113,0.026
54560.397584,15.043,0.025
54560.409201,14.991,0.023
