mjd,m,merr
52620.44214,16.303,0.053
52620.457134,16.435,0.058
52620.48635,16.884,0.12
52636.427639,16.237,0.052
52636.441689,16.265,0.052
52636.455937,16.241,0.05
52636.470034,16.328,0.052
52636.484074,16.452,0.057
52651.285935,16.498,0.078
52651.301112,16.693,0.086
52651.316286,16.843,0.092
52651.34758,16.621,0.071
52653.386909,16.39,0.07
52653.402143,16.539,0.065
52653.447515,16.612,0.059
52695.330127,16.83,0.065
52695.349382,16.837,0.091
52695.366233,16.478,0.15
52722.340652,16.265,0.039
52722.353268,16.298,0.043
52722.366382,16.218,0.039
52722.378939,16.276,0.043
52722.391935,16.338,0.048
52751.199533,16.813,0.17
52751.211163,16.341,0.061
52751.226729,16.295,0.046
52751.240559,16.262,0.046
52751.251731,16.228,0.043
52771.158184,16.204,0.109
52771.194107,16.231,0.113
52781.16383,16.358,0.05
52781.174711,16.248,0.046
52781.185483,16.282,0.046
52781.196264,16.258,0.046
52781.207113,16.25,0.046
52801.184985,16.886,0.338
52801.195388,16.636,0.285
52801.205821,16.577,0.289
52809.180768,16.227,0.059
52809.200736,16.235,0.089
52978.446671,16.382,0.059
52978.459719,16.289,0.048
52978.472565,16.294,0.046
52978.485382,16.2,0.043
52978.498136,16.316,0.052
52988.394037,16.39,0.083
52988.406995,16.476,0.089
52988.432798,16.85,0.124
53008.400015,16.248,0.089
53008.412682,16.203,0.052
53008.425343,16.317,0.057
53008.438014,16.313,0.055
53008.450623,16.371,0.057
53038.378114,16.353,0.069
53045.344534,16.537,0.069
53045.381213,16.247,0.064
53045.393345,16.215,0.059
53094.244011,16.43,0.05
53094.25452,16.618,0.059
53094.265189,16.666,0.061
53096.245322,16.504,0.122
53096.25505,16.348,0.102
53096.264939,16.231,0.096
53107.179808,16.406,0.049
53107.183161,16.467,0.044
53107.190258,16.388,0.048
53107.194396,16.368,0.037
53107.200685,16.352,0.043
53107.205637,16.367,0.037
53107.211203,16.309,0.043
53107.216881,16.317,0.035
53107.221703,16.339,0.041
53107.228129,16.398,0.037
53108.131982,16.426,0.052
53108.143103,16.422,0.05
53108.154263,16.547,0.054
53108.165471,16.683,0.061
53134.198154,16.449,0.061
53134.225199,17.282,0.142
53155.217267,16.825,0.193
53155.225923,16.591,0.142
53155.234256,16.492,0.127
53155.242643,16.442,0.122
53169.192807,16.36,0.063
53169.212471,16.336,0.063
53330.462632,16.735,0.102
53330.476209,17.141,0.158
53330.505335,16.654,0.091
53340.504436,16.995,0.177
53340.516889,17.149,0.178
53356.473641,16.363,0.049
53356.4872,16.513,0.053
53356.500684,16.588,0.056
53356.514088,16.879,0.074
53356.527535,16.817,0.068
53358.406208,16.274,0.048
53358.419231,16.307,0.052
53358.432299,16.398,0.052
53358.445381,16.525,0.059
53358.459245,16.779,0.07
53360.424281,16.838,0.105
53360.437424,16.69,0.098
53386.415029,16.362,0.046
53386.454377,16.736,0.065
53401.350711,16.291,0.057
53401.363328,16.335,0.059
53401.375952,16.246,0.057
53401.388576,16.364,0.063
53430.30724,16.87,0.083
53430.318944,16.882,0.085
53430.33129,16.736,0.076
53430.342977,16.541,0.065
53430.359649,16.323,0.055
53451.285801,16.889,0.122
53451.296772,16.546,0.089
53451.307777,16.423,0.08
53451.319227,16.356,0.076
53451.330385,16.315,0.074
53480.253906,16.25,0.113
53480.263341,16.214,0.111
53490.199218,16.939,0.08
53490.209915,16.771,0.07
53490.220292,16.516,0.055
53490.230851,16.443,0.054
53490.242196,16.302,0.048
53536.181046,16.468,0.13
53536.191053,16.417,0.126
53536.201096,16.401,0.135
53536.211126,16.219,0.117
53552.171444,16.796,0.124
53552.202217,16.393,0.085
53552.212876,16.295,0.081
53685.450363,16.349,0.085
53697.470928,16.323,0.144
53726.436584,16.447,0.07
53726.450057,16.307,0.091
53726.463734,16.197,0.085
53726.477417,16.182,0.085
53756.359343,16.577,0.161
53756.372317,16.459,0.091
53756.385369,16.408,0.093
53756.398851,16.26,0.13
53762.405237,16.331,0.039
53762.417752,16.339,0.052
53762.430499,16.405,0.054
53762.443125,16.437,0.063
53762.455901,16.594,0.07
53773.354864,16.316,0.055
53773.36762,16.384,0.055
53773.380821,16.496,0.061
53773.393713,16.769,0.074
53773.406483,16.834,0.074
53802.309169,16.543,0.099
53802.321237,16.496,0.068
53802.333598,16.29,0.079
53802.345703,16.285,0.053
53806.313481,16.455,0.12
53806.325333,16.846,0.17
53806.336869,16.951,0.205
53806.348159,16.852,0.17
53806.359411,16.54,0.133
53826.281307,16.421,0.045
53827.25604,16.431,0.043
53827.26675,16.49,0.045
53827.277527,16.757,0.056
53827.298966,16.918,0.066
53842.265577,16.899,0.133
53842.27742,16.702,0.117
53842.288653,16.546,0.1
53857.233764,17.069,0.145
53877.17273,16.38,0.112
53877.205993,16.202,0.15
53904.173297,16.266,0.041
53904.193704,16.332,0.045
53904.20403,16.382,0.049
53904.213999,16.563,0.061
54052.455696,16.669,0.087
54052.468156,16.369,0.08
54052.480412,16.34,0.067
54052.492672,16.282,0.065
54052.504997,16.257,0.063
54071.449755,17.056,0.152
54071.475644,16.54,0.069
54071.501283,16.352,0.053
54080.465853,16.555,0.165
54125.324437,16.865,0.091
54125.335998,16.819,0.087
54125.347719,16.559,0.069
54125.359323,16.483,0.063
54125.370909,16.381,0.059
54140.354552,16.259,0.041
54140.366757,16.19,0.039
54140.379109,16.217,0.039
54140.391151,16.274,0.044
54140.403247,16.328,0.05
54188.267461,16.317,0.114
54188.287115,16.341,0.127
54188.297087,16.319,0.117
54188.3069,16.533,0.137
54212.219246,16.256,0.064
54212.227763,16.294,0.066
54212.236402,16.306,0.064
54212.24488,16.343,0.066
54212.253342,16.293,0.066
54497.354696,16.389,0.058
54497.366663,16.41,0.064
54497.378995,16.51,0.091
54558.242596,17.191,0.216
54558.254219,16.696,0.106
54558.265913,16.5,0.124
54558.289161,16.333,0.092
54570.238858,16.474,0.078
54570.249904,16.459,0.078
54570.261651,16.364,0.073
54570.272957,16.268,0.066
54570.28412,16.307,0.069
54618.185456,16.225,0.092
54618.195866,16.273,0.089
