mjd,m,merr
52721.3773,15.155,0.018
52721.390198,15.148,0.018
52721.403131,15.06,0.017
52721.416012,14.758,0.013
52721.428866,14.541,0.011
52750.342475,15.046,0.024
52750.35322,15.018,0.024
52750.374824,15.087,0.035
52750.385594,15.104,0.043
52781.272821,15.076,0.017
52781.283514,15.07,0.017
52781.294346,15.092,0.017
52781.305235,15.08,0.017
52781.316524,15.085,0.017
52801.268665,15.005,0.041
52801.278772,15.057,0.043
52801.288843,15.025,0.041
52801.299046,15.055,0.041
52801.309209,15.05,0.041
52809.289941,15.008,0.018
52809.299937,15.009,0.018
52809.309854,15.02,0.018
52830.222458,14.462,0.017
52830.232394,14.522,0.017
52830.242339,14.548,0.017
52830.252233,14.58,0.017
52830.262143,14.605,0.018
52847.179487,15.128,0.022
52847.189508,15.078,0.022
52847.199455,15.086,0.021
52847.209392,15.132,0.024
52897.126399,14.446,0.011
52897.13815,14.36,0.011
52897.149909,14.363,0.011
52897.161826,14.386,0.013
52897.173547,14.431,0.013
52927.083258,14.814,0.017
52927.09468,14.84,0.017
52927.107136,14.847,0.017
52927.119668,14.902,0.017
52927.131359,14.908,0.018
53045.434382,14.612,0.017
53045.445722,14.629,0.017
53045.456879,14.67,0.017
53045.468784,14.725,0.017
53045.479926,14.713,0.017
53096.380883,14.649,0.017
53096.39095,14.68,0.017
53096.400982,14.722,0.017
53096.41103,14.722,0.017
53096.421131,14.764,0.017
53108.359138,14.54,0.009
53108.370135,14.557,0.009
53108.381236,14.611,0.011
53108.392332,14.64,0.011
53108.403437,14.67,0.011
53125.298952,15.061,0.026
53125.308902,15.049,0.026
53125.318848,15.081,0.026
53125.328843,15.09,0.026
53125.338929,15.066,0.024
53134.29385,14.922,0.017
53134.303406,14.937,0.018
53134.31295,14.957,0.018
53134.322446,14.956,0.02
53134.332036,14.989,0.02
53155.296363,14.547,0.017
53155.305324,14.579,0.017
53155.314267,14.585,0.017
53155.323231,14.626,0.018
53155.332138,14.645,0.018
53182.328151,14.85,0.017
53182.337947,14.841,0.017
53182.347753,14.824,0.03
53182.357563,14.875,0.026
53182.367376,14.881,0.033
53193.248764,14.917,0.028
53193.258846,14.938,0.018
53193.268939,14.978,0.02
53214.244942,14.575,0.024
53244.183787,14.951,0.022
53244.193959,14.971,0.024
53244.204133,14.981,0.024
53244.214362,14.982,0.024
53244.224541,15.015,0.026
53283.116345,15.01,0.017
53283.126532,15.008,0.018
53283.136717,15.013,0.017
53283.146926,15.049,0.017
53283.157131,15.09,0.018
53303.07525,14.847,0.022
53303.087176,14.875,0.024
53303.099121,14.89,0.024
53303.111063,14.876,0.026
53303.123,14.94,0.028
53451.399519,15.037,0.02
53451.410291,15.038,0.018
53451.421068,15.039,0.018
53451.431816,15.083,0.018
53451.44259,15.098,0.018
53461.388683,14.464,0.011
53461.399034,14.412,0.009
53461.409334,14.411,0.009
53461.419689,14.425,0.009
53461.43002,14.456,0.009
53490.310455,15.033,0.015
53490.32122,15.06,0.015
53490.333092,15.067,0.015
53490.344914,15.078,0.017
53490.356769,15.109,0.017
53536.268688,15.073,0.026
53536.278748,15.126,0.026
53536.288838,15.145,0.026
53536.298923,15.152,0.026
53536.308999,15.136,0.024
53565.221516,14.954,0.017
53565.232301,14.953,0.017
53565.243186,14.964,0.018
53565.253971,15.001,0.018
53565.264759,15.006,0.018
53607.217822,15.105,0.026
53774.481861,14.493,0.011
53774.494968,14.552,0.011
53774.507746,14.598,0.011
53774.520944,14.628,0.011
53802.432811,15.02,0.015
53802.444996,14.723,0.013
53802.457061,14.499,0.01
53802.469453,14.331,0.008
53802.481597,14.288,0.008
53806.428887,15.128,0.028
53828.342866,14.692,0.021
53828.353413,14.68,0.013
53828.363957,14.704,0.012
53828.374511,14.763,0.036
53828.385183,14.733,0.026
53834.330732,15.054,0.02
53834.340698,15.063,0.02
53834.350666,15.046,0.02
53834.360857,15.065,0.02
53834.370885,15.062,0.02
53842.359685,15.119,0.031
53842.370893,15.08,0.031
53842.38263,15.095,0.03
53842.393928,15.091,0.03
53857.324952,15.063,0.02
53857.334931,15.086,0.02
53857.345334,15.121,0.02
53857.355426,15.116,0.021
53857.365375,15.042,0.02
53876.266947,14.744,0.016
53876.277908,14.632,0.026
53876.288817,14.418,0.013
53904.271926,15.113,0.013
53904.281825,15.098,0.013
53904.291738,15.031,0.013
53904.301665,14.889,0.012
53904.311532,14.622,0.01
53933.218842,14.951,0.013
53933.22917,14.999,0.015
53933.239553,15.001,0.013
53933.249833,15.044,0.013
53933.260101,15.052,0.013
53954.242246,14.696,0.033
53954.254383,14.738,0.033
53990.116711,15.1,0.015
53990.128568,15.07,0.015
53990.140719,14.949,0.015
53990.152307,14.747,0.012
53990.163949,14.525,0.012
53995.119867,15.078,0.016
53995.131844,15.044,0.016
53995.14377,15.069,0.016
53995.155725,15.049,0.016
53995.168292,15.032,0.016
54012.089928,14.793,0.03
54022.079696,15.057,0.015
54022.091047,15.068,0.016
54022.102527,15.007,0.015
54022.113932,14.996,0.016
54125.443767,14.869,0.023
54125.455831,14.884,0.023
54125.467943,14.904,0.025
54125.479946,14.944,0.023
54125.49197,14.917,0.023
54139.446148,15.06,0.03
54139.458186,15.056,0.043
54139.470709,15.161,0.054
54139.482462,15.13,0.043
54139.494581,15.115,0.038
54157.438629,14.749,0.015
54157.449922,14.742,0.015
54157.46286,14.793,0.015
54157.47528,14.789,0.015
54157.486445,14.809,0.015
54539.420043,15.048,0.023
54539.431176,15.05,0.021
54539.44371,15.04,0.021
54539.455268,15.029,0.02
54539.466562,15.016,0.02
54558.40616,15.124,0.066
54571.349987,15.055,0.026
54571.361623,15.066,0.026
54571.374939,15.074,0.026
54571.385724,15.09,0.025
54571.396491,15.081,0.025
54586.296023,15.074,0.028
54586.306078,15.083,0.028
54586.316125,15.075,0.028
54586.326244,15.059,0.028
54586.336419,15.066,0.026
54619.264368,14.755,0.02
54619.274664,14.78,0.02
54619.284952,14.784,0.021
54619.295497,14.793,0.021
54619.305733,14.826,0.023
