mjd,m,merr
52721.377148,15.666,0.03
52721.390046,15.622,0.028
52721.402981,15.672,0.03
52721.415862,15.634,0.028
52721.428716,15.661,0.03
52750.342285,16.034,0.057
52750.353096,16.014,0.055
52750.36385,15.996,0.107
52750.3747,15.953,0.08
52750.385469,15.915,0.096
52781.27293,15.63,0.028
52781.283622,15.63,0.026
52781.29446,15.637,0.026
52781.30535,15.676,0.028
52781.316639,15.647,0.028
52801.268574,15.735,0.08
52801.278681,15.606,0.068
52801.288753,15.651,0.072
52801.298956,15.778,0.08
52801.309118,15.805,0.08
52809.289851,15.701,0.033
52809.299846,15.682,0.033
52809.309763,15.68,0.033
52830.222367,15.776,0.052
52830.232303,15.711,0.048
52830.242249,15.663,0.044
52830.252142,15.671,0.046
52830.262053,15.649,0.044
52846.210641,15.777,0.038
52846.220387,15.734,0.038
52846.230229,15.672,0.036
52846.240005,15.678,0.036
52846.249854,15.671,0.036
52897.126496,15.648,0.03
52897.138247,15.702,0.031
52897.150006,15.761,0.035
52897.161923,15.796,0.041
52897.173644,15.778,0.043
52927.083659,15.68,0.033
52927.095083,15.675,0.035
52927.107538,15.67,0.033
52927.120074,15.658,0.033
52927.131762,15.704,0.035
53045.434284,15.668,0.043
53045.445624,15.61,0.039
53045.456781,15.689,0.043
53045.468686,15.66,0.039
53045.479828,15.664,0.039
53096.380792,15.713,0.043
53096.390858,15.692,0.041
53096.400891,15.638,0.039
53096.410938,15.676,0.039
53096.421039,15.623,0.035
53108.359047,15.738,0.026
53108.370043,15.865,0.03
53108.381144,15.942,0.033
53108.39224,15.999,0.033
53108.403346,16.011,0.035
53125.298868,15.654,0.046
53125.308817,15.68,0.046
53125.318763,15.626,0.043
53125.328758,15.681,0.044
53125.338845,15.692,0.043
53134.293766,15.76,0.033
53134.303323,15.773,0.037
53134.312867,15.731,0.035
53134.322363,15.713,0.037
53155.296284,15.628,0.044
53155.305245,15.665,0.044
53155.314189,15.647,0.043
53155.323152,15.654,0.044
53155.332059,15.64,0.044
53182.328073,15.817,0.039
53182.337869,15.779,0.039
53182.347675,15.735,0.076
53182.357485,15.596,0.05
53182.367299,15.639,0.063
53193.248684,15.668,0.05
53193.258767,15.637,0.035
53193.268859,15.602,0.037
53214.24486,15.719,0.078
53244.142311,15.75,0.044
53244.152515,15.74,0.044
53244.162701,15.773,0.046
53244.172887,15.712,0.044
53244.183106,15.694,0.043
53283.116246,15.763,0.031
53283.126433,15.741,0.031
53283.136619,15.658,0.028
53283.146828,15.667,0.03
53283.157033,15.657,0.03
53303.075146,15.671,0.046
53303.08707,15.691,0.048
53303.099015,15.661,0.05
53303.110958,15.72,0.054
53303.122895,15.703,0.054
53451.39965,15.913,0.044
53451.410417,15.998,0.046
53451.421187,16.0,0.044
53451.431942,16.007,0.044
53451.442717,15.988,0.044
53461.38858,15.626,0.03
53461.398931,15.632,0.03
53461.40923,15.648,0.03
53461.419586,15.631,0.028
53461.429917,15.627,0.028
53489.308412,15.703,0.039
53489.3313,15.867,0.043
53489.343454,15.939,0.041
53489.354745,16.001,0.048
53535.268487,15.643,0.03
53535.278426,15.613,0.03
53535.288368,15.636,0.03
53535.298311,15.603,0.028
53535.308352,15.613,0.028
53563.235018,15.858,0.07
53563.245636,16.012,0.043
53563.256212,16.013,0.043
53599.204656,15.957,0.065
53599.217202,16.025,0.074
53599.22969,16.069,0.078
53599.242417,15.965,0.078
53635.111849,15.71,0.031
53635.122391,15.712,0.031
53635.13283,15.699,0.028
53635.143237,15.715,0.031
53635.153669,15.874,0.044
53664.078523,15.695,0.033
53664.089619,15.666,0.033
53664.10072,15.634,0.033
53664.111661,15.618,0.037
53664.122613,15.629,0.043
53755.471611,15.717,0.043
53755.484371,15.716,0.043
53755.497209,15.747,0.043
53755.510031,15.784,0.041
53755.522919,15.759,0.039
53774.482006,15.795,0.033
53774.495113,15.799,0.033
53774.507889,15.753,0.031
53774.521087,15.775,0.031
53803.409963,15.646,0.035
53803.423097,15.668,0.035
53803.435084,15.642,0.033
53803.447056,15.621,0.028
53803.459174,15.613,0.028
53829.322262,15.657,0.051
53829.333826,15.599,0.038
53829.34443,15.634,0.038
53829.355016,15.643,0.043
53829.365581,15.64,0.073
53833.321732,15.671,0.033
53833.333409,15.731,0.035
53833.34466,15.739,0.031
53833.355943,15.721,0.031
53833.367004,15.74,0.031
53858.301148,15.738,0.046
53858.311212,15.723,0.038
53858.321177,15.688,0.054
53858.34102,15.611,0.114
53864.294234,15.634,0.051
53864.303844,15.678,0.053
53864.313698,15.634,0.051
53864.323383,15.704,0.053
53864.333001,15.708,0.051
53876.267281,15.98,0.051
53876.289149,15.845,0.074
53905.267372,15.701,0.033
53905.27701,15.745,0.035
53905.286914,15.726,0.033
53905.296539,15.716,0.033
53905.306161,15.709,0.031
53933.219108,15.629,0.036
53933.229436,15.634,0.04
53933.23982,15.584,0.036
53933.250102,15.627,0.036
53933.260368,15.615,0.035
53954.242337,15.623,0.076
53954.254473,15.614,0.074
53991.119613,15.655,0.041
53991.131473,15.614,0.035
53991.143432,15.617,0.035
53991.155334,15.601,0.036
53991.166966,15.699,0.038
53992.151331,15.704,0.064
54022.079834,16.002,0.041
54022.091184,16.005,0.041
54022.102665,15.914,0.04
54022.114069,15.794,0.036
54108.459515,15.782,0.065
54108.472309,15.704,0.061
54108.485046,15.671,0.054
54108.497839,15.693,0.05
54108.51059,15.647,0.044
54125.443875,15.679,0.046
54125.45594,15.765,0.049
54125.468051,15.676,0.046
54125.480055,15.677,0.045
54125.492079,15.685,0.045
54139.446008,15.993,0.069
54139.458049,16.004,0.101
54139.470571,16.045,0.125
54139.482324,15.808,0.081
54139.494443,15.717,0.066
54157.438895,15.824,0.038
54157.450188,15.794,0.035
54157.463126,15.737,0.033
54157.475545,15.663,0.03
54157.486713,15.704,0.03
54524.450184,15.689,0.033
54524.462185,15.649,0.033
54524.473915,15.664,0.033
54524.485405,15.665,0.033
54524.496911,15.652,0.035
54539.37483,15.955,0.038
54539.385626,15.999,0.04
54539.396389,15.983,0.038
54539.408325,15.894,0.036
54539.419018,15.761,0.033
54571.349858,15.748,0.046
54571.361494,15.814,0.048
54571.374812,15.978,0.053
54571.385596,15.986,0.051
54571.396364,15.948,0.046
54587.303503,15.597,0.053
54587.313656,15.649,0.053
54587.324127,15.619,0.051
54587.334287,15.638,0.053
54587.344349,15.659,0.053
54620.267472,15.641,0.041
54620.277662,15.676,0.045
54620.288476,15.608,0.041
54620.29864,15.66,0.043
54620.308831,15.661,0.041
