mjd,m,merr
52622.3607,15.131,0.021
52622.375323,15.071,0.018
52622.390017,15.057,0.018
52622.404543,15.062,0.018
52622.419434,15.161,0.02
52638.304053,15.058,0.016
52638.319172,15.089,0.016
52638.334302,15.141,0.018
52638.349369,15.312,0.02
52638.364429,15.571,0.025
52643.32703,15.076,0.016
52643.343128,15.11,0.016
52643.359384,15.196,0.016
52643.375746,15.371,0.021
52643.392065,15.611,0.028
52649.302002,15.348,0.018
52649.318151,15.178,0.015
52649.334198,15.1,0.015
52649.350113,15.08,0.015
52649.366144,15.101,0.015
52670.274391,15.089,0.016
52670.289222,15.073,0.018
52670.303997,15.083,0.016
52670.319018,15.141,0.018
52670.333983,15.261,0.02
52675.248753,15.504,0.078
52675.263873,15.299,0.083
52677.248639,15.568,0.028
52677.263531,15.435,0.023
52677.278326,15.208,0.018
52677.293143,15.127,0.018
52677.307801,15.073,0.018
52696.207561,15.27,0.017
52696.221677,15.16,0.015
52696.234483,15.11,0.015
52696.247381,15.055,0.015
52696.260413,15.077,0.015
52703.232815,15.313,0.025
52704.234264,15.341,0.018
52704.247521,15.196,0.017
52704.260885,15.095,0.015
52704.274158,15.081,0.015
52704.287527,15.056,0.015
52723.170858,15.34,0.018
52723.182403,15.201,0.017
52723.193847,15.129,0.015
52723.206434,15.058,0.018
52723.217917,15.068,0.018
52752.134336,15.535,0.028
52752.144591,15.377,0.024
52752.154875,15.27,0.022
52752.165128,15.163,0.02
52752.175386,15.106,0.02
52761.139317,15.344,0.022
52761.151096,15.608,0.03
52761.162864,15.642,0.037
52761.174636,15.622,0.052
52761.186395,15.382,0.043
52912.439392,15.112,0.02
52912.452264,15.188,0.02
52912.465365,15.341,0.022
52912.478123,15.575,0.028
52917.458173,15.143,0.02
52917.472319,15.194,0.022
52917.486137,15.425,0.026
52934.425189,15.671,0.035
52934.436876,15.653,0.033
52934.44836,15.466,0.028
52934.459827,15.266,0.022
52934.47119,15.185,0.022
52942.396621,15.103,0.02
52942.408739,15.134,0.026
52942.420874,15.147,0.03
52942.43301,15.33,0.076
52942.445305,15.512,0.045
52946.381962,15.107,0.018
52946.394154,15.068,0.017
52946.406123,15.048,0.017
52946.418167,15.071,0.017
52946.430179,15.105,0.018
52962.385253,15.521,0.02
52962.398076,15.582,0.02
52962.410908,15.482,0.018
52962.423702,15.266,0.015
52962.436782,15.196,0.015
52977.388497,15.08,0.017
52977.40054,15.091,0.017
52977.412704,15.166,0.017
52977.424645,15.236,0.017
52977.436663,15.447,0.02
52991.411086,15.125,0.013
52991.425132,15.068,0.013
52991.439693,15.069,0.013
52991.453746,15.082,0.015
52991.46766,15.166,0.016
53000.365789,15.195,0.012
53000.37866,15.335,0.013
53000.391591,15.57,0.016
53000.404867,15.671,0.018
53000.41779,15.568,0.016
53002.31051,15.172,0.011
53002.323874,15.091,0.011
53002.338188,15.074,0.009
53002.353222,15.095,0.009
53002.36994,15.165,0.011
53006.333682,15.17,0.018
53006.346265,15.139,0.021
53006.358838,15.082,0.021
53006.371422,15.127,0.018
53007.346142,15.083,0.016
53007.3593,15.081,0.016
53007.3726,15.083,0.016
53007.38586,15.112,0.016
53007.400826,15.231,0.018
53024.310394,15.12,0.013
53024.323389,15.177,0.02
53024.336371,15.335,0.012
53035.279793,15.347,0.022
53035.293155,15.189,0.018
53035.305564,15.106,0.017
53035.320237,15.074,0.017
53035.333175,15.063,0.017
53049.22088,15.111,0.013
53049.232693,15.075,0.013
53049.244513,15.044,0.011
53049.256331,15.056,0.011
53049.268194,15.115,0.013
53054.22286,15.188,0.015
53054.236936,15.109,0.013
53054.251426,15.048,0.015
53054.266921,15.062,0.015
53054.2805,15.094,0.013
53062.227496,15.66,0.059
53077.247734,15.19,0.045
53087.225827,15.079,0.061
53087.236383,15.072,0.02
53087.246955,15.038,0.011
53087.257736,15.036,0.011
53087.268489,15.053,0.011
53107.137108,15.532,0.026
53107.147615,15.323,0.023
53107.158066,15.194,0.02
53107.168512,15.128,0.02
53107.178838,15.095,0.018
53127.145058,15.07,0.035
53127.154491,15.089,0.036
53127.163782,15.137,0.038
53127.172968,15.206,0.041
53127.182281,15.31,0.048
53136.149075,15.156,0.025
53136.157814,15.126,0.025
53136.166626,15.092,0.025
53136.175427,15.084,0.026
53136.184327,15.077,0.026
53273.466064,15.122,0.021
53282.446509,15.219,0.046
53282.458762,15.186,0.046
53282.470434,15.16,0.043
53282.481324,15.126,0.04
53286.475927,15.105,0.031
53286.486858,15.088,0.03
53293.419606,15.237,0.02
53293.430584,15.409,0.024
53293.441568,15.525,0.026
53293.452547,15.564,0.026
53293.463527,15.384,0.022
53328.371065,15.002,0.026
53328.383241,15.03,0.039
53331.386956,15.04,0.02
53331.399821,15.094,0.02
53331.412218,15.139,0.02
53331.424881,15.258,0.022
53331.43724,15.463,0.026
53341.401605,15.22,0.043
53341.413607,15.19,0.041
53341.425613,15.205,0.041
53341.438085,15.176,0.041
53341.450104,15.226,0.041
53343.369928,15.385,0.079
53348.330719,15.107,0.046
53348.343022,15.198,0.022
53348.355852,15.388,0.026
53348.368148,15.575,0.059
53348.380446,15.636,0.031
53354.318828,15.077,0.015
53354.332173,15.054,0.015
53354.345519,15.088,0.017
53354.358864,15.154,0.017
53354.377499,15.346,0.018
53377.280062,15.051,0.039
53377.293526,15.084,0.013
53377.307535,15.138,0.022
53377.321035,15.272,0.017
53377.334015,15.512,0.02
53384.331754,15.106,0.044
53386.342717,15.112,0.015
53386.355804,15.218,0.017
53386.368826,15.395,0.018
53386.382336,15.582,0.022
53386.395364,15.473,0.022
53389.343418,15.06,0.017
53389.357395,15.131,0.018
53389.370889,15.234,0.02
53389.383993,15.535,0.026
53389.399298,15.614,0.026
53404.300077,15.506,0.018
53404.312934,15.611,0.02
53404.325739,15.557,0.018
53404.345489,15.227,0.015
53404.358752,15.127,0.015
53474.190712,15.371,0.031
53474.200302,15.264,0.03
53474.21042,15.164,0.028
53474.220177,15.14,0.026
53474.229871,15.11,0.026
53498.14635,15.441,0.03
53498.156502,15.26,0.035
53498.166833,15.16,0.024
53498.187709,15.094,0.028
53646.439235,15.642,0.039
53646.450163,15.619,0.035
53646.4611,15.4,0.026
53646.472027,15.204,0.022
53651.421913,15.16,0.022
53651.432816,15.279,0.024
53651.443711,15.404,0.026
53651.454596,15.596,0.03
53651.465483,15.581,0.028
53657.424777,15.071,0.018
53657.436015,15.086,0.018
53657.44727,15.168,0.02
53657.458474,15.277,0.022
53657.46971,15.452,0.024
53673.439204,15.17,0.02
53673.452003,15.091,0.018
53673.46415,15.034,0.017
53673.47631,15.054,0.017
53673.489023,15.045,0.017
53676.441582,15.297,0.026
53676.454607,15.181,0.02
53676.466614,15.118,0.02
53676.478599,15.07,0.018
53676.49055,15.08,0.02
53683.389655,15.099,0.067
53683.402301,15.142,0.024
53683.427603,15.463,0.024
53683.440296,15.577,0.03
53701.437687,15.081,0.018
53741.341725,15.159,0.013
53741.35445,15.244,0.015
53741.36714,15.446,0.017
53741.380526,15.638,0.02
53741.393952,15.639,0.02
53771.220679,15.673,0.043
53771.245962,15.342,0.026
53771.258615,15.185,0.022
53771.271336,15.104,0.018
53786.234287,15.116,0.015
53786.247496,15.188,0.015
53786.260589,15.32,0.016
53786.274003,15.553,0.02
53786.287889,15.565,0.02
53812.24919,15.588,0.035
53812.260271,15.472,0.033
53812.271344,15.265,0.028
53812.282411,15.152,0.026
53812.293494,15.085,0.026
53824.180955,15.252,0.02
53824.191973,15.172,0.02
53824.203314,15.108,0.018
53824.248297,15.113,0.018
53843.139742,15.09,0.02
53843.151309,15.052,0.02
53843.163087,15.059,0.02
53843.175179,15.076,0.02
53843.18775,15.125,0.022
53854.139134,15.628,0.038
53854.149501,15.453,0.033
53854.159879,15.286,0.03
53854.17028,15.148,0.03
53854.180844,15.133,0.026
54009.415916,15.105,0.023
54009.432207,15.139,0.023
54009.447334,15.281,0.023
54009.460044,15.458,0.026
54009.472679,15.611,0.03
54028.433432,15.256,0.026
54028.445404,15.144,0.023
54028.457009,15.14,0.023
54028.468711,15.065,0.021
54028.480613,15.058,0.021
54054.394429,15.213,0.021
54054.407172,15.109,0.02
54054.419768,15.06,0.018
54054.432378,15.019,0.018
54054.444825,15.029,0.018
54068.389139,15.27,0.021
54068.401939,15.477,0.025
54068.415094,15.611,0.028
54068.428144,15.639,0.028
54068.441141,15.337,0.021
54085.337938,15.641,0.041
54085.351126,15.591,0.048
54085.364249,15.374,0.025
54085.377265,15.204,0.021
54085.390227,15.103,0.021
54110.271224,15.234,0.018
54110.287124,15.534,0.026
54110.302016,15.633,0.028
54110.316893,15.436,0.024
54110.335561,15.16,0.028
54123.2647,15.071,0.015
54123.276927,15.015,0.013
54123.289131,15.04,0.015
54123.301336,15.053,0.015
54123.313556,15.125,0.015
54201.18165,15.081,0.017
54201.192443,15.096,0.017
54201.202219,15.183,0.018
54201.21197,15.254,0.018
54201.221913,15.398,0.022
54207.17329,15.145,0.025
54207.182542,15.117,0.025
54207.191819,15.083,0.023
54207.201453,15.109,0.025
54207.211018,15.114,0.025
54216.135002,15.266,0.039
54216.143842,15.411,0.044
54216.152575,15.64,0.055
54216.161586,15.605,0.055
54216.170303,15.586,0.055
54395.434242,15.463,0.035
54395.447677,15.68,0.056
54395.476089,15.327,0.031
54412.384768,15.582,0.018
54412.397076,15.356,0.015
54412.409653,15.19,0.013
54412.42197,15.076,0.011
54412.434255,15.059,0.011
54421.385832,15.206,0.013
54421.398444,15.418,0.015
54421.41105,15.561,0.017
54421.42347,15.457,0.015
54421.435886,15.307,0.013
54436.456794,15.459,0.015
54436.469607,15.622,0.017
54436.482382,15.571,0.017
54436.495282,15.32,0.013
54436.508065,15.16,0.011
54450.330508,15.031,0.009
54450.34386,15.111,0.009
54450.356925,15.228,0.011
54450.36991,15.409,0.013
54450.383404,15.539,0.015
54470.265516,15.089,0.011
54470.278359,15.135,0.011
54470.291199,15.248,0.013
54470.304031,15.478,0.024
54475.272168,15.029,0.015
54475.284786,15.05,0.011
54475.297422,15.103,0.011
54475.310198,15.187,0.011
54475.322847,15.352,0.013
54508.238318,15.083,0.016
54508.250535,15.046,0.016
54508.262954,15.074,0.023
54508.275425,15.057,0.025
54508.287647,15.058,0.023
54509.160174,15.163,0.015
54509.171996,15.307,0.015
54509.183831,15.509,0.018
54509.195668,15.546,0.018
54509.20752,15.392,0.015
54532.216356,15.037,0.009
54532.227525,15.049,0.009
54532.238701,15.117,0.011
54532.249892,15.183,0.011
54532.261118,15.31,0.013
54573.137357,15.182,0.026
54573.148035,15.337,0.03
54573.158739,15.489,0.035
54573.169506,15.591,0.037
54573.180235,15.499,0.035
54583.143213,15.057,0.028
54583.153301,15.1,0.03
54583.163465,15.176,0.033
54583.173562,15.225,0.035
54583.183875,15.297,0.038
54586.140402,15.065,0.017
54586.150537,15.061,0.017
54586.16072,15.073,0.017
54586.181037,15.162,0.018
54594.14845,15.166,0.02
54594.15898,15.105,0.02
54594.179654,15.064,0.028
54594.189982,15.044,0.037
