mjd,m,merr
52681.446997,16.14,0.061
52681.461857,16.273,0.058
52681.476606,16.245,0.053
52681.491301,15.968,0.046
52723.422519,15.886,0.036
52723.447375,16.312,0.107
52752.352484,15.686,0.031
52752.36315,15.615,0.033
52752.373882,15.658,0.036
52752.384773,15.679,0.035
52752.385364,15.6,0.053
52752.39537,15.71,0.038
52800.272086,15.786,0.066
52800.282381,15.789,0.066
52800.292784,15.812,0.061
52800.303126,16.044,0.073
52800.313483,16.183,0.083
52812.284013,15.901,0.036
52812.29386,15.846,0.035
52812.304025,15.756,0.033
52812.313923,15.766,0.033
52812.324001,15.732,0.033
52840.214282,15.913,0.037
52840.224149,15.814,0.037
52840.234034,15.733,0.033
52840.244024,15.722,0.033
52840.253884,15.627,0.033
52872.145425,15.751,0.039
52872.157372,15.792,0.081
52872.193693,16.015,0.093
52918.094873,15.915,0.057
52918.108529,16.137,0.072
52918.121608,16.307,0.089
52918.135222,16.256,0.091
52918.148535,16.096,0.083
52935.077079,15.777,0.051
52935.100177,15.769,0.054
52935.123161,15.781,0.061
53023.474732,16.323,0.049
53023.510949,15.863,0.03
53035.481729,15.748,0.033
53035.493878,15.754,0.031
53035.506117,15.759,0.033
53035.518313,15.811,0.033
53049.451355,16.271,0.054
53049.466132,16.097,0.044
53049.480539,15.902,0.037
53049.492892,15.831,0.035
53049.507484,15.724,0.03
53107.339174,15.745,0.028
53107.349417,15.714,0.026
53107.359651,15.708,0.026
53107.369901,15.681,0.026
53107.380175,15.731,0.028
53136.288978,16.246,0.054
53136.297685,16.095,0.045
53136.306407,15.975,0.038
53136.315114,15.873,0.036
53136.324058,15.857,0.036
53154.291151,15.891,0.048
53154.299643,15.824,0.043
53154.307998,15.757,0.04
53154.316998,15.694,0.036
53154.325356,15.719,0.038
53155.293886,16.011,0.065
53155.302833,16.084,0.076
53155.311795,16.156,0.074
53155.320751,16.068,0.074
53155.329665,16.129,0.076
53156.294377,15.634,0.043
53156.312047,15.635,0.043
53156.320866,15.696,0.044
53156.32965,15.713,0.044
53164.268336,15.812,0.035
53164.278077,15.744,0.031
53164.287509,15.744,0.033
53164.296978,15.696,0.035
53164.306902,15.714,0.038
53181.275426,16.053,0.033
53181.314179,16.117,0.031
53194.220653,15.682,0.048
53194.240092,15.803,0.049
53194.249156,15.854,0.045
53194.258397,15.845,0.046
53243.140655,15.684,0.038
53243.150945,15.74,0.04
53243.16132,15.768,0.041
53243.171483,15.792,0.043
53243.182282,15.801,0.045
53254.121429,15.836,0.025
53254.133007,15.797,0.025
53254.144185,15.709,0.023
53254.155281,15.749,0.025
53254.166508,15.701,0.025
53264.116549,15.714,0.026
53264.127986,15.699,0.026
53264.139424,15.696,0.026
53264.150866,15.7,0.028
53264.162305,15.769,0.028
53282.093766,15.637,0.046
53282.115135,15.728,0.031
53282.125907,15.765,0.033
53282.137187,15.76,0.035
53286.087539,16.09,0.04
53286.098501,16.224,0.054
53286.109298,16.269,0.053
53286.120232,16.309,0.051
53286.131027,16.072,0.043
53422.458045,15.852,0.046
53422.47085,15.778,0.052
53422.483735,15.75,0.046
53422.497702,15.712,0.039
53422.510031,15.665,0.039
53450.431832,15.7,0.033
53450.443204,15.724,0.033
53450.453714,15.732,0.033
53450.464209,15.742,0.031
53450.474716,15.793,0.031
53474.450304,15.768,0.054
53521.265979,15.761,0.048
53521.276289,15.753,0.044
53521.286636,15.772,0.031
53521.296978,15.845,0.033
53521.307293,15.949,0.041
53538.267232,16.105,0.07
53538.276767,16.048,0.065
53538.2863,15.889,0.057
53538.29584,15.801,0.054
53538.305357,15.75,0.048
53605.190938,15.904,0.055
53605.201971,15.839,0.052
53605.213003,15.741,0.048
53605.224034,15.72,0.05
53605.235099,15.721,0.052
53628.117459,16.294,0.081
53628.129586,16.165,0.072
53628.141808,15.951,0.061
53628.153966,15.911,0.061
53628.166087,15.791,0.055
53772.487865,15.708,0.033
53772.500549,15.732,0.033
53772.513438,15.701,0.031
53772.52625,15.734,0.031
53786.492975,16.223,0.051
53786.506248,15.991,0.041
53786.519377,15.827,0.036
53807.396522,15.754,0.063
53807.42988,15.827,0.068
53824.475503,15.706,0.025
53843.364947,15.805,0.054
53843.376156,15.886,0.059
53843.387383,16.044,0.067
53843.398617,16.202,0.078
53843.409866,16.418,0.098
53855.300144,15.924,0.043
53855.311158,16.071,0.051
53855.321648,16.227,0.054
53855.331861,16.261,0.051
53855.341984,16.27,0.053
53878.296935,16.29,0.064
53878.307522,16.237,0.061
53878.318095,16.038,0.051
53878.32877,15.846,0.043
53878.339609,15.797,0.04
53892.268469,15.673,0.054
53892.29841,15.814,0.07
53892.308304,15.893,0.072
53903.281566,15.681,0.038
53903.291177,15.688,0.04
53903.300779,15.717,0.041
53903.310387,15.747,0.043
53903.320215,15.772,0.046
53917.225095,15.896,0.061
53917.235005,16.116,0.109
53917.244745,16.171,0.066
53917.25449,16.273,0.074
53917.26426,16.352,0.122
53932.225548,16.199,0.067
53932.23631,16.058,0.055
53932.246898,15.929,0.055
53932.257512,15.824,0.061
53932.268129,15.795,0.089
53942.249981,15.886,0.107
53942.26104,15.692,0.054
53953.205243,16.293,0.105
53953.217083,16.355,0.102
53953.229128,16.131,0.081
53953.241151,15.975,0.072
53953.253083,15.822,0.063
53960.193882,15.835,0.073
53960.203679,15.761,0.049
53960.213525,15.783,0.058
53960.223428,15.773,0.063
53960.23329,15.645,0.059
53997.116573,15.856,0.033
53997.128624,15.926,0.036
53997.140789,16.108,0.046
53997.153433,16.393,0.061
53997.165966,16.363,0.061
54010.094654,15.79,0.046
54010.107339,15.803,0.048
54025.079308,16.098,0.053
54025.090819,16.284,0.064
54025.102277,16.308,0.068
54025.113768,16.33,0.073
54025.126484,16.078,0.059
54169.388108,16.121,0.052
54169.399171,16.282,0.054
54169.410282,16.329,0.057
54169.421504,16.22,0.05
54169.432613,16.069,0.05
54186.378205,15.824,0.084
54186.398943,15.813,0.058
54186.409209,15.747,0.049
54200.375056,16.318,0.048
54200.385152,16.22,0.044
54200.395718,15.992,0.037
54200.406416,15.888,0.033
54200.416291,15.84,0.033
54209.311925,15.823,0.114
54209.320896,15.777,0.069
54209.329741,15.77,0.061
54209.338854,15.749,0.073
54209.347705,15.713,0.035
54217.297674,16.024,0.052
54217.306516,15.94,0.046
54217.315252,15.804,0.041
54217.323969,15.84,0.041
54217.332674,15.775,0.037
54218.319969,16.185,0.079
54218.329284,16.297,0.086
54218.338246,16.252,0.083
54218.347332,16.281,0.081
54218.356105,16.169,0.071
54509.45187,16.321,0.053
54509.464379,16.262,0.049
54509.476986,16.135,0.045
54509.489885,15.978,0.038
54536.428673,15.756,0.033
54536.44085,15.77,0.035
54536.452956,15.837,0.035
54536.464075,15.929,0.038
54543.39712,15.86,0.066
54543.409366,16.001,0.073
54543.42011,16.123,0.078
54543.430937,16.353,0.091
54543.441601,16.317,0.084
54561.354743,15.815,0.04
54561.36682,15.891,0.041
54561.380419,15.971,0.045
54561.391971,16.213,0.053
54614.272186,16.18,0.058
54614.282571,16.036,0.054
54614.292952,15.935,0.049
54614.303215,15.852,0.048
54614.313553,15.811,0.046
