mjd,m,merr
52681.431757,16.398,0.074
52681.446869,16.496,0.086
52681.461729,16.537,0.076
52681.476478,16.428,0.064
52681.491174,16.424,0.074
52723.421898,16.437,0.048
52723.433101,16.47,0.059
52723.444613,16.476,0.087
52752.340897,16.151,0.041
52752.351083,16.147,0.041
52752.361256,16.206,0.043
52752.37152,16.11,0.046
52752.381823,16.131,0.044
52772.390838,16.177,0.074
52787.277939,16.157,0.046
52787.288762,16.173,0.048
52787.299667,16.274,0.051
52787.310493,16.232,0.049
52787.321589,16.304,0.056
52800.272179,16.514,0.134
52800.282474,16.552,0.129
52800.292878,16.521,0.116
52800.30322,16.478,0.112
52800.313577,16.524,0.116
52812.283829,16.152,0.045
52812.293676,16.141,0.045
52812.303841,16.173,0.046
52812.31374,16.106,0.045
52812.323818,16.138,0.046
52840.214194,16.479,0.059
52840.224062,16.55,0.068
52840.233946,16.41,0.059
52840.243937,16.586,0.07
52872.145338,16.4,0.065
52872.157286,16.547,0.144
52872.193606,16.171,0.105
52918.095998,16.418,0.091
52918.10949,16.362,0.089
52918.12249,16.447,0.102
52918.136089,16.408,0.104
52918.149429,16.46,0.12
52935.076991,16.549,0.097
52935.088685,16.445,0.094
52935.100091,16.468,0.099
52935.111615,16.48,0.106
52935.123056,16.539,0.114
53023.462775,16.404,0.058
53023.474874,16.41,0.053
53023.48702,16.448,0.049
53023.499017,16.4,0.045
53023.511092,16.327,0.043
53049.451245,16.445,0.061
53049.466022,16.429,0.057
53049.480429,16.407,0.055
53049.492782,16.462,0.057
53049.507374,16.488,0.054
53107.339081,16.426,0.049
53107.349324,16.407,0.048
53107.359558,16.41,0.048
53107.369808,16.444,0.049
53107.380082,16.479,0.053
53136.288893,16.183,0.049
53136.297602,16.159,0.048
53136.306321,16.179,0.045
53136.315027,16.139,0.045
53136.323971,16.159,0.046
53154.291068,16.132,0.058
53154.29956,16.136,0.054
53154.307915,16.179,0.056
53154.316788,16.174,0.054
53154.325272,16.171,0.054
53164.268252,16.511,0.063
53164.277995,16.397,0.056
53164.287425,16.481,0.064
53164.296895,16.532,0.073
53164.30682,16.452,0.069
53181.275297,16.393,0.043
53181.31405,16.184,0.035
53194.220573,16.186,0.083
53194.249076,16.182,0.059
53194.258317,16.075,0.054
53243.14056,16.532,0.079
53243.15085,16.422,0.071
53243.161193,16.388,0.071
53243.171387,16.488,0.078
53243.182187,16.486,0.079
53254.121313,16.154,0.033
53254.13289,16.142,0.033
53254.144068,16.165,0.035
53254.155164,16.164,0.035
53254.166391,16.107,0.036
53264.116445,16.345,0.044
53264.127881,16.395,0.048
53264.13932,16.468,0.05
53264.150762,16.457,0.052
53264.162201,16.45,0.05
53282.11503,16.432,0.058
53282.125802,16.45,0.063
53282.137083,16.464,0.063
53286.087435,16.306,0.046
53286.098397,16.319,0.058
53286.109194,16.298,0.053
53286.120126,16.322,0.051
53286.130923,16.415,0.054
53474.450205,16.516,0.105
53521.26588,16.221,0.065
53521.276192,16.167,0.055
53521.286539,16.111,0.043
53521.296882,16.115,0.041
53521.30719,16.153,0.046
53538.267147,16.118,0.072
53538.276683,16.142,0.07
53538.286217,16.143,0.07
53538.295757,16.241,0.076
53538.305272,16.203,0.072
53627.119201,16.463,0.078
53627.131464,16.415,0.076
53627.143908,16.505,0.081
53627.156034,16.467,0.083
53627.168132,16.477,0.087
53657.095025,16.187,0.087
53657.117633,16.242,0.096
53657.128954,16.243,0.096
53786.492804,16.211,0.049
53786.506078,16.285,0.053
53786.519206,16.305,0.054
53807.430024,16.4,0.1
53824.463278,16.37,0.165
53824.475352,16.357,0.045
53843.365161,16.233,0.083
53843.376371,16.274,0.085
53843.398833,16.263,0.085
53855.342549,16.487,0.061
53855.354569,16.501,0.061
53855.364871,16.485,0.061
53855.37516,16.497,0.066
53855.385425,16.462,0.064
53857.427861,16.379,0.085
53857.438268,16.338,0.104
53857.448669,16.277,0.054
53857.459125,16.192,0.05
53878.297012,16.389,0.066
53878.307599,16.598,0.081
53878.318171,16.424,0.071
53878.328847,16.555,0.076
53878.339686,16.577,0.076
53903.28165,16.17,0.059
53903.291261,16.24,0.061
53903.300862,16.248,0.063
53903.310472,16.26,0.066
53903.320299,16.308,0.071
53917.225178,16.41,0.091
53917.24483,16.524,0.087
53917.254575,16.408,0.083
53932.225464,16.407,0.074
53932.236225,16.373,0.07
53932.246813,16.361,0.078
53932.257427,16.323,0.091
53932.268045,16.136,0.128
53942.260952,16.401,0.102
53953.205353,16.419,0.12
53953.229234,16.316,0.096
53953.241263,16.388,0.102
53953.253205,16.315,0.098
53960.203775,16.182,0.071
53960.213621,16.227,0.078
53960.223523,16.304,0.101
53960.233386,16.339,0.107
53997.117254,16.327,0.049
53997.129306,16.33,0.051
53997.141469,16.427,0.061
53997.154115,16.465,0.066
53997.166649,16.512,0.069
54028.078837,16.351,0.061
54028.090338,16.374,0.066
54028.101866,16.258,0.064
54028.113453,16.184,0.061
54028.125028,16.192,0.064
54169.38824,16.137,0.05
54169.399301,16.181,0.048
54169.410413,16.189,0.05
54169.421638,16.309,0.052
54169.432748,16.342,0.061
54186.409077,16.32,0.084
54201.379309,16.434,0.035
54201.38915,16.44,0.035
54201.398904,16.403,0.037
54201.408644,16.442,0.039
54201.418423,16.38,0.037
54209.321043,16.173,0.106
54209.329859,16.162,0.086
54209.338972,16.266,0.104
54209.347822,16.232,0.054
54217.297787,16.478,0.076
54217.306626,16.473,0.074
54217.315361,16.468,0.074
54217.324079,16.472,0.072
54217.332784,16.41,0.067
54218.320593,16.442,0.097
54218.329904,16.48,0.101
54218.338859,16.375,0.089
54218.347939,16.367,0.089
54218.35671,16.321,0.081
54508.479741,16.5,0.051
54508.492367,16.362,0.046
54508.506732,16.404,0.048
54543.396983,16.395,0.099
54543.409229,16.332,0.089
54543.419974,16.295,0.084
54543.430799,16.134,0.071
54543.441464,16.088,0.064
54561.354583,16.268,0.056
54561.366659,16.144,0.051
54561.380257,16.165,0.051
54561.391809,16.076,0.048
54614.272078,16.122,0.054
54614.282462,16.104,0.056
54614.292843,16.178,0.058
54614.303107,16.166,0.059
54614.313445,16.237,0.061
