mjd,m,merr
52681.446997,15.202,0.026
52681.461857,15.231,0.023
52681.476606,15.235,0.023
52681.491301,15.259,0.025
52723.422519,15.197,0.02
52723.447375,15.199,0.038
52752.352484,14.936,0.018
52752.36315,14.952,0.018
52752.373882,14.956,0.02
52752.384773,14.99,0.02
52752.385364,14.957,0.033
52752.39537,15.011,0.021
52800.272086,15.307,0.043
52800.282381,15.307,0.043
52800.292784,15.299,0.038
52800.303126,15.265,0.036
52800.313483,15.211,0.035
52812.284013,15.105,0.02
52812.29386,15.127,0.02
52812.304025,15.136,0.02
52812.313923,15.127,0.02
52812.324001,15.107,0.02
52840.214282,15.17,0.02
52840.224149,15.192,0.022
52840.234034,15.214,0.02
52840.244024,15.228,0.022
52840.253884,15.252,0.024
52872.145425,15.302,0.026
52872.157372,15.21,0.05
52872.193693,15.301,0.046
52918.094873,15.112,0.028
52918.108529,15.113,0.028
52918.121608,15.165,0.031
52918.135222,15.166,0.033
52918.148535,15.175,0.037
52935.077079,15.104,0.028
52935.100177,15.12,0.031
52935.123161,15.147,0.035
53023.474732,15.335,0.02
53023.510949,15.347,0.018
53035.481729,15.151,0.02
53035.493878,15.172,0.02
53035.506117,15.165,0.02
53035.518313,15.186,0.02
53049.451355,14.759,0.015
53049.466132,14.777,0.015
53049.480539,14.811,0.015
53049.492892,14.828,0.015
53049.507484,14.856,0.015
53107.339174,15.07,0.015
53107.349417,15.098,0.015
53107.359651,15.118,0.016
53107.369901,15.109,0.016
53107.380175,15.108,0.016
53136.288978,14.747,0.015
53136.297685,14.789,0.015
53136.306407,14.787,0.013
53136.315114,14.814,0.015
53136.324058,14.831,0.015
53154.291151,15.186,0.026
53154.299643,15.194,0.025
53154.307998,15.191,0.023
53154.316998,15.195,0.023
53154.325356,15.216,0.025
53155.293886,14.733,0.02
53155.302833,14.78,0.024
53155.311795,14.776,0.022
53155.320751,14.772,0.024
53155.329665,14.799,0.024
53156.294377,15.133,0.028
53156.303197,15.178,0.028
53156.312047,15.161,0.028
53156.320866,15.182,0.028
53156.32965,15.163,0.028
53164.268336,14.997,0.016
53164.278077,15.036,0.016
53164.287509,15.057,0.018
53164.296978,15.053,0.02
53164.306902,15.041,0.021
53181.275426,15.077,0.015
53181.314179,15.084,0.013
53194.220653,15.096,0.03
53194.240092,15.074,0.026
53194.249156,15.118,0.023
53194.258397,15.143,0.025
53243.140655,15.188,0.023
53243.150945,15.159,0.023
53243.16132,15.178,0.025
53243.171483,15.181,0.025
53243.182282,15.198,0.026
53254.121429,15.217,0.015
53254.133007,15.252,0.015
53254.144185,15.278,0.016
53254.155281,15.302,0.016
53254.166508,15.31,0.018
53264.116549,15.096,0.015
53264.127986,15.117,0.017
53264.139424,15.106,0.017
53264.150866,15.136,0.017
53264.162305,15.139,0.017
53282.093766,14.917,0.023
53282.115135,14.888,0.015
53282.125907,14.833,0.015
53282.137187,14.778,0.015
53286.087539,15.32,0.02
53286.098501,15.369,0.025
53286.109298,15.355,0.023
53286.120232,15.296,0.021
53286.131027,15.252,0.02
53422.458045,15.302,0.028
53422.47085,15.32,0.035
53422.483735,15.304,0.031
53422.497702,15.299,0.026
53422.510031,15.211,0.026
53450.431832,14.725,0.015
53450.443204,14.741,0.015
53450.453714,14.762,0.015
53450.464209,14.773,0.013
53450.474716,14.797,0.013
53474.450304,15.102,0.028
53521.265979,15.11,0.026
53521.276289,15.121,0.024
53521.286636,15.115,0.018
53521.296978,15.137,0.018
53521.307293,15.133,0.02
53538.267232,15.124,0.03
53538.276767,15.149,0.03
53538.2863,15.132,0.03
53538.29584,15.133,0.03
53538.305357,15.11,0.028
53605.190938,14.804,0.02
53605.201971,14.856,0.02
53605.213003,14.849,0.02
53605.224034,14.86,0.022
53605.235099,14.892,0.024
53628.117459,15.046,0.026
53628.129586,14.914,0.024
53628.141808,14.85,0.022
53628.153966,14.811,0.022
53628.166087,14.757,0.022
53772.487865,15.215,0.02
53772.500549,15.215,0.02
53772.513438,15.244,0.022
53772.52625,15.259,0.02
53786.492975,15.019,0.016
53786.506248,15.058,0.018
53786.519377,15.056,0.018
53807.396522,14.897,0.03
53807.42988,14.91,0.03
53824.475503,15.013,0.013
53843.364947,14.877,0.024
53843.376156,14.902,0.024
53843.387383,14.906,0.024
53843.398617,14.937,0.024
53843.409866,14.947,0.026
53855.300144,15.248,0.023
53855.311158,15.249,0.025
53855.321648,15.276,0.023
53855.331861,15.303,0.021
53855.341984,15.308,0.023
53878.296935,15.176,0.023
53878.307522,15.223,0.025
53878.318095,15.24,0.025
53878.32877,15.237,0.025
53878.339609,15.245,0.025
53892.268469,14.932,0.03
53892.29841,15.002,0.033
53892.308304,15.002,0.033
53903.281566,15.131,0.023
53903.291177,15.129,0.025
53903.300779,15.117,0.023
53903.310387,15.159,0.025
53903.320215,15.176,0.026
53917.225095,14.72,0.021
53917.235005,14.76,0.033
53917.244745,14.73,0.018
53917.25449,14.728,0.02
53917.26426,14.771,0.03
53932.225548,14.833,0.02
53932.23631,14.859,0.02
53932.246898,14.861,0.022
53932.257512,14.886,0.026
53932.268129,14.867,0.039
53942.249981,15.237,0.059
53942.26104,15.123,0.033
53953.205243,14.768,0.026
53953.217083,14.744,0.024
53953.229128,14.776,0.024
53953.241151,14.799,0.026
53953.253083,14.813,0.026
53960.193882,17.155,0.241
53960.203679,15.948,0.058
53960.213525,15.069,0.03
53960.223428,15.102,0.033
53960.23329,15.071,0.035
53997.116573,15.266,0.02
53997.128624,15.286,0.02
53997.140789,15.281,0.021
53997.153433,15.307,0.023
53997.165966,15.335,0.025
54010.094654,15.266,0.028
54010.107339,15.184,0.026
54025.079308,14.881,0.018
54025.090819,14.779,0.016
54025.102277,14.751,0.016
54025.113768,14.72,0.016
54025.126484,14.737,0.018
54169.388108,15.228,0.022
54169.399171,15.2,0.02
54169.410282,15.231,0.02
54169.421504,15.238,0.02
54169.432613,15.261,0.024
54186.378205,15.309,0.053
54186.398943,15.256,0.035
54186.409209,15.327,0.035
54200.375056,15.024,0.015
54200.385152,15.038,0.017
54200.395718,15.026,0.015
54200.406416,15.047,0.017
54200.416291,15.073,0.017
54209.311925,15.19,0.063
54209.320896,15.137,0.04
54209.329741,15.138,0.035
54209.338854,15.155,0.043
54209.347705,15.146,0.021
54217.297674,14.959,0.02
54217.306516,14.97,0.018
54217.315252,15.001,0.02
54217.323969,15.012,0.018
54217.332674,14.999,0.018
54218.319969,15.307,0.035
54218.329284,15.3,0.035
54218.338246,15.334,0.036
54218.347332,15.334,0.035
54218.356105,15.324,0.033
54509.45187,15.338,0.025
54509.464379,15.311,0.025
54509.476986,15.269,0.023
54509.489885,15.202,0.021
54536.428673,15.164,0.021
54536.44085,15.188,0.023
54536.452956,15.178,0.021
54536.464075,15.194,0.021
54543.39712,15.194,0.038
54543.409366,15.191,0.036
54543.42011,15.092,0.033
54543.430937,14.932,0.028
54543.441601,14.903,0.026
54561.354743,15.078,0.023
54561.36682,15.107,0.025
54561.380419,15.078,0.023
54561.391971,15.094,0.025
54614.272186,15.044,0.025
54614.282571,15.053,0.026
54614.292952,15.057,0.026
54614.303215,15.063,0.026
54614.313553,15.066,0.026
