mjd,m,merr
52677.495356,16.275,0.063
52677.510313,16.301,0.059
52677.525502,16.264,0.056
52723.421312,16.761,0.067
52723.432509,16.783,0.083
52723.444005,16.699,0.105
52752.340342,16.455,0.055
52752.350529,16.5,0.057
52752.3607,16.52,0.059
52752.370964,16.529,0.072
52752.381241,16.514,0.063
52772.390224,16.464,0.097
52772.401581,16.51,0.099
52787.28855,16.368,0.058
52787.299454,16.346,0.056
52798.297058,16.227,0.068
52798.308311,16.319,0.068
52798.318698,16.322,0.064
52798.32904,16.3,0.063
52811.270544,16.368,0.061
52811.280489,16.311,0.058
52811.290585,16.399,0.066
52811.300687,16.401,0.064
52811.310603,16.467,0.074
52840.214017,16.288,0.052
52840.223885,16.308,0.055
52840.233769,16.311,0.055
52840.243725,16.337,0.059
52872.145163,16.332,0.063
52872.193426,16.443,0.131
52906.131575,16.439,0.133
52917.100636,16.589,0.102
52917.113425,16.595,0.124
52917.126397,16.685,0.124
52917.139723,16.653,0.128
52917.153336,16.483,0.118
53049.451024,16.405,0.059
53049.465801,16.489,0.063
53049.480209,16.55,0.065
53049.492561,16.527,0.063
53049.507153,16.576,0.061
53107.338894,16.465,0.053
53107.349136,16.481,0.053
53107.35937,16.499,0.053
53107.36962,16.464,0.053
53107.379895,16.543,0.059
53136.288722,16.701,0.083
53136.29743,16.557,0.071
53136.314857,16.631,0.073
53136.323804,16.625,0.071
53154.290903,16.48,0.084
53154.299393,16.437,0.076
53154.307748,16.49,0.078
53154.325105,16.469,0.074
53164.268067,16.32,0.054
53164.277827,16.296,0.053
53164.287259,16.388,0.059
53164.296728,16.433,0.068
53164.306653,16.474,0.078
53194.229973,16.586,0.116
53194.239035,16.485,0.102
53194.248916,16.454,0.081
53194.258157,16.394,0.076
53243.140368,16.402,0.071
53243.150658,16.517,0.081
53243.161001,16.473,0.079
53243.171195,16.489,0.081
53243.181995,16.483,0.083
53254.12108,16.473,0.045
53254.132658,16.535,0.048
53254.143834,16.601,0.051
53254.154932,16.47,0.046
53254.166157,16.469,0.049
53264.115585,16.422,0.05
53264.127037,16.474,0.052
53264.138477,16.526,0.055
53264.149917,16.465,0.054
53264.161357,16.437,0.052
53282.114817,16.547,0.064
53282.125589,16.645,0.074
53282.13687,16.769,0.087
53286.087222,16.337,0.051
53286.098184,16.303,0.061
53286.108982,16.285,0.054
53286.119914,16.346,0.054
53286.13071,16.251,0.051
53474.450005,16.711,0.098
53498.382234,16.503,0.055
53498.394636,16.498,0.055
53498.404885,16.517,0.059
53498.415928,16.515,0.059
53498.425935,16.527,0.059
53499.390615,16.334,0.05
53499.402385,16.35,0.05
53499.414467,16.322,0.048
53499.42669,16.276,0.046
53499.437819,16.319,0.048
53521.265685,16.269,0.068
53521.275996,16.382,0.078
53521.286341,16.326,0.055
53521.296685,16.299,0.05
53521.306994,16.319,0.054
53538.266979,16.76,0.128
53538.276518,16.79,0.128
53538.286051,16.692,0.118
53538.295589,16.634,0.115
53538.305105,16.696,0.113
53570.222615,16.501,0.133
53570.23328,16.404,0.126
53570.254595,16.301,0.117
53570.265339,16.401,0.131
53576.232052,16.341,0.067
53576.243106,16.359,0.068
53576.254856,16.405,0.074
53627.118651,16.584,0.089
53627.130914,16.712,0.1
53627.143357,16.654,0.096
53627.155491,16.659,0.1
53627.167575,16.68,0.111
53657.083202,16.263,0.107
53657.094468,16.343,0.105
53657.117075,16.203,0.109
53657.128398,16.283,0.105
53786.492467,16.424,0.061
53786.505738,16.416,0.059
53786.518867,16.365,0.059
53882.270483,16.345,0.058
53882.281274,16.416,0.059
53882.292132,16.416,0.059
53882.30276,16.459,0.061
53882.313414,16.544,0.068
53886.283843,16.39,0.068
53886.294953,16.39,0.068
53886.305964,16.364,0.067
53886.316989,16.356,0.067
53886.328055,16.361,0.063
53903.271466,16.451,0.08
53903.281335,16.634,0.096
53903.291204,16.675,0.104
53903.30108,16.579,0.093
53903.310927,16.587,0.098
53916.241093,16.362,0.058
53916.250985,16.364,0.059
53916.260756,16.364,0.061
53932.225114,16.518,0.083
53932.235798,16.437,0.083
53932.246464,16.468,0.089
53932.25706,16.48,0.102
53932.267694,16.553,0.159
53942.260597,16.494,0.116
53970.141369,16.396,0.058
53970.151136,16.37,0.056
53970.160781,16.372,0.058
53970.170355,16.294,0.056
53970.179992,16.352,0.063
53998.098356,16.707,0.074
53998.110784,16.733,0.074
53998.122899,16.702,0.073
53998.135191,16.634,0.068
53998.148736,16.583,0.068
54009.09011,16.709,0.097
54009.10269,16.511,0.086
54009.115623,16.498,0.089
54009.128537,16.35,0.078
54009.141079,16.317,0.078
54123.455741,16.717,0.087
54123.46813,16.665,0.076
54123.480554,16.58,0.068
54123.492987,16.458,0.059
54123.505355,16.401,0.054
54156.430038,16.42,0.058
54156.441134,16.434,0.058
54156.45248,16.412,0.056
54156.463913,16.488,0.059
54156.474998,16.545,0.061
54201.378789,16.7,0.05
54201.388629,16.707,0.05
54201.398382,16.649,0.05
54201.408106,16.598,0.05
54201.4179,16.526,0.046
54207.381737,16.419,0.073
54207.391137,16.322,0.051
54207.40055,16.306,0.049
54207.40999,16.286,0.048
54216.310318,16.353,0.055
54216.319074,16.331,0.055
54216.328087,16.395,0.055
54216.336818,16.404,0.055
54216.345549,16.361,0.052
54508.479327,16.414,0.053
54508.49195,16.404,0.049
54508.506318,16.628,0.061
54543.396706,16.559,0.124
54543.40895,16.41,0.104
54543.419696,16.553,0.112
54543.430521,16.494,0.102
54543.441185,16.393,0.092
54555.359606,16.313,0.063
54555.371866,16.311,0.061
54555.384906,16.38,0.064
54555.409015,16.491,0.073
54561.354257,16.498,0.064
54561.366332,16.45,0.063
54561.379931,16.817,0.084
54561.391484,16.729,0.078
54561.402853,16.843,0.102
54573.347295,16.363,0.074
54573.358132,16.409,0.076
54573.368946,16.326,0.07
54573.379735,16.318,0.067
54573.390651,16.374,0.07
54582.343496,17.012,0.167
54582.353863,16.784,0.132
54582.36404,16.792,0.137
54582.374229,16.724,0.129
54582.38603,16.679,0.122
54613.26423,16.26,0.066
54613.274653,16.292,0.068
54613.285155,16.289,0.066
54613.295438,16.484,0.079
54613.305692,16.409,0.074
