mjd,m,merr
52722.476873,15.501,0.024
52722.496881,15.502,0.026
52751.375452,15.463,0.026
52751.386139,15.453,0.026
52751.397349,15.512,0.028
52751.408017,15.493,0.026
52751.418654,15.477,0.026
52781.273368,14.892,0.015
52781.284053,14.872,0.013
52781.294889,14.876,0.013
52781.305782,14.921,0.015
52781.317074,14.949,0.015
52849.16695,15.513,0.027
52849.176786,15.474,0.027
52849.186727,15.314,0.024
52849.196769,15.147,0.021
52849.206768,15.042,0.018
52850.171998,15.464,0.032
52850.182297,15.425,0.028
52850.192631,15.449,0.029
52850.202834,15.436,0.035
52850.213031,15.405,0.036
52926.084702,15.093,0.018
52926.110807,15.121,0.022
52926.124002,15.214,0.027
52928.07277,15.338,0.026
52928.084404,15.406,0.028
52928.095856,15.395,0.028
52928.107499,15.397,0.03
52928.119223,15.417,0.03
53038.478508,15.666,0.048
53038.504139,15.692,0.054
53045.466533,15.601,0.036
53045.478688,15.514,0.031
53045.490942,15.275,0.025
53045.503467,15.089,0.021
53096.367565,15.589,0.038
53096.377085,15.597,0.038
53096.386607,15.659,0.04
53096.396359,15.647,0.036
53096.40594,15.65,0.036
53125.296361,15.631,0.041
53125.306084,15.616,0.04
53125.315795,15.642,0.043
53125.325714,15.611,0.038
53125.335286,15.632,0.038
53134.288375,14.985,0.016
53155.296063,15.485,0.036
53155.313641,15.497,0.035
53169.268853,15.563,0.025
53169.27872,15.528,0.025
53169.288571,15.557,0.026
53169.298481,15.566,0.026
53193.254226,15.638,0.031
53193.263444,15.684,0.035
53214.242521,15.088,0.04
53244.139776,15.588,0.035
53244.150257,15.58,0.035
53244.160721,15.556,0.035
53244.171696,15.59,0.035
53244.18303,15.506,0.035
53281.096842,15.364,0.023
53281.107697,15.413,0.021
53281.118792,15.475,0.025
53281.129489,15.449,0.028
53281.140212,15.463,0.026
53421.416826,15.303,0.033
53421.429989,15.422,0.035
53421.442826,15.341,0.031
53421.457251,15.36,0.033
53421.469744,15.411,0.033
53451.400107,14.99,0.02
53451.410875,15.044,0.02
53451.421642,15.087,0.02
53451.432399,15.109,0.02
53451.443174,15.147,0.02
53480.319817,14.969,0.024
53480.328786,14.989,0.024
53480.337736,15.048,0.024
53480.346722,15.051,0.024
53480.355678,15.028,0.022
53490.311121,15.184,0.018
53490.321892,15.064,0.017
53490.333838,14.927,0.015
53490.34558,14.836,0.013
53490.357434,14.856,0.013
53536.269243,14.896,0.022
53536.2793,14.883,0.02
53536.289391,14.901,0.02
53536.299475,14.923,0.02
53536.309552,14.963,0.02
53565.221996,14.864,0.017
53565.232784,14.853,0.017
53565.24367,14.882,0.017
53565.254454,14.927,0.017
53565.265242,14.953,0.017
53610.141678,15.398,0.022
53610.152948,15.434,0.022
53610.16416,15.435,0.022
53610.175378,15.549,0.028
53610.186616,15.46,0.026
53629.116758,15.496,0.041
53629.12907,15.494,0.041
53629.141639,15.483,0.043
53629.154071,15.566,0.048
53629.166361,15.556,0.048
53773.486388,14.856,0.015
53773.500638,14.909,0.018
53773.513386,14.939,0.017
53773.526109,14.984,0.015
53802.433493,14.921,0.015
53802.445676,14.934,0.015
53802.45774,14.989,0.015
53802.470133,15.022,0.015
53802.482278,15.067,0.016
53806.429538,15.37,0.035
53827.410942,15.551,0.028
53827.421726,15.551,0.026
53827.432493,15.562,0.021
53827.443376,15.611,0.021
53827.454213,15.632,0.021
53835.332422,15.287,0.035
53835.342556,15.309,0.033
53842.360297,15.443,0.044
53842.371504,15.44,0.046
53842.383244,15.458,0.044
53842.394541,15.473,0.043
53857.325615,15.237,0.023
53857.335596,15.24,0.025
53857.345995,15.256,0.025
53857.356075,15.341,0.026
53857.366027,15.368,0.026
53877.279746,14.888,0.028
53877.290338,14.896,0.021
53877.300996,14.879,0.021
53877.311562,14.952,0.033
53877.322197,15.022,0.033
53904.27229,15.616,0.026
53904.282192,15.575,0.025
53904.292108,15.38,0.021
53904.302033,15.195,0.018
53904.3119,15.078,0.016
53933.222618,15.581,0.043
53933.23322,15.471,0.043
53933.24385,15.25,0.03
53933.25445,15.133,0.03
53933.265609,14.987,0.028
53954.242762,15.342,0.063
53990.117089,15.342,0.021
53990.128935,15.385,0.023
53990.141086,15.392,0.025
53990.152674,15.407,0.023
53990.164316,15.415,0.026
53995.120478,15.314,0.02
53995.132457,15.323,0.02
53995.144379,15.353,0.021
53995.156338,15.374,0.023
53995.168907,15.374,0.023
54012.090565,15.247,0.045
54012.129422,15.342,0.053
54024.077299,15.365,0.023
54024.088889,15.393,0.025
54024.100845,15.372,0.025
54024.112404,15.417,0.026
54024.123915,15.428,0.028
54125.444306,15.498,0.045
54125.456372,15.456,0.04
54125.468482,15.51,0.04
54125.480487,15.498,0.04
54125.492696,15.511,0.04
54140.480174,15.277,0.026
54140.493303,15.295,0.024
54140.506627,15.339,0.035
54140.519481,15.334,0.03
54158.443938,15.649,0.04
54158.456273,15.614,0.033
54158.470564,15.487,0.026
54158.482442,15.305,0.021
54158.494973,15.136,0.018
54188.367769,15.546,0.069
54212.307456,15.482,0.03
54212.315865,15.502,0.03
54212.324515,15.505,0.03
54212.332969,15.511,0.03
54212.341373,15.498,0.03
54525.456085,15.189,0.036
54525.491584,15.238,0.026
54558.371226,15.433,0.069
54570.352208,15.512,0.031
54570.363225,15.566,0.033
54570.374201,15.52,0.031
54570.385079,15.556,0.031
54570.396338,15.57,0.031
54585.295166,15.346,0.033
54585.305399,15.364,0.033
54585.315665,15.405,0.033
54585.325889,15.423,0.033
54585.335999,15.414,0.031
54598.29375,14.99,0.033
54598.303247,14.888,0.031
54598.312664,14.848,0.028
54598.322116,14.859,0.028
54598.331511,14.924,0.028
54618.268175,15.527,0.043
54618.278581,15.563,0.043
54618.289125,15.571,0.043
54618.299489,15.612,0.046
