mjd,m,merr
52706.451802,16.026,0.043
52706.467162,16.051,0.043
52706.481548,16.005,0.04
52706.496588,15.951,0.04
52724.423252,15.724,0.03
52724.434877,15.767,0.031
52724.446448,15.792,0.031
52724.458007,15.822,0.035
52724.469563,15.855,0.035
52753.377525,16.017,0.037
52753.389577,15.957,0.035
52753.401669,15.879,0.031
52753.413697,15.854,0.031
52753.425846,15.81,0.031
52772.328735,16.11,0.109
52772.363708,15.955,0.061
52772.375544,15.888,0.057
52787.274567,15.878,0.031
52787.285241,15.862,0.031
52787.295801,15.811,0.031
52787.306599,15.777,0.03
52787.317279,15.776,0.031
52793.299386,15.793,0.033
52793.309532,15.83,0.031
52793.319759,15.85,0.033
52793.329938,15.855,0.035
52793.340082,15.978,0.039
52798.298179,15.746,0.045
52798.309431,15.754,0.041
52798.319878,15.755,0.041
52798.330154,15.813,0.041
52811.271645,15.892,0.041
52811.281578,15.846,0.04
52811.291676,15.801,0.04
52811.301773,15.769,0.038
52811.311736,15.757,0.038
52842.246088,15.778,0.05
52842.266488,15.868,0.043
52847.213224,15.776,0.037
52847.223684,15.778,0.035
52847.233915,15.763,0.035
52847.244385,15.778,0.035
52917.101079,15.978,0.061
52917.126837,16.055,0.072
52917.140167,16.104,0.081
52917.153794,15.989,0.078
53109.350007,16.078,0.039
53109.360904,16.09,0.039
53109.371858,16.002,0.035
53109.382796,15.939,0.033
53109.394015,15.881,0.031
53137.298689,15.917,0.035
53137.308172,15.907,0.035
53137.317661,15.884,0.035
53137.327192,15.85,0.031
53137.336677,15.782,0.03
53165.271815,15.76,0.031
53165.281938,15.773,0.033
53165.292048,15.763,0.033
53165.302154,15.813,0.037
53165.312318,15.825,0.035
53242.183594,16.066,0.053
53242.193662,16.166,0.058
53242.204058,16.18,0.059
53242.214054,16.301,0.066
53242.224072,16.229,0.064
53264.116022,15.771,0.03
53264.127458,15.777,0.03
53264.138898,15.838,0.031
53264.150339,15.862,0.033
53264.161779,15.96,0.035
53271.105683,15.86,0.043
53271.117792,15.873,0.043
53271.129948,15.794,0.041
53271.142051,15.775,0.041
53271.15416,15.737,0.041
53439.391045,15.758,0.033
53439.402153,15.783,0.033
53439.413384,15.77,0.031
53439.424467,15.843,0.033
53439.435609,15.861,0.033
53500.355065,15.954,0.035
53500.365034,15.949,0.035
53500.375093,15.861,0.031
53500.385824,15.861,0.033
53500.396753,15.806,0.031
53501.37081,15.747,0.031
53501.386649,15.808,0.033
53501.40256,15.82,0.033
53501.415049,15.905,0.035
53501.426914,15.964,0.037
53528.280421,15.937,0.044
53528.29198,15.822,0.039
53528.303214,15.841,0.041
53528.314199,15.8,0.039
53528.325166,15.794,0.039
53539.266308,15.913,0.063
53539.275959,15.864,0.061
53539.285545,15.832,0.057
53539.295315,15.804,0.055
53539.304962,15.745,0.052
53553.233237,15.823,0.039
53553.243607,15.765,0.037
53553.254028,15.769,0.035
53553.264387,15.787,0.037
53553.274748,15.777,0.035
53570.222996,15.724,0.07
53570.23366,15.754,0.072
53570.244313,15.829,0.08
53570.254976,15.808,0.08
53570.265721,15.815,0.081
53576.221181,15.956,0.076
53576.232447,16.045,0.055
53576.243504,16.016,0.052
53576.255252,16.033,0.055
53583.216966,15.742,0.03
53583.228264,15.77,0.031
53583.239598,15.743,0.033
53583.262264,15.803,0.055
53626.118873,16.065,0.059
53626.130394,16.06,0.059
53626.141875,16.028,0.061
53626.153382,16.033,0.063
53626.164883,15.925,0.055
53656.084879,16.028,0.067
53656.096016,15.994,0.067
53656.107095,15.934,0.067
53656.118132,15.975,0.068
53656.129178,15.956,0.072
53786.460016,15.773,0.043
53786.47208,15.752,0.039
53786.484155,15.841,0.043
53786.496415,15.821,0.039
53786.508491,15.916,0.044
53882.270939,15.745,0.036
53882.28173,15.781,0.038
53882.292585,15.785,0.036
53882.303207,15.778,0.036
53882.313864,15.852,0.04
53886.284328,16.049,0.054
53886.295435,16.048,0.054
53886.306449,15.97,0.05
53886.317475,15.883,0.044
53886.328541,15.878,0.043
53903.27192,15.828,0.048
53903.281787,15.8,0.048
53903.291642,15.75,0.046
53903.301519,15.765,0.048
53903.31136,15.783,0.05
53916.23175,15.949,0.089
53916.241581,16.105,0.049
53916.261178,16.017,0.048
53931.226617,15.619,0.049
53931.236712,15.631,0.051
53971.142535,16.188,0.106
53971.153471,16.106,0.079
53971.1644,15.982,0.058
53971.175031,15.955,0.058
53971.185702,15.835,0.068
54008.102329,15.848,0.066
54008.1273,15.878,0.053
54008.139668,15.977,0.061
54008.152235,15.957,0.064
54123.456328,15.799,0.044
54123.468716,15.744,0.039
54123.48114,15.771,0.039
54123.493574,15.794,0.039
54123.505939,15.834,0.037
54156.430473,15.808,0.038
54156.441575,15.814,0.038
54156.452933,15.879,0.04
54156.464366,15.911,0.04
54156.475451,15.991,0.041
54206.362044,16.068,0.046
54206.371249,16.018,0.043
54206.380547,15.97,0.041
54206.389879,15.933,0.04
54206.399319,15.916,0.038
54529.438018,15.967,0.046
54529.449277,15.943,0.045
54529.460567,15.849,0.04
54529.471907,15.833,0.038
54529.483114,15.816,0.038
54555.360197,15.77,0.049
54555.372469,15.777,0.045
54555.385514,15.786,0.046
54555.397634,15.776,0.048
54555.40962,15.816,0.049
54562.328627,15.937,0.066
54562.341395,15.96,0.068
54562.364144,16.029,0.071
54574.3444,15.765,0.046
54574.355206,15.834,0.048
54574.36597,15.762,0.043
54574.376723,15.755,0.043
54574.387443,15.77,0.043
54582.343862,15.83,0.076
54582.354226,15.785,0.073
54582.364405,15.881,0.079
54582.374594,15.779,0.074
54582.386396,15.9,0.081
54613.264564,15.721,0.043
54613.274986,15.786,0.045
54613.285489,15.786,0.045
54613.29577,15.881,0.048
54613.306103,15.881,0.048
