mjd,m,merr
52723.410102,17.057,0.272
52723.422129,16.854,0.074
52723.433334,16.658,0.08
52723.444844,16.325,0.076
52752.341122,16.297,0.048
52752.351306,16.372,0.052
52752.36148,16.407,0.055
52752.371743,16.421,0.065
52752.382046,16.578,0.068
52772.392312,16.269,0.083
52772.40361,16.341,0.083
52801.264537,16.509,0.191
52801.285077,16.734,0.226
52802.281807,16.616,0.195
52802.292431,16.543,0.172
52802.30323,16.602,0.175
52802.31386,16.378,0.142
52840.214815,16.047,0.043
52840.224682,16.046,0.043
52840.234572,16.118,0.046
52840.244559,16.164,0.05
52872.146171,16.144,0.054
52872.158094,16.234,0.098
52917.101534,16.776,0.12
52917.114314,17.073,0.216
52917.127315,16.842,0.142
52917.140615,16.691,0.133
52917.154243,16.81,0.155
52934.074897,16.83,0.093
52934.08639,16.864,0.094
52934.097956,16.792,0.093
52934.109535,16.815,0.096
52934.120903,16.795,0.1
53049.452014,16.97,0.109
53049.466791,16.98,0.102
53049.481201,16.879,0.091
53049.493552,16.848,0.087
53049.508144,16.462,0.057
53107.339744,16.636,0.063
53107.349984,16.706,0.064
53107.360219,16.744,0.068
53107.37047,16.759,0.071
53107.380744,16.771,0.073
53136.289484,16.787,0.087
53136.29819,16.836,0.089
53136.306913,16.859,0.087
53136.31562,16.898,0.092
53136.324563,16.916,0.094
53154.291642,16.862,0.112
53154.300135,16.787,0.099
53154.308489,16.843,0.104
53154.317488,16.919,0.112
53154.325846,16.821,0.101
53164.268832,16.235,0.049
53164.278612,16.244,0.051
53164.288007,16.272,0.053
53164.297478,16.419,0.066
53164.307417,16.425,0.069
53181.275945,16.348,0.041
53181.314714,16.494,0.043
53194.23069,16.547,0.099
53194.240576,16.504,0.092
53194.249633,16.628,0.089
53194.258874,16.597,0.084
53243.14123,16.779,0.101
53243.151577,16.754,0.097
53243.161894,16.751,0.099
53243.172703,16.802,0.107
53243.182856,16.863,0.117
53254.12213,16.856,0.061
53254.133707,16.851,0.059
53254.144885,16.882,0.064
53254.155981,16.888,0.068
53254.167206,16.897,0.071
53264.116862,16.456,0.05
53264.128299,16.502,0.054
53264.139737,16.542,0.055
53264.151179,16.591,0.059
53264.162619,16.612,0.057
53282.094404,16.382,0.064
53282.115772,16.363,0.053
53282.126543,16.522,0.064
53282.137823,16.423,0.061
53286.088175,16.329,0.048
53286.099138,16.183,0.051
53286.109934,16.027,0.041
53286.120868,15.998,0.038
53286.131702,16.027,0.04
53474.430224,16.386,0.074
53474.440699,16.382,0.118
53498.382869,16.82,0.074
53498.395144,16.874,0.078
53498.40592,16.832,0.081
53498.416429,16.873,0.081
53498.426439,16.988,0.093
53499.392195,16.877,0.081
53499.403131,16.908,0.083
53499.414966,16.878,0.08
53499.427188,16.796,0.076
53499.438318,16.825,0.078
53521.308029,16.609,0.076
53521.318321,16.622,0.07
53521.328645,16.645,0.063
53521.338971,16.709,0.08
53521.349327,16.664,0.068
53538.267729,16.525,0.102
53538.277264,16.62,0.109
53538.286794,16.619,0.109
53538.296339,16.707,0.117
53538.305851,16.718,0.113
53627.119414,16.048,0.055
53627.131678,16.196,0.061
53627.144124,16.231,0.065
53627.156246,16.269,0.068
53627.168345,16.317,0.076
53657.095241,16.54,0.157
53657.106569,16.57,0.142
53657.117848,16.834,0.154
53657.12917,16.629,0.137
53786.4936,16.704,0.073
53786.506887,16.406,0.058
53786.520011,16.107,0.045
53824.476371,16.906,0.074
53843.366131,16.806,0.141
53843.37734,16.751,0.135
53843.388568,16.805,0.135
53843.399802,16.781,0.137
53843.411054,16.872,0.15
53882.271477,17.421,0.152
53882.303747,17.576,0.175
53882.314404,17.856,0.221
53886.284885,16.214,0.059
53886.295988,16.101,0.054
53886.307003,15.994,0.048
53886.31803,16.075,0.052
53886.329096,16.114,0.05
53903.272427,16.01,0.054
53903.282294,15.977,0.054
53903.292151,16.13,0.063
53903.302028,16.188,0.067
53903.311868,16.212,0.072
53916.26168,16.541,0.073
53916.271367,16.502,0.073
53916.281063,16.548,0.074
53916.290783,16.599,0.074
53916.300457,16.621,0.083
53932.225825,16.441,0.102
53932.236587,16.535,0.091
53932.247177,16.611,0.111
53932.257789,16.645,0.126
53932.268405,16.77,0.163
53942.25025,17.08,0.233
53942.261302,16.716,0.079
53970.180538,16.177,0.051
53970.18997,16.21,0.053
53970.199403,16.328,0.063
53970.209543,16.305,0.063
53970.219063,16.351,0.064
53998.099638,16.632,0.066
53998.112074,16.66,0.069
53998.124323,16.694,0.073
53998.136547,16.638,0.068
53998.150066,16.78,0.079
54009.091353,16.768,0.104
54009.103915,16.792,0.109
54009.116849,16.85,0.119
54009.129766,16.944,0.132
54009.142305,17.113,0.157
54028.079635,16.788,0.101
54028.09112,16.79,0.106
54028.102646,16.955,0.125
54028.114234,16.687,0.102
54028.12581,16.915,0.134
54186.399739,16.818,0.129
54186.41002,16.757,0.111
54201.379539,16.807,0.057
54201.389382,16.825,0.059
54201.399135,16.815,0.061
54201.408877,16.823,0.063
54201.418656,16.834,0.063
54207.373248,16.538,0.144
54207.382952,16.58,0.073
54207.392348,16.593,0.064
54207.401762,16.578,0.063
54207.41123,16.581,0.059
54216.310912,16.826,0.085
54216.319664,16.819,0.085
54216.328676,16.78,0.076
54216.33741,16.81,0.078
54216.34614,16.823,0.08
54395.074458,16.491,0.097
54395.086116,16.439,0.097
54395.097927,16.711,0.142
54508.480161,16.872,0.076
54508.492787,16.914,0.079
54508.507183,17.024,0.086
54543.397689,16.82,0.153
54543.409933,16.905,0.162
54543.420678,17.067,0.178
54543.431507,16.94,0.149
54543.442279,17.019,0.157
54555.36107,16.975,0.134
54555.373355,16.851,0.114
54555.386406,16.414,0.078
54555.39852,16.213,0.066
54555.410515,16.04,0.059
54573.347933,16.977,0.131
54573.358764,16.916,0.124
54573.369578,16.868,0.117
54573.380368,16.649,0.094
54573.391282,16.309,0.068
54614.272858,16.76,0.064
54614.283241,16.687,0.059
54614.293622,16.687,0.059
54614.303907,16.739,0.063
54614.314227,16.766,0.066
