mjd,m,merr
52681.4329,16.528,0.086
52681.448003,16.486,0.083
52681.462865,16.688,0.091
52681.477608,16.618,0.079
52681.492304,16.63,0.087
52723.42384,16.086,0.043
52723.436556,16.114,0.056
52752.35378,16.524,0.071
52752.364447,16.23,0.056
52752.375175,16.072,0.054
52752.386069,15.97,0.046
52752.396667,16.07,0.051
52782.365032,16.089,0.102
52800.272817,16.497,0.129
52800.28311,16.742,0.157
52800.293573,16.637,0.132
52800.303868,16.594,0.129
52800.314222,16.821,0.149
52812.284735,16.675,0.074
52812.294581,16.407,0.058
52812.304747,16.13,0.046
52812.314645,15.967,0.041
52812.324722,16.028,0.045
52840.21499,16.956,0.091
52840.224856,16.753,0.078
52840.234746,16.399,0.055
52840.244733,16.245,0.05
52872.145886,16.924,0.155
52872.15782,16.777,0.142
52918.096095,16.717,0.107
52918.109586,16.562,0.1
52918.122586,16.646,0.115
52918.136186,16.741,0.128
52918.149585,16.755,0.15
52935.07783,16.889,0.134
52935.089512,16.882,0.139
52935.10093,17.039,0.165
52935.123915,16.975,0.165
53023.462918,16.979,0.104
53023.475018,16.997,0.089
53023.499161,16.915,0.076
53023.511236,16.884,0.074
53035.482613,16.706,0.081
53035.494764,16.779,0.084
53035.507003,16.743,0.084
53035.519203,16.752,0.076
53049.451682,17.022,0.104
53049.466459,17.129,0.113
53049.480868,17.038,0.105
53049.493219,16.909,0.094
53049.507812,16.544,0.063
53107.339455,16.781,0.071
53107.349697,16.923,0.078
53107.359932,16.958,0.081
53107.370182,16.985,0.084
53107.380456,16.983,0.087
53136.289227,16.827,0.089
53136.297933,16.881,0.094
53136.306656,16.983,0.092
53136.315365,17.002,0.102
53136.324308,16.997,0.099
53154.291394,16.579,0.091
53154.299886,16.662,0.092
53154.30824,16.527,0.078
53154.31724,16.599,0.084
53154.325598,16.637,0.086
53164.268579,16.867,0.087
53164.278323,17.063,0.104
53164.287754,16.874,0.092
53164.297225,16.567,0.074
53164.307165,16.29,0.063
53181.275814,16.728,0.058
53181.304751,16.728,0.053
53181.314583,16.816,0.056
53194.220891,16.877,0.155
53194.230451,17.022,0.172
53194.24033,16.852,0.122
53194.249395,16.823,0.107
53194.258636,16.858,0.111
53243.140942,16.415,0.069
53243.151233,16.478,0.074
53243.161607,16.52,0.078
53243.17177,16.52,0.078
53243.182569,16.526,0.083
53254.12178,16.868,0.061
53254.133357,16.887,0.064
53254.144536,16.902,0.064
53254.155631,16.916,0.068
53254.166857,16.975,0.074
53264.116654,16.791,0.068
53264.12809,16.863,0.074
53264.139529,16.802,0.07
53264.150971,16.856,0.076
53264.16241,16.949,0.074
53282.094614,17.022,0.134
53282.115983,17.011,0.092
53282.126771,16.976,0.092
53282.138033,16.825,0.084
53286.088386,16.89,0.078
53286.099348,16.882,0.094
53286.110145,16.908,0.091
53286.121079,16.863,0.081
53286.131913,16.894,0.086
53302.074147,16.431,0.078
53302.085899,16.599,0.094
53302.097751,16.638,0.104
53302.109499,16.666,0.111
53302.121255,16.713,0.122
53422.458271,16.512,0.083
53422.471076,16.532,0.098
53422.483962,16.477,0.091
53422.49793,16.582,0.083
53422.510259,16.639,0.094
53450.443434,16.649,0.074
53450.453945,16.645,0.074
53450.46444,16.692,0.07
53450.474946,16.671,0.07
53474.4506,17.017,0.222
53521.266272,16.835,0.111
53521.276581,16.888,0.111
53521.286928,16.901,0.093
53521.297271,16.949,0.093
53521.307585,16.934,0.102
53538.267478,16.434,0.089
53538.277013,16.424,0.089
53538.286546,16.472,0.094
53538.296086,16.573,0.104
53538.305603,16.591,0.102
53605.191131,16.926,0.13
53605.213194,16.321,0.072
53605.224225,16.129,0.063
53605.235289,16.071,0.061
53628.11832,16.23,0.076
53628.130454,16.221,0.078
53628.142673,16.356,0.087
53628.154843,16.425,0.089
53628.166951,16.592,0.105
53786.493134,16.999,0.107
53786.506407,17.121,0.122
53786.519536,17.052,0.111
53807.430169,16.232,0.093
53824.464476,16.628,0.223
53824.475935,17.039,0.087
53843.376692,17.141,0.192
53843.387921,17.179,0.194
53843.410406,17.137,0.192
53855.342647,16.742,0.083
53855.354668,16.756,0.084
53855.364969,16.788,0.086
53855.375258,16.951,0.106
53855.385525,16.883,0.099
53857.428105,16.836,0.128
53857.448913,16.937,0.098
53857.459368,17.024,0.105
53878.29709,17.005,0.127
53878.307678,17.034,0.132
53878.318251,17.014,0.13
53878.328926,16.925,0.119
53878.339764,16.94,0.117
53892.268646,16.166,0.098
53892.308482,16.505,0.124
53903.281739,16.728,0.099
53903.291349,16.68,0.096
53903.300951,16.786,0.106
53903.310559,16.854,0.117
53903.320387,16.771,0.111
53917.225267,16.464,0.097
53917.244919,16.455,0.084
53917.254664,16.601,0.104
53917.264434,16.485,0.137
53932.225632,17.011,0.161
53932.236392,17.087,0.157
53932.246982,17.057,0.167
53932.257595,16.975,0.185
53942.261126,16.675,0.135
53953.205445,16.234,0.102
53953.217293,16.37,0.102
53953.24136,16.392,0.107
53953.253302,16.455,0.109
53960.203873,16.987,0.163
53960.213719,16.984,0.17
53960.223623,17.177,0.236
53960.233486,16.88,0.167
53997.117392,16.896,0.086
53997.129443,16.824,0.083
53997.141606,16.92,0.094
53997.154254,16.815,0.089
53997.166786,16.811,0.091
54010.095502,16.201,0.064
54010.122909,16.353,0.074
54025.079544,16.893,0.109
54025.091053,16.96,0.117
54025.10251,16.892,0.112
54025.114,16.939,0.125
54025.126717,17.001,0.139
54169.388386,16.995,0.115
54169.410559,17.117,0.12
54169.421784,17.059,0.109
54169.432895,16.909,0.109
54186.399335,16.457,0.109
54186.409616,16.497,0.102
54200.375607,16.758,0.074
54200.396273,16.993,0.089
54200.406965,16.921,0.087
54200.41684,16.92,0.085
54209.347941,16.661,0.089
54209.357985,16.689,0.084
54209.3668,16.73,0.091
54209.375728,16.628,0.125
54209.38481,16.723,0.078
54217.297916,16.207,0.059
54217.306756,16.152,0.054
54217.31549,16.113,0.052
54217.324208,16.161,0.054
54217.332914,16.161,0.052
54218.320716,16.05,0.073
54218.330028,15.97,0.066
54218.338981,15.991,0.068
54218.348062,16.248,0.083
54218.356834,16.296,0.084
54509.452527,16.307,0.056
54509.465037,16.371,0.059
54509.477643,16.38,0.058
54509.490539,16.522,0.064
54536.429275,16.54,0.068
54536.442317,16.547,0.066
54536.453553,16.677,0.078
54536.464676,16.672,0.071
54543.397264,16.25,0.099
54543.40951,16.122,0.081
54543.420255,16.102,0.078
54543.431082,16.142,0.078
54543.441854,16.186,0.076
54561.354912,16.67,0.081
54561.366989,16.884,0.096
54561.380586,16.711,0.084
54561.392138,16.705,0.083
54561.403508,16.771,0.112
54614.27252,16.938,0.116
54614.282905,16.931,0.114
54614.293287,17.033,0.125
54614.30357,17.067,0.13
54614.31389,17.019,0.125
