mjd,m,merr
52693.460043,15.82,0.041
52693.473722,15.692,0.038
52693.487401,15.534,0.033
52693.502071,15.433,0.028
52693.515884,15.408,0.028
52721.420271,15.488,0.03
52721.420632,15.496,0.028
52721.432386,15.607,0.033
52721.432743,15.6,0.031
52721.444811,15.686,0.035
52721.445169,15.709,0.033
52721.456988,15.716,0.036
52721.457349,15.766,0.036
52721.469199,15.676,0.035
52721.469559,15.715,0.033
52750.355391,15.703,0.048
52750.355752,15.748,0.048
52750.377618,15.732,0.073
52750.399643,15.583,0.056
52750.400003,15.559,0.053
52780.330871,15.396,0.038
52780.341542,15.494,0.041
52780.352173,15.601,0.045
52780.362838,15.69,0.048
52802.276921,15.385,0.054
52802.287576,15.43,0.056
52802.308977,15.487,0.056
52802.319573,15.643,0.063
52829.225129,15.893,0.066
52829.235169,15.779,0.059
52829.245246,15.84,0.059
52829.255612,15.776,0.054
52829.265752,15.626,0.048
52840.211735,15.773,0.036
52840.221565,15.751,0.039
52840.231334,15.723,0.038
52840.241145,15.605,0.036
52840.250938,15.283,0.279
52926.102201,15.45,0.028
52926.113585,15.386,0.03
52926.125139,15.347,0.031
52926.136864,15.328,0.033
52926.14823,15.313,0.035
52948.077481,15.403,0.038
52948.090051,15.447,0.041
52948.102639,15.435,0.041
52948.115085,15.501,0.046
52948.127537,15.51,0.046
53044.476678,15.515,0.041
53074.396967,15.41,0.038
53074.408029,15.48,0.041
53074.419214,15.509,0.045
53074.430253,15.548,0.046
53074.441353,15.672,0.043
53104.362407,15.366,0.031
53104.373709,15.331,0.03
53104.384828,15.36,0.03
53104.39557,15.396,0.031
53104.406269,15.383,0.03
53126.293681,15.456,0.035
53126.30349,15.39,0.031
53126.313286,15.373,0.03
53126.32302,15.335,0.03
53126.333124,15.344,0.028
53156.290496,15.477,0.035
53156.299098,15.5,0.036
53156.307557,15.429,0.033
53156.315908,15.417,0.031
53156.324317,15.368,0.03
53162.26688,15.593,0.036
53162.276591,15.706,0.045
53162.286195,15.769,0.049
53162.295884,15.814,0.053
53162.305553,15.731,0.049
53192.222937,15.328,0.021
53192.232659,15.365,0.025
53192.242015,15.413,0.028
53192.251437,15.397,0.03
53192.260649,15.407,0.031
53222.212726,15.318,0.025
53222.22221,15.301,0.025
53222.231733,15.306,0.023
53222.241526,15.342,0.025
53222.251805,15.357,0.028
53251.177776,15.417,0.028
53251.18974,15.432,0.031
53275.104776,15.302,0.031
53275.118085,15.255,0.031
53275.130622,15.26,0.038
53275.143158,15.317,0.035
53275.155632,15.389,0.04
53280.109948,15.404,0.025
53390.477624,15.616,0.03
53390.490331,15.701,0.031
53390.503033,15.641,0.028
53390.515745,15.581,0.028
53390.528913,15.454,0.026
53400.492187,15.358,0.028
53400.504835,15.392,0.028
53400.517485,15.452,0.028
53400.53015,15.568,0.03
53429.392724,15.337,0.03
53429.404028,15.369,0.03
53429.415312,15.379,0.03
53429.4266,15.438,0.03
53429.437884,15.493,0.031
53452.395028,15.378,0.061
53476.334249,15.698,0.033
53476.344651,15.569,0.03
53476.355454,15.489,0.026
53476.365834,15.441,0.022
53476.376573,15.384,0.022
53481.360296,15.322,0.03
53481.370832,15.337,0.03
53481.381667,15.357,0.031
53481.392039,15.42,0.031
53481.402543,15.43,0.031
53488.354254,15.455,0.031
53488.364791,15.526,0.033
53488.374808,15.608,0.035
53488.385428,15.71,0.039
53488.395496,15.781,0.041
53534.260819,15.316,0.024
53534.270513,15.345,0.024
53534.28042,15.367,0.024
53534.290131,15.422,0.026
53534.30002,15.486,0.028
53593.217153,15.38,0.028
53593.229072,15.412,0.024
53593.241259,15.529,0.028
53593.253309,15.59,0.03
53593.265681,15.64,0.031
53608.184489,15.249,0.018
53608.195624,15.252,0.018
53608.206723,15.275,0.018
53608.229023,15.378,0.022
53860.313445,15.351,0.021
53860.323383,15.325,0.021
53860.333237,15.266,0.02
53860.343082,15.272,0.018
53860.352969,15.274,0.018
53863.302753,15.29,0.03
53863.312385,15.359,0.031
53863.32307,15.406,0.033
53863.332658,15.458,0.033
53863.34225,15.56,0.035
53906.273171,15.307,0.051
53906.283083,15.329,0.046
53906.293454,15.356,0.046
53906.303073,15.36,0.056
53906.313015,15.356,0.056
53934.220249,15.504,0.033
53934.231592,15.443,0.03
53934.246327,15.387,0.036
53934.25697,15.355,0.031
53934.267448,15.318,0.033
53955.209757,15.551,0.063
53955.221777,15.561,0.067
53955.23417,15.619,0.072
53955.246116,15.521,0.067
53955.25805,15.511,0.067
53965.195758,15.322,0.03
53965.208136,15.316,0.025
53965.237772,15.361,0.035
54013.116854,15.368,0.054
54013.129718,15.386,0.054
54013.142513,15.353,0.068
54021.094094,15.574,0.031
54021.105749,15.682,0.035
54139.44434,15.401,0.043
54139.456129,15.438,0.044
54139.467984,15.489,0.068
54139.479718,15.561,0.054
54139.491471,15.664,0.048
54167.391693,15.357,0.03
54167.402975,15.358,0.03
54167.414117,15.285,0.026
54167.425258,15.285,0.026
54167.436377,15.216,0.026
54523.460293,15.668,0.028
54523.472438,15.654,0.028
54523.496691,15.478,0.025
54540.434039,15.446,0.025
54540.445596,15.508,0.025
54540.45734,15.58,0.026
54554.369226,15.619,0.028
54554.381088,15.678,0.03
54554.392967,15.622,0.028
54554.404823,15.504,0.026
54554.417125,15.481,0.025
54621.266862,15.346,0.031
54621.277992,15.363,0.033
54621.288022,15.366,0.033
54621.298105,15.369,0.033
54621.308231,15.378,0.033
