mjd,m,merr
52722.477923,15.509,0.024
52722.497932,15.51,0.026
52751.376381,15.786,0.033
52751.387072,15.654,0.03
52751.398371,15.574,0.03
52751.408949,15.561,0.028
52751.419586,15.533,0.028
52782.359605,15.481,0.035
52809.293145,15.463,0.038
52809.302895,15.507,0.026
52809.303075,15.516,0.04
52809.313112,15.541,0.026
52830.245529,15.905,0.094
52928.073398,15.478,0.03
52928.085015,15.423,0.028
52928.096484,15.445,0.03
52928.108115,15.478,0.03
52928.119855,15.509,0.031
53045.467322,15.582,0.036
53045.491752,15.503,0.031
53045.504253,15.511,0.031
53096.368208,15.557,0.038
53096.377726,15.518,0.035
53096.387245,15.46,0.031
53096.396997,15.439,0.031
53096.406578,15.409,0.03
53125.336866,15.542,0.035
53125.346856,15.513,0.033
53125.366796,15.611,0.035
53125.376539,15.741,0.038
53134.289019,15.479,0.025
53134.315873,15.572,0.031
53134.32471,15.585,0.033
53155.296614,15.611,0.04
53155.305376,15.479,0.035
53155.314195,15.484,0.035
53155.322981,15.489,0.036
53155.331623,15.445,0.035
53169.279805,15.543,0.025
53169.299563,15.619,0.028
53169.309444,15.736,0.033
53193.236066,15.432,0.033
53193.254775,15.461,0.028
53244.184399,15.737,0.04
53244.194801,15.826,0.045
53244.226886,15.793,0.046
53281.09764,15.431,0.025
53281.108489,15.395,0.021
53281.119585,15.434,0.023
53281.1303,15.465,0.025
53281.141005,15.53,0.028
53421.417184,15.473,0.035
53421.430348,15.505,0.035
53421.443187,15.543,0.033
53421.45761,15.653,0.037
53421.470104,15.712,0.055
53480.321025,15.513,0.039
53480.329994,15.505,0.037
53480.338947,15.44,0.035
53480.347941,15.425,0.033
53480.356883,15.494,0.033
53491.316141,15.489,0.024
53491.326274,15.475,0.024
53491.337103,15.472,0.024
53491.347055,15.481,0.024
53491.357077,15.531,0.024
53536.269895,15.904,0.054
53536.279956,15.931,0.052
53536.290046,15.795,0.043
53536.300126,15.712,0.041
53536.31021,15.6,0.035
53566.265398,15.785,0.037
53566.275898,15.88,0.037
53566.286417,15.887,0.037
53566.296903,15.856,0.033
53566.307393,15.77,0.03
53610.187396,15.588,0.03
53610.198746,15.715,0.031
53610.21014,15.876,0.037
53610.221466,15.899,0.041
53610.232749,15.843,0.039
53629.117583,15.724,0.048
53629.129891,15.655,0.046
53629.14246,15.521,0.041
53629.154896,15.501,0.043
53629.167188,15.413,0.041
53757.456365,15.597,0.044
53757.470771,15.727,0.046
53757.483487,15.863,0.048
53757.496017,15.891,0.048
53757.509915,15.901,0.046
53773.486783,15.461,0.024
53773.501036,15.412,0.028
53773.513784,15.462,0.024
53773.52651,15.499,0.024
53827.411366,15.933,0.041
53827.42215,15.993,0.04
53827.432917,15.898,0.028
53827.4438,15.729,0.025
53827.454638,15.626,0.021
53835.332844,15.773,0.051
53835.34298,15.601,0.04
53856.324946,15.763,0.035
53856.334799,15.854,0.038
53856.344971,15.852,0.036
53856.355098,15.789,0.036
53856.365003,15.727,0.033
53877.28025,15.545,0.053
53877.290842,15.489,0.036
53877.3015,15.479,0.035
53877.312065,15.518,0.066
53877.322701,15.496,0.046
53904.268045,15.685,0.033
53904.278022,15.722,0.037
53904.287897,15.875,0.043
53904.297782,15.847,0.041
53904.307856,15.87,0.044
53918.224738,15.914,0.137
53918.24449,15.616,0.087
53933.223218,15.922,0.054
53933.233834,15.912,0.052
53933.244455,15.841,0.043
53933.255052,15.702,0.044
53933.266212,15.607,0.037
53960.209272,15.496,0.041
53960.219567,15.563,0.055
53960.229794,15.459,0.046
53960.240083,15.476,0.052
53996.116941,15.474,0.025
53996.128774,15.518,0.025
53996.140621,15.552,0.028
53996.153146,15.617,0.03
53996.165095,15.694,0.033
54011.092925,15.547,0.046
54011.105653,15.496,0.043
54011.118394,15.501,0.045
54011.131171,15.516,0.046
54011.144031,15.512,0.049
54024.077688,15.582,0.03
54024.089262,15.511,0.028
54024.101212,15.48,0.028
54024.112774,15.458,0.028
54024.124286,15.486,0.028
54124.463876,15.651,0.043
54124.476508,15.578,0.038
54124.489428,15.499,0.036
54124.501939,15.433,0.033
54124.514475,15.437,0.031
54140.480951,15.613,0.031
54140.494081,15.702,0.033
54140.507402,15.902,0.052
54140.520376,15.932,0.046
54158.444654,15.949,0.053
54158.456991,16.002,0.048
54158.471281,15.969,0.041
54158.483157,15.862,0.035
54158.495691,15.695,0.031
54198.376744,15.847,0.067
54198.386521,15.893,0.048
54198.396345,15.772,0.063
54198.406248,15.666,0.08
54212.308074,15.927,0.046
54212.316484,15.851,0.043
54212.325131,15.686,0.036
54212.333584,15.626,0.035
54212.341987,15.568,0.031
54218.316344,15.81,0.048
54218.325193,15.773,0.046
54218.333815,15.84,0.048
54218.342633,15.824,0.048
54218.351216,15.752,0.043
54526.448471,15.639,0.033
54526.459986,15.744,0.035
54526.472361,15.839,0.036
54526.483718,15.838,0.036
54537.428788,15.621,0.031
54537.439937,15.724,0.033
54537.451123,15.808,0.036
54537.462524,15.906,0.038
54559.359773,15.386,0.031
54559.371465,15.404,0.033
54559.382924,15.497,0.035
54559.39448,15.535,0.035
54559.406058,15.644,0.038
54569.350398,15.741,0.036
54569.361987,15.574,0.033
54569.373195,15.471,0.03
54569.384691,15.457,0.03
54569.395954,15.431,0.03
54585.336404,15.413,0.03
54585.34761,15.448,0.03
54585.357888,15.449,0.03
54585.368829,15.529,0.033
54585.379054,15.57,0.033
54599.311832,15.783,0.086
54618.268543,15.471,0.041
54618.278952,15.455,0.04
54618.289492,15.44,0.038
54618.299992,15.46,0.041
