mjd,m,merr
52640.45854,16.736,0.066
52640.473431,16.839,0.073
52640.488296,16.986,0.084
52640.503208,17.002,0.081
52640.518056,16.872,0.073
52644.481534,16.859,0.07
52644.49638,16.656,0.07
52644.511386,16.728,0.085
52644.526125,16.639,0.146
52648.332393,16.694,0.087
52648.347083,16.58,0.078
52648.376669,16.687,0.078
52648.39143,16.852,0.085
52667.390594,16.704,0.069
52667.405334,16.638,0.068
52667.420375,16.69,0.069
52667.435233,16.968,0.096
52667.450076,17.324,0.14
52671.393735,16.798,0.07
52671.40905,17.072,0.093
52671.424262,17.032,0.089
52671.439438,16.973,0.083
52671.454784,16.768,0.07
52674.393524,16.81,0.074
52674.40741,16.697,0.067
52674.421403,16.65,0.065
52674.435393,16.654,0.067
52674.449363,16.703,0.068
52704.310037,16.602,0.059
52704.323512,16.7,0.063
52704.336898,16.718,0.067
52704.350454,16.71,0.067
52704.363935,16.837,0.076
52707.311148,17.124,0.089
52707.324945,17.155,0.091
52707.338156,17.021,0.078
52707.351868,16.786,0.065
52707.365203,16.758,0.067
52725.323364,17.015,0.128
52725.335255,17.162,0.176
52725.347067,17.151,0.218
52725.35867,16.975,0.154
52728.235515,16.729,0.067
52728.247682,16.886,0.074
52728.260138,16.927,0.076
52728.272582,17.076,0.087
52728.284848,17.014,0.081
52731.255413,16.752,0.196
52731.256245,16.532,0.176
52732.300409,16.664,0.071
52732.336748,16.784,0.101
52732.348966,16.933,0.116
52738.238412,17.005,0.087
52738.249847,17.051,0.091
52738.261779,16.996,0.087
52738.273207,16.807,0.072
52738.284817,16.672,0.063
52755.202025,16.722,0.065
52755.219436,16.851,0.072
52755.232574,16.983,0.085
52755.244604,17.054,0.093
52755.256737,16.914,0.083
52760.20247,16.919,0.07
52760.214503,17.159,0.091
52760.226421,17.059,0.085
52760.238369,16.997,0.081
52760.250294,16.85,0.078
52767.203713,16.742,0.089
52767.215417,16.776,0.091
52767.227936,16.761,0.089
52767.239619,16.981,0.109
52767.251762,17.099,0.124
52789.168461,16.668,0.072
52789.178809,16.648,0.072
52789.189118,16.74,0.078
52789.199501,16.748,0.08
52789.20996,16.929,0.094
52794.168079,16.686,0.078
52794.178113,16.721,0.083
52794.188041,16.692,0.081
52794.197986,16.923,0.107
52794.20791,16.994,0.117
52967.44525,16.811,0.096
52967.457943,16.924,0.102
52967.470617,17.02,0.109
52967.483502,17.245,0.128
52967.496131,17.201,0.12
52973.458351,16.737,0.081
52973.471302,16.783,0.081
52973.48417,16.965,0.096
52973.497137,17.021,0.1
52973.510076,16.895,0.089
52995.410845,16.651,0.048
52995.424104,16.609,0.046
52995.437272,16.65,0.048
52995.450363,16.825,0.055
53000.419842,16.701,0.048
53000.433008,16.898,0.055
53000.446225,17.03,0.059
53000.4594,16.982,0.055
53000.473123,16.866,0.052
53026.363172,16.778,0.046
53026.375883,16.919,0.052
53026.388814,16.956,0.059
53026.401755,16.993,0.055
53026.414582,16.776,0.178
53033.339424,16.682,0.066
53033.35164,16.778,0.071
53033.363963,16.795,0.071
53033.388784,16.808,0.087
53053.349317,17.091,0.078
53053.360932,17.086,0.087
53053.372603,17.012,0.128
53053.384251,16.887,0.089
53053.396455,16.693,0.063
53058.339101,16.97,0.05
53058.351641,16.894,0.046
53058.363873,16.747,0.041
53058.376154,16.663,0.041
53058.394294,16.662,0.041
53062.3357,16.76,0.152
53062.347134,16.896,0.305
53062.360931,16.771,0.176
53062.372374,16.633,0.08
53062.384645,16.731,0.059
53079.310031,16.916,0.068
53079.320766,16.698,0.055
53079.331573,16.766,0.063
53079.342319,16.728,0.061
53079.35335,16.632,0.059
53083.333808,16.67,0.048
53083.344491,16.695,0.046
53083.355251,16.878,0.055
53083.366702,16.994,0.065
53083.377515,16.998,0.067
53084.299364,16.889,0.049
53084.333846,16.751,0.045
53086.340273,17.069,0.078
53086.350957,16.801,0.061
53086.361821,16.677,0.048
53086.372671,16.725,0.059
53086.383721,16.596,0.044
53092.283826,16.702,0.055
53092.294167,16.766,0.059
53092.304663,16.934,0.068
53092.315071,16.957,0.07
53092.325536,16.988,0.07
53110.238449,16.918,0.087
53110.249542,16.839,0.081
53110.260606,16.694,0.07
53110.271762,16.698,0.068
53110.282829,16.737,0.07
53115.25196,16.64,0.05
53115.263177,16.579,0.048
53115.274272,16.663,0.052
53115.285352,16.657,0.052
53115.296455,16.769,0.055
53117.25948,17.106,0.069
53117.269944,16.831,0.054
53117.280399,16.709,0.051
53117.291233,16.696,0.051
53117.302205,16.658,0.049
53138.201461,17.103,0.089
53138.211186,17.169,0.098
53138.221029,17.03,0.083
53138.240516,16.737,0.07
53143.229939,16.693,0.061
53143.239379,16.674,0.061
53143.248787,16.645,0.057
53143.258128,16.611,0.055
53143.267476,16.654,0.057
53147.211903,16.607,0.058
53147.220741,16.619,0.063
53147.23878,16.709,0.064
53166.178809,17.072,0.111
53166.188163,17.031,0.115
53166.197516,16.94,0.109
53166.206894,16.893,0.105
53166.216257,16.831,0.1
53346.44249,16.693,0.117
53346.454784,16.701,0.112
53346.467248,16.997,0.135
53346.47947,16.956,0.13
53346.491764,16.961,0.127
53348.453659,16.706,0.087
53348.466571,16.628,0.087
53348.479029,16.726,0.12
53348.492855,16.813,0.198
53348.505778,16.939,0.105
53351.491816,17.028,0.125
53351.506347,16.793,0.101
53351.520681,16.889,0.107
53354.449873,16.648,0.067
53354.462814,16.588,0.059
53354.475582,16.591,0.059
53354.489724,16.608,0.059
53354.502553,16.819,0.072
53355.404603,16.739,0.078
53377.407176,17.021,0.093
53377.420348,16.953,0.081
53377.433565,16.709,0.065
53377.448315,16.605,0.059
53377.462025,16.586,0.057
53382.501353,17.046,0.089
53382.515712,17.051,0.089
53382.531738,16.981,0.085
53404.371517,17.055,0.078
53404.384308,16.939,0.072
53404.397147,16.752,0.063
53404.410095,16.745,0.067
53404.423446,16.744,0.067
53415.359318,16.977,0.081
53415.371777,16.849,0.087
53415.384208,16.874,0.076
53415.397263,16.662,0.068
53415.409717,16.691,0.067
53433.36021,16.974,0.076
53433.371657,17.036,0.08
53433.383103,17.068,0.089
53433.395781,16.819,0.074
53433.407439,16.74,0.074
53438.291839,16.645,0.054
53438.304819,16.607,0.052
53438.31698,16.734,0.059
53438.329132,16.843,0.07
53438.341528,17.034,0.083
53441.282962,17.033,0.08
53441.294343,17.005,0.074
53441.305751,17.001,0.076
53441.317184,16.819,0.067
53441.328583,16.671,0.057
53445.288182,16.753,0.067
53445.300002,16.751,0.063
53445.311665,16.631,0.057
53445.32302,16.673,0.059
53445.334243,16.718,0.063
53465.283858,16.857,0.081
53465.295216,17.039,0.096
53465.30716,17.083,0.102
53465.317807,17.139,0.105
53465.329129,16.985,0.094
53468.235817,16.928,0.133
53468.245499,17.05,0.118
53468.256882,17.271,0.257
53468.266444,17.084,0.196
53468.276059,16.895,0.179
53493.290725,17.094,0.139
53493.301352,17.183,0.159
53493.311687,17.111,0.146
53493.322411,16.879,0.122
53493.332472,16.809,0.113
53503.228535,16.687,0.068
53503.237154,16.751,0.074
53503.246036,16.862,0.085
53503.255014,16.951,0.091
53503.263742,17.024,0.102
53522.165808,16.881,0.091
53522.176031,17.039,0.109
53522.186276,16.895,0.096
53522.196601,16.89,0.098
53522.207174,16.872,0.098
53526.210307,16.754,0.109
53709.447321,16.611,0.08
53709.460889,16.676,0.08
53709.47373,16.751,0.081
53709.48641,16.941,0.091
53709.499273,16.941,0.083
53733.450567,16.62,0.072
53733.463296,16.654,0.074
53733.475922,16.717,0.089
53737.469635,16.996,0.083
53737.482792,17.049,0.085
53737.496124,16.997,0.083
53737.509408,16.763,0.065
53737.522784,16.663,0.063
53788.470392,17.048,0.109
53788.482319,16.895,0.102
53788.494281,16.71,0.089
53788.506296,16.712,0.096
53788.518407,16.63,0.094
53790.345893,16.859,0.074
53790.357785,17.031,0.091
53790.369638,16.978,0.086
53790.381449,17.106,0.096
53790.393509,16.965,0.087
53791.362842,16.712,0.07
53791.374584,16.87,0.08
53791.386326,16.987,0.093
53791.398079,17.16,0.109
53791.409832,16.956,0.091
53794.345528,17.188,0.096
53794.357134,17.041,0.085
53794.368962,16.831,0.068
53794.380608,16.797,0.068
53794.39223,16.708,0.063
53799.288717,16.75,0.061
53799.30078,16.936,0.071
53799.312606,17.012,0.074
53799.324404,17.082,0.081
53799.336172,17.004,0.079
53818.28238,16.65,0.072
53818.284912,16.655,0.066
53818.292995,16.669,0.074
53818.295976,16.607,0.061
53818.303622,16.674,0.074
53818.307057,16.67,0.064
53818.31431,16.714,0.076
53818.318211,16.766,0.071
53818.325114,16.731,0.076
53818.329286,16.731,0.068
53823.310834,16.794,0.076
53823.323179,16.983,0.089
53823.335979,17.041,0.096
53823.348312,17.011,0.094
53823.363893,16.924,0.091
53825.281004,16.863,0.085
53825.292063,16.876,0.089
53825.304511,16.804,0.083
53825.314837,16.758,0.078
53825.326553,16.677,0.078
53829.233828,17.144,0.305
53829.244353,16.861,0.274
53829.265734,16.724,0.17
53829.276707,16.775,0.207
53845.193998,17.054,0.111
53845.205156,17.218,0.127
53845.216251,16.974,0.104
53845.227338,16.85,0.094
53848.242812,16.936,0.109
53848.253267,17.073,0.148
53848.26401,17.179,0.152
53848.2749,16.941,0.12
53848.285371,17.126,0.142
53849.25037,16.729,0.076
53849.261102,16.944,0.094
53849.271798,17.025,0.102
53849.282495,17.023,0.104
53849.293408,17.121,0.12
53851.19474,17.043,0.116
53851.204976,17.178,0.127
53851.215249,16.928,0.104
53851.225554,16.919,0.111
53851.235893,16.802,0.096
53852.254803,16.753,0.094
53852.265218,16.734,0.094
53852.275972,16.703,0.093
53852.286355,16.652,0.089
53852.298047,16.618,0.089
53855.246158,16.772,0.091
53855.25721,16.84,0.098
53855.26828,17.126,0.122
53855.279732,17.209,0.137
53855.290466,17.131,0.128
53858.19684,16.584,0.181
53858.206941,16.878,0.222
53858.217058,17.063,0.194
53858.227209,17.107,0.246
53858.2375,17.046,0.205
53880.159149,16.709,0.098
53880.166546,16.73,0.086
53880.170298,16.768,0.105
53880.177999,16.865,0.097
53880.181495,16.856,0.111
53880.188681,17.004,0.112
53880.192656,17.13,0.142
53880.199497,16.973,0.109
53880.203842,17.162,0.15
53880.210424,17.087,0.122
53883.169134,16.879,0.113
53883.182197,16.778,0.102
53883.194626,16.617,0.091
53883.206026,16.732,0.102
53883.217537,16.654,0.094
53884.163233,16.971,0.106
53884.173974,17.115,0.125
53884.185196,17.033,0.116
53884.195922,16.826,0.099
53884.206791,16.767,0.096
53885.161216,16.887,0.113
53885.173402,17.208,0.154
53885.185485,17.123,0.142
53885.197614,17.167,0.155
53885.209747,17.044,0.141
54084.480802,16.729,0.08
54084.494532,16.856,0.098
54084.508266,16.988,0.122
54084.521991,16.958,0.111
54112.436126,16.706,0.116
54112.448845,16.659,0.101
54112.461729,16.658,0.142
54112.474362,16.741,0.106
54112.486997,16.996,0.132
54121.394299,16.702,0.073
54121.406923,16.767,0.078
54121.419446,16.828,0.084
54121.431997,17.096,0.111
54121.444516,17.124,0.116
54124.33543,16.633,0.057
54124.352457,16.774,0.061
54124.366895,16.939,0.072
54124.381437,17.063,0.078
54124.396563,17.093,0.081
54149.33791,16.728,0.074
54149.349922,16.695,0.068
54149.362462,16.61,0.064
54149.374468,16.702,0.073
54149.386448,16.673,0.081
54152.338721,16.729,0.057
54152.350679,16.908,0.067
54152.362645,17.102,0.08
54152.375048,17.029,0.074
54152.389963,16.842,0.061
54173.268533,16.666,0.076
54173.279247,16.654,0.078
54173.290343,16.78,0.084
54173.301013,16.903,0.094
54173.311689,17.092,0.109
54175.320525,16.72,0.057
54175.331308,16.769,0.061
54175.341938,16.864,0.067
54175.352669,16.948,0.074
54175.363356,16.991,0.078
54185.2729,16.686,0.099
54185.283146,16.639,0.097
54185.293464,16.628,0.13
54201.239372,16.67,0.094
54201.248719,16.677,0.092
54201.257941,16.73,0.094
54201.267205,16.829,0.109
54201.27649,16.877,0.114
54207.263953,16.695,0.054
54207.273103,16.68,0.054
54207.282284,16.736,0.096
54207.291428,17.11,0.281
54210.224971,16.867,0.059
54210.233886,16.924,0.063
54210.242776,17.008,0.067
54210.25169,17.096,0.074
54210.260628,17.095,0.076
54447.451625,16.682,0.048
54447.46472,16.63,0.048
54447.477777,16.583,0.046
54447.491551,16.606,0.065
54447.504597,16.725,0.057
54454.398781,16.648,0.068
54454.41195,16.792,0.072
54454.425114,16.973,0.074
54454.438646,16.923,0.061
54454.451817,16.916,0.063
54474.39835,16.791,0.067
54474.41136,16.754,0.063
54474.424367,16.62,0.039
54474.437368,16.633,0.043
54474.450387,16.68,0.057
54483.331851,16.871,0.111
54495.460348,16.969,0.074
54495.472989,16.812,0.065
54495.485587,16.636,0.057
54495.498197,16.65,0.059
54495.510801,16.583,0.057
54508.352076,17.048,0.063
54508.364271,16.976,0.057
54508.37646,16.806,0.05
54508.38881,16.72,0.048
54508.401159,16.666,0.044
54524.387498,16.635,0.044
54524.39933,16.631,0.046
54524.411284,16.714,0.052
54524.422968,16.739,0.055
54524.43483,16.97,0.072
54537.273461,16.728,0.061
54537.284497,16.665,0.057
54537.295551,16.68,0.046
54537.306561,16.705,0.083
54537.317627,16.711,0.041
54555.297217,16.656,0.044
54555.30902,16.642,0.044
54555.320979,16.659,0.044
54555.332871,16.709,0.046
54555.344837,16.791,0.052
54558.180661,17.047,0.093
54558.192236,17.17,0.191
54558.203816,16.852,0.096
54558.215363,16.744,0.139
54558.226966,16.752,0.1
54564.245783,16.647,0.046
54564.257101,16.579,0.044
54564.268414,16.645,0.046
54564.279729,16.666,0.046
54564.291116,16.8,0.054
54580.202961,16.803,0.101
54580.213208,16.795,0.102
54580.223499,16.751,0.097
54580.234384,16.728,0.104
54580.245301,16.934,0.129
54585.243478,16.779,0.096
54585.253764,16.824,0.063
54585.264036,16.923,0.087
54585.274338,17.004,0.068
54585.284636,17.096,0.076
54587.139882,16.669,0.059
54587.150512,16.658,0.055
54587.16124,16.825,0.065
54587.171932,17.007,0.08
54587.182613,16.956,0.08
54591.192744,17.1,0.193
54591.22231,16.914,0.158
54591.232054,16.665,0.127
54592.197986,16.917,0.072
54592.208499,16.811,0.093
54592.219019,16.724,0.063
54592.229547,16.657,0.057
54592.240074,16.667,0.061
54611.162694,16.709,0.142
54611.170995,16.711,0.147
54611.179232,16.963,0.193
54611.187442,16.904,0.178
54611.195691,16.932,0.181
54615.167935,16.894,0.08
54615.178443,16.99,0.089
54615.188894,16.988,0.087
54615.199367,16.83,0.076
54615.209836,16.724,0.072
