mjd,m,merr
52693.462582,15.54,0.031
52721.422806,15.433,0.028
52721.434924,15.45,0.028
52721.447348,15.507,0.03
52721.459581,15.64,0.033
52721.47174,15.76,0.038
52750.357943,15.507,0.048
52750.368883,15.43,0.064
52750.380347,15.516,0.073
52750.391257,15.53,0.069
52750.402186,15.752,0.076
52781.321811,15.511,0.03
52781.332519,15.467,0.03
52781.343415,15.491,0.031
52781.354043,15.577,0.035
52781.36467,15.634,0.036
52802.278553,15.701,0.074
52802.289178,15.56,0.064
52802.299852,15.488,0.056
52802.310608,15.458,0.054
52802.321203,15.527,0.058
52829.226694,15.518,0.049
52829.236729,15.481,0.048
52829.246804,15.479,0.046
52829.257176,15.537,0.046
52829.267309,15.58,0.048
52842.224254,15.27,0.405
52842.243899,15.425,0.035
52859.235386,15.756,0.052
52926.103682,15.648,0.033
52926.115072,15.737,0.039
52926.126624,15.643,0.041
52926.138347,15.51,0.039
52926.149693,15.392,0.039
52948.079076,15.468,0.041
52948.091683,15.644,0.048
52948.104232,15.744,0.054
52948.116671,15.54,0.046
52948.129514,15.512,0.046
53074.399223,15.48,0.051
53074.410277,15.451,0.041
53074.421453,15.41,0.041
53074.432496,15.38,0.051
53074.443593,15.456,0.04
53104.364394,15.485,0.036
53104.375692,15.435,0.035
53104.386806,15.488,0.035
53104.397552,15.461,0.033
53104.408245,15.569,0.036
53126.335307,15.629,0.038
53126.344874,15.579,0.036
53126.354414,15.446,0.031
53126.363889,15.483,0.031
53126.373409,15.422,0.03
53133.291558,15.689,0.068
53133.31925,15.448,0.054
53133.328336,15.533,0.053
53156.291834,15.577,0.04
53156.300424,15.484,0.036
53156.308882,15.504,0.035
53156.317234,15.448,0.033
53156.325674,15.445,0.033
53162.268554,15.427,0.033
53162.278274,15.398,0.035
53162.287907,15.484,0.038
53162.297564,15.526,0.041
53162.307229,15.646,0.046
53192.262281,15.645,0.038
53192.271512,15.757,0.045
53192.281147,15.748,0.046
53192.290713,15.652,0.043
53192.299962,15.571,0.041
53222.21462,15.567,0.03
53222.224102,15.722,0.038
53222.233849,15.77,0.038
53222.243419,15.65,0.035
53222.253699,15.53,0.033
53251.179282,15.79,0.041
53251.191266,15.712,0.04
53275.106981,15.555,0.038
53275.120288,15.428,0.036
53275.132823,15.429,0.038
53275.145358,15.449,0.04
53275.157832,15.54,0.045
53390.479112,15.618,0.031
53390.491819,15.536,0.03
53390.504538,15.437,0.026
53390.517233,15.462,0.026
53390.530402,15.552,0.028
53400.493652,15.451,0.031
53400.506302,15.452,0.03
53400.518954,15.523,0.03
53423.459324,15.676,0.074
53423.470932,15.563,0.076
53429.439366,15.424,0.031
53429.450546,15.48,0.031
53429.461867,15.544,0.033
53429.473173,15.613,0.033
53429.484481,15.764,0.039
53476.378317,15.727,0.03
53476.388557,15.833,0.033
53476.398861,15.837,0.031
53476.409127,15.639,0.028
53476.419373,15.589,0.026
53481.405295,15.521,0.033
53481.414174,15.636,0.037
53481.423074,15.746,0.041
53481.431991,15.833,0.043
53481.440944,15.796,0.039
53489.356879,15.458,0.037
53489.376965,15.571,0.039
53489.387032,15.65,0.035
53489.397139,15.727,0.046
53535.270968,15.617,0.03
53535.280912,15.743,0.033
53535.29085,15.816,0.035
53535.300873,15.75,0.031
53535.310859,15.642,0.03
53563.237042,15.755,0.041
53563.247636,15.625,0.031
53563.258214,15.529,0.03
53599.207839,15.487,0.048
53599.220394,15.635,0.059
53599.232875,15.824,0.067
53608.187094,15.523,0.024
53608.198222,15.691,0.028
53608.209323,15.762,0.028
53608.220499,15.714,0.028
53608.231637,15.566,0.026
53635.11422,15.543,0.028
53635.124751,15.654,0.028
53635.135178,15.735,0.031
53635.145589,15.736,0.033
53635.156033,15.62,0.037
53664.080975,15.627,0.033
53664.092242,15.609,0.033
53664.103185,15.531,0.031
53664.114144,15.543,0.033
53664.125063,15.414,0.033
53687.063924,15.462,0.043
53687.076391,15.536,0.05
53687.088788,15.641,0.052
53687.114094,15.479,0.048
53755.474331,15.663,0.043
53755.487089,15.571,0.039
53755.500095,15.459,0.033
53755.512848,15.457,0.031
53755.525704,15.481,0.031
53775.488014,15.514,0.063
53906.274208,15.466,0.054
53906.284114,15.442,0.048
53906.294482,15.493,0.048
53906.304216,15.511,0.054
53906.314045,15.564,0.068
53934.222115,15.464,0.03
53934.233152,15.478,0.031
53934.247882,15.521,0.043
53934.258544,15.548,0.036
53934.269006,15.707,0.045
53955.21114,15.438,0.057
53955.223103,15.504,0.063
53955.235492,15.604,0.07
53955.247452,15.714,0.08
53955.25938,15.863,0.094
53991.121985,15.443,0.031
53991.133858,15.506,0.03
53991.145804,15.6,0.033
53991.157706,15.777,0.038
53991.169582,15.793,0.038
54021.084158,15.43,0.028
54021.095792,15.539,0.031
54021.107254,15.643,0.035
54021.118718,15.745,0.038
54021.130175,15.642,0.036
54050.05959,15.793,0.033
54050.071706,15.792,0.033
54050.084082,15.62,0.03
54050.096276,15.546,0.028
54050.108541,15.48,0.028
54139.446329,15.651,0.048
54139.458113,15.567,0.057
54139.469967,15.529,0.072
54139.481696,15.494,0.05
54139.493451,15.509,0.044
54167.393701,15.538,0.037
54167.40498,15.459,0.035
54167.416116,15.464,0.033
54167.427248,15.501,0.033
54167.43836,15.491,0.035
54523.450182,15.434,0.026
54523.462016,15.525,0.026
54523.474159,15.672,0.03
54523.486796,15.779,0.031
54523.498412,15.707,0.03
54540.435414,15.76,0.031
54540.446969,15.625,0.028
54540.458713,15.513,0.026
54554.370744,15.593,0.031
54554.382609,15.507,0.028
54554.394483,15.488,0.028
54554.406436,15.496,0.028
54554.418646,15.573,0.03
54621.268656,15.486,0.036
54621.279784,15.5,0.036
54621.289808,15.608,0.04
54621.29989,15.673,0.041
54621.310052,15.85,0.048
