mjd,m,merr
52608.458503,15.974,0.076
52608.473467,15.913,0.041
52641.38886,15.711,0.026
52641.403765,15.908,0.03
52641.418648,16.024,0.033
52641.433539,15.858,0.03
52641.448403,15.723,0.026
52642.352887,15.719,0.024
52642.3671,15.702,0.022
52642.381401,15.699,0.022
52642.39564,15.697,0.022
52642.409959,15.808,0.026
52643.438337,15.868,0.033
52643.452304,15.999,0.031
52643.466266,15.81,0.028
52643.480192,15.707,0.024
52643.494502,15.665,0.024
52644.3946,15.671,0.03
52644.40957,15.657,0.026
52644.424523,15.695,0.028
52644.439857,15.802,0.031
52644.454884,15.883,0.033
52648.332549,15.746,0.035
52648.347836,15.682,0.033
52648.37841,15.748,0.035
52648.393595,15.839,0.038
52667.389412,15.859,0.03
52667.404733,15.712,0.028
52667.420216,15.642,0.026
52667.435483,15.67,0.028
52667.450883,15.678,0.031
52671.365225,15.68,0.031
52671.38088,15.665,0.031
52671.395858,15.67,0.031
52671.410548,15.735,0.033
52671.425563,15.857,0.038
52700.358842,15.808,0.035
52700.359146,15.689,0.038
52700.374309,15.72,0.033
52700.390651,15.677,0.035
52700.39095,15.594,0.036
52700.406036,15.659,0.036
52700.406433,15.647,0.041
52700.421479,15.816,0.043
52700.421784,15.754,0.048
52705.264971,15.659,0.03
52705.277999,15.69,0.033
52705.290967,15.888,0.038
52707.243834,15.758,0.033
52707.244191,15.721,0.035
52707.257017,15.66,0.03
52707.257374,15.663,0.033
52707.270091,15.64,0.028
52707.270449,15.584,0.03
52707.283318,15.68,0.03
52707.283677,15.616,0.031
52707.296591,15.724,0.031
52707.296951,15.677,0.033
52728.233581,15.813,0.036
52728.245633,15.717,0.031
52728.257829,15.683,0.031
52728.258428,15.547,0.041
52728.270075,15.658,0.03
52728.28217,15.676,0.03
52737.190413,15.654,0.03
52737.202335,15.739,0.031
52737.214153,15.785,0.033
52737.225818,15.891,0.037
52737.237734,15.981,0.039
52756.193413,15.897,0.041
52756.205963,16.013,0.045
52756.21807,15.862,0.041
52756.230251,15.722,0.038
52756.242493,15.669,0.038
52972.44436,15.915,0.028
52972.457225,15.956,0.028
52972.470091,15.834,0.024
52972.482887,15.726,0.022
52972.495739,15.659,0.022
53033.33013,15.746,0.028
53033.342385,15.67,0.026
53033.354525,15.694,0.026
53033.366676,15.757,0.028
53054.301626,15.766,0.024
53054.315226,15.701,0.022
53054.331857,15.663,0.02
53054.345402,15.677,0.022
53054.35741,15.724,0.022
53058.268934,15.717,0.017
53058.282041,15.686,0.017
53058.295198,15.691,0.017
53058.307582,15.733,0.018
53058.322992,15.84,0.018
53080.224471,15.881,0.028
53080.235397,16.013,0.031
53080.246911,16.008,0.031
53080.261317,15.817,0.028
53080.272546,15.734,0.024
53111.184715,15.834,0.037
53111.195487,15.75,0.033
53111.206238,15.715,0.031
53111.216954,15.673,0.031
53111.22775,15.638,0.031
53139.154223,15.965,0.039
53139.163785,15.961,0.041
53139.173499,15.935,0.037
53139.183095,15.8,0.037
53139.192593,15.718,0.033
53315.456661,16.001,0.061
53315.468522,16.109,0.067
53327.437719,16.034,0.058
53346.392695,15.972,0.044
53346.405138,15.825,0.035
53346.419834,15.711,0.033
53346.433071,15.676,0.03
53346.445188,15.668,0.031
53347.441917,15.655,0.03
53347.455737,15.662,0.035
53347.469777,15.635,0.031
53347.483567,15.732,0.035
53353.418196,15.657,0.036
53353.43226,15.676,0.036
53353.446407,15.617,0.035
53353.460606,15.66,0.036
53353.474646,15.754,0.038
53440.36892,15.751,0.031
53440.379945,15.804,0.035
53440.392085,15.945,0.041
53440.402579,16.006,0.046
53440.414187,15.897,0.044
53466.264516,15.896,0.037
53466.274366,15.789,0.033
53466.28401,15.721,0.033
53466.29501,15.717,0.033
53466.304936,15.68,0.033
53496.150034,15.875,0.043
53496.159968,15.987,0.046
53496.170045,15.911,0.043
53496.179993,15.896,0.044
53496.189964,15.748,0.039
53710.447392,15.609,0.033
53710.460033,15.683,0.035
53710.473313,15.741,0.037
53710.485968,15.827,0.041
53710.498559,16.006,0.048
53746.39592,15.976,0.055
53746.408381,15.859,0.048
53746.420841,15.787,0.046
53746.433482,15.662,0.041
53746.446072,15.667,0.041
53791.296119,15.896,0.031
53791.308159,16.033,0.035
53791.320454,15.939,0.033
53791.332599,15.834,0.03
53791.34449,15.752,0.026
53815.232434,15.98,0.05
53815.243871,16.02,0.065
53815.25522,15.875,0.054
53815.266685,15.742,0.039
53815.278069,15.728,0.043
53817.210474,15.643,0.026
53817.22231,15.657,0.026
53817.233726,15.704,0.028
53817.245209,15.752,0.03
53817.256768,15.889,0.033
53846.184096,15.825,0.04
53846.194832,15.763,0.04
53846.205675,15.679,0.036
53846.216395,15.665,0.036
53846.227027,15.626,0.035
53850.189223,15.652,0.036
53850.199697,15.719,0.038
53850.210183,15.811,0.041
53850.220662,15.906,0.049
53850.231259,16.035,0.056
54060.438893,15.7,0.036
54060.454636,15.668,0.035
54060.467475,15.681,0.035
54060.482214,15.764,0.038
54060.49506,15.89,0.043
54091.350605,15.677,0.04
54091.363785,15.596,0.036
54091.376423,15.636,0.036
54091.388329,15.605,0.035
54091.400444,15.735,0.04
54155.294003,15.879,0.033
54155.305616,15.987,0.035
54155.317297,15.926,0.031
54155.329037,15.781,0.028
54155.341257,15.706,0.024
54156.267035,15.611,0.024
54156.278563,15.64,0.024
54156.290095,15.675,0.026
54156.301641,15.766,0.028
54156.313195,15.913,0.031
54174.219894,15.657,0.033
54174.230638,15.696,0.03
54174.241473,15.753,0.031
54174.252404,15.837,0.033
54174.263231,15.948,0.038
54180.240221,15.886,0.036
54180.250567,15.99,0.041
54180.261061,15.903,0.036
54180.271484,15.831,0.033
54200.174736,15.646,0.04
54200.19396,15.732,0.041
54200.203763,15.717,0.045
54200.213157,15.846,0.046
54415.446132,15.764,0.022
54415.458627,15.955,0.026
54415.471027,15.952,0.026
54415.483431,15.801,0.024
54415.495812,15.693,0.02
54478.456155,15.841,0.076
54478.468419,15.754,0.053
54478.480694,15.672,0.049
54478.493002,15.68,0.068
54478.50513,15.692,0.061
54480.333607,15.79,0.02
54480.346857,15.874,0.022
54480.360096,15.957,0.022
54480.373337,15.866,0.02
54480.386998,15.722,0.018
54497.338902,15.645,0.02
54497.351442,15.639,0.017
54497.364002,15.69,0.02
54497.376557,15.771,0.028
54497.389073,15.937,0.041
54505.340106,15.699,0.017
54505.352378,15.64,0.017
54505.364684,15.655,0.017
54505.376951,15.712,0.017
54505.389485,15.787,0.018
54507.393026,15.676,0.03
54507.406729,15.746,0.033
54507.418632,15.829,0.036
54507.430622,15.893,0.038
54507.442518,15.984,0.041
54521.443592,15.88,0.046
54526.331134,15.687,0.018
54526.342592,15.649,0.018
54526.354025,15.648,0.018
54526.365463,15.697,0.02
54526.376893,15.744,0.02
54534.288903,15.81,0.018
54534.299851,15.939,0.018
54534.310786,15.936,0.02
54534.321692,15.821,0.017
54534.335366,15.742,0.028
54534.34651,15.709,0.028
54534.357822,15.667,0.028
54534.368934,15.657,0.028
54534.37988,15.696,0.036
54537.210544,15.76,0.018
54537.221664,15.785,0.018
54537.232833,15.875,0.02
54537.243933,15.944,0.022
54537.255445,15.865,0.02
54540.165938,15.888,0.033
54540.176838,15.981,0.035
54540.187949,15.851,0.03
54540.198837,15.73,0.028
54540.209839,15.695,0.026
54552.30161,15.69,0.022
54552.313702,15.707,0.024
54552.325792,15.736,0.026
54552.338036,15.781,0.028
54552.350244,15.941,0.033
54568.191082,15.824,0.049
54568.202021,15.769,0.046
54568.212771,15.714,0.045
54568.224191,15.712,0.045
54568.235305,15.665,0.045
54580.189838,15.572,0.022
54580.200463,15.636,0.024
54580.211074,15.69,0.026
54580.221685,15.788,0.03
54580.232358,15.899,0.037
54583.200495,15.78,0.031
54590.150034,15.742,0.053
54590.159704,15.811,0.056
54590.169391,15.966,0.064
54590.179035,15.997,0.068
54590.188689,15.901,0.063
54590.200844,15.771,0.031
54590.211151,15.688,0.026
54590.221508,15.681,0.028
54590.23189,15.629,0.026
54590.242227,15.648,0.026
