mjd,m,merr
52613.444461,15.53,0.024
52613.459604,15.534,0.026
52613.474881,15.362,0.022
52613.490122,15.283,0.02
52613.505333,15.241,0.018
52618.450933,15.223,0.026
52618.466235,15.26,0.033
52618.481588,15.235,0.031
52618.497087,15.222,0.026
52618.512498,15.241,0.028
52640.425375,15.213,0.015
52640.440927,15.206,0.015
52640.456201,15.259,0.017
52640.471215,15.294,0.017
52640.486062,15.516,0.02
52643.376775,15.258,0.018
52643.391047,15.335,0.018
52643.40524,15.471,0.022
52643.419507,15.55,0.024
52643.433627,15.479,0.022
52647.391826,15.243,0.018
52647.406732,15.263,0.02
52647.421113,15.36,0.022
52647.435551,15.522,0.026
52647.449921,15.535,0.026
52666.31541,15.23,0.017
52666.33079,15.236,0.017
52666.346121,15.226,0.017
52666.361595,15.241,0.017
52666.377201,15.222,0.017
52673.297402,15.241,0.017
52673.312755,15.228,0.017
52673.328028,15.247,0.017
52673.34335,15.262,0.018
52673.358534,15.387,0.02
52678.311187,15.517,0.03
52678.325291,15.402,0.041
52678.339284,15.289,0.02
52678.353268,15.254,0.02
52678.367402,15.248,0.02
52698.240862,15.432,0.024
52698.254372,15.329,0.055
52698.281753,15.289,0.02
52698.295878,15.248,0.017
52703.248965,15.205,0.017
52703.26247,15.228,0.024
52703.276405,15.235,0.026
52703.289871,15.225,0.017
52703.303276,15.233,0.02
52725.268869,15.52,0.048
52725.281152,15.482,0.064
52725.29361,15.377,0.025
52725.306171,15.3,0.021
52730.233215,15.266,0.018
52730.244837,15.255,0.018
52730.256541,15.231,0.018
52730.268268,15.234,0.018
52730.280024,15.227,0.018
52733.244705,15.21,0.018
52733.257137,15.227,0.018
52733.269266,15.221,0.018
52733.282361,15.254,0.02
52733.294381,15.328,0.033
52754.196625,15.268,0.018
52754.208814,15.248,0.018
52754.221075,15.231,0.02
52754.233277,15.213,0.02
52754.245455,15.204,0.02
52758.149152,16.191,0.039
52758.161152,15.856,0.028
52758.173234,15.576,0.022
52758.185388,15.366,0.018
52758.19743,15.323,0.018
52941.452749,15.169,0.017
52941.47772,15.213,0.017
52941.501547,15.296,0.017
52944.451429,15.549,0.04
52944.463928,15.428,0.033
52944.476445,15.307,0.03
52944.488751,15.259,0.026
52944.501098,15.252,0.026
52964.4602,15.183,0.015
52964.473223,15.191,0.015
52964.486446,15.19,0.015
52964.502109,15.204,0.015
52966.407028,15.293,0.02
52966.419774,15.289,0.02
52966.432483,15.273,0.018
52966.457916,15.264,0.018
52974.40042,15.521,0.022
52974.413527,15.547,0.022
52974.426476,15.46,0.02
52974.439378,15.369,0.018
52974.452219,15.315,0.018
52993.393247,15.555,0.018
52993.405596,15.917,0.025
52993.418048,16.184,0.031
52993.430519,15.759,0.021
52993.442895,15.459,0.016
52995.401364,15.284,0.013
52995.41446,15.437,0.015
52995.427723,15.494,0.017
52995.440887,15.42,0.015
53000.410272,15.273,0.013
53000.423431,15.261,0.013
53000.436597,15.246,0.013
53000.449918,15.246,0.011
53000.463117,15.233,0.011
53026.353039,15.255,0.011
53026.366554,15.278,0.011
53026.379264,15.239,0.011
53026.392197,15.23,0.013
53026.405257,15.248,0.013
53034.331045,15.502,0.023
53034.342894,15.521,0.025
53034.354807,15.472,0.023
53034.366798,15.351,0.021
53034.378777,15.297,0.021
53052.274788,15.291,0.017
53052.286586,15.278,0.017
53052.298438,15.278,0.017
53052.310422,15.266,0.017
53052.32224,15.246,0.017
53058.275157,15.992,0.022
53058.289084,15.58,0.015
53058.300592,15.343,0.013
53058.314546,15.215,0.013
53058.328799,15.226,0.011
53060.304747,15.346,0.013
53060.316873,15.266,0.011
53060.328988,15.238,0.011
53060.340956,15.216,0.011
53060.354206,15.216,0.011
53079.225701,15.252,0.018
53079.247842,15.256,0.018
53079.269741,15.607,0.023
53083.279812,15.295,0.013
53083.290819,15.461,0.015
53083.301704,15.689,0.018
53083.31254,16.058,0.028
53083.323317,16.051,0.03
53086.28606,15.266,0.02
53086.297672,15.248,0.017
53086.30896,15.228,0.018
53086.320218,15.265,0.018
53086.331307,15.246,0.015
53092.231502,15.384,0.018
53092.241933,15.578,0.022
53092.252558,15.883,0.03
53092.262965,16.108,0.037
53092.273258,15.953,0.031
53110.199027,15.258,0.023
53110.209913,15.237,0.021
53110.220867,15.222,0.021
53110.231791,15.208,0.021
53114.19578,15.761,0.02
53114.206897,15.461,0.017
53114.218163,15.294,0.015
53114.229228,15.224,0.013
53114.240292,15.181,0.013
53117.196797,15.226,0.013
53117.207642,15.233,0.013
53117.218515,15.233,0.013
53117.229278,15.252,0.015
53117.240193,15.247,0.015
53138.155157,15.296,0.023
53138.164889,15.27,0.021
53138.175238,15.291,0.021
53138.184888,15.282,0.021
53142.159783,15.442,0.018
53142.170224,15.351,0.017
53142.180432,15.287,0.017
53142.190973,15.265,0.017
53142.20082,15.281,0.018
53146.16381,15.54,0.02
53146.173003,15.524,0.02
53146.182289,15.436,0.018
53146.19147,15.381,0.017
53146.200766,15.301,0.018
53316.458525,15.252,0.041
53327.378025,15.219,0.039
53327.390409,15.213,0.037
53327.402792,15.156,0.028
53327.415241,15.187,0.028
53327.427609,15.189,0.028
53347.470279,15.295,0.02
53347.486694,15.21,0.018
53347.501732,15.199,0.018
53347.519397,15.178,0.018
53353.394822,15.201,0.02
53353.407752,15.212,0.02
53353.420697,15.236,0.022
53353.433618,15.253,0.022
53353.44662,15.399,0.024
53357.439993,15.201,0.018
53357.45342,15.227,0.018
53357.468476,15.331,0.022
53357.482402,15.608,0.028
53357.496816,16.025,0.039
53376.41671,15.209,0.017
53376.430531,15.23,0.018
53376.444208,15.23,0.017
53376.45791,15.243,0.017
53376.471469,15.25,0.018
53381.357631,15.218,0.02
53381.370957,15.231,0.02
53381.38494,15.213,0.031
53381.399576,15.275,0.018
53381.413976,15.407,0.026
53403.358663,15.436,0.022
53403.371514,15.317,0.018
53403.385414,15.217,0.018
53403.398368,15.196,0.018
53410.345356,15.237,0.015
53410.358707,15.232,0.015
53410.370888,15.215,0.015
53410.383808,15.195,0.015
53410.396715,15.208,0.015
53432.284655,15.162,0.065
53432.299095,15.207,0.039
53432.311648,15.157,0.044
53432.326345,15.141,0.104
53432.338914,15.21,0.05
53437.234328,15.215,0.017
53437.246814,15.205,0.017
53437.258361,15.188,0.015
53437.269934,15.217,0.017
53437.281391,15.223,0.017
53440.239573,16.005,0.031
53440.251307,16.109,0.035
53440.262928,15.78,0.026
53440.278096,15.434,0.02
53440.290791,15.249,0.017
53443.217666,15.212,0.017
53443.251049,15.238,0.067
53443.262705,15.19,0.018
53445.350561,15.199,0.018
53445.36199,15.276,0.02
53445.373614,15.392,0.022
53445.386189,15.46,0.024
53445.397916,15.503,0.024
53446.219717,15.193,0.018
53446.230309,15.205,0.017
53446.240898,15.23,0.018
53446.252001,15.25,0.018
53446.263198,15.337,0.02
53464.241419,15.249,0.018
53464.251856,15.236,0.017
53464.26269,15.242,0.018
53464.273262,15.238,0.018
53464.283692,15.246,0.022
53495.195745,15.287,0.031
53495.206051,15.273,0.03
53495.216304,15.238,0.031
53495.226517,15.291,0.031
53495.236829,15.472,0.046
53680.453539,15.924,0.043
53680.466027,15.538,0.03
53680.478393,15.306,0.022
53680.490706,15.236,0.02
53680.503048,15.173,0.02
53705.453699,15.32,0.022
53705.466696,15.528,0.026
53705.479355,15.864,0.033
53705.492064,16.062,0.039
53705.504732,15.757,0.03
53708.451368,15.217,0.018
53708.464146,15.219,0.018
53708.477089,15.219,0.018
53708.48992,15.196,0.018
53708.502573,15.228,0.018
53712.397622,15.274,0.024
53712.411795,15.435,0.028
53712.428544,15.492,0.028
53712.442092,15.345,0.024
53712.455946,15.256,0.022
53732.415229,15.131,0.024
53732.42789,15.122,0.024
53732.440667,15.09,0.022
53732.453442,15.12,0.022
53732.466213,15.118,0.024
53735.419064,15.352,0.043
53735.444979,16.012,0.057
53735.458124,16.09,0.043
53738.402803,15.257,0.02
53738.415914,15.24,0.018
53738.428954,15.244,0.02
53738.441952,15.262,0.02
53738.455142,15.242,0.02
53759.347248,15.216,0.017
53759.360115,15.338,0.02
53759.372829,15.492,0.024
53759.385507,15.507,0.024
53759.398193,15.443,0.026
53762.351226,15.174,0.017
53762.363943,15.137,0.015
53762.376949,15.134,0.015
53762.38983,15.135,0.017
53762.402856,15.123,0.015
53769.324307,15.237,0.017
53769.337621,15.241,0.017
53769.35135,15.241,0.017
53769.365184,15.239,0.017
53769.379096,15.245,0.017
53788.317318,15.11,0.018
53788.407333,15.155,0.02
53788.419234,15.215,0.02
53788.431188,15.314,0.024
53790.285815,15.283,0.02
53790.297592,15.256,0.02
53790.309367,15.256,0.02
53790.321121,15.248,0.02
53790.332878,15.248,0.02
53793.313865,15.166,0.044
53793.337623,15.247,0.085
53797.241043,15.161,0.017
53797.252597,15.158,0.015
53797.264241,15.151,0.015
53797.287384,15.128,0.017
53799.281163,15.25,0.018
53799.292645,15.247,0.018
53799.304151,15.221,0.018
53799.315662,15.229,0.018
53799.327369,15.231,0.02
53813.273003,15.91,0.041
53813.284462,16.01,0.048
53813.295811,15.722,0.036
53813.307299,15.415,0.028
53817.333783,15.399,0.028
53817.344649,15.25,0.024
53817.355503,15.182,0.024
53817.366382,15.171,0.024
53819.281499,15.22,0.022
53819.292448,15.302,0.024
53819.3164,15.542,0.041
53819.327592,15.523,0.028
53824.171386,15.161,0.018
53824.172891,15.151,0.018
53824.182026,15.161,0.018
53824.184312,15.146,0.016
53824.192558,15.172,0.018
53824.19544,15.186,0.018
53824.203176,15.201,0.018
53824.214015,15.289,0.02
53824.230172,15.473,0.021
53827.289294,15.179,0.018
53827.300418,15.188,0.02
53827.311342,15.193,0.02
53827.333024,15.248,0.022
53832.173369,15.225,0.043
53832.193156,15.257,0.041
53832.213175,15.25,0.039
53845.187552,15.191,0.024
53845.19826,15.19,0.024
53845.208974,15.198,0.024
53845.219841,15.224,0.026
53845.230575,15.277,0.028
53848.190042,15.595,0.035
53848.200669,15.398,0.03
53848.211372,15.207,0.026
53848.222019,15.186,0.026
53848.233346,15.202,0.028
53850.220774,15.298,0.024
53850.231408,15.255,0.022
53850.242096,15.239,0.024
53850.253006,15.227,0.022
53850.264127,15.213,0.022
53852.190285,16.019,0.053
53852.200624,16.053,0.054
53852.220999,15.459,0.035
53852.23115,15.31,0.031
53853.19117,15.161,0.022
53853.201598,15.171,0.022
53853.213003,15.157,0.022
53853.223412,15.17,0.022
53853.233848,15.157,0.024
53880.158568,15.537,0.035
53880.170359,15.507,0.033
53880.181011,15.364,0.03
53880.191668,15.235,0.026
53880.202464,15.211,0.028
53881.158323,15.195,0.026
53881.169386,15.177,0.026
53881.180566,15.18,0.026
53881.191645,15.156,0.026
53881.202828,15.173,0.028
54036.436769,15.254,0.031
54036.450182,15.321,0.031
54036.474739,15.98,0.051
54036.48661,16.094,0.056
54041.433423,15.326,0.036
54041.446432,15.183,0.03
54041.471329,15.21,0.028
54041.483596,15.149,0.025
54057.441837,15.215,0.023
54057.455709,15.232,0.02
54057.455848,15.231,0.026
54057.468253,15.33,0.022
54057.480726,15.529,0.026
54057.482888,15.65,0.033
54057.493223,15.906,0.035
54057.505701,16.074,0.039
54060.431933,15.366,0.02
54060.445862,15.258,0.02
54060.458781,15.218,0.018
54060.471683,15.206,0.018
54060.484748,15.191,0.018
54067.397382,15.193,0.015
54067.410349,15.198,0.015
54067.423318,15.163,0.015
54067.436421,15.16,0.013
54067.449548,15.161,0.013
54083.394595,15.264,0.033
54083.407491,15.34,0.045
54083.433294,15.997,0.071
54083.446181,16.116,0.064
54083.460127,15.617,0.037
54083.487316,15.242,0.022
54083.500407,15.191,0.028
54083.513504,15.249,0.078
54086.364735,15.459,0.024
54086.37794,15.3,0.018
54086.390874,15.268,0.018
54086.403815,15.236,0.017
54086.416754,15.218,0.017
54091.370406,15.202,0.017
54091.382984,15.173,0.017
54091.395568,15.204,0.017
54091.408491,15.194,0.017
54091.421085,15.197,0.018
54115.429032,15.515,0.03
54115.442026,15.391,0.026
54115.455276,15.298,0.025
54123.335587,15.175,0.02
54144.275134,16.055,0.038
54144.29902,15.393,0.021
54144.308751,15.265,0.017
54144.310967,15.248,0.018
54144.319867,15.221,0.017
54144.331067,15.211,0.017
54144.342168,15.208,0.017
54144.353272,15.191,0.017
54148.307154,15.897,0.035
54148.330689,15.303,0.021
54153.279238,15.221,0.018
54153.290962,15.208,0.018
54153.303147,15.183,0.018
54153.314834,15.18,0.018
54153.326905,15.192,0.018
54154.273554,15.221,0.017
54154.285037,15.248,0.017
54154.296541,15.255,0.017
54154.308014,15.338,0.017
54154.319484,15.445,0.018
54173.263625,15.176,0.013
54173.274466,15.185,0.013
54173.285199,15.193,0.013
54173.295867,15.205,0.013
54173.306513,15.287,0.015
54176.26874,15.397,0.018
54176.279367,15.272,0.017
54176.289952,15.221,0.017
54176.300684,15.219,0.017
54176.311333,15.211,0.017
54179.284367,15.219,0.015
54179.295402,15.212,0.015
54179.306717,15.222,0.017
54179.317889,15.215,0.017
54179.328786,15.24,0.017
54186.296367,15.185,0.013
54186.307869,15.193,0.015
54186.319121,15.205,0.015
54186.330522,15.287,0.015
54206.219374,15.47,0.02
54206.228425,15.447,0.02
54206.237463,15.398,0.018
54206.246513,15.298,0.017
54206.255561,15.246,0.017
54208.181728,15.234,0.023
54208.2077,15.5,0.03
54209.214227,15.209,0.031
54209.223247,15.191,0.041
54209.23282,15.11,0.052
54209.242654,15.202,0.041
54209.251807,15.221,0.098
54410.440151,15.452,0.035
54410.452469,15.291,0.046
54410.464669,15.219,0.052
54410.476882,15.257,0.035
54410.489176,15.224,0.02
54419.4524,15.199,0.013
54419.465145,15.174,0.013
54419.477884,15.183,0.013
54419.490628,15.166,0.013
54419.50338,15.181,0.013
54440.412093,15.322,0.013
54440.425015,15.264,0.011
54440.438151,15.229,0.011
54440.451181,15.229,0.015
54440.464095,15.195,0.013
54444.389261,15.863,0.026
54444.402286,16.026,0.028
54444.415281,15.775,0.08
54444.441278,15.272,0.043
54448.38836,15.319,0.015
54448.401507,15.521,0.018
54448.414544,15.917,0.026
54448.427567,16.06,0.024
54448.440592,15.685,0.017
54474.335927,15.343,0.098
54474.348896,15.763,0.052
54474.362046,16.142,0.068
54474.375023,15.932,0.043
54474.388,15.591,0.033
54508.290988,15.243,0.015
54508.303238,15.256,0.013
54508.315535,15.28,0.015
54508.327751,15.43,0.015
54508.339958,15.708,0.018
54523.335316,15.45,0.017
54523.347102,15.48,0.017
54523.358804,15.395,0.015
54523.370531,15.278,0.015
54523.382236,15.2,0.013
54530.278131,16.108,0.065
54530.289545,15.743,0.02
54530.301073,15.464,0.015
54530.312427,15.283,0.015
54530.323777,15.231,0.031
54537.216179,15.473,0.013
54537.227204,15.362,0.013
54537.23845,15.275,0.011
54537.249595,15.24,0.011
54537.261051,15.219,0.013
54554.244639,15.233,0.013
54554.256539,15.242,0.013
54554.268694,15.233,0.013
54554.280605,15.227,0.013
54554.292535,15.224,0.013
54559.123972,15.498,0.017
54559.135618,15.49,0.017
54559.147202,15.386,0.015
54559.158661,15.286,0.015
54559.170139,15.232,0.013
54563.239805,15.204,0.013
54563.251254,15.209,0.013
54563.262718,15.204,0.013
54563.274157,15.212,0.013
54563.285623,15.215,0.013
54581.190557,15.205,0.018
54581.201224,15.217,0.018
54581.211898,15.224,0.018
54581.222573,15.226,0.018
54581.23327,15.316,0.02
54585.21406,15.34,0.115
54585.234589,15.245,0.043
54592.143413,15.175,0.03
54592.15339,15.144,0.028
54592.16313,15.163,0.028
54592.172806,15.177,0.03
54592.188724,15.218,0.017
54592.199444,15.309,0.018
54592.209956,15.43,0.031
54592.22047,15.538,0.024
54592.231,15.569,0.024
