mjd,m,merr
52614.447811,15.582,0.068
52614.463234,15.647,0.043
52614.478751,15.499,0.033
52614.494026,15.228,0.018
52614.509187,14.954,0.015
52619.454087,15.644,0.03
52619.469614,15.559,0.026
52619.484991,15.388,0.024
52619.500533,15.028,0.017
52619.516063,14.771,0.013
52639.399233,15.618,0.025
52639.414261,15.641,0.025
52639.429399,15.676,0.025
52639.444724,15.641,0.025
52639.460394,15.539,0.023
52644.385104,15.536,0.02
52644.412949,15.615,0.022
52644.441563,15.626,0.022
52644.456489,15.487,0.02
52644.471496,15.082,0.015
52648.3222,15.641,0.028
52648.336837,15.526,0.026
52648.351518,15.18,0.018
52648.366354,14.949,0.055
52648.38111,14.743,0.013
52666.3156,15.288,0.017
52666.330924,15.301,0.017
52666.346307,15.331,0.017
52666.361729,15.359,0.017
52666.377335,15.391,0.018
52671.32084,15.267,0.018
52671.335985,15.309,0.018
52671.351125,15.341,0.018
52671.366514,15.372,0.02
52671.381644,15.416,0.02
52674.324884,15.533,0.022
52674.340816,15.505,0.022
52674.35506,15.541,0.024
52674.369287,15.538,0.024
52674.383399,15.611,0.026
52698.241021,15.597,0.026
52698.281985,15.608,0.026
52698.296036,15.475,0.018
52704.245585,15.52,0.02
52704.258998,15.538,0.02
52704.272237,15.528,0.02
52704.285575,15.555,0.022
52704.298942,15.53,0.022
52724.186921,15.532,0.026
52724.199321,15.524,0.026
52724.211884,15.547,0.026
52724.223981,15.538,0.025
52724.236088,15.538,0.026
52728.227052,15.59,0.024
52728.238935,15.628,0.024
52728.251195,15.617,0.024
52728.263589,15.59,0.024
52728.276139,15.378,0.018
52754.21099,15.517,0.03
52754.223563,15.526,0.031
52754.236292,15.494,0.031
52754.248757,15.492,0.031
52754.261217,15.515,0.033
52760.146918,15.294,0.018
52760.158723,15.329,0.018
52760.170517,15.346,0.02
52760.182393,15.363,0.02
52760.194239,15.429,0.02
52944.464074,15.303,0.03
52944.476592,15.356,0.03
52944.488898,15.365,0.03
52944.501243,15.416,0.03
52963.464011,15.543,0.02
52963.476463,15.538,0.02
52963.488925,15.547,0.02
52963.501422,15.551,0.02
52967.385879,15.486,0.026
52967.39829,15.486,0.024
52967.410741,15.514,0.024
52967.423366,15.495,0.024
52967.43576,15.52,0.022
52974.400563,15.332,0.017
52974.41367,15.335,0.017
52974.426618,15.353,0.017
52974.43952,15.377,0.018
52974.452362,15.409,0.018
52992.469054,15.546,0.018
52992.481847,15.49,0.018
52992.494777,15.244,0.015
52992.521656,14.808,0.01
52995.401551,15.088,0.011
52995.414647,15.14,0.011
52995.42791,15.163,0.011
52995.441074,15.171,0.011
52995.454165,15.226,0.011
53000.410472,15.122,0.011
53000.423617,15.165,0.011
53000.436782,15.207,0.011
53000.450103,15.232,0.011
53000.463303,15.259,0.011
53026.379451,14.876,0.007
53026.392384,14.821,0.009
53026.405443,14.863,0.009
53034.366897,15.322,0.021
53034.378876,15.352,0.021
53051.276221,15.609,0.02
53051.287952,15.621,0.02
53051.299629,15.672,0.02
53051.311325,15.616,0.02
53051.322963,15.484,0.018
53053.280731,15.38,0.028
53053.280976,15.465,0.03
53053.294393,15.391,0.018
53053.294637,15.461,0.02
53053.307028,15.452,0.026
53053.307272,15.479,0.026
53053.319644,15.457,0.043
53053.319889,15.499,0.03
53053.332959,15.415,0.02
53053.333204,15.503,0.02
53054.296251,15.244,0.015
53055.279334,14.801,0.015
53055.291803,14.902,0.021
53055.304204,14.912,0.013
53058.275331,15.431,0.013
53058.289258,15.514,0.013
53058.300767,15.51,0.013
53058.314721,15.514,0.015
53058.328973,15.507,0.013
53062.28876,15.593,0.041
53062.300191,15.562,0.041
53062.311806,15.596,0.081
53078.266296,15.451,0.023
53078.277435,15.46,0.021
53083.279986,15.475,0.015
53083.290993,15.493,0.015
53083.301878,15.535,0.015
53083.312714,15.52,0.017
53083.323491,15.518,0.018
53086.177457,15.542,0.021
53086.188767,15.478,0.026
53086.2,15.543,0.03
53086.211325,15.538,0.046
53086.222692,15.541,0.04
53086.286234,15.555,0.024
53086.297846,15.377,0.017
53086.309134,15.098,0.015
53086.320391,14.926,0.013
53086.331481,14.78,0.009
53092.231672,15.539,0.02
53092.242104,15.512,0.02
53092.252729,15.539,0.022
53092.263136,15.529,0.022
53092.273429,15.528,0.022
53109.186236,15.081,0.018
53109.196573,15.112,0.018
53109.22769,15.155,0.02
53114.195958,15.11,0.011
53114.207201,15.131,0.011
53114.229405,15.163,0.013
53114.24047,15.203,0.013
53117.196969,15.52,0.017
53117.207815,15.553,0.017
53117.218687,15.527,0.017
53117.22945,15.535,0.017
53117.240365,15.556,0.018
53137.175404,15.497,0.03
53137.185665,15.499,0.031
53142.159938,15.547,0.02
53142.170379,15.532,0.02
53142.180588,15.53,0.022
53142.191127,15.539,0.02
53142.200975,15.517,0.022
53146.163962,15.53,0.02
53146.173154,15.558,0.02
53146.182441,15.571,0.02
53146.191621,15.583,0.02
53146.200917,15.608,0.024
53299.449194,15.431,0.043
53299.460867,15.058,0.05
53299.47261,14.902,0.037
53299.484289,14.721,0.026
53299.495962,14.707,0.018
53328.442847,15.066,0.02
53328.455327,15.064,0.02
53328.480287,15.108,0.03
53348.391233,14.94,0.018
53348.40469,14.986,0.017
53348.417984,15.024,0.017
53348.431359,15.08,0.018
53348.4442,15.099,0.018
53354.38806,15.564,0.026
53354.401175,15.324,0.02
53354.414319,15.046,0.015
53354.427463,14.81,0.013
53354.440607,14.744,0.011
53357.495527,15.505,0.023
53377.343957,15.237,0.017
53377.35732,15.292,0.018
53377.370601,15.275,0.018
53377.383948,15.331,0.018
53377.397325,15.355,0.018
53382.4321,15.422,0.024
53382.446988,15.451,0.03
53382.461697,15.476,0.024
53382.476438,15.496,0.024
53382.491106,15.539,0.024
53404.362307,15.121,0.013
53404.37519,14.89,0.011
53404.387992,14.729,0.011
53404.400832,14.732,0.011
53404.414338,14.782,0.011
53415.349856,15.548,0.022
53415.362776,15.519,0.026
53415.375229,15.505,0.024
53415.388293,15.574,0.024
53415.400711,15.588,0.028
53433.292422,14.874,0.011
53433.307169,14.955,0.013
53433.321312,14.982,0.013
53433.337682,15.044,0.013
53433.350829,15.087,0.015
53438.230617,14.98,0.013
53438.242201,14.774,0.011
53438.253814,14.729,0.011
53438.265416,14.772,0.011
53441.220933,15.323,0.017
53441.232406,15.355,0.017
53441.243942,15.363,0.017
53441.255416,15.407,0.018
53441.267547,15.433,0.018
53445.228506,15.544,0.022
53445.239713,15.527,0.022
53445.252363,15.537,0.022
53445.263553,15.512,0.02
53445.274785,15.544,0.02
53473.173111,15.536,0.026
53473.182893,15.391,0.024
53473.192577,15.126,0.018
53473.202307,14.924,0.015
53473.212077,14.77,0.013
53474.188093,15.512,0.028
53474.197912,15.477,0.026
53474.207611,15.511,0.028
53474.217771,15.504,0.03
53474.227495,15.538,0.03
53493.240376,14.849,0.018
53493.250666,14.888,0.02
53493.261672,14.941,0.022
53493.272407,14.951,0.026
53493.282745,15.01,0.028
53680.453685,15.302,0.022
53680.466173,15.308,0.022
53680.47854,15.298,0.022
53680.490852,15.376,0.022
53680.503194,15.376,0.022
53706.464503,15.123,0.03
53706.477331,15.123,0.02
53706.502543,15.278,0.046
53706.515328,15.23,0.017
53709.382645,15.453,0.024
53709.39537,15.433,0.024
53709.408054,15.475,0.024
53709.42081,15.503,0.026
53709.433874,15.503,0.024
53713.40581,15.469,0.05
53713.418837,15.495,0.039
53713.431874,15.5,0.037
53713.444895,15.463,0.035
53713.458074,15.519,0.041
53733.38959,15.542,0.024
53733.402259,15.541,0.024
53733.415082,15.493,0.024
53733.427762,15.515,0.024
53733.440656,15.538,0.026
53739.419978,15.468,0.081
53739.433026,15.513,0.039
53739.446123,15.537,0.022
53739.459595,15.523,0.028
53770.282637,15.113,0.015
53770.295472,15.145,0.017
53770.308597,15.169,0.017
53770.321567,15.209,0.017
53770.336523,15.214,0.017
53788.2921,15.562,0.049
53788.304732,15.489,0.026
53788.342779,15.512,0.02
53788.407465,15.608,0.026
53788.419367,15.633,0.028
53788.43132,15.633,0.03
53788.455792,15.49,0.033
53791.305038,14.817,0.013
53791.316881,14.866,0.013
53791.328641,14.929,0.013
53791.340487,14.996,0.015
53791.352278,15.025,0.015
53794.299528,15.462,0.031
53794.311392,15.449,0.02
53794.323178,15.485,0.022
53794.335291,15.566,0.078
53813.27315,15.497,0.03
53813.295956,15.545,0.031
53813.307444,15.508,0.031
53816.230267,15.024,0.017
53816.241355,14.813,0.013
53816.252544,14.706,0.013
53816.263666,14.733,0.013
53816.274802,14.767,0.013
53817.222067,15.567,0.026
53817.232907,15.578,0.026
53817.243911,15.568,0.026
53817.254777,15.592,0.026
53817.265676,15.619,0.028
53817.333902,15.149,0.022
53817.344767,14.971,0.018
53817.355623,14.785,0.017
53817.366521,14.72,0.017
53818.230485,15.505,0.028
53818.241028,15.52,0.028
53818.251582,15.515,0.026
53818.262159,15.535,0.028
53818.272748,15.55,0.028
53823.254171,15.563,0.026
53823.265503,15.535,0.024
53823.276105,15.535,0.026
53823.287091,15.535,0.024
53823.299572,15.536,0.028
53825.230905,15.073,0.017
53825.241281,15.115,0.017
53825.251663,15.13,0.017
53825.262046,15.163,0.018
53825.272434,15.174,0.018
53829.224283,15.318,0.039
53829.245533,15.379,0.057
53829.26767,15.383,0.065
53848.190122,15.543,0.033
53848.200748,15.536,0.035
53848.211452,15.516,0.033
53848.222099,15.552,0.035
53848.233425,15.545,0.037
53849.196301,15.323,0.022
53849.207086,15.304,0.022
53849.218113,15.374,0.024
53849.2291,15.354,0.026
53849.240043,15.386,0.026
53852.19707,15.534,0.031
53852.200715,15.483,0.035
53852.208971,15.494,0.031
53852.22038,15.513,0.031
53852.22109,15.537,0.036
53852.231802,15.554,0.033
53852.24693,15.613,0.039
53855.194997,15.048,0.02
53855.205686,15.081,0.02
53855.216374,15.111,0.022
53855.227046,15.18,0.024
53855.237698,15.193,0.024
53858.16776,15.501,0.044
53858.178022,15.537,0.061
53880.17046,15.018,0.023
53880.181112,15.021,0.023
53880.191769,15.077,0.023
53881.158417,15.515,0.035
53881.16948,15.216,0.028
53881.18066,14.989,0.024
53881.19174,14.797,0.02
53881.20294,14.718,0.02
53883.159025,15.542,0.039
53883.172822,15.506,0.039
53883.185894,15.527,0.039
53883.19835,15.516,0.041
54027.456324,15.457,0.041
54027.481798,15.509,0.041
54037.441224,15.492,0.03
54037.453417,15.486,0.028
54037.465367,15.515,0.026
54037.477677,15.569,0.026
54037.491571,15.498,0.025
54041.433533,15.493,0.041
54041.446541,15.535,0.041
54041.471456,15.489,0.036
54041.483713,15.508,0.035
54054.413974,14.855,0.017
54054.425767,14.879,0.017
54054.437256,14.938,0.017
54054.460324,15.022,0.017
54055.418595,15.636,0.026
54055.430259,15.644,0.028
54055.441926,15.585,0.028
54055.453599,15.466,0.024
54055.465271,15.135,0.017
54057.44198,15.509,0.031
54057.495952,15.533,0.03
54058.43204,15.251,0.018
54058.444564,15.285,0.018
54058.457077,15.301,0.018
54058.469607,15.321,0.018
54058.48211,15.365,0.02
54061.434041,15.521,0.022
54061.446592,15.529,0.022
54061.459141,15.537,0.022
54061.471696,15.509,0.02
54061.484244,15.543,0.022
54066.387076,15.507,0.031
54066.399268,15.518,0.033
54068.394803,15.173,0.017
54068.407848,15.196,0.017
54068.420904,15.244,0.017
54068.433959,15.26,0.017
54068.447015,15.297,0.02
54083.407609,15.211,0.036
54084.401188,14.939,0.015
54084.437699,15.061,0.015
54084.469787,15.152,0.017
54087.402406,15.476,0.026
54087.415415,15.515,0.031
54087.428429,15.507,0.035
54087.441443,15.531,0.033
54087.454458,15.556,0.024
54121.334705,15.532,0.02
54121.347195,15.548,0.02
54121.359667,15.561,0.02
54121.372296,15.566,0.02
54121.38479,15.551,0.02
54124.325118,14.752,0.009
54124.340295,14.815,0.009
54124.354519,14.873,0.009
54124.369609,14.958,0.011
54124.384204,15.018,0.011
54149.279947,14.899,0.015
54149.291763,14.756,0.013
54149.303587,14.72,0.012
54149.315382,14.74,0.013
54149.327162,14.816,0.013
54154.287993,14.735,0.013
54154.311293,14.76,0.013
54154.322784,14.816,0.013
54169.223581,15.603,0.021
54169.234613,15.5,0.02
54169.245616,15.233,0.016
54169.256561,15.029,0.015
54169.267572,14.798,0.012
54175.267359,15.507,0.02
54175.278043,15.539,0.02
54175.288686,15.569,0.02
54175.299335,15.601,0.022
54175.310008,15.629,0.022
54205.180036,15.573,0.03
54207.218324,15.319,0.02
54207.227672,15.305,0.02
54207.236788,15.347,0.02
54207.246038,15.334,0.02
54207.2552,15.393,0.02
54208.207811,14.981,0.018
54210.217241,15.518,0.022
54210.226225,15.493,0.022
54210.235131,15.514,0.024
54210.24402,15.524,0.024
54210.252931,15.543,0.024
54410.440306,15.43,0.033
54410.452625,15.523,0.055
54410.464825,15.479,0.061
54410.477095,15.468,0.044
54410.489331,15.503,0.026
54422.466988,14.989,0.011
54422.479609,15.075,0.011
54422.492269,15.074,0.011
54422.504917,15.122,0.011
54422.517608,15.167,0.013
54424.391896,15.542,0.018
54424.404479,15.542,0.018
54424.41706,15.535,0.017
54424.429636,15.538,0.017
54424.442234,15.534,0.017
54447.390163,14.8,0.009
54447.403136,14.862,0.009
54447.416118,14.911,0.009
54447.429085,14.973,0.009
54447.442053,15.016,0.009
54454.328991,15.472,0.024
54454.342173,15.517,0.022
54454.355498,15.544,0.02
54454.368685,15.547,0.02
54454.38192,15.563,0.02
54474.349092,15.577,0.098
54474.362242,15.551,0.037
54474.375219,15.553,0.033
54483.234597,15.533,0.037
54483.247549,15.584,0.037
54483.26048,15.543,0.033
54495.397203,15.516,0.018
54495.409739,15.514,0.018
54495.422388,15.521,0.02
54495.435048,15.531,0.02
54495.447823,15.54,0.02
54508.291178,15.528,0.018
54508.303426,15.517,0.017
54508.315726,15.543,0.018
54508.327941,15.588,0.017
54508.340148,15.624,0.017
54524.328851,15.536,0.015
54524.340341,15.534,0.015
54524.352001,15.55,0.017
54524.363536,15.541,0.017
54524.375087,15.554,0.017
54537.216365,15.64,0.015
54537.227473,15.643,0.015
54537.238633,15.592,0.015
54537.24978,15.484,0.015
54537.261237,15.163,0.011
54555.239995,15.327,0.013
54555.251865,15.313,0.013
54555.263736,15.32,0.013
54555.287386,15.402,0.015
54564.237289,15.513,0.015
54564.24863,15.517,0.017
54564.259945,15.548,0.017
54564.271254,15.544,0.017
54564.282571,15.554,0.017
54585.193509,15.225,0.05
54585.23472,15.237,0.031
54592.188851,15.601,0.024
54592.19957,15.561,0.024
54592.210084,15.391,0.03
54592.220597,15.076,0.017
54592.231126,14.945,0.015
54594.160315,15.427,0.056
54612.169366,15.596,0.046
54612.177898,15.636,0.048
54612.186684,15.608,0.048
54612.195253,15.343,0.04
