mjd,m,merr
52614.447029,16.859,0.224
52614.462458,16.698,0.122
52614.477896,16.722,0.102
52614.493252,16.686,0.07
52614.508406,16.748,0.074
52619.453303,17.201,0.117
52619.468831,17.156,0.115
52619.484213,17.14,0.118
52619.499752,17.165,0.118
52619.515285,17.303,0.133
52639.39936,17.086,0.091
52639.414389,17.043,0.084
52639.429526,17.023,0.081
52639.444853,17.052,0.081
52639.460522,17.13,0.091
52644.383387,16.8,0.061
52644.411093,16.692,0.059
52644.440804,16.813,0.065
52644.455731,16.82,0.061
52644.470641,16.906,0.07
52648.321334,16.999,0.094
52648.335969,17.037,0.096
52648.350649,17.093,0.102
52648.380243,17.029,0.094
52666.315731,16.425,0.046
52666.331055,16.496,0.048
52666.346438,16.614,0.054
52666.36186,16.643,0.055
52666.377466,16.671,0.057
52671.320059,17.226,0.102
52671.335203,17.168,0.098
52671.350344,17.159,0.094
52671.365736,17.105,0.093
52671.380864,17.046,0.089
52674.324154,16.937,0.091
52674.340216,16.933,0.081
52674.354464,16.961,0.085
52674.368688,17.003,0.093
52674.382804,17.083,0.096
52697.259631,16.208,0.157
52697.274757,16.404,0.105
52704.244945,17.038,0.078
52704.258329,16.999,0.08
52704.271596,17.084,0.081
52704.284931,17.068,0.081
52704.298295,17.117,0.085
52706.242671,16.607,0.055
52706.25572,16.71,0.061
52706.268897,16.76,0.065
52706.282019,16.77,0.065
52706.295087,16.8,0.067
52724.186377,16.907,0.084
52724.198837,16.939,0.086
52724.211403,16.975,0.087
52724.223501,16.942,0.081
52724.235608,17.035,0.091
52728.226451,16.607,0.061
52728.238245,16.648,0.061
52728.250576,16.604,0.057
52728.26298,16.692,0.065
52728.275491,16.691,0.063
52731.258536,16.707,0.307
52753.19405,17.047,0.112
52753.207305,16.925,0.102
52753.219903,16.98,0.109
52753.232792,17.023,0.116
52753.245339,17.041,0.125
52760.146465,16.432,0.05
52760.158273,16.506,0.054
52760.170059,16.442,0.052
52760.181941,16.546,0.059
52760.193789,16.583,0.059
52767.147124,16.743,0.119
52767.158876,16.744,0.116
52767.171388,16.789,0.122
52767.18324,16.649,0.111
52767.195362,16.688,0.116
52945.438262,16.974,0.122
52945.450124,16.924,0.109
52945.462117,16.911,0.104
52945.474063,17.016,0.113
52945.485984,17.077,0.128
52963.463371,17.147,0.087
52963.475808,17.143,0.087
52963.488196,17.09,0.083
52963.50078,17.066,0.08
52967.385259,16.651,0.072
52967.397695,16.688,0.074
52967.410147,16.72,0.076
52967.422657,16.692,0.07
52967.435166,16.807,0.076
52974.40017,16.949,0.076
52974.411549,16.917,0.081
52974.426613,16.965,0.076
52974.439034,17.028,0.083
52974.451504,17.044,0.087
52992.468492,16.499,0.038
52992.481283,16.608,0.041
52992.494211,16.594,0.045
52992.507874,16.612,0.132
52992.521093,16.633,0.048
52996.395076,16.961,0.063
52996.408339,16.971,0.061
52996.421502,16.934,0.057
52996.434992,16.893,0.057
52996.448148,16.905,0.055
53001.397794,16.477,0.039
53001.41082,16.446,0.035
53001.42381,16.464,0.035
53001.436794,16.515,0.041
53001.450049,16.54,0.039
53034.331239,16.94,0.086
53034.343095,17.034,0.097
53034.355001,16.879,0.083
53034.366993,16.579,0.063
53034.378972,16.471,0.058
53051.275449,16.641,0.052
53051.28718,16.711,0.055
53051.298857,16.734,0.055
53051.310554,16.73,0.055
53051.322191,16.826,0.061
53054.296361,16.347,0.035
53054.310015,16.274,0.033
53054.325814,16.279,0.033
53054.339671,16.347,0.037
53054.352199,16.391,0.039
53055.2792,17.198,0.125
53055.291669,17.506,0.262
53055.304071,17.127,0.086
53078.265615,17.134,0.097
53078.276741,17.264,0.104
53078.287714,17.172,0.097
53078.298843,17.219,0.107
53078.30978,17.323,0.119
53084.229175,16.171,0.026
53084.240161,16.243,0.028
53084.251132,16.284,0.028
53084.262005,16.42,0.033
53084.272788,16.423,0.033
53086.243634,17.041,0.214
53086.254909,17.1,0.158
53086.267123,16.937,0.104
53086.278178,16.635,0.076
53086.289265,16.379,0.049
53089.170424,17.01,0.064
53089.182337,17.122,0.079
53089.193823,17.11,0.071
53089.204647,17.157,0.069
53089.215455,17.015,0.066
53109.185722,17.008,0.096
53109.196057,17.022,0.097
53109.206473,16.925,0.089
53109.216927,16.953,0.092
53109.227176,17.072,0.102
53115.197266,16.639,0.046
53115.208434,16.681,0.046
53115.21977,16.734,0.052
53115.230861,16.776,0.054
53115.241952,16.754,0.054
53117.195627,16.89,0.058
53117.206546,16.849,0.054
53117.217486,16.697,0.049
53117.23463,16.606,0.048
53117.25096,16.608,0.049
53137.155016,16.323,0.054
53137.164772,16.201,0.051
53137.174813,16.194,0.054
53137.184922,16.303,0.061
53137.196657,16.361,0.066
53147.159927,16.264,0.045
53147.168769,16.322,0.049
53147.186535,16.328,0.054
53147.195343,16.431,0.061
53297.422773,16.869,0.144
53297.434616,16.752,0.12
53297.448253,17.008,0.139
53297.473671,17.081,0.135
53299.448549,17.201,0.209
53299.460221,17.279,0.387
53299.471965,17.204,0.257
53299.483643,17.233,0.266
53299.495316,17.178,0.154
53328.442074,17.191,0.135
53348.390282,17.062,0.12
53348.403741,17.131,0.111
53348.417032,17.156,0.113
53348.430408,17.077,0.109
53348.443248,17.224,0.124
53354.387078,16.672,0.067
53354.400193,16.687,0.067
53354.41334,16.827,0.072
53354.426484,16.87,0.072
53354.439628,16.782,0.067
53357.451802,16.376,0.049
53357.466314,16.478,0.053
53357.480855,16.422,0.053
53357.495426,16.59,0.058
53357.509926,16.647,0.071
53377.342966,16.668,0.059
53377.356328,16.657,0.057
53377.369608,16.624,0.061
53377.382954,16.684,0.059
53377.396332,16.683,0.063
53382.431377,16.984,0.1
53382.446282,17.068,0.1
53382.460991,17.05,0.15
53382.475737,17.103,0.104
53382.490402,17.034,0.094
53404.36168,17.096,0.078
53404.374571,16.998,0.072
53404.387372,17.048,0.08
53404.400212,17.032,0.081
53404.413717,17.055,0.089
53415.295128,16.897,0.076
53415.307361,16.98,0.083
53415.320113,16.966,0.083
53415.332359,16.968,0.081
53415.344783,17.132,0.094
53433.29182,17.161,0.089
53433.306569,17.144,0.085
53433.32071,17.141,0.087
53433.337081,17.153,0.093
53433.350227,17.076,0.085
53438.229997,16.534,0.046
53438.241581,16.565,0.048
53438.253178,16.56,0.048
53438.264795,16.683,0.054
53438.276457,16.695,0.055
53441.220315,17.047,0.076
53441.231787,17.131,0.081
53441.243323,17.094,0.078
53441.254797,17.019,0.074
53441.266928,16.93,0.068
53445.22789,16.919,0.078
53445.239099,16.916,0.078
53445.251751,16.95,0.08
53445.262939,16.991,0.083
53445.274171,17.067,0.08
53493.239659,16.168,0.065
53493.249949,16.248,0.07
53493.260642,16.271,0.072
53493.271689,16.46,0.094
53493.282026,16.516,0.105
53501.143767,16.415,0.063
53501.155128,16.483,0.068
53501.166132,16.531,0.072
53501.17739,16.558,0.078
53501.187884,16.59,0.08
53676.451702,16.981,0.165
53676.463754,16.872,0.117
53676.475751,16.898,0.122
53676.487706,16.946,0.124
53676.499738,17.087,0.148
53680.453257,16.347,0.054
53680.465746,16.477,0.057
53680.478112,16.354,0.055
53680.490424,16.431,0.059
53680.502766,16.454,0.063
53706.464373,17.076,0.141
53706.477201,17.089,0.111
53706.502413,16.965,0.15
53706.515199,17.05,0.08
53709.382514,16.654,0.07
53709.395239,16.57,0.067
53709.407923,16.694,0.074
53709.420678,16.748,0.08
53709.433742,16.753,0.072
53713.405667,16.954,0.183
53713.418696,17.161,0.172
53713.431733,17.067,0.152
53713.444754,16.662,0.111
53713.457933,16.747,0.131
53733.389459,16.437,0.054
53733.402128,16.487,0.055
53733.414951,16.495,0.059
53733.427631,16.567,0.063
53733.440525,16.6,0.067
53739.419836,16.893,0.289
53739.432884,17.031,0.15
53739.44598,17.179,0.1
53739.459452,16.967,0.109
53770.28249,16.9,0.078
53770.295325,16.898,0.078
53770.30845,16.985,0.081
53770.321419,16.829,0.068
53770.336376,16.955,0.076
53788.304293,16.984,0.083
53788.317033,16.92,0.092
53788.329686,17.067,0.079
53788.34234,16.879,0.066
53788.406929,16.847,0.08
53788.418829,16.767,0.074
53788.430787,16.746,0.08
53790.275923,16.939,0.083
53790.284189,16.844,0.069
53790.287659,16.922,0.081
53790.296101,16.928,0.078
53790.29946,17.081,0.096
53790.30808,16.874,0.074
53790.311216,16.954,0.083
53790.320054,16.956,0.081
53790.322966,16.958,0.083
53790.33205,16.9,0.076
53791.299344,16.91,0.068
53791.304906,16.848,0.07
53791.311188,16.91,0.07
53791.316749,16.909,0.074
53791.322954,16.874,0.067
53791.328509,16.942,0.078
53791.334791,16.993,0.076
53791.340355,16.926,0.076
53791.346578,16.973,0.072
53791.352146,16.962,0.08
53792.27918,16.714,0.061
53792.291107,16.76,0.065
53792.303032,16.837,0.07
53792.314938,16.842,0.08
53792.326846,16.858,0.072
53793.279728,16.67,0.1
53793.291589,16.756,0.131
53793.303458,16.741,0.178
53794.218341,16.616,0.068
53794.299396,16.666,0.094
53794.311259,16.684,0.061
53794.323046,16.694,0.061
53794.335159,16.6,0.178
53813.260121,16.792,0.089
53813.272733,16.773,0.089
53813.284193,16.846,0.099
53813.295537,16.944,0.109
53813.307028,16.976,0.117
53817.333428,16.6,0.078
53817.344293,16.621,0.085
53817.355152,16.613,0.085
53817.366028,16.632,0.087
53818.230361,17.032,0.104
53818.240904,17.08,0.105
53818.251459,17.096,0.111
53818.262036,17.12,0.115
53818.272626,17.137,0.118
53820.231985,16.903,0.338
53823.253568,16.933,0.083
53823.264894,16.955,0.085
53823.275499,17.101,0.096
53823.286483,16.943,0.083
53823.298962,16.98,0.1
53825.230787,16.592,0.063
53825.241162,16.708,0.07
53825.251544,16.59,0.061
53825.261928,16.633,0.068
53825.272316,16.72,0.074
53829.22441,16.883,0.157
53829.245662,16.724,0.191
53829.267799,17.018,0.278
53844.186918,16.737,0.068
53844.198304,16.743,0.069
53844.209439,16.818,0.078
53844.231948,16.85,0.086
53848.189808,16.905,0.111
53848.200431,16.746,0.098
53848.211136,16.512,0.076
53848.221782,16.34,0.07
53848.233113,16.299,0.07
53849.196189,17.109,0.109
53849.206973,17.174,0.115
53849.218,17.129,0.117
53849.228988,16.977,0.105
53849.23993,16.94,0.104
53852.196961,17.16,0.133
53852.200806,16.949,0.12
53852.208862,17.036,0.124
53852.211025,16.947,0.124
53852.220271,17.148,0.139
53852.221181,17.085,0.145
53852.231332,16.88,0.122
53852.231693,17.133,0.146
53852.246821,17.284,0.172
53855.19489,16.735,0.089
53855.205583,16.889,0.102
53855.216267,16.837,0.1
53855.22694,16.8,0.1
53855.237592,16.988,0.122
53858.147073,16.912,0.237
53858.167647,16.688,0.148
53858.177909,16.441,0.12
53881.156208,17.025,0.129
53881.158508,17.085,0.144
53881.166201,17.215,0.16
53881.169571,17.214,0.167
53881.176249,17.362,0.18
53881.18075,17.205,0.163
53881.191848,17.108,0.142
53881.203041,17.026,0.141
53883.158915,17.15,0.168
53883.172711,17.335,0.203
53883.185783,17.027,0.154
53883.198238,17.098,0.172
53883.209646,17.055,0.168
53886.153401,17.07,0.175
53886.163488,17.258,0.214
53886.173345,17.424,0.254
54027.456197,17.102,0.168
54027.481673,17.343,0.205
54027.494001,17.403,0.205
54027.505357,17.256,0.252
54037.441094,17.445,0.193
54037.453289,16.892,0.107
54037.465237,17.347,0.157
54037.477548,17.257,0.14
54037.491441,16.931,0.086
54041.433684,17.017,0.16
54041.446651,16.961,0.14
54041.458992,16.937,0.132
54041.471565,17.023,0.139
54041.483822,17.028,0.134
54054.413846,16.744,0.087
54054.425638,16.715,0.081
54054.437128,16.717,0.076
54054.4487,16.652,0.07
54054.460196,16.786,0.081
54055.418464,16.6,0.07
54055.430128,16.644,0.07
54055.441795,16.678,0.067
54055.453468,16.678,0.072
54055.46514,16.68,0.072
54057.441551,16.657,0.083
54057.455375,16.633,0.079
54057.469335,16.614,0.078
54057.482601,16.614,0.076
54057.495525,16.555,0.073
54058.431908,17.158,0.105
54058.444432,17.004,0.085
54058.456945,17.011,0.085
54058.469476,17.002,0.085
54058.481977,16.839,0.072
54061.433908,17.075,0.094
54061.446459,17.05,0.093
54061.459008,16.975,0.08
54061.471562,17.009,0.083
54061.48411,16.997,0.083
54066.38694,16.499,0.083
54066.39913,16.534,0.08
54068.394363,17.007,0.081
54068.407408,16.992,0.081
54068.420462,17.032,0.085
54068.433521,16.89,0.067
54068.446578,16.716,0.057
54083.394835,16.947,0.139
54083.407729,16.928,0.157
54083.420715,17.088,0.193
54083.433529,16.765,0.139
54083.446417,17.102,0.157
54084.401044,16.938,0.094
54084.420759,16.902,0.096
54084.437554,16.934,0.089
54084.454046,17.027,0.102
54084.469639,17.032,0.091
54087.402269,16.517,0.067
54087.415277,16.579,0.096
54087.428291,16.612,0.085
54087.441305,16.641,0.085
54087.45432,16.747,0.068
54121.334048,17.204,0.083
54121.346539,17.099,0.074
54121.359014,16.953,0.064
54121.371642,17.172,0.078
54121.384135,16.936,0.066
54124.324403,17.077,0.067
54124.3374,17.07,0.078
54124.353797,17.121,0.068
54124.368771,17.076,0.08
54124.382912,17.022,0.074
54149.279309,16.488,0.056
54149.291126,16.539,0.056
54149.302951,16.56,0.056
54149.314744,16.533,0.056
54149.326526,16.544,0.059
54154.275972,16.963,0.092
54154.287589,17.077,0.097
54154.322378,17.066,0.097
54169.223172,16.506,0.045
54169.234206,16.576,0.046
54169.245216,16.574,0.049
54169.256169,16.559,0.056
54169.26718,16.575,0.049
54175.267245,17.079,0.078
54175.277928,17.045,0.076
54175.288572,16.969,0.07
54175.29922,17.304,0.096
54175.309895,17.092,0.08
54205.179444,17.022,0.109
54205.188813,16.988,0.106
54205.198163,16.992,0.111
54205.207615,17.132,0.127
54205.216975,17.007,0.116
54207.218223,17.047,0.093
54207.227571,17.018,0.091
54207.236688,17.157,0.1
54207.245938,17.069,0.093
54207.255099,17.082,0.093
54210.181134,16.742,0.063
54210.19002,16.792,0.065
54210.198913,16.927,0.072
54210.207794,16.93,0.068
54210.216703,16.812,0.072
54422.466391,16.433,0.035
54422.479015,16.522,0.037
54422.491673,16.535,0.037
54422.50432,16.647,0.041
54422.516922,16.634,0.043
54424.390648,17.11,0.076
54424.403225,17.059,0.067
54424.415807,17.126,0.07
54424.428381,17.147,0.07
54424.440978,17.163,0.068
54447.389959,16.995,0.054
54447.402932,17.003,0.054
54447.415914,17.037,0.055
54447.428881,17.055,0.059
54447.441849,16.999,0.063
54454.327671,17.125,0.096
54454.34086,17.094,0.089
54454.354172,17.078,0.083
54454.367364,16.914,0.076
54454.380599,16.855,0.065
54475.33317,17.036,0.059
54475.345907,16.909,0.054
54475.358638,16.651,0.041
54475.371439,16.355,0.037
54475.384168,16.273,0.031
54483.219743,16.565,0.102
54483.232773,15.921,0.055
54483.245727,15.963,0.055
54483.258659,15.979,0.052
54495.396993,16.455,0.046
54495.409529,16.591,0.052
54495.422178,16.6,0.054
54495.434839,16.639,0.054
54495.447613,16.663,0.059
54508.290574,16.969,0.065
54508.302842,17.034,0.065
54508.315137,16.957,0.07
54508.327348,17.013,0.061
54508.33956,17.119,0.067
54524.328661,16.823,0.048
54524.340152,16.84,0.046
54524.351812,16.793,0.046
54524.363347,16.879,0.052
54524.374899,16.906,0.055
54537.215791,16.951,0.05
54537.226815,16.736,0.041
54537.238062,16.559,0.035
54537.249206,16.443,0.035
54537.260661,16.38,0.031
54555.239829,16.753,0.05
54555.2517,16.753,0.05
54555.26357,16.799,0.054
54555.275453,16.817,0.054
54555.287219,16.931,0.054
54564.191272,16.773,0.05
54564.202625,16.81,0.052
54564.214088,16.889,0.055
54564.225366,16.846,0.054
54564.236762,16.924,0.059
54586.188949,16.77,0.063
54586.229804,16.903,0.133
54594.156579,16.853,0.081
54594.160204,17.381,0.33
54594.188824,17.578,0.483
54594.197916,17.05,0.104
54594.198356,17.281,0.276
54612.160073,18.027,0.393
54612.169053,18.108,0.434
54612.186292,17.807,0.353
54612.194941,18.194,0.483
