mjd,m,merr
52613.4556,16.012,0.046
52613.470881,16.046,0.046
52613.486119,15.997,0.044
52613.501323,15.98,0.041
52613.516618,15.924,0.039
52618.462179,16.064,0.065
52618.492864,15.953,0.063
52618.50843,15.976,0.07
52618.524082,15.973,0.081
52641.458001,16.067,0.037
52641.473391,16.124,0.039
52641.488704,16.062,0.037
52641.503518,16.08,0.037
52641.518996,16.073,0.037
52643.444027,15.796,0.03
52643.458025,15.785,0.028
52643.471974,15.8,0.028
52643.48606,15.742,0.026
52643.500376,15.788,0.026
52647.460939,15.734,0.031
52647.475799,15.756,0.03
52647.490155,15.825,0.033
52647.504897,15.824,0.033
52667.399322,15.937,0.033
52667.414732,15.968,0.035
52667.430023,15.86,0.031
52667.445344,15.857,0.031
52667.460691,15.831,0.033
52673.371119,15.93,0.035
52673.386328,15.988,0.035
52673.401573,15.99,0.031
52673.416928,15.963,0.033
52673.432315,15.994,0.035
52703.314995,15.969,0.072
52703.328166,16.045,0.128
52703.341496,15.956,0.043
52703.355603,15.843,0.085
52703.368872,15.768,0.055
52707.307675,15.804,0.033
52707.308277,15.755,0.033
52707.320726,15.737,0.031
52707.321326,15.719,0.031
52707.333769,15.665,0.028
52707.334371,15.697,0.03
52707.347208,15.613,0.028
52707.360786,15.647,0.03
52707.361389,15.547,0.028
52730.291377,16.013,0.039
52730.302942,16.049,0.041
52730.314585,16.082,0.041
52730.326134,15.973,0.039
52730.337692,15.887,0.035
52737.249206,15.631,0.028
52737.261981,15.632,0.028
52737.273769,15.673,0.03
52737.285607,15.689,0.028
52737.297351,15.709,0.028
52756.200768,15.957,0.043
52756.201108,16.002,0.041
52756.213018,15.945,0.041
52756.213361,15.967,0.04
52756.225264,15.868,0.041
52756.237253,15.868,0.041
52756.249501,15.926,0.043
52756.249843,15.931,0.043
52758.207389,15.937,0.03
52758.219245,15.97,0.033
52758.231137,16.026,0.033
52758.24314,16.042,0.035
52758.254994,15.991,0.033
52788.173222,15.995,0.104
52788.183489,16.159,0.054
52788.193794,15.997,0.111
52793.22395,15.675,0.041
52793.233973,15.591,0.039
52793.243921,15.614,0.041
52966.46849,15.729,0.033
52966.480907,15.626,0.031
52966.493485,15.565,0.03
52966.506025,15.523,0.028
52972.453265,15.919,0.035
52972.466187,16.039,0.035
52972.478961,16.031,0.035
52972.491712,15.927,0.031
52972.504585,16.063,0.037
52987.505654,15.933,0.068
52994.477803,15.861,0.02
52994.491827,15.797,0.02
52994.505162,15.759,0.018
52994.518481,15.708,0.018
52994.531838,15.674,0.017
53028.401262,15.771,0.018
53028.413652,15.803,0.02
53028.426044,15.804,0.02
53028.438561,15.866,0.02
53028.45095,15.831,0.024
53033.33839,15.889,0.033
53033.350602,15.897,0.033
53033.362666,15.882,0.031
53033.387542,15.831,0.037
53054.368322,15.855,0.024
53054.382839,15.891,0.026
53054.394837,15.939,0.028
53054.407502,15.972,0.028
53054.42033,16.024,0.03
53061.330376,16.06,0.022
53061.341439,16.025,0.022
53061.352505,15.98,0.022
53061.363621,15.948,0.022
53061.374792,15.885,0.022
53080.28402,15.989,0.031
53080.295608,15.993,0.033
53080.307554,16.0,0.033
53080.318901,16.014,0.033
53080.330185,15.995,0.033
53082.33933,15.723,0.018
53082.350752,15.756,0.02
53082.361866,15.752,0.02
53082.373068,15.834,0.022
53082.390321,15.858,0.024
53091.327848,15.8,0.018
53091.338448,15.826,0.02
53091.348815,15.847,0.02
53091.359358,15.865,0.022
53091.369647,15.866,0.022
53111.191975,15.946,0.041
53111.202751,15.932,0.039
53111.213503,15.922,0.039
53111.224243,15.963,0.039
53116.309538,16.018,0.031
53116.320761,16.07,0.031
53116.332371,16.062,0.03
53116.344375,16.0,0.03
53116.355611,15.964,0.03
53139.199825,15.908,0.039
53139.209139,15.877,0.037
53139.218441,15.917,0.037
53139.227739,15.973,0.043
53139.237202,15.944,0.041
53141.212583,15.562,0.022
53141.222767,15.632,0.026
53141.23245,15.612,0.024
53141.242669,15.641,0.026
53141.252344,15.656,0.026
53144.209876,15.962,0.048
53144.218811,16.009,0.054
53144.227668,16.028,0.083
53144.24573,16.122,0.101
53346.453909,15.729,0.039
53346.467243,15.707,0.035
53353.460479,15.916,0.044
53353.473889,15.951,0.044
53353.486729,15.936,0.041
53353.499571,16.002,0.043
53353.512998,15.921,0.037
53376.484484,15.966,0.033
53376.498454,16.005,0.033
53376.51223,16.036,0.033
53376.529504,16.072,0.033
53381.425915,15.942,0.133
53381.438766,15.95,0.148
53403.355562,15.89,0.039
53403.369026,15.947,0.039
53403.382365,15.992,0.041
53403.395836,15.974,0.041
53403.408677,16.028,0.043
53432.372568,15.843,0.048
53432.383933,15.79,0.031
53432.395614,15.787,0.033
53437.349521,15.747,0.028
53437.36085,15.682,0.026
53437.372484,15.655,0.026
53437.396952,15.634,0.026
53440.363623,15.818,0.03
53440.374129,15.855,0.031
53440.386164,15.912,0.035
53440.397287,15.868,0.033
53440.407771,15.959,0.037
53443.286245,15.931,0.028
53443.297114,15.931,0.03
53443.308517,15.964,0.03
53443.319371,16.006,0.031
53446.282799,15.881,0.065
53446.293731,15.857,0.043
53446.304651,15.888,0.035
53446.315769,15.823,0.098
53446.326637,15.82,0.026
53464.294494,15.926,0.035
53464.304668,15.885,0.031
53464.314854,15.848,0.03
53464.325011,15.841,0.035
53464.335162,15.735,0.031
53478.23344,16.236,0.107
53478.243203,16.225,0.105
53478.253278,16.168,0.102
53495.247672,15.755,0.063
53495.257781,15.606,0.065
53495.267848,15.63,0.07
53495.277891,15.768,0.078
53495.287954,15.746,0.091
53496.198292,16.042,0.048
53496.208563,16.135,0.055
53496.218885,16.011,0.05
53496.229079,16.066,0.054
53496.239336,16.041,0.055
53525.185893,15.864,0.046
53525.19607,15.916,0.052
53525.206238,15.987,0.055
53527.167075,15.812,0.043
53527.177357,15.704,0.039
53527.187246,15.661,0.037
53527.197024,15.553,0.035
53527.206792,15.571,0.035
53708.462212,15.747,0.033
53708.475181,15.834,0.037
53708.488021,15.881,0.039
53708.500669,15.868,0.035
53708.513456,15.941,0.039
53710.454927,16.114,0.061
53710.468268,15.984,0.054
53710.480962,15.969,0.052
53710.493542,15.863,0.046
53710.506109,15.813,0.043
53732.477329,15.553,0.037
53732.490864,15.616,0.039
53732.503777,15.741,0.041
53732.516559,15.763,0.046
53732.52928,15.732,0.039
53735.468989,15.795,0.052
53735.482389,15.952,0.083
53735.495151,15.94,0.05
53746.404155,15.816,0.05
53746.41662,15.785,0.048
53746.429175,15.761,0.044
53746.441863,15.787,0.044
53746.454329,15.751,0.041
53759.409754,15.534,0.028
53759.422542,15.522,0.033
53759.435134,15.546,0.039
53759.447756,15.589,0.043
53759.460337,16.045,0.111
53762.414314,15.856,0.037
53762.427058,15.937,0.039
53762.439697,15.883,0.05
53762.452423,15.95,0.078
53762.465181,15.946,0.041
53790.343653,15.632,0.028
53790.355353,15.64,0.028
53790.367046,15.699,0.03
53790.378742,15.783,0.033
53790.390449,15.786,0.033
53791.353864,15.85,0.028
53791.36567,15.825,0.028
53791.377579,15.729,0.026
53791.389209,15.786,0.028
53791.401103,15.817,0.028
53793.36069,15.979,0.043
53793.37242,16.041,0.041
53793.384168,16.0,0.035
53793.39591,16.088,0.115
53797.309732,15.681,0.074
53797.321304,16.022,0.033
53797.344512,16.051,0.033
53799.338002,15.633,0.028
53799.349436,15.634,0.028
53799.360862,15.767,0.033
53799.372301,15.744,0.041
53799.383745,15.809,0.052
53815.287836,15.942,0.055
53815.299,15.939,0.055
53815.310178,15.965,0.043
53815.321374,15.978,0.046
53815.332561,16.043,0.052
53817.265174,15.572,0.025
53817.27665,15.565,0.025
53817.287912,15.54,0.025
53817.299239,15.548,0.026
53817.310567,15.591,0.026
53819.354657,15.926,0.039
53819.369633,15.891,0.044
53819.383247,15.81,0.048
53819.395432,15.805,0.041
53826.289009,15.8,0.031
53826.313449,15.736,0.03
53826.32493,15.748,0.037
53826.336317,15.742,0.037
53827.345829,15.568,0.03
53827.358358,15.541,0.035
53827.382693,15.514,0.043
53827.39606,15.573,0.039
53832.227323,15.982,0.05
53832.239325,15.924,0.046
53832.249395,15.96,0.048
53832.260509,15.927,0.046
53832.271607,15.907,0.046
53846.1923,15.937,0.041
53846.202979,16.019,0.045
53846.213793,15.916,0.043
53846.224521,15.92,0.041
53846.235213,15.952,0.041
53848.244136,15.631,0.039
53848.254586,15.707,0.041
53848.265331,15.778,0.044
53848.276223,15.796,0.044
53848.286694,15.818,0.046
53850.197101,15.988,0.045
53850.207494,16.042,0.048
53850.218006,16.037,0.048
53850.228506,16.01,0.048
53850.239179,16.016,0.046
53850.275603,15.915,0.041
53850.286719,15.849,0.039
53850.299125,15.866,0.039
53850.309971,15.839,0.037
53850.321583,15.863,0.039
53853.245459,15.805,0.039
53853.255864,15.863,0.043
53853.266906,15.798,0.039
53853.277675,15.842,0.039
53853.288107,15.703,0.039
53856.278257,15.946,0.044
53856.291023,15.965,0.046
53856.302552,15.939,0.043
53856.312699,15.983,0.048
53856.322863,15.976,0.048
53880.167464,15.807,0.04
53880.178637,15.833,0.04
53880.189322,15.713,0.036
53880.200137,15.829,0.043
53880.211066,15.832,0.041
53882.169962,16.002,0.043
53882.182834,16.025,0.043
53882.195755,15.989,0.041
53882.206989,16.014,0.044
53882.218892,16.082,0.046
53884.162926,15.831,0.044
53884.163878,15.871,0.043
53884.174622,15.853,0.041
53884.174677,15.844,0.046
53884.185841,15.848,0.043
53884.186429,15.836,0.046
53884.196569,15.834,0.045
53884.198231,15.811,0.046
53884.207442,15.815,0.043
53884.210005,15.924,0.052
54080.461116,15.871,0.102
54080.473677,15.788,0.081
54080.486233,16.005,0.096
54080.49885,16.122,0.107
54086.427823,15.916,0.039
54086.440771,15.888,0.037
54086.453619,15.834,0.033
54086.466472,15.804,0.033
54086.479443,15.656,0.028
54091.359932,15.885,0.063
54091.372556,15.919,0.061
54091.384461,15.92,0.058
54091.39636,15.887,0.053
54091.408484,15.937,0.054
54113.406666,15.906,0.045
54113.420654,15.87,0.048
54113.43342,15.771,0.051
54113.446319,15.959,0.054
54115.414369,15.962,0.046
54115.427102,15.963,0.046
54115.440262,15.898,0.043
54115.453461,16.08,0.051
54115.466245,16.09,0.051
54123.396679,16.009,0.045
54123.409096,16.024,0.043
54123.421513,16.013,0.043
54123.434557,15.878,0.038
54123.446933,15.903,0.04
54144.363373,15.708,0.028
54144.374457,15.674,0.026
54144.386123,15.672,0.026
54144.397194,15.674,0.026
54144.409541,15.66,0.028
54148.341022,15.557,0.028
54148.352588,15.623,0.03
54148.36418,15.603,0.03
54148.37608,15.677,0.031
54148.387751,15.682,0.033
54154.331438,16.023,0.033
54154.343787,15.983,0.031
54154.355395,15.929,0.03
54154.367035,15.914,0.031
54154.378643,15.885,0.028
54155.351019,16.021,0.031
54155.36284,16.059,0.031
54155.374671,16.03,0.031
54155.386628,16.066,0.033
54155.398473,16.088,0.033
54156.322536,15.88,0.031
54156.33414,15.93,0.033
54156.345653,15.93,0.033
54156.35718,15.979,0.033
54156.368707,16.017,0.035
54173.316613,16.001,0.031
54173.327354,16.009,0.033
54173.338088,16.012,0.031
54173.348848,16.047,0.033
54173.360459,16.065,0.033
54174.27196,15.834,0.033
54174.282815,15.829,0.033
54174.293888,15.877,0.036
54174.304774,15.895,0.041
54174.316052,15.923,0.038
54176.322599,15.527,0.02
54176.33348,15.514,0.02
54176.344304,15.511,0.02
54176.355393,15.518,0.02
54176.366266,15.58,0.022
54179.339857,15.847,0.03
54179.35085,15.882,0.031
54179.361717,15.904,0.031
54179.372627,15.943,0.033
54179.383995,15.957,0.035
54180.280104,15.616,0.025
54180.29044,15.628,0.026
54180.300915,15.663,0.025
54180.311647,15.663,0.026
54180.322003,15.653,0.026
54186.341904,15.99,0.031
54186.353621,16.006,0.033
54186.365002,15.996,0.031
54186.376382,16.028,0.033
54186.388397,16.031,0.033
54200.221105,15.921,0.043
54206.265751,15.744,0.024
54206.275251,15.755,0.024
54206.284399,15.774,0.026
54206.293547,15.771,0.028
54206.30268,15.882,0.03
54209.261768,15.996,0.067
54209.270844,16.033,0.063
54209.279905,15.953,0.078
54209.288962,15.947,0.083
54209.298024,16.075,0.141
54439.451756,15.685,0.022
54439.464644,15.653,0.022
54439.477523,15.652,0.022
54439.490394,15.726,0.022
54439.503267,15.787,0.024
54448.451618,15.709,0.018
54448.464772,15.719,0.018
54448.477881,15.721,0.018
54448.490975,15.733,0.018
54448.504069,15.733,0.018
54507.335317,15.659,0.018
54507.347401,15.607,0.018
54507.359504,15.549,0.017
54507.37156,15.544,0.017
54507.383622,15.574,0.017
54507.455877,15.738,0.033
54507.467813,15.793,0.036
54507.479761,15.81,0.036
54507.492572,15.861,0.035
54507.504558,15.863,0.036
54523.39559,15.947,0.028
54523.407396,15.963,0.03
54523.419277,16.004,0.03
54523.431111,15.961,0.03
54523.442944,15.96,0.03
54530.335283,15.907,0.054
54530.346533,15.902,0.035
54530.357791,15.87,0.028
54530.369067,15.843,0.02
54530.380334,15.848,0.022
54535.441011,15.638,0.033
54535.452008,15.66,0.035
54535.462895,15.729,0.036
54535.473782,15.782,0.04
54535.484728,15.77,0.043
54536.275186,15.94,0.024
54536.286191,15.929,0.022
54536.297137,15.935,0.022
54536.308142,15.937,0.022
54536.319124,15.968,0.024
54554.303699,15.988,0.024
54554.315672,16.028,0.024
54554.327822,15.991,0.024
54554.339812,16.013,0.024
54554.35184,15.986,0.026
54563.295924,16.002,0.026
54563.307635,16.039,0.026
54563.319072,16.017,0.024
54563.330503,15.993,0.024
54563.341954,15.932,0.033
54580.19742,16.013,0.033
54580.208033,15.981,0.031
54580.21864,16.016,0.033
54580.229253,15.989,0.037
54580.239926,15.923,0.037
54584.252116,15.755,0.026
54584.262771,15.748,0.026
54584.273348,15.743,0.026
54584.283933,15.745,0.024
54584.29457,15.797,0.026
54590.196598,16.002,0.063
54590.206409,16.049,0.079
54590.216075,16.081,0.081
54590.225898,16.093,0.081
54590.235693,16.049,0.071
54591.245953,15.939,0.035
54591.2561,15.976,0.037
54591.26627,15.91,0.035
54591.276434,15.891,0.037
54591.286592,15.935,0.039
54611.163734,15.832,0.026
54611.174041,15.744,0.024
54611.183997,15.712,0.022
54611.193904,15.698,0.024
54611.20371,15.633,0.022
54614.1666,15.702,0.028
54614.176549,15.783,0.028
54614.186524,15.821,0.03
54614.196532,15.814,0.03
54614.206481,15.841,0.031
