mjd,m,merr
52641.458862,15.667,0.026
52641.474154,15.71,0.026
52641.489466,15.724,0.028
52641.504282,15.77,0.028
52641.519759,15.763,0.028
52643.444497,15.919,0.033
52643.45851,15.91,0.031
52643.472444,15.948,0.031
52643.486529,15.932,0.03
52643.500925,15.953,0.03
52647.461417,15.579,0.028
52647.476278,15.625,0.028
52647.490634,15.639,0.03
52647.505376,15.697,0.03
52647.519641,15.529,0.1
52667.399836,15.527,0.022
52667.415248,15.531,0.022
52667.430632,15.528,0.024
52667.44586,15.566,0.024
52667.461206,15.581,0.026
52670.401488,15.684,0.03
52670.415399,15.622,0.026
52670.42939,15.533,0.024
52670.443324,15.529,0.024
52670.457246,15.504,0.024
52673.371766,16.045,0.037
52673.386974,15.989,0.033
52673.40222,15.937,0.03
52673.417574,15.745,0.026
52673.432959,15.677,0.026
52703.315654,15.752,0.072
52703.328827,15.756,0.085
52703.342156,15.763,0.037
52703.356261,15.68,0.083
52703.369533,15.807,0.061
52707.308514,16.037,0.04
52707.321204,16.008,0.028
52707.321564,16.047,0.04
52707.334248,15.997,0.026
52707.33486,16.009,0.038
52707.347687,15.991,0.028
52707.348049,15.977,0.038
52707.361266,15.846,0.025
52707.361625,15.807,0.033
52730.291945,15.986,0.035
52730.303515,15.961,0.035
52730.315153,15.967,0.035
52730.326705,16.021,0.037
52730.338262,15.995,0.037
52737.249439,15.692,0.03
52737.262212,15.683,0.03
52737.274,15.716,0.03
52737.285838,15.726,0.028
52737.297583,15.729,0.028
52756.201332,15.888,0.038
52756.213587,15.867,0.038
52756.225829,15.929,0.04
52756.23782,15.858,0.04
52756.250069,15.967,0.045
52758.207941,16.021,0.031
52758.219798,16.043,0.033
52758.231693,16.015,0.033
52758.243693,16.048,0.035
52758.255548,16.056,0.035
52788.184015,15.694,0.033
52788.194321,15.585,0.122
52793.224501,15.956,0.054
52793.234509,15.94,0.054
52793.244457,15.976,0.057
52966.469085,15.739,0.035
52966.481502,15.731,0.035
52966.49408,15.791,0.035
52966.50662,15.808,0.033
52972.45355,15.62,0.028
52972.466472,15.637,0.024
52972.479245,15.646,0.026
52972.491996,15.667,0.026
52972.504871,15.645,0.026
52987.506123,15.714,0.054
52994.478363,15.835,0.02
52994.492387,15.862,0.02
52994.505722,15.83,0.02
52994.519041,15.88,0.02
52994.532398,15.917,0.022
52997.480295,15.857,0.15
52997.495401,15.868,0.167
53028.401798,15.845,0.018
53028.414188,15.84,0.02
53028.42658,15.86,0.018
53028.439097,15.904,0.026
53028.451486,15.89,0.022
53033.339126,15.928,0.033
53033.351339,15.923,0.033
53033.363404,15.944,0.033
53033.375882,15.925,0.061
53033.38828,15.906,0.035
53054.368984,15.696,0.022
53054.383501,15.74,0.022
53054.395499,15.747,0.022
53054.408164,15.756,0.022
53054.421803,15.777,0.024
53061.330883,15.92,0.02
53061.341947,15.913,0.022
53061.353012,15.921,0.022
53061.364129,15.937,0.022
53061.375301,15.931,0.024
53080.284433,15.581,0.022
53080.296022,15.565,0.022
53080.307968,15.518,0.02
53080.319315,15.512,0.02
53080.330599,15.525,0.02
53082.339676,15.765,0.02
53082.351098,15.787,0.022
53082.362212,15.799,0.022
53082.373414,15.83,0.022
53082.390667,15.839,0.024
53086.283413,16.057,0.043
53086.294834,15.997,0.035
53086.306265,15.923,0.03
53086.317585,15.778,0.026
53086.328693,15.682,0.022
53087.28257,15.937,0.023
53087.295758,15.932,0.023
53087.318501,15.91,0.023
53087.329542,15.937,0.025
53091.328366,15.664,0.017
53091.338966,15.676,0.018
53091.349333,15.686,0.018
53091.359877,15.689,0.02
53091.370166,15.699,0.02
53093.231135,15.843,0.03
53093.241068,15.751,0.026
53093.25087,15.99,0.03
53093.260732,16.091,0.036
53094.227646,15.532,0.022
53094.238947,15.531,0.02
53094.249383,15.447,0.02
53094.259909,15.444,0.018
53094.27058,15.417,0.02
53096.236423,15.859,0.066
53096.246171,15.843,0.068
53096.255874,15.827,0.064
53116.310056,15.794,0.024
53116.321279,15.819,0.026
53116.33289,15.827,0.024
53116.344894,15.851,0.026
53116.356149,15.839,0.026
53139.20037,15.623,0.028
53139.209683,15.619,0.028
53139.218985,15.647,0.03
53139.228283,15.698,0.033
53139.237747,15.657,0.031
53141.213036,15.872,0.028
53141.223219,15.866,0.03
53141.232903,15.877,0.031
53141.243121,15.885,0.031
53141.252796,15.914,0.033
53144.21031,15.832,0.048
53144.219254,15.859,0.053
53144.228088,15.815,0.068
53144.246148,15.902,0.092
53177.16972,15.923,0.045
53177.172127,15.926,0.046
53177.182072,15.954,0.05
53177.201923,15.948,0.068
53346.454867,15.636,0.039
53346.468206,15.581,0.035
53346.481882,15.477,0.03
53346.494537,15.466,0.03
53346.506678,15.482,0.03
53353.461092,15.949,0.046
53353.474503,15.967,0.044
53353.487342,15.924,0.041
53353.500185,15.961,0.041
53353.513611,15.976,0.039
53376.486167,15.95,0.031
53376.499318,15.894,0.03
53376.512986,15.967,0.031
53376.530243,15.945,0.03
53381.426554,15.896,0.093
53381.439406,15.945,0.098
53403.410369,15.955,0.039
53403.423327,15.767,0.031
53403.439704,15.692,0.031
53403.453198,15.603,0.03
53403.466783,15.57,0.03
53432.35037,15.926,0.159
53432.361718,16.017,0.148
53432.373173,15.979,0.046
53432.384539,15.955,0.039
53432.396231,15.969,0.043
53437.350087,16.022,0.033
53437.361417,15.969,0.031
53437.37305,15.815,0.028
53437.38436,15.684,0.026
53437.397519,15.651,0.026
53440.364248,16.077,0.037
53440.375228,16.003,0.037
53440.386786,16.001,0.037
53440.397911,15.88,0.033
53440.408395,15.738,0.031
53443.27538,15.935,0.03
53443.286858,15.935,0.028
53443.297725,15.944,0.03
53443.309129,15.971,0.03
53443.319986,15.957,0.03
53446.283418,15.9,0.061
53446.294345,15.893,0.05
53446.305258,15.941,0.043
53446.316371,15.892,0.052
53446.327236,15.933,0.03
53464.295105,15.747,0.03
53464.30528,15.763,0.028
53464.315464,15.804,0.03
53464.325623,15.819,0.033
53464.335778,15.842,0.033
53478.243849,15.797,0.065
53478.264604,15.781,0.067
53495.248307,15.844,0.076
53495.258413,15.767,0.07
53495.268481,15.825,0.081
53495.278557,15.92,0.091
53496.198741,15.693,0.033
53496.208963,15.689,0.037
53496.219292,15.62,0.035
53496.22948,15.564,0.033
53496.239753,15.535,0.033
53525.166056,15.976,0.05
53525.176243,15.947,0.048
53525.186425,15.94,0.05
53525.196619,15.98,0.054
53525.20677,15.978,0.052
53527.167249,15.524,0.031
53527.177532,15.492,0.031
53527.18742,15.495,0.031
53527.197198,15.526,0.033
53527.206967,15.564,0.035
53710.455115,15.746,0.043
53710.468474,15.762,0.043
53710.48115,15.804,0.043
53710.493729,15.815,0.044
53710.506297,15.78,0.043
53732.477987,15.997,0.055
53732.491539,15.931,0.054
53732.504432,15.936,0.05
53732.517215,15.935,0.052
53732.529936,15.928,0.046
53735.469656,16.013,0.067
53735.483055,15.977,0.096
53746.405085,15.961,0.057
53746.417549,15.899,0.052
53746.430104,15.947,0.054
53746.442791,15.93,0.054
53746.45526,15.99,0.054
53759.410419,15.507,0.026
53759.423207,15.535,0.037
53759.435798,15.56,0.044
53759.448419,15.585,0.044
53759.461006,15.581,0.065
53762.414977,15.545,0.026
53762.427722,15.504,0.024
53762.44036,15.516,0.05
53762.453084,15.531,0.037
53762.465857,15.566,0.03
53790.344304,15.535,0.026
53790.356004,15.56,0.026
53790.367697,15.596,0.028
53790.379394,15.605,0.028
53790.3911,15.62,0.03
53791.354436,15.945,0.031
53791.366241,15.982,0.035
53791.378153,15.958,0.033
53791.389782,16.027,0.035
53791.401673,15.994,0.035
53793.349492,15.494,0.024
53793.361219,15.518,0.028
53793.372952,15.551,0.026
53793.3847,15.553,0.022
53793.396444,15.582,0.063
53797.321822,15.957,0.031
53797.333394,15.936,0.03
53797.345034,15.94,0.03
53799.338642,15.924,0.033
53799.350075,15.78,0.03
53799.361501,15.68,0.03
53799.372942,15.636,0.033
53799.384385,15.585,0.041
53815.288794,15.734,0.048
53815.299961,15.719,0.043
53815.311143,15.725,0.035
53815.322331,15.754,0.037
53815.333526,15.806,0.041
53817.266218,15.88,0.035
53817.27749,15.896,0.035
53817.288757,15.887,0.035
53817.300077,15.946,0.04
53817.311404,15.917,0.036
53819.341826,15.98,0.039
53819.355915,15.821,0.035
53819.370426,15.701,0.037
53819.396682,15.592,0.033
53820.358859,16.002,0.191
53826.33808,15.896,0.043
53826.384635,15.817,0.074
53827.358865,15.628,0.035
53827.371353,15.649,0.037
53827.396569,15.681,0.039
53828.224753,15.921,0.044
53828.236216,15.984,0.048
53828.246609,15.959,0.067
53828.257667,16.01,0.094
53829.206962,15.651,0.033
53829.217501,15.699,0.035
53829.22847,15.631,0.041
53831.225047,15.883,0.043
53831.235166,15.884,0.044
53831.242454,15.87,0.045
53831.245817,15.906,0.044
53831.25268,15.884,0.045
53831.255967,15.897,0.043
53831.262921,15.942,0.046
53831.266187,15.939,0.044
53831.273334,15.911,0.043
53831.283569,15.892,0.043
53832.273407,15.731,0.037
53832.283558,15.735,0.037
53832.294683,15.738,0.039
53832.305029,15.774,0.039
53832.314971,15.779,0.041
53846.192514,15.63,0.035
53846.203254,15.633,0.036
53846.214,15.669,0.038
53846.224727,15.697,0.036
53846.23542,15.687,0.036
53846.249262,15.716,0.044
53846.26006,15.776,0.043
53846.270865,15.752,0.043
53846.281674,15.753,0.043
53846.292475,15.806,0.046
53850.197299,16.023,0.048
53850.207692,15.934,0.045
53850.218205,16.053,0.051
53850.228704,16.081,0.053
53850.239379,16.023,0.049
53850.276248,15.832,0.035
53850.287365,15.725,0.035
53850.299769,15.704,0.033
53850.310753,15.67,0.033
53850.322322,15.564,0.03
53853.246085,16.036,0.048
53853.256491,16.048,0.048
53853.267531,16.077,0.05
53853.278301,16.045,0.048
53853.288733,16.033,0.052
53856.279003,16.025,0.046
53856.29177,15.999,0.044
53856.303297,16.021,0.046
53856.313445,15.975,0.046
53856.323615,15.996,0.05
53879.210669,15.924,0.04
53879.224299,15.89,0.038
53879.236735,15.952,0.041
53879.249233,15.946,0.043
53879.261168,15.96,0.043
53882.171142,15.889,0.037
53882.183846,15.896,0.037
53882.196233,15.904,0.039
53882.207468,15.942,0.041
53882.21937,15.972,0.041
53884.163764,16.008,0.052
53884.175516,16.035,0.052
53884.187273,16.052,0.057
53884.19907,16.037,0.057
53884.210847,16.009,0.055
53885.161029,15.837,0.036
53885.17221,15.822,0.035
53885.182997,15.842,0.038
53885.194069,15.924,0.041
53885.205046,15.882,0.04
54080.474696,15.95,0.094
54080.487249,15.995,0.091
54080.499871,16.029,0.091
54086.4285,15.831,0.037
54086.44145,15.883,0.037
54086.454298,15.864,0.035
54086.467151,15.835,0.033
54086.480124,15.91,0.035
54113.40733,16.059,0.053
54113.421316,15.901,0.051
54113.4341,15.742,0.049
54113.44698,15.722,0.045
54115.414893,15.727,0.038
54115.427644,15.81,0.041
54115.440787,15.819,0.04
54115.453987,15.826,0.041
54115.466774,15.865,0.045
54123.397335,15.832,0.04
54123.409747,15.865,0.04
54123.422168,15.861,0.04
54123.43521,15.86,0.041
54123.447717,15.868,0.04
54144.363975,15.709,0.026
54144.375062,15.643,0.024
54144.386725,15.594,0.022
54144.397797,15.528,0.022
54144.410141,15.499,0.022
54148.341509,15.899,0.038
54148.35308,15.975,0.041
54148.364668,15.936,0.04
54148.376573,15.938,0.041
54148.388244,15.959,0.043
54154.332151,15.812,0.026
54154.344502,15.833,0.026
54154.356109,15.871,0.026
54154.367747,15.886,0.028
54154.379357,15.899,0.028
54155.351303,15.537,0.02
54155.363123,15.571,0.02
54155.374966,15.594,0.02
54155.386912,15.613,0.022
54155.398758,15.627,0.022
54156.322814,15.917,0.031
54156.334419,15.964,0.031
54156.345932,15.931,0.031
54156.357458,15.951,0.031
54156.368986,15.972,0.031
54173.317244,15.972,0.028
54173.327979,15.953,0.03
54173.338707,15.99,0.03
54173.34947,15.995,0.03
54173.36108,15.992,0.03
54174.272781,15.728,0.031
54174.283636,15.759,0.031
54174.294707,15.773,0.035
54174.305762,15.81,0.038
54174.316872,15.794,0.035
54176.32324,15.924,0.03
54176.334117,15.945,0.031
54176.344942,15.948,0.03
54176.356027,15.95,0.03
54176.366897,15.982,0.031
54179.340369,15.915,0.031
54179.351354,15.954,0.033
54179.362307,15.94,0.031
54179.373381,15.963,0.033
54179.384499,15.962,0.035
54180.280906,15.665,0.028
54180.291241,15.647,0.026
54180.301716,15.658,0.026
54180.312449,15.672,0.026
54180.322803,15.719,0.03
54186.342621,15.975,0.03
54186.354266,15.951,0.03
54186.365764,15.999,0.03
54186.377368,16.006,0.03
54186.389043,15.998,0.03
54200.221302,15.539,0.031
54200.230855,15.559,0.043
54206.266227,15.504,0.02
54206.275727,15.538,0.02
54206.284873,15.547,0.022
54206.29402,15.527,0.022
54206.303157,15.591,0.024
54209.262247,15.52,0.033
54209.271323,15.541,0.044
54209.280387,15.491,0.044
54209.289443,15.469,0.05
54209.298504,15.523,0.076
54439.452158,15.901,0.028
54439.465048,15.946,0.028
54439.477924,15.901,0.026
54439.490796,15.926,0.026
54439.503668,15.913,0.026
54507.33586,15.926,0.026
54507.347946,15.915,0.024
54507.360049,15.921,0.022
54507.372103,15.93,0.022
54507.384168,15.926,0.024
54507.456219,15.997,0.041
54507.468154,15.997,0.043
54507.480101,16.019,0.046
54507.492912,16.044,0.041
54507.504899,15.995,0.041
54522.446026,15.883,0.035
54522.457742,15.872,0.035
54522.469447,15.827,0.035
54522.481255,15.871,0.037
54522.49301,15.89,0.039
54529.329814,16.013,0.024
54529.341127,15.925,0.024
54529.352421,15.84,0.022
54529.363724,15.672,0.018
54529.375036,15.667,0.018
54534.394557,15.696,0.03
54536.275738,15.769,0.024
54536.286733,15.779,0.018
54536.297686,15.803,0.018
54536.308687,15.818,0.018
54536.319671,15.813,0.018
54553.356591,15.883,0.03
54553.368664,15.875,0.03
54553.380776,15.967,0.033
54562.300753,15.695,0.017
54562.312275,15.705,0.018
54562.323788,15.72,0.017
54562.335352,15.732,0.018
54562.346876,15.745,0.018
54568.246486,15.549,0.036
54568.25747,15.593,0.036
54568.268431,15.597,0.038
54568.279303,15.619,0.038
54568.290106,15.665,0.038
54580.198207,15.962,0.031
54580.208818,15.993,0.031
54580.219428,16.023,0.033
54580.23004,16.026,0.037
54580.240713,16.042,0.041
54584.253124,15.85,0.028
54584.263781,15.86,0.028
54584.274361,15.874,0.028
54584.284949,15.922,0.03
54584.29558,15.903,0.03
54590.196843,15.707,0.051
54590.206653,15.756,0.071
54590.216319,15.756,0.064
54590.226142,15.766,0.058
54590.235938,15.736,0.054
54591.246936,15.535,0.024
54591.257078,15.511,0.024
54591.267253,15.497,0.024
54591.27742,15.501,0.026
54591.287574,15.549,0.028
54611.164002,16.05,0.031
54611.174308,16.024,0.03
54611.184263,16.042,0.03
54611.194172,15.99,0.03
54611.203976,15.892,0.028
54614.167284,15.988,0.031
54614.177234,16.005,0.033
54614.18721,16.011,0.033
54614.197217,16.028,0.035
54614.207173,16.041,0.035
