mjd,m,merr
52612.449286,16.681,0.065
52612.464503,16.635,0.061
52612.479686,16.624,0.057
52612.494832,16.493,0.052
52612.510151,16.291,0.043
52614.487271,16.019,0.045
52622.429351,15.907,0.04
52638.375478,16.507,0.059
52638.390502,16.478,0.054
52638.405521,16.552,0.059
52646.396004,16.649,0.073
52646.411195,16.658,0.074
52646.426942,16.629,0.069
52646.441917,16.625,0.071
52646.457026,16.594,0.073
52649.367404,16.162,0.043
52649.383195,16.194,0.045
52649.398604,16.243,0.048
52649.414364,16.315,0.049
52649.4296,16.358,0.053
52672.322087,16.338,0.059
52672.337211,16.392,0.054
52672.351909,16.403,0.051
52672.366929,16.386,0.051
52672.382131,16.424,0.056
52677.326732,16.48,0.068
52677.343877,16.484,0.183
52677.361802,15.834,0.049
52677.378032,15.881,0.102
52696.277016,16.477,0.044
52696.289603,16.426,0.043
52696.302125,16.356,0.039
52696.315385,16.307,0.037
52696.328904,16.127,0.031
52701.316456,16.431,0.058
52701.342586,16.296,0.053
52701.355817,16.403,0.063
52723.228131,16.142,0.05
52723.239544,16.066,0.05
52723.25101,16.06,0.046
52723.262517,16.055,0.033
52734.197573,16.445,0.051
52734.209748,16.475,0.053
52734.221625,16.484,0.054
52734.233997,16.42,0.053
52734.246232,16.433,0.054
52752.183652,15.752,0.031
52752.193832,15.797,0.031
52752.204023,15.833,0.033
52752.21416,15.874,0.035
52752.224287,15.921,0.037
52946.438919,16.409,0.068
52946.450787,16.385,0.109
52977.396076,16.48,0.065
52977.408205,16.514,0.059
52977.420178,16.537,0.052
52977.432115,16.507,0.046
52977.444164,16.607,0.05
52991.477486,16.289,0.033
52991.490953,16.309,0.035
52991.503543,16.29,0.035
52991.516076,16.32,0.036
52991.528621,16.441,0.048
53002.352231,16.428,0.03
53002.365832,16.412,0.03
53002.379317,16.322,0.026
53002.393158,16.182,0.021
53002.406722,16.085,0.02
53006.332116,16.152,0.043
53006.344877,16.039,0.041
53006.357064,16.02,0.044
53006.369161,15.93,0.031
53006.38126,15.989,0.031
53035.344583,16.103,0.037
53035.357622,16.093,0.035
53035.37023,16.106,0.035
53035.384027,16.086,0.035
53035.396602,16.167,0.035
53049.276135,16.248,0.028
53049.288441,16.265,0.028
53049.300239,16.376,0.031
53049.312043,16.408,0.033
53049.323883,16.401,0.033
53077.298606,15.986,0.124
53089.227676,16.178,0.03
53089.238267,16.24,0.03
53089.249082,16.151,0.03
53089.259833,16.255,0.031
53089.270415,16.214,0.031
53107.186963,16.586,0.056
53107.1974,16.544,0.053
53107.207904,16.537,0.054
53107.218383,16.564,0.054
53107.22887,16.592,0.056
53127.188629,16.106,0.106
53127.208148,16.213,0.119
53127.217453,16.172,0.119
53136.155785,15.862,0.036
53136.164533,15.877,0.036
53136.173397,15.905,0.04
53136.182253,15.952,0.045
53136.191082,15.964,0.045
53149.162297,16.567,0.073
53149.170849,16.628,0.083
53149.179657,16.569,0.079
53149.188255,16.611,0.084
53149.196958,16.538,0.083
53331.44625,16.115,0.048
53331.458627,16.03,0.043
53331.471003,16.048,0.043
53331.483383,15.972,0.041
53331.495757,15.969,0.041
53341.409731,16.01,0.068
53341.421738,16.057,0.072
53341.434208,16.067,0.07
53341.446222,15.922,0.061
53341.458237,16.043,0.068
53387.492992,16.377,0.048
53387.508244,16.376,0.048
53387.522461,16.449,0.054
53387.53554,16.439,0.057
53474.238129,16.419,0.059
53474.24916,16.434,0.061
53474.260573,16.433,0.061
53474.271102,16.382,0.057
53474.281467,16.294,0.054
53498.152576,16.236,0.054
53498.162739,16.123,0.054
53498.173014,16.172,0.048
53499.159972,16.532,0.061
53499.17096,16.517,0.061
53499.181105,16.526,0.063
53499.191363,16.55,0.063
53499.20156,16.496,0.061
53521.155488,16.224,0.065
53521.165689,16.304,0.093
53521.17587,16.343,0.117
53521.186327,16.294,0.105
53521.196537,16.379,0.089
53683.449269,15.448,0.031
53683.461648,15.445,0.03
53683.473877,15.583,0.03
53683.486284,15.678,0.048
53683.498565,15.661,0.033
53701.446341,16.411,0.065
53701.458811,16.457,0.126
53701.471579,16.443,0.068
53701.484134,16.593,0.205
53701.496628,16.578,0.083
53741.351116,16.372,0.033
53741.363813,16.418,0.035
53741.377214,16.403,0.037
53741.390531,16.415,0.035
53741.403729,16.443,0.035
53771.284851,16.092,0.033
53771.298859,16.127,0.043
53771.31151,16.129,0.061
53771.324379,16.23,0.063
53771.337236,16.252,0.131
53786.297633,16.034,0.028
53786.310636,16.078,0.038
53786.323648,16.031,0.03
53786.336696,16.028,0.033
53786.349753,16.053,0.046
53791.299194,16.373,0.05
53791.311038,16.38,0.05
53791.322805,16.465,0.054
53791.334642,16.403,0.052
53791.346429,16.419,0.054
53812.257901,16.453,0.072
53812.268974,16.57,0.081
53812.280042,16.399,0.07
53812.291117,16.556,0.083
53812.302202,16.412,0.07
53824.261858,16.598,0.053
53824.273754,16.653,0.061
53843.196994,16.505,0.067
53843.208413,16.534,0.07
53843.219733,16.558,0.072
53843.23106,16.557,0.074
53843.243306,16.613,0.08
53854.189168,16.562,0.101
53854.209845,16.494,0.111
53854.220095,16.616,0.104
53854.23031,16.583,0.102
53882.157692,16.236,0.066
53882.168498,16.495,0.084
53882.179329,16.269,0.066
53882.190181,16.438,0.079
53882.201238,16.286,0.073
53886.168723,16.292,0.085
53886.17933,16.24,0.083
53886.190021,16.227,0.085
53886.200775,16.257,0.089
53886.211581,16.343,0.096
54054.453512,16.161,0.051
54054.466235,16.243,0.053
54054.478983,16.222,0.051
54054.492053,16.27,0.049
54054.505473,16.226,0.049
54068.398097,16.261,0.049
54068.411247,16.308,0.051
54068.424295,16.278,0.049
54068.437293,16.305,0.049
54068.450095,16.319,0.048
54085.399849,16.23,0.054
54085.413067,16.256,0.091
54085.425982,16.316,0.064
54085.43899,16.311,0.063
54085.452013,16.28,0.071
54110.349235,16.384,0.055
54110.364903,16.374,0.055
54110.378973,16.392,0.055
54110.394614,16.486,0.07
54110.412643,16.534,0.072
54123.322629,15.988,0.028
54123.335085,16.033,0.028
54123.347345,16.053,0.03
54123.359555,16.108,0.03
54123.37176,16.083,0.03
54201.229605,16.071,0.031
54201.238968,16.08,0.031
54201.24877,16.099,0.031
54201.25822,16.115,0.033
54201.267978,16.156,0.033
54207.181125,16.191,0.063
54207.190425,16.123,0.058
54207.199775,16.199,0.061
54207.209576,16.231,0.066
54207.219146,16.206,0.063
54216.17788,16.189,0.091
54216.186487,16.079,0.081
54216.195173,15.969,0.076
54216.203821,15.989,0.078
54216.212445,15.942,0.076
54453.333473,16.594,0.048
54453.346726,16.525,0.043
54453.359812,16.493,0.041
54453.372858,16.469,0.035
54453.385894,16.48,0.031
54470.340305,16.587,0.039
54470.36592,16.51,0.083
54470.378625,16.465,0.141
54477.334809,16.224,0.03
54477.347625,16.264,0.03
54477.360416,16.244,0.031
54477.373228,16.291,0.031
54477.386223,16.302,0.033
54508.297222,16.509,0.053
54508.309241,16.482,0.058
54508.32127,16.507,0.056
54508.33324,16.441,0.048
54508.345124,16.447,0.049
54539.159868,16.419,0.044
54539.170493,16.501,0.048
54539.181266,16.504,0.046
54539.192095,16.459,0.041
54539.202767,16.468,0.043
54568.182906,16.224,0.048
54568.194059,16.075,0.043
54568.204842,16.045,0.043
54568.215686,15.955,0.041
54568.226482,15.849,0.037
54573.199052,16.454,0.128
54620.1608,16.203,0.046
54620.174299,16.226,0.048
54620.184424,16.259,0.048
54620.194545,16.307,0.054
54620.204675,16.23,0.05
