mjd,m,merr
52608.458902,15.577,0.05
52608.473862,15.516,0.026
52608.488754,15.469,0.044
52608.503704,15.46,0.05
52619.4516,15.761,0.035
52619.466591,15.954,0.041
52619.481995,15.886,0.04
52619.496978,15.643,0.033
52619.511971,15.512,0.03
52640.386278,15.467,0.023
52640.40133,15.511,0.023
52640.416346,15.604,0.025
52640.432267,15.781,0.028
52640.44746,15.915,0.031
52646.388932,15.444,0.022
52646.403743,15.481,0.022
52646.418214,15.527,0.022
52646.432755,15.646,0.026
52646.447308,15.883,0.033
52647.385405,15.472,0.026
52647.399971,15.511,0.028
52647.414804,15.638,0.031
52647.42962,15.816,0.036
52647.444613,15.849,0.038
52667.320949,15.657,0.026
52667.335641,15.557,0.025
52667.350327,15.505,0.023
52667.364994,15.471,0.023
52667.379724,15.5,0.023
52672.324651,15.878,0.031
52672.338592,15.861,0.031
52672.352748,15.675,0.024
52672.36667,15.547,0.022
52672.380675,15.488,0.022
52673.291919,15.848,0.031
52673.306969,15.963,0.035
52673.322763,15.773,0.03
52673.339197,15.611,0.026
52673.354205,15.511,0.025
52704.289131,15.476,0.023
52704.302474,15.5,0.025
52704.314893,15.544,0.018
52704.315495,15.569,0.026
52704.327984,15.645,0.021
52704.328585,15.667,0.03
52704.341537,15.885,0.036
52705.240975,15.466,0.018
52705.254976,15.421,0.017
52705.269085,15.448,0.018
52705.282148,15.492,0.018
52705.295374,15.519,0.02
52707.24721,15.524,0.02
52707.260592,15.607,0.02
52707.273769,15.739,0.024
52707.28703,15.903,0.028
52707.300312,15.824,0.026
52729.229846,15.788,0.026
52729.241482,15.937,0.028
52729.252951,15.899,0.028
52729.265116,15.709,0.024
52729.27661,15.609,0.022
52734.251051,15.6,0.024
52734.263397,15.744,0.026
52734.275639,15.886,0.031
52738.183692,15.834,0.031
52738.195109,15.97,0.037
52738.206646,15.848,0.033
52738.218084,15.69,0.03
52738.229557,15.591,0.026
52755.195376,15.458,0.022
52755.212784,15.503,0.024
52755.225922,15.561,0.026
52755.237945,15.678,0.03
52755.250072,15.895,0.035
52757.158003,15.86,0.059
52757.181014,15.583,0.026
52757.181123,15.565,0.026
52757.181232,15.58,0.026
52757.182742,15.566,0.031
52757.182857,15.591,0.031
52757.192753,15.701,0.028
52757.192862,15.637,0.028
52757.192971,15.669,0.028
52757.194866,15.673,0.035
52757.194981,15.777,0.036
52758.149378,15.503,0.026
52758.161742,15.536,0.026
52758.173836,15.684,0.03
52758.185993,15.799,0.033
52758.198046,15.884,0.035
52941.431217,15.607,0.03
52941.442818,15.506,0.025
52941.454634,15.495,0.023
52941.466218,15.494,0.021
52941.478049,15.511,0.021
52965.468072,15.748,0.111
52973.425828,15.84,0.035
52973.437844,15.68,0.03
52973.450015,15.558,0.025
52973.462332,15.495,0.025
52973.47426,15.467,0.023
52995.385509,15.775,0.02
52995.397932,15.6,0.016
52995.410615,15.538,0.015
52995.423007,15.472,0.015
52995.435933,15.463,0.015
52997.441122,15.638,0.038
53027.401309,15.913,0.02
53027.414281,15.722,0.016
53027.427128,15.608,0.016
53027.439944,15.532,0.015
53027.452723,15.485,0.015
53029.370332,15.691,0.038
53033.329763,15.499,0.02
53033.342018,15.478,0.02
53033.354158,15.526,0.02
53033.366309,15.572,0.02
53033.378703,15.74,0.1
53053.290325,15.646,0.028
53053.302108,15.56,0.035
53053.315643,15.485,0.039
53053.328974,15.484,0.039
53053.340737,15.492,0.02
53058.291032,15.885,0.018
53058.304051,15.903,0.02
53058.316175,15.758,0.016
53058.328476,15.623,0.015
53058.340773,15.542,0.013
53061.288089,15.504,0.013
53061.300106,15.468,0.013
53061.312154,15.48,0.013
53061.324284,15.487,0.013
53061.336197,15.544,0.013
53079.250363,15.647,0.02
53079.260977,15.764,0.024
53079.271667,15.906,0.026
53079.282471,15.906,0.026
53079.293206,15.738,0.022
53083.292011,15.553,0.016
53083.303307,15.619,0.021
53083.314634,15.777,0.02
53083.325897,15.955,0.028
53083.337039,15.928,0.025
53085.333738,15.526,0.02
53085.345967,15.503,0.018
53085.359402,15.446,0.033
53085.37056,15.463,0.03
53085.381771,15.554,0.038
53110.186678,15.97,0.037
53110.197368,15.796,0.031
53110.208056,15.691,0.03
53110.218744,15.598,0.028
53110.229494,15.522,0.026
53114.199704,15.561,0.016
53114.210871,15.614,0.016
53114.221882,15.738,0.02
53114.232546,15.855,0.021
53114.243181,15.914,0.023
53116.202939,15.865,0.041
53116.213792,15.688,0.053
53116.224486,15.655,0.074
53116.235185,15.581,0.059
53116.247895,15.449,0.035
53138.154736,15.983,0.035
53138.164625,15.894,0.033
53138.174488,15.767,0.03
53138.184312,15.603,0.026
53138.194113,15.574,0.024
53142.160297,15.504,0.02
53142.17336,15.56,0.023
53142.18289,15.62,0.021
53142.192743,15.752,0.023
53142.202649,15.861,0.056
53144.170847,15.927,0.035
53144.180235,15.809,0.033
53144.189626,15.691,0.037
53144.208984,15.439,0.076
53327.437186,15.417,0.033
53346.384889,15.897,0.04
53346.397146,15.771,0.036
53346.40979,15.668,0.031
53346.422262,15.604,0.03
53346.434475,15.519,0.028
53347.441403,15.493,0.023
53347.455221,15.56,0.028
53347.469263,15.619,0.028
53347.483054,15.739,0.033
53351.42443,15.877,0.045
53351.438707,15.71,0.035
53351.453112,15.586,0.033
53351.468076,15.497,0.03
53351.482799,15.489,0.031
53353.417648,15.521,0.028
53353.431711,15.441,0.026
53353.445861,15.436,0.026
53353.460059,15.469,0.028
53353.4741,15.528,0.028
53383.348503,15.49,0.02
53383.362655,15.438,0.02
53383.375737,15.459,0.02
53383.389388,15.5,0.02
53383.403776,15.606,0.024
53403.35756,15.466,0.021
53403.370622,15.463,0.021
53403.38425,15.47,0.023
53403.398393,15.552,0.025
53403.411953,15.656,0.03
53445.226566,15.679,0.026
53445.237757,15.863,0.03
53445.250428,15.94,0.031
53445.261616,15.823,0.03
53445.272848,15.703,0.026
53446.218695,15.835,0.031
53446.229254,15.893,0.033
53446.239868,15.882,0.031
53446.250974,15.636,0.026
53446.26218,15.567,0.026
53468.216276,15.613,0.078
53468.225782,15.558,0.05
53503.181677,15.62,0.031
53503.19041,15.539,0.03
53503.199254,15.504,0.028
53503.209098,15.438,0.028
53503.219489,15.489,0.03
53674.469851,15.827,0.043
53674.481995,15.673,0.033
53674.494265,15.585,0.03
53704.45227,15.471,0.022
53704.464773,15.477,0.02
53704.47723,15.518,0.022
53704.489979,15.59,0.024
53704.502531,15.719,0.026
53707.4529,15.883,0.033
53707.465701,15.943,0.039
53707.478322,15.749,0.031
53707.490954,15.605,0.024
53707.503556,15.527,0.02
53710.447702,15.533,0.026
53710.46056,15.476,0.026
53710.473624,15.424,0.024
53710.486278,15.465,0.026
53710.49886,15.574,0.028
53734.410848,15.566,0.022
53734.423792,15.641,0.024
53734.436746,15.851,0.03
53734.449973,15.97,0.033
53734.463082,15.817,0.03
53746.343722,15.812,0.046
53746.357142,15.662,0.041
53746.369657,15.539,0.035
53746.382504,15.487,0.033
53746.394974,15.458,0.031
53758.343449,15.774,0.024
53758.355956,15.871,0.03
53758.368478,15.837,0.03
53758.381208,15.689,0.026
53758.393835,15.568,0.024
53787.419172,15.64,0.031
53787.431091,15.741,0.033
53787.443118,15.925,0.041
53787.45522,15.872,0.043
53789.341003,15.48,0.059
53789.352875,15.465,0.087
53789.376621,15.614,0.037
53789.388489,15.794,0.031
53790.289403,15.527,0.023
53790.301316,15.473,0.023
53790.313283,15.444,0.021
53790.325309,15.457,0.021
53790.337222,15.48,0.021
53792.338993,15.922,0.033
53792.350774,15.931,0.048
53792.362555,15.703,0.033
53792.374333,15.601,0.035
53792.38611,15.553,0.03
53802.283961,15.786,0.037
53802.295334,15.644,0.033
53802.306755,15.578,0.031
53802.318154,15.482,0.03
53802.329551,15.458,0.063
53818.231935,15.702,0.028
53818.243062,15.586,0.025
53818.254162,15.525,0.023
53818.265481,15.477,0.023
53818.276551,15.447,0.023
53821.28971,15.864,0.033
53821.305135,15.755,0.039
53821.332776,15.49,0.055
53821.34866,15.456,0.033
53824.289849,15.422,0.033
53824.303753,15.485,0.076
53824.317942,15.53,0.074
53824.335941,15.59,0.055
53824.350488,15.735,0.107
53828.286187,15.889,0.111
53828.298386,15.805,0.041
53828.313128,15.564,0.028
53828.329049,15.537,0.03
53828.343168,15.536,0.039
53831.184564,15.422,0.035
53831.19412,15.478,0.046
53845.186292,15.793,0.036
53845.19739,15.972,0.043
53845.208552,15.969,0.043
53845.219622,15.798,0.038
53845.230707,15.627,0.035
53846.196393,15.824,0.044
53846.207045,15.645,0.039
53846.217725,15.561,0.035
53846.228463,15.54,0.035
53846.239188,15.526,0.035
53850.18951,15.442,0.028
53850.199988,15.533,0.03
53850.210467,15.595,0.033
53850.220964,15.728,0.038
53850.231548,15.853,0.046
53851.23641,15.735,0.037
53851.247982,15.63,0.035
53851.258625,15.508,0.031
53851.26954,15.464,0.031
53851.279705,15.45,0.035
53854.214232,15.494,0.03
53854.225096,15.505,0.03
53854.249578,15.55,0.035
54035.440566,15.579,0.043
54035.453143,15.459,0.035
54035.464938,15.436,0.033
54035.476989,15.447,0.031
54035.488675,15.497,0.031
54053.440723,15.648,0.07
54053.452561,15.685,0.037
54053.46444,15.629,0.035
54053.476292,15.471,0.033
54056.43028,15.495,0.024
54056.442539,15.473,0.022
54056.45479,15.494,0.022
54056.467228,15.501,0.022
54056.479481,15.599,0.024
54059.43683,15.795,0.03
54059.4446,15.914,0.041
54059.449328,15.926,0.033
54059.461649,15.825,0.03
54059.468336,15.759,0.035
54059.47475,15.632,0.024
54059.482107,15.607,0.028
54059.487405,15.542,0.02
54059.494662,15.542,0.026
54059.507408,15.455,0.023
54064.445174,15.562,0.02
54064.458034,15.672,0.022
54064.470896,15.852,0.028
54064.483767,15.969,0.03
54064.496638,15.855,0.026
54082.396264,15.787,0.037
54082.40915,15.63,0.031
54082.422392,15.566,0.03
54082.435278,15.502,0.028
54082.448176,15.488,0.026
54085.461277,15.962,0.03
54085.474236,15.778,0.024
54085.487198,15.625,0.018
54085.500165,15.529,0.017
54085.513126,15.498,0.018
54091.35016,15.777,0.04
54091.363339,15.593,0.031
54091.375976,15.526,0.03
54091.387882,15.505,0.03
54091.399995,15.452,0.028
54114.359245,15.497,0.028
54152.283372,15.758,0.018
54152.295276,15.93,0.02
54152.307164,15.926,0.02
54152.319066,15.742,0.02
54152.330973,15.602,0.017
54153.276769,15.877,0.022
54153.28826,15.838,0.022
54153.299757,15.674,0.018
54153.311259,15.56,0.017
54153.322832,15.504,0.017
54173.217215,15.462,0.021
54173.227897,15.474,0.021
54173.238836,15.562,0.023
54173.249596,15.663,0.026
54173.260493,15.755,0.028
54174.267923,15.787,0.024
54174.278637,15.656,0.022
54174.289332,15.562,0.026
54174.300039,15.537,0.03
54174.310754,15.447,0.031
54177.283564,15.57,0.141
54177.330614,15.854,0.089
54180.283996,15.765,0.024
54180.294767,15.663,0.022
54180.305782,15.578,0.02
54180.316453,15.506,0.018
54180.327054,15.487,0.018
54185.224335,15.521,0.038
54185.234513,15.454,0.036
54185.244728,15.48,0.038
54185.254927,15.522,0.04
54185.265355,15.565,0.041
54200.175039,15.51,0.033
54200.194263,15.433,0.03
54200.204063,15.474,0.033
54200.21346,15.456,0.03
54205.223094,15.47,0.02
54205.232276,15.439,0.02
54205.241547,15.443,0.02
54205.250735,15.484,0.022
54205.259957,15.522,0.022
54208.218645,15.7,0.026
54208.227665,15.823,0.03
54208.236725,15.903,0.031
54208.245802,15.903,0.031
54208.254879,15.784,0.03
54212.226072,15.41,0.022
54212.235095,15.477,0.022
54212.244111,15.444,0.024
54212.253266,15.484,0.024
54212.262426,15.544,0.026
54416.4405,15.563,0.02
54416.45296,15.68,0.022
54416.465285,15.854,0.026
54416.477603,15.87,0.024
54416.489952,15.735,0.022
54438.450046,15.657,0.017
54438.463287,15.552,0.017
54438.476626,15.472,0.015
54438.490088,15.422,0.015
54438.503326,15.448,0.015
54478.454592,15.508,0.066
54478.466709,15.541,0.043
54478.479127,15.43,0.043
54478.491437,15.452,0.043
54478.503564,15.484,0.045
54481.274719,15.429,0.022
54481.287634,15.411,0.02
54481.30056,15.426,0.02
54481.313485,15.468,0.018
54481.326401,15.558,0.018
54498.335622,15.451,0.013
54498.348155,15.442,0.015
54498.3607,15.465,0.015
54498.37335,15.519,0.015
54498.386031,15.585,0.017
54506.328252,15.48,0.015
54506.340364,15.501,0.015
54506.352462,15.585,0.017
54506.364563,15.695,0.018
54506.376693,15.876,0.022
54507.393543,15.633,0.03
54507.407246,15.566,0.026
54507.419152,15.502,0.025
54507.43114,15.463,0.025
54507.443036,15.469,0.026
54522.338247,15.874,0.026
54522.350236,15.711,0.024
54522.362286,15.584,0.022
54522.374055,15.509,0.02
54522.385975,15.464,0.02
54527.28879,15.446,0.026
54527.300201,15.55,0.046
54527.311589,15.46,0.013
54527.323002,15.541,0.015
54535.274267,15.436,0.013
54535.296426,15.516,0.013
54535.307513,15.615,0.015
54535.318591,15.738,0.017
54535.336541,15.87,0.033
54535.347592,15.791,0.031
54535.359616,15.613,0.028
54535.370891,15.556,0.026
54535.381906,15.5,0.026
54540.166441,15.436,0.018
54540.177341,15.447,0.02
54540.188454,15.522,0.02
54540.199341,15.586,0.02
54540.210342,15.728,0.024
54553.29694,15.481,0.03
54553.308832,15.437,0.024
54553.320729,15.45,0.018
54553.332772,15.531,0.02
54553.34469,15.586,0.024
54558.123747,15.878,0.024
54558.135396,15.891,0.024
54558.146956,15.762,0.02
54558.158521,15.625,0.018
54558.170156,15.505,0.017
54561.241703,15.536,0.013
54561.253186,15.493,0.013
54561.264646,15.445,0.013
54561.276118,15.438,0.013
54561.28759,15.427,0.022
54580.196419,15.605,0.04
54580.206668,15.713,0.043
54580.2169,15.886,0.048
54580.227773,15.873,0.049
54580.238767,15.804,0.051
54583.200874,15.546,0.024
54590.201229,15.5,0.022
54590.211532,15.455,0.02
54590.221888,15.445,0.02
54590.232271,15.48,0.02
54590.242612,15.497,0.02
54591.147006,15.882,0.059
54591.156765,15.655,0.053
54591.166519,15.569,0.049
54591.176271,15.509,0.046
54591.185854,15.519,0.046
54611.156479,15.668,0.046
54611.16492,15.614,0.046
54611.173217,15.533,0.043
54611.181455,15.469,0.04
54611.189663,15.469,0.043
