mjd,m,merr
52618.48247,15.439,0.024
52640.42624,15.506,0.02
52640.441877,15.583,0.02
52640.456973,15.484,0.018
52640.471986,15.286,0.017
52640.486836,15.179,0.015
52643.377497,15.024,0.015
52643.391772,15.088,0.015
52643.405965,15.13,0.017
52643.420227,15.222,0.017
52643.434355,15.367,0.02
52647.392658,15.122,0.017
52647.407467,15.079,0.017
52647.421841,15.034,0.017
52647.436286,15.011,0.017
52647.450733,15.028,0.017
52666.322124,15.589,0.025
52666.337228,15.396,0.021
52666.352147,15.22,0.018
52666.36717,15.129,0.016
52666.381846,15.083,0.016
52670.334324,15.084,0.015
52670.348298,15.154,0.017
52670.36229,15.25,0.018
52670.376299,15.401,0.02
52673.297922,15.058,0.015
52673.313293,15.032,0.015
52673.328546,15.057,0.015
52673.343871,15.087,0.015
52673.359051,15.166,0.017
52678.326009,15.15,0.035
52678.340003,15.31,0.02
52678.353987,15.504,0.024
52678.368121,15.537,0.024
52698.304964,15.129,0.016
52698.305552,15.046,0.015
52698.319381,15.122,0.016
52698.319984,15.055,0.015
52703.249634,15.1,0.015
52703.263137,15.056,0.022
52703.277068,15.06,0.017
52703.290547,15.075,0.015
52703.303948,15.207,0.046
52725.302616,15.25,0.017
52730.233795,15.055,0.015
52730.245416,15.139,0.015
52730.26885,15.246,0.018
52730.280604,15.409,0.02
52733.245296,15.071,0.017
52733.257728,15.109,0.017
52733.269859,15.188,0.018
52733.282942,15.315,0.02
52733.294959,15.43,0.037
52738.188612,15.082,0.02
52738.188971,15.087,0.02
52738.200302,15.121,0.021
52738.200661,15.119,0.021
52738.211912,15.172,0.021
52738.212272,15.153,0.021
52738.223592,15.233,0.023
52738.223951,15.186,0.023
52738.235195,15.26,0.023
52738.235555,15.257,0.025
52755.195601,15.047,0.017
52755.21301,15.061,0.017
52755.226147,15.093,0.018
52755.238171,15.14,0.018
52755.250299,15.208,0.02
52758.161706,15.238,0.017
52758.173789,15.148,0.017
52758.185943,15.115,0.015
52758.197986,15.064,0.015
52940.452072,15.305,0.061
52944.440587,15.207,0.028
52944.464533,15.098,0.022
52944.476529,15.063,0.02
52944.488564,15.03,0.02
52964.460848,15.349,0.017
52964.473871,15.204,0.015
52964.487121,15.132,0.013
52964.503014,15.071,0.013
52966.407624,15.318,0.02
52966.420369,15.161,0.018
52966.433078,15.135,0.017
52966.445882,15.07,0.017
52966.458513,15.032,0.015
52973.398127,15.039,0.017
52973.411106,15.086,0.017
52973.424204,15.127,0.017
52973.437003,15.207,0.017
52973.450073,15.361,0.018
52993.388927,15.061,0.011
52993.402014,15.03,0.011
52993.415251,15.017,0.011
52993.428488,15.066,0.011
52993.441619,15.123,0.011
52994.458027,15.03,0.013
52994.470536,15.029,0.01
52994.483076,15.057,0.008
52994.508211,15.137,0.01
52996.387375,15.078,0.012
52996.400145,15.025,0.01
52996.412972,15.004,0.01
52996.425948,15.029,0.01
52996.438723,15.041,0.01
53025.340736,15.105,0.012
53025.353095,15.199,0.012
53025.377445,15.358,0.043
53028.372814,15.172,0.01
53028.385701,15.305,0.01
53028.397929,15.434,0.013
53028.410278,15.529,0.013
53028.422507,15.496,0.03
53033.279994,15.059,0.016
53033.292672,15.032,0.016
53033.305197,15.057,0.016
53033.317691,15.073,0.016
53033.330141,15.116,0.016
53053.290553,15.05,0.028
53053.302336,15.036,0.028
53053.315871,15.001,0.028
53053.329202,15.052,0.024
53053.340965,15.123,0.015
53057.340578,15.198,0.041
53079.250569,15.308,0.017
53079.261183,15.473,0.018
53079.271873,15.581,0.018
53079.282677,15.558,0.02
53079.293413,15.488,0.018
53082.31461,15.366,0.013
53082.326539,15.258,0.013
53084.290451,15.159,0.01
53084.30226,15.103,0.01
53084.313778,15.054,0.01
53084.325063,15.042,0.01
53084.336637,15.032,0.01
53091.2327,15.059,0.012
53091.25245,15.094,0.012
53091.265072,15.111,0.012
53091.274813,15.138,0.012
53110.186872,15.06,0.017
53110.197564,15.01,0.017
53110.20825,14.99,0.017
53110.218939,15.012,0.017
53110.229737,15.023,0.017
53138.154475,15.325,0.02
53138.174226,15.134,0.017
53138.184051,15.091,0.017
53138.193851,15.041,0.017
53141.173485,15.285,0.016
53141.182946,15.216,0.016
53141.191977,15.173,0.015
53141.200964,15.115,0.015
53141.209999,15.104,0.016
53327.378519,15.218,0.041
53327.403286,15.582,0.043
53327.415737,15.606,0.039
53346.385077,15.563,0.028
53346.397334,15.409,0.026
53346.409978,15.273,0.023
53346.42245,15.203,0.021
53346.434663,15.124,0.02
53347.470809,15.289,0.018
53347.487224,15.158,0.017
53347.502522,15.095,0.015
53347.519929,15.049,0.015
53351.42412,15.033,0.02
53351.438396,15.07,0.02
53351.452802,15.052,0.02
53351.467764,15.156,0.021
53351.482468,15.22,0.025
53353.395337,15.065,0.017
53353.408268,15.068,0.017
53353.421211,15.136,0.018
53353.434135,15.185,0.02
53353.447135,15.341,0.022
53357.440558,15.059,0.015
53357.453983,15.057,0.015
53357.469084,15.076,0.015
53357.483088,15.096,0.017
53357.497396,15.166,0.017
53376.41733,15.046,0.015
53376.431152,15.037,0.015
53376.444829,15.085,0.015
53376.458531,15.151,0.015
53376.47209,15.227,0.017
53381.358285,15.102,0.018
53381.371611,15.041,0.018
53381.385589,15.026,0.022
53381.400227,15.058,0.015
53381.415017,15.118,0.018
53403.359157,15.059,0.015
53403.372009,15.069,0.015
53403.385908,15.088,0.015
53403.398861,15.181,0.017
53432.285299,15.137,0.028
53432.312253,15.47,0.048
53432.339519,15.61,0.08
53437.234922,15.103,0.015
53437.247403,15.13,0.015
53437.258959,15.213,0.017
53437.270515,15.365,0.017
53437.281963,15.514,0.02
53438.365626,15.614,0.024
53438.377154,15.499,0.024
53438.388768,15.341,0.02
53438.400368,15.203,0.02
53440.240231,15.038,0.013
53440.251972,15.058,0.015
53440.26356,15.136,0.015
53440.278808,15.236,0.017
53440.29144,15.399,0.018
53443.218303,15.085,0.013
53443.263323,15.12,0.015
53446.220329,15.136,0.017
53446.230934,15.083,0.015
53446.241507,15.036,0.015
53446.252611,15.045,0.015
53446.26381,15.031,0.017
53464.241933,15.596,0.024
53464.25237,15.503,0.022
53464.263203,15.355,0.02
53464.273774,15.235,0.02
53464.284212,15.18,0.018
53468.216484,14.964,0.041
53468.225987,14.997,0.03
53495.196275,15.047,0.028
53495.206584,15.097,0.028
53495.216834,15.116,0.03
53495.227051,15.203,0.033
53495.23736,15.375,0.048
53502.187509,15.491,0.028
53674.469207,15.41,0.03
53674.481355,15.307,0.024
53674.493626,15.162,0.02
53705.454359,15.452,0.024
53705.467356,15.492,0.024
53705.480017,15.386,0.02
53705.492724,15.233,0.018
53705.505394,15.153,0.017
53708.45203,15.428,0.02
53708.477753,15.634,0.024
53708.490581,15.476,0.022
53708.503234,15.276,0.018
53732.415889,15.389,0.03
53732.42855,15.23,0.026
53732.441326,15.169,0.022
53732.4541,15.083,0.022
53732.466872,15.05,0.022
53735.419735,15.546,0.043
53735.458796,15.151,0.017
53737.407249,15.129,0.015
53737.420671,15.087,0.015
53737.434104,15.04,0.015
53737.460758,15.061,0.015
53747.35854,15.128,0.039
53747.397898,15.162,0.035
53759.347917,15.482,0.02
53759.360823,15.35,0.018
53759.373498,15.218,0.018
53759.386175,15.126,0.017
53759.398862,15.099,0.018
53762.35189,15.627,0.022
53762.364605,15.529,0.02
53762.377611,15.343,0.018
53762.390497,15.206,0.017
53762.403521,15.151,0.015
53787.41851,15.061,0.018
53787.430429,15.07,0.018
53787.442453,15.072,0.02
53787.454545,15.117,0.022
53789.293322,15.635,0.046
53789.305926,15.542,0.033
53789.331412,15.241,0.043
53789.344128,15.259,0.048
53790.286475,15.125,0.017
53790.298269,15.166,0.018
53790.310026,15.228,0.018
53790.321781,15.336,0.02
53790.333538,15.487,0.024
53793.31453,15.189,0.065
53797.241569,15.337,0.018
53797.253121,15.476,0.02
53797.264768,15.553,0.02
53797.276342,15.479,0.02
53797.287912,15.332,0.022
53799.232338,15.448,0.021
53799.244496,15.286,0.018
53799.256502,15.197,0.016
53799.268431,15.156,0.015
53799.280144,15.104,0.013
53799.281814,15.059,0.015
53799.293297,15.052,0.015
53799.304803,15.028,0.015
53799.316311,15.035,0.017
53799.32802,15.035,0.018
53818.231533,15.172,0.018
53818.242659,15.134,0.016
53818.253765,15.093,0.016
53818.26508,15.105,0.016
53818.276154,15.077,0.016
53819.282145,15.185,0.028
53819.293094,15.161,0.022
53819.317049,15.082,0.024
53819.32824,15.061,0.018
53826.277127,15.121,0.017
53827.289931,15.082,0.017
53827.301054,15.06,0.018
53827.311979,15.054,0.018
53827.333664,15.123,0.02
53845.187964,15.092,0.02
53845.198671,15.085,0.022
53845.209386,15.048,0.02
53845.220252,15.061,0.022
53845.230999,15.104,0.024
53846.195975,15.515,0.035
53846.206626,15.364,0.031
53846.238769,15.092,0.026
53850.221429,15.201,0.02
53850.242751,15.49,0.028
53850.253662,15.642,0.031
53851.187597,15.201,0.023
53851.197815,15.181,0.023
53851.208097,15.16,0.021
53851.218396,15.121,0.023
53851.228735,15.077,0.023
53853.191805,15.055,0.02
53853.202235,15.072,0.02
53853.21364,15.075,0.02
53853.224048,15.094,0.022
53853.234486,15.17,0.024
54036.437455,14.981,0.026
54036.450924,15.074,0.023
54036.463157,15.031,0.02
54036.475377,15.03,0.021
54036.487246,15.104,0.021
54037.429806,15.551,0.033
54037.442906,15.506,0.03
54037.455048,15.411,0.028
54037.467011,15.24,0.021
54037.479499,15.167,0.021
54039.439489,15.127,0.028
54039.451559,15.059,0.025
54039.463574,15.077,0.025
54039.475489,15.074,0.023
54039.48748,15.109,0.023
54040.434713,15.552,0.046
54040.446818,15.524,0.043
54040.459102,15.407,0.038
54040.470313,15.309,0.028
54040.47126,15.269,0.031
54040.482436,15.167,0.025
54041.424618,15.019,0.03
54041.437736,15.088,0.028
54041.450629,15.117,0.028
54041.463132,15.165,0.028
54041.475329,15.264,0.028
54057.456369,15.525,0.024
54057.468914,15.43,0.022
54057.481386,15.322,0.018
54057.493885,15.173,0.017
54057.506362,15.118,0.015
54058.440713,15.035,0.02
54058.453863,15.091,0.02
54058.466457,15.13,0.02
54058.478942,15.191,0.02
54058.491353,15.305,0.023
54060.432594,15.264,0.018
54060.446526,15.444,0.022
54060.459444,15.573,0.026
54060.472346,15.556,0.026
54060.485411,15.417,0.022
54064.385596,15.426,0.03
54064.398248,15.224,0.023
54064.410817,15.16,0.021
54064.423554,15.143,0.02
54064.436504,15.054,0.018
54083.460855,15.216,0.026
54083.474748,15.321,0.043
54083.488042,15.502,0.028
54083.501135,15.603,0.039
54086.365425,15.385,0.024
54086.37863,15.211,0.018
54086.391564,15.136,0.017
54086.404506,15.085,0.017
54086.417443,15.059,0.015
54091.371078,15.045,0.015
54091.383658,15.03,0.013
54091.396242,15.045,0.013
54091.409166,15.051,0.013
54091.421759,15.064,0.015
54112.390039,15.559,0.028
54112.402604,15.483,0.026
54112.415104,15.317,0.023
54112.427656,15.189,0.023
54113.331391,15.133,0.018
54113.357165,15.043,0.016
54113.382964,15.016,0.016
54115.403945,15.513,0.03
54115.416689,15.522,0.03
54115.429581,15.331,0.025
54115.442563,15.188,0.021
54115.455811,15.098,0.021
54123.33636,15.196,0.02
54123.348716,15.276,0.02
54123.361216,15.415,0.023
54123.373685,15.609,0.026
54123.386325,15.535,0.025
54144.309356,15.451,0.017
54144.320473,15.319,0.017
54144.331674,15.226,0.015
54144.342773,15.166,0.015
54144.353879,15.106,0.015
54148.283875,15.089,0.016
54148.296037,15.137,0.018
54148.307802,15.166,0.018
54148.319488,15.24,0.02
54148.331318,15.27,0.02
54152.28294,15.507,0.017
54152.294847,15.334,0.015
54152.306736,15.232,0.013
54152.318638,15.144,0.013
54152.330547,15.094,0.013
54154.274118,15.136,0.013
54154.285597,15.104,0.013
54154.297098,15.081,0.013
54154.308572,15.073,0.011
54154.320037,15.089,0.013
54173.21748,15.243,0.018
54173.228163,15.155,0.016
54173.239101,15.11,0.016
54173.249867,15.094,0.016
54173.260758,15.057,0.015
54173.264243,15.028,0.013
54173.275081,15.037,0.013
54173.285817,15.021,0.013
54173.296485,15.05,0.013
54173.307134,15.106,0.015
54176.269357,15.064,0.013
54176.280018,15.074,0.013
54176.290566,15.087,0.013
54176.301353,15.083,0.015
54176.311951,15.11,0.015
54179.284984,15.038,0.013
54179.296039,15.027,0.013
54179.307375,15.027,0.013
54179.318522,15.067,0.015
54179.329648,15.097,0.015
54185.223946,15.457,0.036
54185.234122,15.577,0.04
54185.244339,15.506,0.038
54185.254537,15.393,0.035
54185.264964,15.306,0.033
54186.297052,15.036,0.013
54186.308525,15.021,0.013
54186.319776,15.05,0.013
54186.331251,15.106,0.015
54201.194879,15.572,0.033
54201.204351,15.51,0.031
54201.21358,15.346,0.026
54201.222809,15.264,0.023
54201.232118,15.179,0.023
54206.219842,15.058,0.015
54206.228892,15.05,0.015
54206.23793,15.018,0.013
54206.246979,15.026,0.015
54206.256028,15.034,0.013
54209.214834,15.11,0.037
54209.223838,15.088,0.037
54209.233407,15.053,0.054
54209.24324,15.058,0.024
54209.252393,15.078,0.072
54409.444184,15.531,0.022
54409.456428,15.527,0.02
54409.46865,15.383,0.017
54409.480873,15.247,0.015
54418.445273,15.208,0.013
54418.457779,15.363,0.015
54418.470278,15.531,0.017
54418.482783,15.575,0.017
54418.495286,15.544,0.017
54439.389599,15.604,0.015
54439.402469,15.587,0.015
54439.41536,15.417,0.013
54439.428228,15.271,0.011
54439.441118,15.184,0.011
54507.274531,15.534,0.015
54507.286764,15.458,0.015
54507.299031,15.313,0.013
54507.311431,15.202,0.011
54507.323847,15.123,0.011
54522.337407,15.57,0.02
54522.349399,15.524,0.02
54522.361448,15.377,0.017
54522.373213,15.235,0.017
54522.385133,15.159,0.015
54529.272703,15.376,0.011
54529.284136,15.252,0.011
54529.295762,15.168,0.011
54529.307564,15.121,0.011
54529.318935,15.09,0.009
54536.219253,15.138,0.011
54536.230341,15.104,0.009
54536.241276,15.077,0.009
54536.252224,15.082,0.009
54536.263284,15.077,0.009
54553.296198,15.119,0.026
54553.308087,15.148,0.018
54553.319985,15.231,0.018
54553.33203,15.355,0.018
54553.343931,15.486,0.022
54559.124553,15.054,0.011
54559.136193,15.093,0.011
54559.147779,15.134,0.013
54559.159236,15.18,0.013
54559.170716,15.272,0.013
54562.242402,15.344,0.013
54562.254131,15.235,0.011
54562.265781,15.166,0.011
54562.277555,15.097,0.011
54562.289255,15.057,0.011
54584.19845,15.546,0.022
54584.20933,15.471,0.02
54584.220227,15.347,0.018
54584.231113,15.239,0.017
54584.242035,15.149,0.017
54591.194582,15.088,0.015
54591.204991,15.086,0.017
54591.215274,15.057,0.017
54591.225544,15.115,0.017
54591.235824,15.135,0.018
54611.156069,15.448,0.038
54611.164511,15.294,0.035
54611.181046,15.119,0.031
54611.189255,15.112,0.031
