mjd,m,merr
52613.444194,14.99,0.015
52613.459337,14.709,0.013
52613.474612,14.42,0.009
52613.489855,14.286,0.009
52613.505066,14.304,0.009
52618.450666,15.133,0.026
52618.465967,15.134,0.03
52618.48132,15.146,0.026
52618.496817,15.2,0.028
52618.512229,15.148,0.022
52640.425117,14.69,0.011
52640.440598,14.746,0.011
52640.45594,14.791,0.011
52640.470957,14.862,0.013
52640.485803,14.886,0.013
52643.376534,15.107,0.017
52643.390806,15.104,0.017
52643.404997,15.112,0.017
52643.419266,15.129,0.017
52643.433384,15.13,0.017
52647.391582,14.81,0.013
52647.406488,14.824,0.013
52647.420868,14.886,0.015
52647.435305,14.934,0.015
52647.449674,14.979,0.017
52666.322252,14.771,0.016
52666.337355,14.782,0.016
52666.352275,14.86,0.016
52666.367297,14.875,0.016
52666.381973,14.919,0.02
52670.333369,15.132,0.017
52670.347341,15.099,0.015
52670.361331,15.051,0.017
52670.375335,14.895,0.015
52670.389345,14.658,0.011
52673.297665,14.739,0.011
52673.313036,14.791,0.011
52673.328291,14.852,0.013
52673.343612,14.886,0.013
52678.310951,14.386,0.018
52678.325056,14.414,0.017
52678.339046,14.513,0.011
52678.353028,14.574,0.011
52678.367163,14.637,0.013
52698.269152,14.632,0.018
52698.269507,14.579,0.033
52698.286861,14.717,0.01
52698.287228,14.692,0.013
52698.304733,14.813,0.01
52698.305083,14.767,0.013
52698.319149,14.913,0.01
52698.3195,14.807,0.013
52703.248695,14.851,0.013
52703.262204,14.577,0.015
52703.276136,14.345,0.013
52703.289607,14.283,0.007
52703.303012,14.308,0.009
52725.255423,15.1,0.074
52725.267081,15.097,0.02
52725.278813,15.093,0.046
52725.290551,15.112,0.022
52725.302258,15.118,0.017
52730.232982,14.731,0.011
52730.244605,14.781,0.013
52730.256309,14.814,0.013
52730.268036,14.853,0.013
52730.279793,14.895,0.015
52733.244465,15.155,0.017
52733.256897,15.142,0.018
52733.269025,15.137,0.018
52733.282125,15.171,0.018
52733.294143,15.174,0.031
52738.188734,14.982,0.02
52738.200425,15.025,0.021
52738.212035,15.055,0.021
52738.223715,15.061,0.023
52738.235317,15.092,0.023
52754.196394,14.354,0.009
52754.208588,14.328,0.009
52754.220756,14.346,0.009
52754.23305,14.41,0.011
52754.245229,14.464,0.011
52758.148923,15.113,0.015
52758.160921,15.12,0.017
52758.173003,15.134,0.017
52758.185157,15.135,0.017
52758.197199,15.134,0.017
52940.458662,14.97,0.037
52940.471393,15.016,0.041
52940.484826,15.069,0.067
52940.497329,15.069,0.031
52944.44018,14.438,0.015
52944.45226,14.358,0.013
52944.464127,14.355,0.013
52944.476083,14.385,0.013
52944.488158,14.451,0.013
52964.459929,14.72,0.011
52964.472877,14.777,0.011
52964.486178,14.817,0.011
52964.501686,14.855,0.011
52966.406779,15.022,0.017
52966.419531,15.062,0.017
52966.43224,15.077,0.017
52966.444959,15.103,0.017
52966.457657,15.113,0.017
52973.397722,15.077,0.017
52973.410701,15.114,0.017
52973.423799,15.121,0.017
52973.436599,15.13,0.017
52973.449668,15.135,0.017
52993.388575,15.129,0.013
52993.401661,15.115,0.013
52993.414754,15.158,0.015
52993.428136,15.15,0.013
52993.441266,15.159,0.011
52994.411789,14.699,0.009
52994.424983,14.464,0.009
52994.438172,14.437,0.007
52994.451291,14.382,0.007
52994.464435,14.427,0.007
52997.41236,15.006,0.039
52997.438101,15.057,0.035
53025.368027,15.107,0.015
53025.380973,15.091,0.022
53025.394076,15.001,0.011
53028.340625,14.805,0.007
53028.35327,14.828,0.007
53028.365864,14.859,0.009
53028.378351,14.918,0.009
53028.390839,14.929,0.009
53033.279422,14.821,0.015
53033.292097,14.616,0.012
53033.304623,14.433,0.01
53033.317112,14.334,0.01
53033.329569,14.329,0.01
53052.274565,14.596,0.009
53052.286346,14.413,0.007
53052.298214,14.365,0.007
53052.310198,14.342,0.007
53052.322,14.395,0.007
53057.335676,15.087,0.063
53061.276167,14.964,0.009
53061.287457,15.004,0.009
53061.29868,15.017,0.009
53061.309838,15.06,0.011
53061.321001,15.077,0.011
53079.226095,14.635,0.012
53079.237174,14.677,0.012
53079.248228,14.731,0.012
53079.259165,14.764,0.012
53079.270128,14.81,0.013
53082.282362,15.139,0.011
53082.293689,15.151,0.011
53082.305516,15.158,0.013
53082.316945,15.125,0.011
53082.328593,15.099,0.011
53085.323207,14.895,0.043
53091.231623,14.536,0.007
53091.252764,14.646,0.007
53091.263268,14.685,0.011
53091.274014,14.713,0.009
53110.187844,14.391,0.012
53110.198845,14.464,0.012
53110.231611,14.616,0.015
53116.253945,14.641,0.018
53116.265136,14.705,0.026
53116.276271,14.774,0.043
53116.287404,14.776,0.024
53116.298647,14.823,0.03
53138.154984,15.112,0.02
53138.1647,15.116,0.02
53138.175064,15.1,0.02
53138.1847,15.145,0.02
53138.19432,15.133,0.02
53141.164155,14.462,0.009
53141.17359,14.36,0.009
53141.183366,14.334,0.009
53141.19288,14.35,0.009
53141.202532,14.395,0.009
53144.174822,15.041,0.018
53144.192655,15.094,0.031
53144.20152,15.113,0.026
53316.458733,15.098,0.037
53327.378224,14.777,0.024
53327.390608,14.843,0.028
53327.40299,14.842,0.022
53327.41544,14.9,0.02
53327.427807,14.933,0.022
53347.470494,15.138,0.017
53347.486909,15.118,0.017
53347.501948,15.157,0.017
53347.519613,15.145,0.017
53353.395029,15.063,0.018
53353.407959,15.091,0.018
53353.420903,15.106,0.018
53353.433826,15.105,0.018
53353.446827,15.14,0.018
53357.440183,14.709,0.011
53357.453609,14.759,0.013
53357.468664,14.825,0.013
53357.482714,14.846,0.013
53357.497005,14.89,0.013
53376.416958,14.735,0.011
53376.43078,14.798,0.013
53376.444458,14.838,0.013
53376.458159,14.882,0.013
53376.471719,14.905,0.013
53381.357353,14.995,0.017
53381.370681,14.803,0.013
53381.384662,14.526,0.017
53381.3993,14.368,0.009
53381.41318,14.313,0.009
53403.358913,15.001,0.015
53403.371765,15.022,0.015
53403.385663,15.044,0.017
53403.398618,15.08,0.017
53405.289239,15.127,0.015
53405.301768,15.112,0.015
53405.314602,15.115,0.015
53405.327152,15.111,0.015
53405.339974,15.156,0.015
53432.284391,14.957,0.03
53432.298807,14.683,0.024
53432.31138,14.429,0.026
53432.338663,14.28,0.02
53437.234062,15.124,0.015
53437.246557,15.137,0.015
53437.258094,15.124,0.015
53437.269689,15.146,0.015
53437.281149,15.142,0.015
53438.353161,14.299,0.007
53438.365383,14.336,0.009
53438.37691,14.369,0.009
53438.388524,14.436,0.011
53438.400125,14.481,0.011
53440.239295,14.454,0.009
53440.25103,14.51,0.009
53440.262647,14.563,0.009
53440.277823,14.625,0.009
53440.290519,14.678,0.011
53443.217401,15.068,0.018
53443.228403,15.082,0.043
53443.250796,15.13,0.052
53443.262451,15.116,0.022
53446.219465,14.285,0.009
53446.230057,14.328,0.009
53446.240635,14.37,0.009
53446.251747,14.465,0.009
53446.262949,14.486,0.011
53464.241623,14.557,0.011
53464.252062,14.361,0.009
53464.262895,14.29,0.009
53464.273467,14.289,0.009
53464.283897,14.333,0.011
53495.195957,15.111,0.03
53495.206265,15.093,0.028
53495.216516,15.089,0.03
53495.226729,15.035,0.028
53495.237042,14.946,0.033
53502.144692,15.137,0.02
53502.155485,15.131,0.02
53502.166035,15.051,0.018
53502.176868,15.004,0.018
53502.187253,14.856,0.017
53674.468448,14.52,0.013
53674.480599,14.553,0.013
53674.492865,14.611,0.013
53705.453428,14.319,0.009
53705.466427,14.38,0.009
53705.47908,14.465,0.009
53705.491793,14.526,0.011
53705.504465,14.583,0.011
53708.451098,15.075,0.017
53708.46386,15.106,0.017
53708.47682,15.114,0.017
53708.489652,15.114,0.017
53708.502305,15.127,0.017
53732.414959,14.845,0.018
53732.427622,14.888,0.018
53732.4404,14.933,0.018
53732.453173,14.982,0.02
53732.465944,14.993,0.022
53735.41879,15.175,0.028
53735.457852,15.112,0.018
53737.407104,14.451,0.009
53737.420526,14.513,0.009
53737.433959,14.572,0.009
53737.460612,14.69,0.011
53747.345295,15.091,0.043
53747.358202,15.109,0.041
53747.371025,15.072,0.037
53747.384111,15.14,0.046
53747.397559,15.133,0.039
53759.346976,15.072,0.015
53759.359836,15.079,0.017
53759.372559,15.101,0.017
53759.385236,15.125,0.017
53759.397922,15.112,0.02
53762.35094,14.408,0.009
53762.363657,14.345,0.007
53762.376673,14.356,0.007
53762.389545,14.406,0.009
53762.402587,14.471,0.009
53787.417082,14.521,0.013
53787.428997,14.585,0.013
53787.441009,14.649,0.013
53787.453089,14.707,0.015
53790.28556,14.886,0.015
53790.297329,14.911,0.015
53790.30911,14.956,0.017
53790.320864,14.991,0.017
53790.332611,15.018,0.017
53793.280002,15.115,0.039
53794.290583,14.375,0.011
53794.302441,14.283,0.011
53794.3142,14.286,0.007
53794.326323,14.322,0.013
53797.241309,14.906,0.013
53797.252862,14.961,0.013
53797.264506,14.988,0.013
53797.276082,15.019,0.015
53797.28765,15.053,0.015
53799.280912,15.163,0.017
53799.292396,15.143,0.017
53799.303896,15.158,0.017
53799.315408,15.173,0.018
53799.327115,15.136,0.02
53819.281243,14.387,0.013
53819.292193,14.303,0.011
53819.316146,14.326,0.015
53819.327338,14.389,0.011
53827.289678,14.793,0.015
53827.3008,14.83,0.015
53827.311728,14.868,0.017
53827.33341,14.898,0.018
53832.182858,15.039,0.043
53845.187761,14.698,0.017
53845.198468,14.522,0.015
53845.209184,14.37,0.013
53845.22005,14.324,0.013
53845.230797,14.333,0.013
53846.195084,14.5,0.015
53846.205736,14.563,0.017
53846.216412,14.595,0.017
53846.227151,14.674,0.018
53846.237876,14.71,0.018
53850.22052,15.144,0.02
53850.231153,15.143,0.02
53850.241843,15.1,0.02
53850.252751,15.056,0.02
53850.263872,14.952,0.018
53851.217831,14.494,0.015
53853.190921,14.745,0.017
53853.20135,14.767,0.017
53853.212757,14.834,0.017
53853.223164,14.86,0.018
53853.233602,14.877,0.02
54036.462273,14.59,0.016
54040.433339,15.072,0.033
54040.44525,15.097,0.031
54040.457834,15.064,0.03
54040.469984,15.098,0.03
54040.482106,15.098,0.028
54057.455452,15.076,0.017
54057.467996,15.085,0.017
54057.48047,15.083,0.017
54057.492966,15.122,0.017
54057.505445,15.155,0.017
54060.431675,14.803,0.013
54060.445605,14.53,0.011
54060.458525,14.384,0.009
54060.471425,14.36,0.009
54060.48449,14.376,0.009
54064.397963,15.1,0.025
54064.423269,15.17,0.023
54067.450004,14.431,0.007
54067.463076,14.51,0.007
54067.476147,14.582,0.009
54067.489409,14.629,0.009
54067.502487,14.704,0.009
54082.386311,15.014,0.038
54082.398677,15.108,0.041
54082.411127,15.165,0.041
54082.423587,15.072,0.038
54083.459839,15.127,0.022
54083.473735,15.147,0.028
54083.48703,15.163,0.02
54083.500122,15.148,0.026
54083.51322,15.036,0.054
54086.364468,14.51,0.011
54086.377671,14.386,0.009
54086.390606,14.29,0.009
54086.403548,14.332,0.009
54086.416487,14.406,0.009
54091.370143,15.167,0.017
54091.38272,15.184,0.017
54091.395304,15.192,0.017
54091.408226,15.172,0.017
54091.420821,15.087,0.015
54112.402261,14.652,0.016
54113.330464,14.794,0.021
54113.356176,14.917,0.038
54115.403679,15.112,0.021
54115.429322,15.107,0.021
54115.455548,15.133,0.023
54144.27486,14.426,0.01
54144.308512,14.581,0.009
54144.319628,14.631,0.009
54144.330828,14.701,0.009
54144.341929,14.728,0.011
54144.353034,14.766,0.011
54154.273844,15.139,0.015
54154.285323,15.135,0.015
54154.296825,15.149,0.015
54154.308299,15.122,0.013
54154.319764,15.13,0.013
54173.263379,15.132,0.013
54173.274218,15.134,0.015
54173.28495,15.155,0.015
54173.295616,15.159,0.015
54173.306261,15.159,0.015
54176.268485,14.664,0.009
54176.279106,14.705,0.011
54176.289692,14.743,0.011
54176.300424,14.787,0.011
54176.311072,14.813,0.011
54179.2841,15.145,0.015
54179.295142,15.15,0.015
54179.306456,15.159,0.015
54179.317628,15.179,0.017
54179.328524,15.167,0.017
54186.296045,15.13,0.015
54186.307592,15.139,0.015
54186.318804,15.145,0.015
54186.330256,15.144,0.015
54201.204058,14.372,0.015
54206.219608,14.94,0.013
54206.228658,14.802,0.013
54206.237696,14.654,0.011
54206.246746,14.496,0.009
54206.255794,14.375,0.009
54209.213985,14.92,0.03
54209.223002,14.995,0.037
54209.232573,14.986,0.046
54209.242406,15.028,0.028
54409.443592,14.828,0.015
54409.455836,14.643,0.011
54409.468058,14.554,0.009
54409.480284,14.448,0.009
54418.445066,14.942,0.011
54418.457571,14.984,0.011
54418.470071,14.998,0.011
54418.482575,15.026,0.011
54418.495079,15.049,0.011
54439.388994,15.142,0.011
54439.401862,15.154,0.011
54439.414736,15.145,0.011
54439.427616,15.165,0.011
54439.440492,15.16,0.011
54507.273445,14.848,0.009
54507.285678,14.872,0.009
54507.297946,14.915,0.009
54507.310344,14.956,0.009
54507.322761,14.976,0.009
54522.336418,15.158,0.015
54522.348411,15.12,0.015
54522.360464,15.066,0.015
54522.372228,14.968,0.013
54522.38401,14.799,0.013
54529.272501,15.146,0.011
54529.307363,15.052,0.011
54529.318734,14.933,0.009
54536.218166,15.152,0.011
54536.229258,15.145,0.011
54536.240188,15.124,0.011
54536.251139,15.073,0.011
54536.262202,14.952,0.009
54553.247809,15.127,0.013
54553.259666,15.137,0.013
54553.271578,15.119,0.017
54553.283462,15.125,0.017
54553.295324,15.155,0.018
54559.12427,14.862,0.009
54559.135911,14.897,0.011
54559.147498,14.932,0.011
54559.158955,14.952,0.011
54559.170434,14.998,0.011
54562.24219,14.46,0.007
54562.253916,14.493,0.007
54562.265567,14.543,0.007
54562.277341,14.547,0.007
54562.289039,14.597,0.007
54581.19081,14.428,0.009
54581.201478,14.359,0.009
54581.21215,14.35,0.009
54581.222826,14.376,0.009
54581.233522,14.432,0.009
54584.197803,15.062,0.015
54584.208679,15.094,0.015
54584.219576,15.116,0.015
54584.230461,15.115,0.017
54584.241347,15.102,0.017
54591.193948,15.142,0.017
54591.204357,15.109,0.017
54591.214639,15.148,0.018
54591.224904,15.128,0.018
54591.235188,15.123,0.02
54592.143186,15.177,0.03
54592.153164,15.153,0.031
54592.162903,15.173,0.031
54592.172578,15.144,0.03
54592.182101,15.144,0.031
