mjd,m,merr
52613.445121,15.021,0.017
52613.460263,14.923,0.015
52613.475539,14.903,0.015
52613.490782,14.869,0.013
52613.506055,14.85,0.013
52618.451594,14.962,0.022
52618.466894,14.916,0.024
52618.48234,14.887,0.017
52618.497747,14.863,0.018
52618.513159,14.864,0.015
52640.426015,14.973,0.013
52640.441746,14.924,0.013
52640.456844,14.879,0.011
52640.471858,14.864,0.011
52640.486709,14.856,0.011
52643.377378,15.292,0.018
52643.391653,15.287,0.018
52643.405845,15.188,0.017
52643.42011,14.978,0.015
52643.434236,14.921,0.013
52647.392537,15.263,0.018
52647.407345,15.031,0.017
52647.421722,14.949,0.015
52647.436167,14.9,0.015
52647.450612,14.885,0.015
52666.322884,14.885,0.015
52666.337987,15.063,0.016
52666.352905,15.17,0.018
52666.367929,15.217,0.02
52666.3826,15.081,0.018
52670.334205,15.166,0.017
52670.348178,15.286,0.018
52670.362171,15.312,0.02
52670.376179,15.219,0.018
52670.390187,15.001,0.017
52673.298049,14.897,0.013
52673.313419,14.955,0.013
52673.328671,15.134,0.015
52673.343996,15.301,0.018
52673.359178,15.345,0.018
52678.311848,14.983,0.031
52678.325889,15.031,0.031
52678.339885,15.288,0.018
52678.353869,15.315,0.022
52678.368003,15.206,0.018
52698.270222,14.874,0.04
52698.28758,14.915,0.012
52698.288178,14.93,0.016
52698.305436,15.142,0.012
52698.305786,15.132,0.018
52698.319866,15.046,0.013
52698.320218,15.262,0.02
52703.249497,14.879,0.013
52703.263002,14.903,0.02
52703.276933,14.941,0.017
52703.29041,15.086,0.015
52703.303812,15.093,0.037
52725.26732,14.959,0.02
52725.279051,15.071,0.043
52725.290786,15.245,0.037
52725.302495,15.333,0.018
52730.233676,14.884,0.013
52730.245297,14.92,0.013
52730.257037,14.96,0.015
52730.26873,15.098,0.017
52730.280486,15.165,0.017
52733.245175,14.912,0.015
52733.257608,14.953,0.015
52733.269737,15.057,0.017
52733.282824,15.265,0.02
52733.294842,15.379,0.039
52738.189208,14.812,0.016
52738.200898,14.83,0.018
52738.212583,14.849,0.018
52738.224188,14.866,0.018
52738.235792,14.882,0.018
52754.197187,14.87,0.013
52754.20937,14.891,0.015
52754.221632,14.927,0.015
52754.233833,14.954,0.017
52754.246013,15.094,0.018
52758.149595,14.865,0.013
52758.161596,14.855,0.013
52758.173677,14.854,0.013
52758.185832,14.866,0.013
52758.197875,14.865,0.013
52940.471644,15.055,0.046
52940.49758,15.407,0.044
52944.440452,14.952,0.022
52944.45253,14.993,0.022
52944.464397,15.15,0.024
52944.476394,15.234,0.024
52944.488429,15.303,0.026
52964.460718,15.273,0.015
52964.473742,15.32,0.017
52964.486992,15.22,0.015
52964.502885,15.07,0.013
52966.407505,14.922,0.015
52966.42025,14.944,0.015
52966.43296,15.017,0.017
52966.445764,15.17,0.017
52966.458394,15.304,0.018
52973.397992,14.892,0.015
52973.410971,14.919,0.015
52973.424069,15.034,0.015
52973.436868,15.172,0.017
52973.449938,15.275,0.018
52993.389284,14.939,0.011
52993.402371,14.976,0.013
52993.415609,15.154,0.015
52993.428846,15.254,0.013
52993.441993,15.332,0.013
52994.468632,14.997,0.011
52994.481932,14.937,0.009
52994.495727,14.946,0.009
52994.509075,14.932,0.009
52994.522535,14.869,0.007
52997.439027,15.367,0.043
53025.368949,14.993,0.013
53025.395077,15.303,0.013
53028.341523,14.944,0.009
53028.354168,14.954,0.009
53028.366762,15.009,0.009
53028.37925,15.174,0.009
53028.391738,15.259,0.011
53033.279902,14.849,0.013
53033.292581,14.849,0.013
53033.305106,14.842,0.013
53033.3176,14.858,0.013
53033.330046,14.868,0.013
53052.275339,14.855,0.011
53052.287137,14.853,0.011
53052.298989,14.866,0.011
53052.310973,14.878,0.011
53052.322791,14.912,0.011
53057.325042,14.917,0.044
53061.277018,14.852,0.007
53061.288309,14.858,0.007
53061.299531,14.881,0.009
53061.31069,14.895,0.009
53061.321853,14.924,0.009
53079.226205,14.85,0.013
53079.237285,14.84,0.013
53079.248339,14.844,0.013
53079.259276,14.842,0.013
53079.270239,14.856,0.013
53082.282535,14.883,0.009
53082.293862,14.902,0.009
53082.305689,14.948,0.009
53082.317117,15.077,0.011
53082.328766,15.197,0.013
53089.168632,15.111,0.013
53089.168787,15.085,0.013
53089.179,14.992,0.013
53089.179155,15.04,0.013
53089.189439,14.945,0.013
53089.189595,14.938,0.013
53089.199809,14.942,0.011
53089.199965,14.891,0.011
53089.210355,14.905,0.011
53089.21051,14.903,0.009
53091.276488,14.897,0.009
53091.286901,14.914,0.009
53091.297388,14.938,0.009
53091.307963,14.993,0.011
53091.318377,15.18,0.011
53110.188493,14.881,0.016
53110.199482,14.851,0.016
53110.210367,14.848,0.015
53110.221323,14.852,0.016
53110.232244,14.851,0.016
53116.254467,14.903,0.018
53116.265679,14.941,0.031
53116.276811,14.957,0.037
53116.299169,15.24,0.039
53138.155593,14.881,0.016
53138.165311,14.885,0.016
53138.175668,14.86,0.015
53138.185316,14.857,0.015
53138.194918,14.844,0.015
53141.164912,14.861,0.013
53141.174481,14.857,0.013
53141.184123,14.862,0.013
53141.193637,14.84,0.013
53141.203289,14.854,0.013
53144.17552,14.856,0.015
53144.184473,14.875,0.016
53144.193353,14.872,0.025
53144.202219,14.866,0.02
53316.459146,14.878,0.031
53327.378619,14.891,0.028
53327.391004,14.857,0.031
53327.403386,14.856,0.022
53327.415837,14.852,0.018
53327.428203,14.864,0.02
53347.470915,15.232,0.018
53347.487331,15.307,0.02
53347.502628,15.17,0.017
53347.520035,14.952,0.015
53353.395441,14.851,0.015
53353.408372,14.865,0.015
53353.421316,14.903,0.015
53353.434239,14.935,0.017
53353.447239,14.978,0.017
53357.440654,14.966,0.015
53357.454078,15.176,0.017
53357.469179,15.304,0.018
53357.483215,15.258,0.018
53357.497491,15.027,0.017
53376.417456,14.978,0.015
53376.431277,15.161,0.017
53376.444954,15.28,0.017
53376.458657,15.3,0.017
53376.472215,15.206,0.017
53381.358157,14.852,0.015
53381.371482,14.853,0.017
53381.385461,14.878,0.026
53381.400099,14.917,0.015
53381.414889,14.979,0.018
53403.359282,14.891,0.013
53403.372134,14.891,0.013
53403.386032,14.934,0.015
53403.398986,15.017,0.017
53432.285179,14.852,0.024
53432.299618,14.85,0.033
53432.312132,14.869,0.03
53432.326854,14.967,0.076
53432.339399,14.904,0.037
53437.234808,14.938,0.013
53437.24729,14.888,0.013
53437.258846,14.871,0.011
53437.270402,14.857,0.011
53437.281849,14.839,0.011
53438.353529,14.973,0.015
53438.365752,15.133,0.017
53438.377279,15.228,0.018
53438.388893,15.305,0.02
53438.400494,15.253,0.02
53440.240107,14.914,0.013
53440.251847,14.888,0.013
53440.263435,14.861,0.011
53440.278683,14.843,0.011
53440.291315,14.852,0.011
53443.229152,14.902,0.026
53443.251543,14.868,0.052
53443.2632,14.847,0.013
53446.22021,14.941,0.015
53446.230814,14.924,0.015
53446.241386,14.894,0.013
53446.252491,14.865,0.013
53446.263691,14.864,0.013
53464.242039,14.858,0.013
53464.252474,14.847,0.011
53464.263308,14.842,0.013
53464.273879,14.846,0.015
53464.284317,14.856,0.015
53495.196396,14.887,0.024
53495.206699,14.861,0.022
53495.216942,14.851,0.022
53495.227159,14.825,0.022
53495.237468,14.826,0.028
53502.145008,15.053,0.018
53502.155792,14.991,0.018
53502.166343,14.934,0.017
53502.177177,14.897,0.017
53502.187619,14.877,0.017
53674.469345,14.832,0.017
53674.481492,14.857,0.017
53674.493762,14.868,0.017
53705.454228,14.855,0.015
53705.467225,14.877,0.015
53705.479886,14.905,0.015
53705.492593,14.955,0.015
53705.505262,15.13,0.017
53708.451898,14.863,0.013
53708.464677,14.892,0.013
53708.477621,14.928,0.015
53708.490449,14.974,0.015
53708.503102,15.164,0.017
53732.415757,14.859,0.018
53732.428418,14.889,0.018
53732.441196,14.927,0.018
53732.453969,14.942,0.018
53732.466741,15.011,0.022
53735.419601,14.852,0.026
53735.458662,14.959,0.015
53737.40741,14.822,0.011
53737.420827,14.853,0.011
53737.434261,14.867,0.011
53737.460916,14.965,0.013
53747.345518,14.84,0.031
53747.371249,14.819,0.026
53747.397785,14.82,0.026
53759.347784,14.846,0.011
53759.36069,14.837,0.013
53759.373365,14.838,0.013
53759.386042,14.836,0.013
53759.398728,14.861,0.015
53762.351757,14.839,0.011
53762.364472,14.825,0.011
53762.377479,14.84,0.011
53762.390363,14.853,0.011
53762.403389,14.873,0.013
53787.418637,15.033,0.02
53787.430557,15.212,0.02
53787.44258,15.23,0.022
53787.454671,15.16,0.022
53789.293188,14.895,0.025
53789.305789,14.872,0.018
53789.318807,14.843,0.028
53789.331275,14.844,0.028
53789.343993,14.871,0.036
53790.286341,14.882,0.015
53790.298134,14.873,0.015
53790.309891,14.857,0.013
53790.321646,14.843,0.013
53790.333404,14.834,0.013
53793.314395,14.865,0.048
53797.241694,15.222,0.017
53797.253247,15.135,0.015
53797.264893,14.956,0.013
53797.276467,14.913,0.013
53797.288037,14.891,0.024
53799.280858,14.88,0.013
53799.281681,14.883,0.015
53799.292841,14.864,0.013
53799.293165,14.852,0.013
53799.304671,14.845,0.013
53799.304746,14.835,0.012
53799.316179,14.836,0.013
53799.316591,14.825,0.012
53799.327888,14.838,0.015
53799.328365,14.826,0.012
53819.282013,14.843,0.017
53819.292963,14.833,0.017
53819.316918,14.843,0.015
53819.328108,14.838,0.015
53826.276997,14.841,0.015
53827.290054,14.825,0.013
53827.301174,14.822,0.015
53827.3121,14.819,0.015
53827.333784,14.836,0.017
53845.188059,15.279,0.026
53845.198767,15.211,0.024
53845.209482,15.047,0.022
53845.220348,14.958,0.02
53845.231094,14.909,0.02
53846.196053,15.18,0.026
53846.206705,15.014,0.024
53846.217386,14.946,0.022
53846.228124,14.887,0.02
53846.238849,14.862,0.02
53850.221296,14.909,0.017
53850.231928,14.886,0.017
53850.242619,14.871,0.017
53850.253529,14.849,0.017
53850.264648,14.836,0.015
53851.208289,14.973,0.021
53851.218588,14.929,0.021
53853.191676,15.237,0.022
53853.202106,15.013,0.02
53853.21351,14.946,0.018
53853.22392,14.912,0.018
53853.234357,14.879,0.018
53880.152049,15.26,0.03
53880.163165,15.086,0.028
53880.174329,15.035,0.028
53880.185533,14.967,0.026
53880.196695,14.894,0.024
54036.46303,14.826,0.021
54036.47525,14.843,0.018
54036.48712,14.846,0.018
54040.470203,14.82,0.021
54057.456237,14.863,0.015
54057.468781,14.854,0.013
54057.481253,14.872,0.013
54057.493751,14.857,0.013
54057.50623,14.876,0.013
54058.466315,14.842,0.016
54058.478799,14.835,0.015
54058.491211,14.846,0.016
54060.432461,14.882,0.013
54060.446392,14.852,0.013
54060.459311,14.842,0.013
54060.472213,14.85,0.013
54060.485278,14.855,0.013
54064.398386,14.961,0.021
54067.450147,14.853,0.009
54067.463218,14.839,0.011
54067.47629,14.844,0.011
54067.489545,14.856,0.011
54067.502629,14.89,0.011
54083.460709,14.847,0.017
54083.474602,14.863,0.026
54083.487896,14.888,0.017
54083.500988,14.93,0.024
54086.365287,15.122,0.018
54086.378491,14.95,0.015
54086.391425,14.894,0.015
54086.404368,14.876,0.013
54086.417305,14.868,0.013
54091.370944,14.977,0.015
54091.383522,14.928,0.013
54091.396107,14.895,0.013
54091.409031,14.867,0.013
54091.421623,14.855,0.013
54112.389923,14.837,0.018
54112.40249,14.835,0.018
54112.414989,14.835,0.018
54112.427541,14.811,0.018
54123.336227,14.951,0.02
54123.348583,14.901,0.018
54123.361084,14.884,0.016
54123.373551,14.86,0.016
54123.386192,14.856,0.016
54144.299717,15.16,0.018
54144.309234,15.063,0.013
54144.32035,14.952,0.013
54144.323594,14.922,0.021
54144.331551,14.908,0.011
54144.342651,14.879,0.011
54144.353757,14.854,0.011
54153.291656,15.151,0.018
54153.30384,14.983,0.016
54153.32779,14.88,0.015
54154.274255,15.285,0.017
54154.285736,15.206,0.015
54154.297237,15.095,0.013
54154.308711,14.953,0.011
54154.320178,14.897,0.011
54173.264118,15.251,0.015
54173.274959,15.138,0.013
54173.285694,14.974,0.013
54173.296362,14.915,0.011
54173.30701,14.883,0.011
54176.269229,15.162,0.015
54176.279893,15.006,0.015
54176.290441,14.934,0.013
54176.301227,14.904,0.013
54176.311825,14.884,0.013
54179.284857,14.947,0.013
54179.295913,14.909,0.013
54179.307248,14.891,0.013
54179.318395,14.861,0.013
54179.32947,14.843,0.013
54201.213482,15.252,0.03
54201.23202,15.296,0.033
54206.219961,15.305,0.018
54206.229012,15.259,0.017
54206.238049,15.175,0.015
54206.2471,15.096,0.015
54206.256148,14.965,0.013
54209.21471,15.377,0.043
54209.223717,15.323,0.044
54209.233286,15.11,0.046
54209.243119,15.15,0.024
54409.443983,15.2,0.018
54409.456227,15.016,0.015
54409.468448,14.982,0.013
54409.480673,14.965,0.013
54418.445882,14.971,0.011
54418.458387,14.911,0.011
54418.470888,14.912,0.011
54418.48339,14.884,0.009
54418.495895,14.904,0.011
54439.389393,15.342,0.013
54439.402262,15.276,0.013
54439.415153,15.137,0.011
54439.428022,14.97,0.009
54439.440911,14.922,0.009
54507.274346,14.95,0.009
54507.28658,15.022,0.011
54507.298846,15.213,0.011
54507.311246,15.299,0.013
54507.323663,15.28,0.013
54522.337564,14.96,0.013
54522.349556,14.909,0.013
54522.361606,14.9,0.013
54522.373371,14.895,0.013
54522.385292,14.875,0.013
54529.273283,15.193,0.011
54529.296342,15.308,0.013
54529.308144,15.23,0.011
54529.319515,15.132,0.011
54536.219069,14.883,0.009
54536.230156,14.913,0.009
54536.24109,14.929,0.009
54536.252039,15.069,0.009
54536.263099,15.157,0.011
54553.296338,15.048,0.02
54553.308226,14.984,0.015
54553.320125,14.931,0.015
54553.33217,14.905,0.013
54553.344072,14.854,0.013
54559.124689,14.9,0.011
54559.136329,14.894,0.009
54559.147915,14.867,0.009
54559.159373,14.868,0.009
54559.170851,14.869,0.009
54562.243025,15.225,0.011
54562.254753,15.326,0.013
54562.266402,15.292,0.013
54562.278175,15.239,0.013
54562.289874,15.115,0.011
54581.190939,14.911,0.015
54581.201606,14.959,0.015
54581.212278,15.003,0.017
54581.222954,15.187,0.018
54581.233649,15.278,0.018
54584.198704,14.929,0.013
54584.209584,15.07,0.015
54584.220476,15.176,0.017
54584.231369,15.28,0.018
54584.242289,15.305,0.018
54591.194836,14.948,0.015
54591.205243,14.999,0.017
54591.215526,15.208,0.018
54591.225797,15.241,0.02
54591.236072,15.313,0.022
54592.143978,14.845,0.023
54592.154047,14.864,0.025
54592.163698,14.863,0.025
54592.173373,14.877,0.025
54592.182967,14.908,0.026
