mjd,m,merr
52643.414917,16.082,0.043
52643.431067,15.991,0.038
52643.447353,15.947,0.035
52643.463703,15.918,0.031
52643.480152,15.937,0.031
52649.466159,15.837,0.031
52649.483121,15.956,0.035
52649.497804,15.966,0.035
52649.51195,16.008,0.037
52649.52634,16.071,0.041
52666.393695,16.067,0.038
52666.408636,16.099,0.04
52666.42329,16.173,0.046
52666.437925,16.203,0.041
52666.452761,16.261,0.045
52670.425514,15.851,0.035
52670.440188,15.953,0.036
52670.45477,15.991,0.038
52670.469389,16.059,0.043
52670.483992,16.169,0.046
52676.29261,16.363,0.054
52676.308032,16.327,0.052
52676.323576,16.282,0.05
52676.339228,16.251,0.048
52676.354944,16.05,0.043
52698.331882,16.32,0.045
52698.331997,16.232,0.053
52698.344924,16.309,0.046
52698.358649,16.33,0.048
52698.358764,16.285,0.056
52703.330774,16.034,0.116
52703.348954,15.955,0.04
52703.364473,15.938,0.119
52703.364947,15.795,0.117
52703.379337,15.925,0.063
52725.313096,16.254,0.043
52725.324678,16.249,0.059
52725.336572,16.257,0.091
52725.348399,16.225,0.076
52725.360061,16.108,0.048
52730.244809,16.224,0.043
52730.245284,16.0,0.054
52730.257484,16.185,0.041
52730.269469,16.056,0.038
52730.281516,15.973,0.036
52730.293721,15.966,0.035
52754.204413,16.247,0.043
52754.216572,16.21,0.039
52754.228867,16.099,0.037
52754.241048,15.953,0.033
52754.253174,15.939,0.033
52761.203394,16.257,0.061
52761.215432,16.333,0.098
52761.227517,16.309,0.068
52761.239594,16.381,0.057
52761.251613,16.275,0.044
52764.205256,16.299,0.051
52764.217204,16.262,0.049
52764.229154,16.342,0.051
52764.241377,16.344,0.049
52764.253346,16.313,0.048
52789.168148,16.047,0.049
52789.178754,15.967,0.048
52789.189303,15.971,0.049
52789.199998,16.107,0.051
52789.210577,16.08,0.051
52797.168751,16.175,0.112
52797.209847,16.208,0.135
52962.457115,16.225,0.072
52962.469609,16.332,0.072
52962.481809,16.34,0.07
52962.494531,16.333,0.065
52973.4596,15.891,0.037
52973.472545,15.856,0.035
52973.485551,15.911,0.035
52973.49838,15.92,0.035
52973.511318,16.022,0.037
52993.451866,16.231,0.031
52993.465178,16.196,0.03
52993.478552,16.193,0.03
52993.491799,16.246,0.031
52993.505436,16.32,0.03
53000.437115,15.901,0.021
53000.451783,15.972,0.021
53000.466245,16.007,0.023
53000.481479,16.049,0.023
53000.495803,16.121,0.025
53002.457359,16.233,0.028
53002.470661,16.25,0.028
53002.484261,16.312,0.03
53002.497664,16.267,0.028
53002.511137,16.263,0.028
53033.340759,16.013,0.036
53033.353089,15.948,0.033
53033.365298,15.926,0.033
53033.377827,16.022,0.036
53033.390119,16.054,0.041
53034.38877,16.136,0.041
53034.400568,16.001,0.036
53034.412423,15.9,0.033
53034.424321,15.908,0.033
53034.436268,15.889,0.033
53035.408995,16.315,0.045
53035.422426,16.341,0.048
53035.434699,16.32,0.041
53035.44707,16.258,0.045
53035.459478,16.257,0.04
53052.331682,16.187,0.037
53052.344006,16.244,0.037
53052.356487,16.142,0.033
53052.368346,16.004,0.03
53052.380186,15.873,0.028
53062.35171,16.344,0.246
53062.363966,16.41,0.089
53062.377029,16.36,0.051
53062.389319,16.321,0.054
53062.401325,16.212,0.112
53079.278552,16.314,0.043
53079.289704,16.269,0.041
53079.300688,16.229,0.041
53079.311687,16.163,0.038
53079.322704,16.035,0.035
53087.330361,16.043,0.024
53087.340773,16.091,0.026
53087.35122,16.102,0.026
53087.361863,16.16,0.026
53087.372447,16.214,0.03
53110.240446,16.243,0.049
53110.251324,16.346,0.054
53110.262175,16.283,0.051
53110.273158,16.342,0.053
53110.284072,16.281,0.051
53138.202574,15.897,0.033
53138.212441,15.994,0.035
53138.222326,16.066,0.038
53138.232112,16.003,0.036
53138.241945,16.135,0.043
53148.200562,16.078,0.037
53148.20951,16.053,0.033
53148.218463,15.894,0.035
53148.227418,15.899,0.039
53148.236402,15.863,0.039
53166.169776,16.244,0.063
53166.180753,16.098,0.056
53166.190519,15.991,0.054
53166.200381,15.993,0.056
53166.210141,15.98,0.054
53175.171353,16.015,0.031
53175.181271,15.933,0.03
53175.191377,15.931,0.028
53175.201298,15.934,0.03
53175.211223,15.863,0.028
53348.455055,16.171,0.052
53348.467992,16.208,0.055
53348.480443,16.174,0.052
53348.49427,16.269,0.07
53348.507189,16.266,0.05
53354.451297,16.145,0.041
53354.464241,16.163,0.039
53354.477003,16.237,0.041
53354.491149,16.251,0.043
53354.503975,16.322,0.043
53377.408654,16.33,0.048
53377.421819,16.281,0.043
53377.43503,16.279,0.043
53377.44979,16.128,0.037
53377.463497,16.03,0.033
53404.379825,16.243,0.038
53404.393221,16.2,0.038
53404.406202,16.158,0.04
53404.419157,16.004,0.035
53404.432098,15.91,0.033
53410.479188,15.93,0.026
53410.49164,15.96,0.028
53410.504104,15.991,0.03
53410.516531,16.058,0.03
53438.410093,16.184,0.043
53438.422462,16.143,0.041
53438.434427,16.1,0.041
53438.446235,16.008,0.039
53438.458105,15.856,0.035
53445.409555,16.257,0.039
53445.421323,16.245,0.039
53445.432851,16.269,0.043
53445.445232,16.306,0.043
53445.456759,16.335,0.048
53465.285169,16.27,0.044
53465.296527,16.281,0.044
53465.308471,16.327,0.046
53465.319149,16.329,0.046
53465.33044,16.334,0.05
53471.265516,16.207,0.044
53471.276143,16.239,0.046
53471.28622,16.254,0.048
53471.296116,16.277,0.048
53471.305857,16.291,0.05
53502.19444,15.909,0.037
53502.205604,15.864,0.037
53502.216077,15.876,0.039
53502.227685,15.943,0.041
53502.240133,15.995,0.043
53523.169661,15.976,0.044
53523.180192,15.988,0.043
53523.190752,15.962,0.043
53523.201267,16.05,0.048
53523.211794,16.06,0.046
53712.465548,15.965,0.044
53712.479248,16.089,0.046
53712.492519,16.103,0.046
53712.505631,16.15,0.046
53712.518585,16.253,0.05
53738.478099,16.078,0.048
53738.504628,15.983,0.183
53738.517495,15.84,0.039
53769.389989,16.15,0.037
53769.403695,16.17,0.037
53769.417058,16.247,0.039
53769.430332,16.324,0.057
53769.443532,16.33,0.048
53789.379244,16.261,0.043
53789.391904,16.183,0.036
53789.404266,16.034,0.04
53845.2724,15.922,0.052
53845.283249,15.905,0.046
53851.19538,16.111,0.046
53851.205621,16.051,0.045
53851.215895,15.963,0.041
53851.226332,15.959,0.045
53851.236542,16.009,0.043
53880.159808,15.976,0.05
53880.170961,16.067,0.054
53880.18216,16.093,0.054
53880.193319,16.011,0.05
53880.20451,16.138,0.055
53881.16428,15.99,0.041
53881.174248,15.975,0.041
53881.184467,15.967,0.041
53881.196876,15.975,0.041
53881.206968,16.011,0.046
53885.161902,16.346,0.065
53885.17409,16.347,0.068
53885.186177,16.365,0.068
53885.198304,16.309,0.068
53885.210437,16.396,0.074
53886.161601,16.037,0.051
53886.171522,16.117,0.054
53886.184128,16.056,0.051
53886.203768,16.173,0.063
53901.19765,16.313,0.087
53901.207765,16.376,0.112
54064.446582,15.895,0.049
54064.461953,15.989,0.053
54064.475658,16.034,0.053
54064.488727,16.035,0.048
54067.459902,15.892,0.028
54067.472978,15.92,0.03
54067.486059,15.961,0.031
54067.499313,15.979,0.03
54067.512396,16.06,0.031
54112.437577,16.218,0.059
54112.450208,16.22,0.066
54112.463094,16.236,0.099
54112.475736,16.328,0.064
54112.488532,16.444,0.071
54144.332355,16.31,0.048
54144.344277,16.301,0.048
54144.356195,16.303,0.063
54144.368447,16.401,0.054
54144.380432,16.4,0.066
54153.336704,16.4,0.049
54153.348613,16.381,0.048
54153.360343,16.45,0.073
54153.372268,16.366,0.117
54153.384045,16.291,0.102
54201.240553,16.287,0.059
54201.249886,16.346,0.061
54201.259114,16.368,0.063
54201.268372,16.316,0.061
54201.277671,16.335,0.061
54450.457179,16.054,0.028
54450.470345,15.936,0.022
54450.4835,15.911,0.02
54450.49669,15.883,0.02
54450.509846,15.849,0.018
54475.395545,16.186,0.046
54475.408442,16.243,0.044
54475.421431,16.263,0.033
54475.434283,16.267,0.033
54475.44712,16.295,0.03
54483.33325,16.218,0.067
54483.346462,16.247,0.063
54483.359377,16.183,0.057
54483.372667,16.141,0.054
54483.385831,16.133,0.052
54509.331024,15.927,0.02
54509.34324,15.915,0.022
54509.355293,15.897,0.022
54509.367333,15.946,0.022
54509.379402,16.087,0.024
54532.327505,16.269,0.03
54532.338981,16.267,0.03
54532.350377,16.28,0.03
54532.361659,16.219,0.03
54532.372922,16.204,0.03
54538.304963,16.189,0.028
54538.316076,16.212,0.028
54538.327164,16.243,0.03
54538.338176,16.328,0.03
54538.349326,16.292,0.028
54559.182479,15.959,0.024
54559.194045,15.971,0.026
54559.205611,16.042,0.026
54559.217316,16.079,0.028
54559.228898,16.091,0.028
54581.199186,15.928,0.03
54581.209863,15.91,0.03
54581.220534,15.93,0.03
54581.231233,15.946,0.03
54581.24193,16.028,0.031
54586.238854,16.297,0.046
54586.249198,16.275,0.044
54586.259622,16.267,0.043
54586.269948,16.259,0.043
54586.280358,16.258,0.044
54592.190621,16.131,0.059
54592.200698,16.212,0.063
54592.210531,16.307,0.068
54592.220327,16.296,0.066
54592.230206,16.261,0.063
54594.207128,16.094,0.039
54594.217459,15.971,0.035
54594.227804,15.915,0.033
54594.238134,15.871,0.033
54594.248459,15.932,0.035
54618.164029,16.177,0.039
54618.174217,16.127,0.037
54618.184443,15.986,0.031
54618.194662,15.919,0.03
54618.204846,15.918,0.03
