mjd,m,merr
52613.444194,14.708,0.013
52613.459337,14.59,0.011
52613.474612,14.541,0.011
52613.489855,14.513,0.011
52613.505066,14.508,0.011
52618.450666,15.035,0.024
52618.465967,14.768,0.02
52618.48132,14.6,0.017
52618.496817,14.584,0.017
52618.512229,14.525,0.013
52640.425117,14.55,0.009
52640.440598,14.673,0.009
52640.45594,14.871,0.011
52640.470957,15.066,0.015
52640.485803,14.968,0.013
52643.376534,14.548,0.009
52643.390806,14.619,0.011
52643.404997,14.747,0.013
52643.419266,14.986,0.015
52643.433384,15.062,0.015
52647.391582,14.691,0.013
52647.406488,14.914,0.015
52647.420868,15.067,0.017
52647.435305,15.033,0.017
52647.449674,14.785,0.013
52670.333369,15.01,0.015
52670.347341,15.058,0.015
52670.361331,14.9,0.015
52670.375335,14.714,0.013
52670.389345,14.605,0.011
52673.297665,15.062,0.015
52673.313036,14.999,0.015
52673.328291,14.749,0.011
52673.343612,14.59,0.011
52678.310951,14.869,0.03
52678.325056,15.026,0.028
52678.339046,15.019,0.017
52678.353028,14.782,0.015
52678.367163,14.633,0.011
52698.269152,14.863,0.021
52698.269507,14.784,0.038
52698.286861,15.085,0.012
52698.287228,15.091,0.016
52698.304733,15.079,0.012
52698.305083,15.079,0.016
52698.319149,14.922,0.01
52698.3195,14.777,0.013
52703.248695,14.504,0.009
52703.262204,14.525,0.015
52703.276136,14.568,0.015
52703.289607,14.662,0.011
52703.303012,14.874,0.015
52725.255423,14.69,0.05
52725.267081,14.552,0.013
52725.278813,14.465,0.026
52725.290551,14.492,0.013
52725.302258,14.558,0.009
52730.232982,15.079,0.015
52730.244605,15.08,0.017
52730.256309,14.899,0.015
52730.268036,14.716,0.013
52730.279793,14.609,0.011
52733.244465,14.555,0.011
52733.256897,14.504,0.011
52733.269025,14.49,0.011
52733.282125,14.519,0.011
52733.294143,14.58,0.018
52738.188734,14.645,0.015
52738.200425,14.808,0.018
52738.212035,15.038,0.021
52738.223715,15.081,0.023
52738.235317,15.044,0.021
52754.196394,15.075,0.017
52754.208588,15.018,0.017
52754.220756,14.797,0.015
52754.23305,14.664,0.013
52754.245229,14.578,0.013
52758.148923,14.61,0.011
52758.160921,14.701,0.011
52758.173003,14.898,0.013
52758.185157,15.057,0.015
52758.197199,15.051,0.015
52940.458662,14.486,0.024
52940.471393,14.518,0.026
52940.484826,14.517,0.041
52940.497329,14.62,0.022
52944.44018,14.528,0.015
52944.45226,14.504,0.015
52944.464127,14.515,0.015
52944.476083,14.551,0.015
52944.488158,14.635,0.015
52964.459929,14.744,0.011
52964.472877,14.976,0.013
52964.486178,15.07,0.013
52964.501686,14.961,0.013
52966.406779,15.041,0.017
52966.419531,14.993,0.015
52966.43224,14.758,0.013
52966.444959,14.601,0.011
52966.457657,14.54,0.009
52973.397722,14.651,0.011
52973.410701,14.577,0.011
52973.423799,14.549,0.011
52973.436599,14.51,0.009
52973.449668,14.546,0.009
52993.388575,14.588,0.009
52993.401661,14.561,0.009
52993.414754,14.598,0.009
52993.428136,14.637,0.007
52993.441266,14.773,0.009
52994.411789,14.598,0.009
52994.424983,14.542,0.009
52994.438172,14.568,0.009
52994.451291,14.572,0.009
52994.464435,14.633,0.009
52997.41236,14.511,0.024
52997.438101,14.75,0.028
53025.368027,14.686,0.009
53025.380973,14.77,0.018
53025.394076,14.984,0.011
53028.340625,14.783,0.007
53028.35327,15.014,0.009
53028.365864,15.078,0.011
53028.378351,15.02,0.009
53028.390839,14.809,0.007
53033.279422,14.634,0.013
53033.292097,14.562,0.012
53033.304623,14.523,0.012
53033.317112,14.491,0.01
53033.329569,14.506,0.01
53052.274565,14.586,0.009
53052.286346,14.65,0.009
53052.298214,14.801,0.011
53052.310198,15.003,0.013
53052.322,15.067,0.015
53057.335676,14.994,0.057
53061.276167,14.52,0.006
53061.287457,14.525,0.007
53061.29868,14.566,0.007
53061.309838,14.648,0.007
53061.321001,14.771,0.007
53079.226095,15.02,0.016
53079.237174,15.107,0.016
53079.248228,15.069,0.015
53079.259165,14.86,0.013
53079.270128,14.695,0.012
53082.282362,14.544,0.007
53082.293689,14.599,0.007
53082.305516,14.617,0.007
53082.316945,14.727,0.009
53082.328593,14.889,0.009
53085.323207,14.761,0.039
53091.231623,14.912,0.011
53091.252764,14.657,0.009
53091.263268,14.59,0.009
53091.274014,14.56,0.007
53110.187844,14.601,0.013
53110.198845,14.584,0.013
53110.231611,14.496,0.013
53116.253945,14.569,0.017
53116.265136,14.542,0.022
53116.276271,14.485,0.033
53116.287404,14.485,0.018
53116.298647,14.528,0.022
53138.154984,14.549,0.013
53138.1647,14.514,0.012
53138.175064,14.497,0.012
53138.1847,14.479,0.012
53138.19432,14.492,0.012
53141.164155,14.598,0.011
53141.17359,14.661,0.011
53141.183366,14.767,0.013
53141.19288,14.947,0.015
53141.202532,15.046,0.017
53144.174822,14.967,0.018
53144.192655,14.704,0.021
53144.20152,14.567,0.016
53316.458733,15.015,0.035
53327.378224,14.992,0.03
53327.390608,15.083,0.035
53327.40299,14.946,0.024
53327.41544,14.735,0.018
53327.427807,14.629,0.017
53347.470494,14.729,0.013
53347.486909,15.014,0.017
53347.501948,15.071,0.017
53347.519613,14.853,0.013
53353.395029,14.875,0.015
53353.407959,15.043,0.018
53353.420903,15.016,0.018
53353.433826,14.82,0.015
53353.446827,14.669,0.013
53357.440183,14.632,0.011
53357.453609,14.562,0.011
53357.468664,14.495,0.009
53357.482714,14.484,0.011
53357.497005,14.507,0.009
53376.416958,14.504,0.009
53376.43078,14.547,0.009
53376.444458,14.63,0.011
53376.458159,14.799,0.011
53376.471719,15.051,0.015
53381.357353,15.051,0.017
53381.370681,15.011,0.017
53381.384662,14.783,0.022
53381.3993,14.626,0.011
53381.41318,14.532,0.011
53403.358913,14.66,0.011
53403.371765,14.838,0.013
53403.385663,15.052,0.017
53403.398618,15.048,0.017
53405.289239,14.711,0.011
53405.301768,14.913,0.013
53405.314602,15.016,0.013
53405.327152,14.961,0.013
53405.339974,14.779,0.011
53432.284391,14.516,0.02
53432.298807,14.507,0.022
53432.31138,14.511,0.028
53432.338663,14.605,0.028
53437.234062,14.762,0.011
53437.246557,14.979,0.013
53437.258094,15.057,0.015
53437.269689,15.004,0.013
53437.281149,14.784,0.011
53438.353161,14.548,0.009
53438.365383,14.494,0.009
53438.37691,14.512,0.011
53438.388524,14.519,0.011
53438.400125,14.564,0.011
53440.239295,14.776,0.011
53440.25103,14.641,0.009
53440.262647,14.572,0.009
53440.277823,14.518,0.009
53440.290519,14.487,0.009
53443.217401,14.564,0.011
53443.228403,14.554,0.028
53443.250796,14.5,0.03
53443.262451,14.535,0.013
53446.219465,14.545,0.011
53446.230057,14.578,0.011
53446.240635,14.611,0.011
53446.251747,14.769,0.013
53446.262949,14.926,0.015
53464.241623,14.52,0.011
53464.252062,14.5,0.009
53464.262895,14.513,0.009
53464.273467,14.567,0.013
53464.283897,14.611,0.015
53495.195957,14.635,0.018
53495.206265,14.759,0.02
53495.216516,14.896,0.026
53495.226729,15.079,0.03
53495.237042,15.064,0.037
53502.144692,14.628,0.013
53502.155485,14.723,0.015
53502.166035,14.915,0.017
53502.176868,15.083,0.02
53502.187253,15.084,0.02
53674.468448,15.035,0.022
53674.480599,14.933,0.018
53674.492865,14.741,0.015
53705.453428,14.502,0.011
53705.466427,14.529,0.011
53705.47908,14.602,0.011
53705.491793,14.707,0.013
53705.504465,14.91,0.013
53708.451098,14.72,0.011
53708.46386,14.938,0.015
53708.47682,15.034,0.017
53708.489652,14.945,0.015
53708.502305,14.759,0.013
53732.414959,14.866,0.018
53732.427622,15.041,0.022
53732.4404,15.046,0.022
53732.453173,14.806,0.017
53732.465944,14.636,0.017
53735.41879,14.673,0.018
53735.457852,14.493,0.011
53737.407104,14.545,0.009
53737.420526,14.6,0.009
53737.433959,14.723,0.011
53737.460612,15.035,0.015
53747.345295,14.863,0.035
53747.358202,15.07,0.041
53747.371025,15.051,0.037
53747.384111,14.886,0.037
53747.397559,14.677,0.026
53759.346976,15.052,0.015
53759.359836,14.912,0.015
53759.372559,14.723,0.013
53759.385236,14.629,0.011
53759.397922,14.577,0.013
53762.35094,14.599,0.011
53762.363657,14.543,0.009
53762.376673,14.536,0.009
53762.389545,14.541,0.009
53762.402587,14.592,0.009
53787.417082,14.743,0.015
53787.428997,14.949,0.017
53787.441009,15.045,0.018
53787.453089,14.977,0.02
53790.28556,14.683,0.013
53790.297329,14.605,0.011
53790.30911,14.552,0.011
53790.320864,14.515,0.011
53790.332611,14.54,0.011
53794.290583,14.59,0.013
53794.302441,14.577,0.013
53794.3142,14.569,0.009
53794.326323,14.543,0.017
53797.241309,14.628,0.011
53797.252862,14.587,0.009
53797.264506,14.546,0.009
53797.276082,14.527,0.009
53797.28765,14.555,0.009
53799.280912,15.024,0.015
53799.292396,14.828,0.013
53799.303896,14.675,0.011
53799.315408,14.586,0.011
53799.327115,14.534,0.013
53819.281243,14.591,0.015
53819.292193,14.55,0.013
53819.316146,14.487,0.017
53819.327338,14.513,0.011
53827.289678,14.495,0.011
53827.3008,14.486,0.011
53827.311728,14.495,0.013
53827.33341,14.595,0.015
53832.182858,14.483,0.026
53845.187761,14.541,0.015
53845.198468,14.536,0.015
53845.209184,14.543,0.015
53845.22005,14.606,0.015
53845.230797,14.672,0.017
53846.195084,14.625,0.017
53846.205736,14.551,0.017
53846.216412,14.504,0.017
53846.227151,14.498,0.015
53846.237876,14.493,0.015
53850.22052,14.538,0.013
53850.231153,14.54,0.013
53850.241843,14.59,0.013
53850.252751,14.635,0.013
53850.263872,14.711,0.015
53851.217831,14.642,0.016
53853.190921,14.557,0.013
53853.20135,14.585,0.015
53853.212757,14.648,0.015
53853.223164,14.75,0.017
53853.233602,14.877,0.02
54036.462273,14.849,0.02
54040.433339,14.577,0.021
54040.44525,14.655,0.021
54040.457834,14.856,0.026
54040.469984,15.056,0.028
54040.482106,15.037,0.026
54057.455452,14.774,0.013
54057.467996,14.975,0.015
54057.48047,15.072,0.017
54057.492966,14.976,0.015
54057.505445,14.77,0.013
54060.431675,15.057,0.017
54060.445605,15.016,0.017
54060.458525,14.811,0.013
54060.471425,14.687,0.013
54060.48449,14.61,0.011
54064.397963,14.681,0.016
54064.423269,15.076,0.021
54067.450004,14.543,0.007
54067.463076,14.535,0.009
54067.476147,14.562,0.009
54067.489409,14.596,0.009
54067.502487,14.674,0.009
54082.386311,14.587,0.026
54082.398677,14.601,0.026
54082.411127,14.634,0.026
54082.423587,14.594,0.025
54083.459839,14.607,0.015
54083.473735,14.685,0.018
54083.48703,14.871,0.015
54083.500122,15.067,0.026
54083.51322,15.0,0.054
54086.364468,14.593,0.013
54086.377671,14.573,0.011
54086.390606,14.529,0.011
54086.403548,14.547,0.011
54086.416487,14.59,0.011
54091.370143,14.741,0.011
54091.38272,14.63,0.011
54091.395304,14.568,0.009
54091.408226,14.521,0.009
54091.420821,14.515,0.009
54112.402261,14.522,0.015
54113.330464,14.633,0.018
54113.356176,14.904,0.036
54115.403679,14.586,0.013
54115.429322,14.923,0.018
54115.455548,15.008,0.021
54144.27486,15.079,0.016
54144.308512,14.801,0.011
54144.319628,14.678,0.009
54144.330828,14.623,0.009
54144.341929,14.576,0.009
54144.353034,14.55,0.009
54154.273844,14.543,0.009
54154.285323,14.578,0.009
54154.296825,14.656,0.009
54154.308299,14.736,0.009
54154.319764,14.924,0.011
54173.263379,15.091,0.013
54173.274218,15.079,0.013
54173.28495,14.925,0.011
54173.295616,14.755,0.011
54173.306261,14.65,0.009
54176.268485,14.625,0.009
54176.279106,14.573,0.009
54176.289692,14.556,0.009
54176.300424,14.537,0.009
54176.311072,14.53,0.009
54179.2841,14.581,0.009
54179.295142,14.664,0.009
54179.306456,14.796,0.011
54179.317628,14.989,0.015
54179.328524,15.06,0.015
54186.296045,15.061,0.013
54186.307592,14.891,0.011
54186.318804,14.725,0.011
54186.330256,14.618,0.009
54201.204058,14.956,0.025
54206.219608,14.759,0.011
54206.228658,14.888,0.013
54206.237696,15.063,0.015
54206.246746,15.071,0.015
54206.255794,15.038,0.015
54209.213985,15.021,0.031
54209.223002,14.887,0.033
54209.232573,14.682,0.035
54209.242406,14.623,0.02
54409.443592,15.031,0.018
54409.455836,14.902,0.013
54409.468058,14.766,0.011
54409.480284,14.656,0.009
54418.445066,14.928,0.011
54418.457571,15.107,0.013
54418.470071,15.088,0.013
54418.482575,14.89,0.011
54418.495079,14.77,0.009
54439.388994,14.514,0.007
54439.401862,14.549,0.007
54439.414736,14.607,0.007
54439.427616,14.696,0.007
54439.440492,14.891,0.009
54507.273445,14.571,0.007
54507.285678,14.597,0.007
54507.297946,14.671,0.007
54507.310344,14.811,0.009
54507.322761,15.003,0.011
54522.336418,14.551,0.009
54522.348411,14.532,0.009
54522.360464,14.561,0.009
54522.372228,14.622,0.011
54522.38401,14.693,0.011
54529.272501,14.619,0.007
54529.307363,14.563,0.007
54529.318734,14.635,0.007
54536.218166,14.611,0.007
54536.229258,14.569,0.007
54536.240188,14.543,0.007
54536.251139,14.554,0.007
54536.262202,14.571,0.007
54553.247809,14.535,0.007
54553.259666,14.53,0.007
54553.271578,14.577,0.009
54553.283462,14.627,0.011
54553.295324,14.71,0.013
54559.12427,14.706,0.009
54559.135911,14.617,0.009
54559.147498,14.582,0.007
54559.158955,14.552,0.007
54559.170434,14.547,0.007
54562.24219,14.647,0.007
54562.253916,14.62,0.007
54562.265567,14.594,0.007
54562.277341,14.553,0.007
54562.289039,14.555,0.007
54581.19081,14.519,0.011
54581.201478,14.49,0.011
54581.21215,14.497,0.011
54581.222826,14.529,0.011
54581.233522,14.577,0.011
54584.197803,14.607,0.011
54584.208679,14.713,0.011
54584.219576,14.896,0.013
54584.230461,15.044,0.015
54584.241347,15.037,0.015
54591.193948,15.049,0.015
54591.204357,14.895,0.015
54591.214639,14.736,0.013
54591.224904,14.625,0.013
54591.235188,14.573,0.013
54592.143186,14.521,0.02
54592.153164,14.49,0.02
54592.162903,14.539,0.02
54592.172578,14.547,0.02
54592.182101,14.618,0.021
