mjd,m,merr
52608.459535,16.449,0.128
52608.474495,16.401,0.057
52608.48939,16.12,0.089
52608.504346,16.135,0.1
52641.38937,16.002,0.03
52641.404276,16.097,0.033
52641.419158,16.346,0.041
52641.434049,16.396,0.043
52641.448914,16.359,0.041
52646.389796,16.332,0.048
52646.404611,16.323,0.048
52646.419082,16.259,0.043
52646.433668,16.114,0.041
52646.448172,15.977,0.037
52647.374583,15.989,0.041
52647.386515,15.98,0.041
52647.389076,15.945,0.04
52647.401083,15.904,0.04
52647.403646,15.885,0.038
52647.415916,15.922,0.04
52647.418547,15.932,0.04
52647.430737,15.978,0.043
52647.433331,16.032,0.045
52647.445724,16.124,0.049
52667.390273,15.929,0.03
52667.405508,16.034,0.033
52667.420993,16.179,0.039
52667.4363,16.306,0.048
52667.45166,16.318,0.052
52672.384305,16.125,0.043
52672.399076,16.336,0.046
52672.413093,16.349,0.046
52672.427547,16.221,0.059
52672.441434,16.034,0.043
52673.293413,15.981,0.036
52673.309247,16.068,0.04
52673.324146,16.242,0.046
52673.340582,16.353,0.051
52673.355591,16.355,0.053
52705.239268,16.38,0.049
52705.242435,16.331,0.039
52705.252229,16.367,0.048
52705.256424,16.323,0.039
52705.265208,16.317,0.045
52705.270525,16.201,0.035
52705.278237,16.117,0.038
52705.283588,16.008,0.03
52705.291204,16.057,0.038
52705.296832,15.926,0.028
52707.244669,16.218,0.046
52707.257851,16.352,0.051
52707.270928,16.357,0.051
52707.284156,16.164,0.043
52707.297428,16.056,0.04
52729.231112,16.197,0.037
52729.242754,16.325,0.041
52729.25422,16.362,0.043
52729.266386,16.22,0.039
52729.277878,16.093,0.035
52734.252433,16.028,0.035
52734.264787,15.961,0.033
52734.276941,15.935,0.068
52737.190642,16.034,0.039
52737.202564,15.979,0.037
52737.214382,15.926,0.035
52737.226047,15.906,0.035
52737.237962,15.923,0.035
52756.193983,16.345,0.058
52756.206534,16.389,0.061
52756.21864,16.213,0.054
52756.230819,16.066,0.049
52756.243061,15.994,0.048
52760.14944,15.9,0.038
52760.16171,15.945,0.04
52760.173739,15.971,0.041
52760.185775,16.007,0.043
52760.19785,16.18,0.048
52765.148667,16.064,0.076
52765.184521,16.332,0.069
52765.197031,16.239,0.056
52938.42905,16.046,0.058
52938.441088,15.981,0.048
52938.453071,15.911,0.041
52938.465028,15.896,0.04
52938.476937,15.916,0.04
52965.469367,16.232,0.142
52972.445249,16.336,0.037
52972.458075,16.333,0.035
52972.470941,16.171,0.03
52972.483778,16.016,0.026
52972.496588,15.938,0.024
52995.399035,16.104,0.028
52995.411438,16.023,0.025
52995.423836,15.946,0.025
52995.436768,15.943,0.023
53027.402138,16.361,0.031
53027.41511,16.339,0.03
53027.427975,16.208,0.028
53027.440769,16.038,0.025
53027.453549,15.934,0.021
53029.37114,15.884,0.033
53033.330498,16.121,0.037
53033.342752,16.024,0.031
53033.354909,15.946,0.03
53033.367044,15.912,0.03
53054.302781,15.931,0.024
53054.316336,16.012,0.026
53054.332954,16.159,0.03
53054.346087,16.324,0.035
53054.358643,16.349,0.037
53057.344676,15.869,0.12
53058.269943,16.053,0.022
53058.282948,15.991,0.02
53058.283085,15.963,0.02
53058.295299,15.897,0.018
53058.295368,15.922,0.02
53058.304846,15.876,0.02
53058.308203,15.888,0.02
53058.308547,15.917,0.022
53058.32035,15.926,0.02
53058.323603,15.943,0.02
53058.329274,15.967,0.02
53058.332894,15.966,0.02
53058.341567,16.026,0.021
53061.28888,15.997,0.021
53061.300897,16.11,0.025
53061.312947,16.311,0.03
53061.325077,16.324,0.028
53061.336989,16.329,0.028
53080.224885,16.346,0.041
53080.23581,16.309,0.039
53080.247325,16.219,0.037
53080.261732,16.006,0.03
53080.27296,15.971,0.028
53083.292783,16.174,0.028
53083.304078,16.323,0.041
53083.315408,16.305,0.033
53083.32667,16.304,0.038
53083.337815,16.126,0.03
53085.268976,15.983,0.023
53085.281688,16.024,0.023
53085.292907,16.11,0.03
53085.304235,16.236,0.041
53085.315484,16.331,0.036
53085.334522,16.291,0.035
53085.346752,16.136,0.031
53085.360184,15.963,0.043
53085.371347,15.861,0.064
53085.382558,15.887,0.058
53111.185106,16.245,0.05
53111.195879,16.4,0.055
53111.206631,16.339,0.052
53111.217345,16.252,0.05
53111.228141,16.056,0.043
53114.200447,15.944,0.023
53114.211596,15.909,0.023
53114.22261,15.901,0.023
53114.233273,15.913,0.023
53114.243908,15.978,0.026
53116.203663,16.085,0.056
53116.214517,16.059,0.076
53116.235911,15.995,0.087
53116.248619,16.086,0.069
53139.154772,15.896,0.035
53139.164525,15.906,0.037
53139.174048,15.955,0.035
53139.183644,15.972,0.039
53139.193141,16.07,0.043
53142.161007,16.234,0.04
53142.174068,16.298,0.04
53142.183601,16.212,0.038
53142.193452,16.077,0.033
53142.20336,16.031,0.086
53144.171464,16.313,0.052
53144.180852,16.349,0.059
53144.190243,16.296,0.068
53144.2096,16.192,0.094
53327.438573,16.302,0.071
53346.392886,15.937,0.041
53346.405329,15.968,0.039
53346.420025,15.91,0.037
53346.433262,15.905,0.035
53346.44538,15.947,0.039
53347.456729,15.983,0.049
53347.470724,15.972,0.051
53383.349922,16.3,0.043
53383.364074,16.268,0.043
53383.377155,16.058,0.035
53383.390808,15.984,0.033
53383.405195,15.908,0.031
53440.369667,15.998,0.037
53440.380692,15.924,0.035
53440.392836,15.906,0.039
53440.403327,15.898,0.039
53440.414945,15.904,0.043
53466.265043,15.961,0.037
53466.274895,15.91,0.035
53466.284552,15.931,0.037
53466.295549,15.985,0.039
53466.305465,16.053,0.044
53496.150444,15.917,0.041
53496.160371,15.921,0.043
53496.170453,15.903,0.041
53496.180411,15.956,0.044
53496.190367,15.957,0.046
53704.453202,16.288,0.048
53704.465707,16.161,0.041
53704.478226,15.964,0.033
53704.490928,15.921,0.033
53704.503465,15.899,0.031
53707.453945,15.87,0.041
53707.466659,15.856,0.044
53707.479264,15.901,0.046
53707.4919,15.965,0.033
53707.504502,16.154,0.037
53710.448174,16.1,0.044
53710.461187,16.294,0.054
53710.474095,16.28,0.052
53710.48675,16.285,0.052
53710.499332,16.186,0.048
53734.465148,16.322,0.046
53734.478235,16.423,0.05
53734.491471,16.178,0.041
53734.504625,16.036,0.037
53734.51778,15.987,0.035
53746.396151,16.425,0.078
53746.408611,16.265,0.067
53746.421141,16.236,0.067
53746.433713,16.081,0.057
53746.446305,15.992,0.052
53758.344885,16.255,0.037
53758.357394,16.135,0.039
53758.369914,15.971,0.033
53758.382647,15.869,0.031
53758.395278,15.902,0.033
53787.457338,16.046,0.05
53787.469214,15.976,0.05
53789.341936,16.085,0.113
53789.365676,16.062,0.179
53789.377552,15.912,0.039
53789.389421,15.924,0.033
53791.296992,16.174,0.036
53791.30916,16.29,0.041
53791.321321,16.316,0.043
53791.333463,16.166,0.036
53791.345354,15.981,0.031
53792.339904,15.912,0.033
53792.351683,15.933,0.046
53792.363466,16.087,0.05
53792.375245,16.286,0.061
53792.387022,16.258,0.059
53797.231452,16.173,0.041
53797.23922,16.074,0.035
53797.244139,16.074,0.035
53797.250778,16.02,0.033
53797.256587,16.004,0.033
53797.262338,15.942,0.055
53797.269406,15.91,0.036
53797.273998,15.915,0.03
53797.281725,15.899,0.028
53802.285331,16.12,0.05
53802.296705,16.269,0.059
53802.308134,16.399,0.085
53802.319527,16.271,0.059
53802.330926,16.153,0.102
53815.233407,15.913,0.044
53815.244841,15.94,0.055
53815.256186,15.897,0.05
53815.267682,15.979,0.044
53815.279039,15.983,0.044
53817.210747,16.226,0.043
53817.2226,16.033,0.035
53817.234016,15.985,0.036
53817.245487,15.908,0.033
53817.257047,15.914,0.033
53821.291085,15.878,0.037
53821.306506,15.95,0.05
53821.335134,16.296,0.074
53821.350028,16.336,0.072
53824.290621,16.274,0.081
53824.304526,16.304,0.239
53824.31871,16.22,0.185
53824.336712,15.902,0.07
53824.351255,15.854,0.078
53828.28755,16.016,0.07
53828.299752,16.161,0.059
53828.314491,16.237,0.052
53828.331043,16.252,0.061
53828.344529,16.067,0.055
53831.186109,15.977,0.052
53831.195668,15.963,0.052
53831.205222,15.954,0.052
53831.214777,15.946,0.052
53831.224348,16.038,0.055
53846.184929,16.002,0.046
53846.195665,15.969,0.046
53846.206511,15.92,0.045
53846.217227,15.889,0.043
53846.227861,15.89,0.043
53846.240575,15.952,0.054
53846.251387,15.991,0.055
53846.262195,16.198,0.067
53846.272999,16.269,0.074
53846.28382,16.315,0.081
53850.190114,16.386,0.066
53850.200595,16.156,0.053
53850.211075,15.958,0.046
53850.221572,15.966,0.048
53850.232152,15.931,0.069
53851.237175,16.306,0.063
53851.24912,16.326,0.065
53851.259534,16.255,0.065
53851.270644,16.17,0.065
53851.280473,16.013,0.059
53854.215547,16.202,0.057
53854.226413,16.021,0.048
53854.250897,15.919,0.05
53857.223068,15.867,0.093
54056.431705,15.913,0.035
54056.443963,15.89,0.035
54056.456218,15.905,0.033
54056.468651,15.972,0.035
54056.480906,16.076,0.037
54059.437756,16.144,0.043
54059.450258,16.261,0.046
54059.462578,16.266,0.048
54059.475679,16.127,0.037
54059.488333,15.976,0.031
54060.439491,15.968,0.045
54060.455231,15.932,0.041
54060.46807,15.877,0.04
54060.482873,15.955,0.043
54060.495656,15.983,0.045
54064.446141,16.086,0.037
54064.459001,16.001,0.031
54064.471865,15.965,0.033
54064.484737,15.917,0.03
54064.497606,15.942,0.03
54082.449154,15.862,0.037
54082.461934,15.898,0.037
54082.474723,16.005,0.041
54082.487518,16.119,0.041
54082.50032,16.278,0.046
54085.462301,16.264,0.041
54085.475259,16.255,0.037
54085.488223,16.071,0.03
54085.501191,15.981,0.028
54085.514152,15.959,0.028
54091.350823,16.315,0.066
54091.364004,16.37,0.068
54091.376641,16.169,0.054
54091.388546,16.092,0.049
54091.40066,15.963,0.045
54153.278156,16.166,0.03
54153.289649,16.299,0.035
54153.301147,16.305,0.035
54153.312695,16.209,0.033
54153.324237,16.091,0.03
54155.294874,16.417,0.052
54155.306493,16.36,0.048
54155.318184,16.404,0.046
54155.33003,16.172,0.037
54155.342144,16.051,0.031
54156.267916,16.144,0.037
54156.279443,16.073,0.033
54156.290974,16.008,0.031
54156.302523,15.95,0.03
54156.314074,15.952,0.03
54174.220155,16.302,0.051
54174.230902,16.172,0.041
54174.241738,16.004,0.036
54174.252669,15.997,0.035
54174.263497,15.913,0.033
54174.269266,15.892,0.028
54174.279974,15.891,0.028
54174.290671,15.921,0.033
54174.30138,15.958,0.048
54174.312104,16.08,0.1
54177.284425,16.214,0.165
54180.230432,16.288,0.051
54180.241025,16.476,0.058
54180.251557,16.371,0.053
54180.261861,16.248,0.046
54180.272282,16.105,0.038
54180.285296,15.989,0.028
54180.296195,15.933,0.028
54180.307195,15.907,0.026
54180.317763,15.895,0.026
54180.328568,15.935,0.03
54200.185366,15.971,0.054
54200.195086,16.119,0.059
54200.213972,16.347,0.074
54205.223928,15.951,0.031
54205.233111,15.938,0.031
54205.242387,15.908,0.031
54205.251569,15.904,0.031
54205.260797,15.907,0.031
54208.219453,15.949,0.033
54208.228477,15.998,0.033
54208.237539,16.1,0.039
54208.246624,16.16,0.037
54208.255696,16.32,0.046
54212.22753,15.918,0.037
54212.236552,15.956,0.037
54212.245569,15.96,0.039
54212.25473,16.06,0.044
54212.26388,16.164,0.048
54416.44144,15.99,0.031
54416.453902,16.114,0.035
54416.46622,16.28,0.039
54416.478543,16.311,0.039
54416.490892,16.239,0.035
54481.276281,15.949,0.039
54481.289199,15.914,0.035
54481.302125,15.938,0.033
54481.31505,15.954,0.031
54481.328155,16.054,0.031
54497.339291,16.11,0.028
54497.35183,15.96,0.02
54497.364388,15.957,0.024
54497.376946,15.898,0.028
54497.389461,15.916,0.033
54505.340472,16.256,0.026
54505.352742,16.322,0.028
54505.365049,16.323,0.026
54505.377316,16.158,0.024
54505.389851,16.021,0.02
54507.394398,16.003,0.036
54507.408155,15.907,0.033
54507.420007,15.887,0.033
54507.43199,15.889,0.036
54507.443887,15.867,0.035
54521.397442,15.869,0.035
54521.409189,15.994,0.05
54521.420942,16.125,0.067
54521.432705,16.227,0.057
54521.444465,16.336,0.068
54526.331506,15.921,0.02
54526.342962,15.907,0.02
54526.354395,15.941,0.022
54526.365834,15.978,0.024
54526.377264,16.066,0.026
54534.278357,15.895,0.087
54534.289272,16.095,0.02
54534.300219,16.241,0.024
54534.311153,16.304,0.026
54534.32206,16.346,0.024
54535.338766,15.96,0.035
54535.349817,16.026,0.036
54535.361843,16.125,0.04
54535.373125,16.318,0.048
54540.166969,15.947,0.03
54540.177871,16.014,0.031
54540.188982,16.111,0.033
54540.199875,16.237,0.035
54540.210868,16.34,0.039
54552.302231,16.191,0.033
54552.314313,16.085,0.031
54552.326411,15.972,0.031
54552.338654,16.013,0.033
54552.350858,15.946,0.033
54580.190098,16.127,0.035
54580.200721,16.048,0.033
54580.211334,15.941,0.031
54580.221942,15.899,0.031
54580.232617,15.881,0.035
54583.254423,16.084,0.155
54583.275669,16.125,0.081
54583.286286,16.019,0.054
54590.201639,16.146,0.039
54590.211942,16.3,0.046
54590.222298,16.282,0.044
54590.232682,16.302,0.043
54590.24303,16.196,0.041
54611.166577,16.105,0.035
54611.176548,15.993,0.031
54611.18651,15.917,0.031
54611.196419,15.942,0.033
