mjd,m,merr
52613.445773,15.721,0.03
52613.460917,15.876,0.033
52613.476292,15.998,0.039
52613.491485,15.869,0.033
52613.50671,15.758,0.031
52618.452251,15.956,0.052
52618.467549,15.832,0.057
52618.482996,15.688,0.033
52618.49843,15.617,0.041
52618.513815,15.594,0.03
52640.426616,15.97,0.031
52640.442463,15.922,0.03
52640.457351,15.778,0.026
52640.472359,15.69,0.024
52640.487209,15.593,0.022
52643.377966,15.763,0.028
52643.392241,15.938,0.035
52643.406434,15.998,0.037
52643.420699,15.886,0.033
52643.434829,15.717,0.028
52647.393152,15.876,0.035
52647.407964,15.723,0.03
52647.422403,15.669,0.03
52647.436812,15.634,0.028
52647.451214,15.619,0.028
52666.338617,15.728,0.026
52666.353535,15.809,0.028
52670.334791,15.879,0.031
52670.348767,15.996,0.035
52670.362759,15.941,0.035
52670.37677,15.792,0.031
52670.390774,15.713,0.03
52673.298571,15.738,0.026
52673.31394,15.898,0.03
52673.329192,15.98,0.033
52673.34452,15.92,0.031
52673.359703,15.779,0.028
52678.312433,15.773,0.059
52678.326477,15.725,0.057
52678.340471,15.7,0.03
52678.354453,15.657,0.03
52678.368589,15.59,0.028
52698.241859,15.633,0.026
52698.282997,15.892,0.03
52698.296962,15.933,0.03
52703.250139,15.99,0.033
52703.263646,15.948,0.048
52703.277664,15.895,0.035
52703.291056,15.778,0.028
52703.304465,15.528,0.065
52706.233051,16.012,0.031
52706.246364,15.965,0.03
52706.259435,15.877,0.028
52706.27251,15.795,0.026
52706.285665,15.711,0.024
52707.23822,15.966,0.031
52707.251426,15.835,0.028
52707.264806,15.735,0.026
52707.278012,15.685,0.024
52707.291246,15.634,0.022
52725.257528,15.834,0.078
52725.294933,15.677,0.03
52725.307224,15.622,0.03
52730.234254,15.858,0.028
52730.245878,15.748,0.026
52730.257616,15.677,0.026
52730.269313,15.628,0.024
52730.281067,15.616,0.024
52733.24584,15.642,0.026
52733.258211,15.625,0.028
52733.270341,15.604,0.026
52733.28347,15.661,0.028
52733.295429,15.654,0.043
52754.197423,15.912,0.033
52754.209604,15.768,0.031
52754.22186,15.72,0.031
52754.234061,15.638,0.03
52754.246242,15.602,0.03
52758.139296,15.903,0.03
52758.150156,15.951,0.031
52758.151291,16.008,0.031
52758.162171,15.955,0.033
52758.163307,16.013,0.033
52758.174252,15.845,0.03
52758.175387,15.895,0.03
52758.18641,15.747,0.028
52758.18755,15.825,0.028
52758.198454,15.68,0.024
52964.46138,15.66,0.022
52964.474501,15.643,0.022
52964.48766,15.668,0.022
52964.504007,15.738,0.022
52966.408116,15.855,0.035
52966.42086,15.889,0.035
52966.43358,15.787,0.031
52966.446368,15.661,0.028
52966.458998,15.68,0.028
52974.40138,15.641,0.024
52974.414485,15.677,0.026
52974.427433,15.731,0.026
52974.440355,15.83,0.028
52974.453179,15.937,0.031
52993.394088,15.611,0.02
52993.406437,15.579,0.02
52993.418894,15.58,0.02
52993.43137,15.667,0.02
52993.443736,15.73,0.021
52995.40247,15.613,0.018
52995.415566,15.674,0.018
52995.428829,15.705,0.018
52995.441994,15.837,0.022
52995.455086,15.97,0.024
53000.411398,15.841,0.022
53000.424525,15.899,0.022
53000.437691,15.891,0.02
53000.451012,15.779,0.018
53000.464212,15.682,0.017
53026.354162,15.714,0.018
53026.367654,15.842,0.02
53026.380454,15.931,0.022
53026.393298,15.857,0.028
53026.406357,15.746,0.02
53033.280663,15.626,0.028
53033.29334,15.675,0.03
53033.305868,15.768,0.031
53033.318361,15.909,0.035
53033.330811,15.963,0.035
53052.275562,15.648,0.022
53052.28736,15.675,0.022
53052.299212,15.728,0.024
53052.311196,15.77,0.026
53052.323014,15.878,0.028
53058.276189,15.835,0.018
53058.290117,15.898,0.02
53058.301624,15.912,0.022
53058.315579,15.817,0.022
53058.329831,15.745,0.017
53079.226612,15.62,0.026
53079.237687,15.683,0.028
53079.248741,15.704,0.028
53079.259677,15.779,0.03
53079.270642,15.84,0.031
53083.280923,15.809,0.02
53083.291845,15.729,0.02
53083.30273,15.62,0.018
53083.313566,15.617,0.02
53083.324343,15.575,0.02
53084.275187,15.988,0.023
53086.287089,15.603,0.03
53086.298696,15.555,0.02
53086.309999,15.549,0.026
53086.321262,15.54,0.022
53086.332352,15.604,0.024
53092.232507,15.686,0.026
53092.242939,15.625,0.024
53092.253564,15.534,0.022
53092.263971,15.542,0.024
53092.274264,15.553,0.022
53110.188677,15.768,0.035
53110.199665,15.888,0.04
53110.210549,15.909,0.041
53110.22151,15.899,0.041
53110.232426,15.76,0.036
53114.196651,15.842,0.024
53114.207894,15.704,0.022
53114.219033,15.638,0.02
53114.230099,15.571,0.02
53114.241163,15.555,0.02
53117.197643,15.688,0.022
53117.20849,15.6,0.02
53117.219362,15.554,0.018
53117.230125,15.6,0.018
53117.241039,15.59,0.02
53138.155761,16.016,0.043
53138.165481,16.037,0.043
53138.175839,15.915,0.038
53142.160541,15.785,0.028
53142.171101,15.682,0.024
53142.181192,15.652,0.026
53142.191731,15.603,0.022
53142.201579,15.613,0.026
53146.164551,15.59,0.026
53146.173743,15.597,0.022
53146.18303,15.62,0.022
53146.192211,15.643,0.022
53146.201507,15.677,0.026
53316.459565,15.744,0.074
53347.471399,15.715,0.028
53347.487786,15.776,0.03
53347.503095,15.948,0.033
53347.520504,16.081,0.037
53353.395874,15.67,0.031
53353.408806,15.66,0.031
53353.421751,15.683,0.031
53353.434678,15.729,0.033
53353.447671,15.837,0.035
53357.441045,16.061,0.037
53357.454468,16.051,0.037
53357.469579,15.931,0.035
53357.484561,15.802,0.03
53357.497928,15.698,0.028
53376.418057,15.775,0.028
53376.431856,15.85,0.03
53376.445499,16.003,0.035
53376.459204,16.045,0.035
53376.472801,15.958,0.033
53381.358811,15.608,0.03
53381.372135,15.644,0.037
53381.386115,15.616,0.068
53381.400757,15.812,0.031
53381.416264,15.91,0.041
53403.359786,15.724,0.028
53403.372553,15.795,0.03
53403.386477,15.894,0.031
53403.399406,16.097,0.039
53432.285806,15.612,0.081
53432.300231,15.738,0.087
53432.312765,15.812,0.061
53432.340024,16.001,0.113
53437.235414,15.657,0.024
53437.247868,15.651,0.024
53437.259425,15.675,0.024
53437.27098,15.734,0.026
53437.282427,15.798,0.028
53438.353966,15.67,0.028
53438.36618,15.633,0.026
53438.37771,15.644,0.028
53438.389324,15.681,0.03
53438.400908,15.704,0.031
53440.240743,15.719,0.026
53440.252497,15.773,0.028
53440.264102,15.903,0.03
53440.279356,16.014,0.033
53440.291982,16.052,0.035
53443.218814,15.693,0.024
53443.229777,15.358,0.083
53443.263827,15.916,0.031
53445.351231,15.717,0.028
53445.362675,15.806,0.03
53445.37427,15.933,0.035
53445.386875,16.071,0.039
53445.398579,16.026,0.039
53446.22083,15.856,0.031
53446.231434,15.975,0.035
53446.242016,16.051,0.037
53446.253105,16.012,0.037
53446.26431,15.882,0.035
53464.242465,15.849,0.031
53464.252899,15.939,0.033
53464.263726,15.949,0.033
53464.274312,15.85,0.041
53464.28475,15.775,0.037
53495.196839,15.864,0.055
53495.207139,15.761,0.048
53495.217388,15.649,0.052
53495.2276,15.63,0.048
53495.237907,15.622,0.061
53502.14533,15.98,0.043
53502.156115,15.823,0.037
53502.166657,15.745,0.035
53502.177483,15.678,0.033
53502.18795,15.698,0.035
53705.454901,15.661,0.03
53705.4679,15.622,0.028
53705.480556,15.615,0.026
53705.493264,15.686,0.028
53705.505934,15.731,0.028
53708.452569,15.637,0.026
53708.46537,15.712,0.028
53708.478292,15.721,0.028
53708.49112,15.8,0.031
53708.503772,15.937,0.033
53712.398366,15.716,0.035
53712.413075,15.699,0.031
53712.429263,15.681,0.033
53712.442809,15.705,0.031
53712.456665,15.78,0.033
53732.416428,15.616,0.037
53732.429087,15.639,0.039
53732.441864,15.683,0.039
53732.454639,15.758,0.039
53732.467409,15.911,0.048
53735.459344,15.895,0.033
53738.403524,15.667,0.03
53738.416639,15.794,0.031
53738.429679,15.931,0.037
53738.442693,16.032,0.043
53738.455867,15.958,0.046
53759.34847,15.656,0.026
53759.361376,15.644,0.026
53759.374044,15.644,0.026
53759.386736,15.69,0.028
53759.399407,15.757,0.035
53762.352442,15.665,0.024
53762.365147,15.714,0.026
53762.378169,15.771,0.026
53762.391056,15.855,0.03
53762.404079,15.986,0.031
53769.325217,15.726,0.026
53769.338592,15.8,0.026
53769.352264,15.97,0.03
53769.366111,16.039,0.031
53769.380348,15.94,0.03
53788.409219,15.734,0.03
53788.421122,15.682,0.03
53788.433079,15.642,0.03
53788.457593,15.666,0.033
53789.29377,15.473,0.038
53789.319393,15.512,0.053
53789.331912,15.52,0.058
53789.344576,15.572,0.074
53790.286992,15.652,0.028
53790.298792,15.649,0.03
53790.310548,15.715,0.03
53790.322296,15.757,0.031
53790.334061,15.846,0.033
53793.339438,15.887,0.061
53793.35117,15.876,0.039
53793.362889,15.751,0.03
53793.374628,15.672,0.041
53793.386374,15.65,0.03
53797.242081,15.641,0.024
53797.253633,15.631,0.024
53797.265277,15.707,0.026
53797.276855,15.767,0.026
53797.288422,15.782,0.104
53799.282321,15.896,0.03
53799.293804,15.96,0.031
53799.305315,15.91,0.03
53799.31682,15.812,0.028
53799.328528,15.766,0.028
53817.335435,15.839,0.039
53817.346295,15.77,0.037
53817.357173,15.703,0.037
53817.368079,15.659,0.037
53819.282649,15.966,0.041
53819.293598,16.644,0.302
53819.317556,15.83,0.035
53819.328745,15.755,0.033
53826.277629,15.687,0.03
53827.290429,15.657,0.03
53827.301548,15.606,0.03
53827.312475,15.608,0.03
53827.323226,15.624,0.035
53827.334162,15.643,0.033
53845.188456,15.63,0.035
53845.199163,15.64,0.037
53845.210021,15.64,0.037
53845.220748,15.716,0.039
53845.231493,15.805,0.044
53848.191163,15.736,0.041
53848.201769,15.781,0.043
53848.212481,15.948,0.05
53848.223121,16.06,0.055
53848.234466,16.084,0.059
53850.221941,16.027,0.044
53850.232576,15.989,0.046
53850.243267,15.807,0.039
53850.254175,15.745,0.035
53850.265295,15.687,0.033
53852.19113,15.998,0.053
53852.201455,16.092,0.058
53852.211676,16.083,0.058
53852.221833,15.901,0.051
53852.231987,15.826,0.048
53853.192306,15.98,0.046
53853.202734,15.931,0.044
53853.214142,15.918,0.044
53853.224552,15.825,0.041
53853.234988,15.727,0.039
53880.159504,15.898,0.048
53880.171308,15.814,0.045
53880.181977,15.733,0.041
53880.192634,15.704,0.041
53880.203539,15.617,0.04
53881.159167,15.941,0.054
53881.170234,15.879,0.052
53881.181417,15.776,0.046
53881.192514,15.724,0.046
53881.203731,15.695,0.046
53884.156374,15.731,0.043
53884.167011,15.643,0.041
53884.178034,15.679,0.041
53884.189019,15.582,0.041
53884.199708,15.628,0.045
54034.433751,15.78,0.059
54041.43446,16.152,0.078
54041.447445,16.027,0.068
54041.459786,15.788,0.049
54041.472369,15.759,0.048
54041.484614,15.735,0.045
54057.456888,16.016,0.039
54057.469433,15.947,0.035
54057.481906,15.795,0.03
54057.494405,15.714,0.028
54057.506882,15.667,0.026
54058.441136,16.015,0.048
54058.454294,16.039,0.048
54058.466881,15.86,0.041
54058.479362,15.783,0.036
54058.491776,15.698,0.035
54060.433117,16.105,0.041
54060.447045,16.002,0.037
54060.459965,15.842,0.033
54060.472867,15.766,0.031
54060.485932,15.704,0.03
54064.386159,15.957,0.048
54064.398813,16.019,0.048
54064.411381,16.015,0.045
54064.42412,15.979,0.041
54064.437075,15.791,0.033
54067.450736,15.672,0.02
54067.463806,15.671,0.02
54067.47688,15.731,0.024
54067.490135,15.777,0.022
54067.503218,15.878,0.026
54083.395664,16.053,0.068
54083.408555,16.107,0.084
54083.421537,16.373,0.122
54083.434355,15.874,0.069
54083.447239,15.72,0.048
54083.461429,15.708,0.043
54083.488616,15.67,0.031
54083.501708,15.67,0.043
54083.514806,15.688,0.063
54086.365964,15.881,0.039
54086.379168,15.986,0.039
54086.392104,15.984,0.039
54086.405046,15.923,0.033
54086.417982,15.844,0.03
54091.371608,15.945,0.031
54091.384188,15.802,0.028
54091.396772,15.735,0.026
54091.409695,15.674,0.024
54091.422288,15.69,0.026
54113.331968,15.946,0.045
54113.344764,15.875,0.063
54113.357693,15.832,0.035
54113.383487,15.666,0.03
54115.404483,15.585,0.031
54115.417227,15.637,0.035
54115.430119,15.686,0.035
54115.4431,15.797,0.038
54115.45635,15.924,0.045
54123.336872,15.596,0.026
54123.349231,15.617,0.026
54123.361737,15.659,0.028
54123.374199,15.74,0.03
54123.386841,15.839,0.031
54144.276103,15.788,0.03
54144.288006,15.675,0.028
54144.299989,15.657,0.026
54144.309834,15.677,0.022
54144.311934,15.579,0.026
54144.320953,15.658,0.02
54144.323866,15.563,0.031
54144.332152,15.68,0.022
54144.34325,15.68,0.022
54144.354357,15.716,0.024
54148.284363,15.621,0.03
54148.296526,15.616,0.028
54148.308293,15.627,0.028
54148.319982,15.654,0.03
54148.33181,15.69,0.031
54153.280207,15.646,0.026
54153.291927,15.662,0.028
54153.304112,15.763,0.03
54153.315803,15.814,0.033
54153.328063,15.882,0.035
54154.274676,15.675,0.022
54154.286157,15.723,0.022
54154.297657,15.799,0.024
54154.309132,15.863,0.024
54154.320598,15.99,0.028
54155.287808,15.802,0.045
54155.299751,15.909,0.048
54155.311489,16.018,0.051
54155.324139,16.012,0.049
54155.336673,15.979,0.046
54156.258798,15.66,0.035
54156.262339,15.649,0.026
54156.269803,15.671,0.035
54156.273872,15.746,0.026
54156.280891,15.743,0.038
54156.285405,15.787,0.028
54156.292301,15.859,0.041
54156.296942,15.949,0.033
54156.304086,16.065,0.051
54156.308498,16.08,0.037
54173.264738,15.625,0.02
54173.275581,15.651,0.022
54173.286316,15.687,0.022
54173.296985,15.749,0.024
54173.307635,15.819,0.026
54176.269868,15.708,0.024
54176.280518,15.727,0.026
54176.291072,15.783,0.026
54176.30186,15.907,0.03
54176.312457,15.978,0.031
54177.21359,15.741,0.025
54177.221598,15.686,0.022
54177.224339,15.728,0.025
54177.233159,15.697,0.026
54177.235159,15.708,0.03
54177.244811,15.699,0.043
54177.245983,15.677,0.04
54179.285655,16.107,0.033
54179.296544,16.173,0.035
54179.30796,16.048,0.033
54179.319236,15.895,0.031
54179.330257,15.845,0.03
54186.286102,15.625,0.02
54186.297661,15.651,0.022
54186.309037,15.687,0.022
54186.320289,15.749,0.024
54186.331765,15.819,0.026
54206.220313,15.807,0.028
54206.229363,15.923,0.031
54206.238401,16.034,0.033
54206.247454,16.045,0.035
54206.256501,16.108,0.035
54208.173693,15.603,0.03
54208.1825,15.607,0.031
54208.191292,15.697,0.033
54208.199898,15.74,0.035
54208.208473,15.824,0.038
54209.215317,15.868,0.065
54209.224324,15.924,0.085
54209.233892,15.909,0.059
54209.243725,15.838,0.043
54410.441267,15.657,0.046
54410.453582,15.605,0.067
54410.465786,15.728,0.08
54410.478052,15.842,0.05
54410.490288,15.938,0.046
54440.412903,15.852,0.02
54440.425825,15.985,0.022
54440.438963,16.019,0.024
54440.45199,15.867,0.024
54440.464906,15.793,0.02
54444.390065,15.919,0.026
54444.403087,16.0,0.028
54444.4161,16.014,0.039
54444.442081,15.639,0.046
54448.389363,15.942,0.028
54448.402512,15.806,0.022
54448.415548,15.698,0.022
54448.428573,15.652,0.017
54448.441598,15.625,0.015
54474.350117,15.873,0.043
54474.376248,15.703,0.035
54474.389224,15.613,0.05
54508.292356,15.629,0.02
54508.304606,15.613,0.02
54508.316906,15.622,0.022
54508.329115,15.698,0.018
54508.341328,15.751,0.02
54523.336464,15.649,0.018
54523.348249,15.632,0.018
54523.359954,15.669,0.02
54523.371674,15.754,0.022
54523.383386,15.822,0.024
54530.279089,15.521,0.043
54530.290506,15.683,0.02
54530.302033,15.673,0.018
54530.313386,15.666,0.022
54537.217514,15.635,0.017
54537.228622,15.626,0.015
54537.239785,15.636,0.015
54537.251295,15.651,0.018
54537.262386,15.69,0.018
54554.245666,15.687,0.017
54554.257566,15.658,0.017
54554.269721,15.672,0.017
54554.281631,15.698,0.017
54554.293565,15.749,0.018
54559.125245,15.81,0.022
54559.136887,15.929,0.024
54559.148476,16.051,0.028
54559.159933,16.063,0.03
54559.171411,15.984,0.026
54563.240745,15.778,0.02
54563.252195,15.845,0.02
54563.263663,15.929,0.022
54563.2751,15.955,0.024
54563.286565,15.891,0.022
54581.191437,15.728,0.028
54581.202106,15.675,0.026
54581.212777,15.648,0.026
54581.223451,15.678,0.026
54581.234148,15.729,0.03
54585.194349,15.506,0.067
54585.235562,15.616,0.172
54592.144207,17.633,0.254
54592.154276,17.779,0.279
54592.163928,17.808,0.285
54592.173603,17.415,0.2
54592.183199,18.272,0.431
54592.189691,15.899,0.031
54592.200411,15.981,0.035
54592.210927,16.0,0.037
54592.221435,15.926,0.033
54592.23197,15.849,0.031
54615.1713,15.857,0.035
54615.181769,16.02,0.043
54615.192226,15.988,0.041
54615.202688,15.892,0.039
