mjd,m,merr
52612.450068,16.549,0.059
52612.465286,16.389,0.05
52612.480468,16.335,0.046
52612.495617,16.323,0.046
52612.510937,16.28,0.044
52623.430781,16.576,0.074
52623.445498,16.567,0.073
52623.460265,16.647,0.081
52623.476888,16.78,0.127
52623.491689,16.708,0.102
52637.403292,16.792,0.259
52649.368825,16.606,0.061
52649.384494,16.609,0.063
52649.399981,16.603,0.063
52649.41566,16.599,0.063
52649.430896,16.659,0.066
52652.396845,16.222,0.045
52652.411905,16.233,0.041
52652.427099,16.244,0.043
52652.442073,16.279,0.045
52652.457586,16.336,0.048
52664.281904,16.707,0.068
52664.299289,16.605,0.061
52664.316469,16.408,0.051
52664.333311,16.487,0.054
52664.349649,16.291,0.049
52676.279982,16.573,0.066
52676.295236,16.366,0.058
52676.311701,16.408,0.059
52676.327697,16.363,0.058
52676.343932,16.214,0.053
52681.275501,16.532,0.101
52681.29034,16.539,0.094
52681.305302,16.592,0.083
52681.320237,16.663,0.076
52681.334979,16.566,0.066
52696.278068,16.276,0.037
52696.290724,16.252,0.037
52696.303745,16.234,0.037
52696.316531,16.262,0.037
52696.330041,16.326,0.041
52711.235217,16.603,0.089
52711.248678,16.671,0.094
52711.261775,16.68,0.101
52711.274864,16.647,0.094
52711.287999,16.651,0.096
52723.228375,16.717,0.094
52723.239787,16.79,0.12
52723.251252,16.69,0.08
52723.26276,16.727,0.059
52739.187824,16.632,0.089
52739.199292,16.631,0.091
52739.211124,16.641,0.092
52739.234541,16.398,0.12
52752.184601,16.325,0.052
52752.194728,16.329,0.05
52752.204915,16.339,0.052
52752.215052,16.34,0.054
52752.22518,16.403,0.055
52946.439199,16.349,0.067
52966.365281,16.445,0.061
52966.373272,16.418,0.056
52966.381312,16.401,0.056
52966.3893,16.456,0.058
52966.397392,16.401,0.056
52977.396884,16.82,0.091
52977.409013,16.869,0.085
52977.420986,16.768,0.068
52977.432922,16.763,0.065
52977.444971,16.833,0.068
52990.39888,16.456,0.053
52990.411494,16.475,0.049
52990.424497,16.519,0.053
52990.436963,16.494,0.054
52990.449436,16.412,0.064
53002.447222,16.534,0.033
53002.460956,16.5,0.033
53002.474439,16.535,0.035
53002.487857,16.553,0.037
53002.501263,16.576,0.035
53003.324484,16.778,0.041
53003.336818,16.771,0.041
53003.348874,16.76,0.04
53003.36094,16.804,0.043
53003.373008,16.729,0.04
53006.332481,16.5,0.059
53006.345298,16.571,0.068
53006.357428,16.627,0.08
53006.369526,16.658,0.061
53006.381624,16.603,0.057
53023.331585,16.616,0.043
53023.343981,16.491,0.038
53023.356303,16.411,0.036
53023.36837,16.404,0.036
53023.381076,16.328,0.035
53035.345514,16.359,0.046
53035.358506,16.273,0.044
53035.371114,16.257,0.041
53035.384911,16.265,0.041
53035.397486,16.31,0.041
53037.341819,16.323,0.048
53037.354583,16.305,0.048
53037.367122,16.271,0.048
53037.379681,16.255,0.048
53037.395558,16.319,0.048
53049.276796,16.409,0.035
53049.289102,16.43,0.035
53049.300899,16.396,0.035
53049.312703,16.31,0.033
53049.324544,16.259,0.031
53077.299275,16.211,0.083
53089.228359,16.222,0.03
53089.238992,16.24,0.03
53089.249705,16.23,0.03
53089.260455,16.305,0.03
53089.271037,16.237,0.031
53107.187326,16.176,0.04
53107.197767,16.233,0.041
53107.208269,16.26,0.045
53107.21875,16.18,0.04
53107.229236,16.241,0.043
53127.189165,16.22,0.122
53127.199028,16.274,0.132
53127.208673,16.233,0.129
53127.217973,16.358,0.142
53127.22708,16.317,0.137
53136.156131,16.612,0.071
53136.164923,16.644,0.074
53136.173752,16.674,0.079
53136.182591,16.686,0.087
53136.19142,16.637,0.083
53149.162544,16.366,0.059
53149.171096,16.453,0.068
53149.179912,16.336,0.061
53149.188507,16.364,0.066
53149.197205,16.36,0.068
53154.171869,16.586,0.18
53154.180156,16.687,0.19
53154.188431,16.623,0.163
53154.196784,16.618,0.162
53313.432007,16.506,0.12
53313.443938,16.447,0.117
53313.455862,16.41,0.107
53313.467783,16.488,0.118
53313.479708,16.512,0.118
53329.461942,16.445,0.068
53329.474424,16.567,0.074
53329.487222,16.517,0.071
53329.499997,16.534,0.071
53329.512595,16.536,0.071
53331.446443,16.547,0.074
53331.458821,16.559,0.074
53331.471196,16.554,0.074
53331.483576,16.592,0.076
53331.49595,16.58,0.076
53341.409922,16.674,0.13
53341.421928,16.661,0.126
53341.434398,16.608,0.117
53341.446412,16.605,0.115
53341.458427,16.642,0.118
53349.405648,16.466,0.073
53349.419485,16.515,0.081
53349.44679,16.594,0.084
53349.460287,16.471,0.076
53355.500533,16.662,0.064
53355.515808,16.642,0.064
53360.417156,16.644,0.078
53474.238628,16.308,0.054
53474.249654,16.398,0.057
53474.261079,16.316,0.055
53474.271604,16.343,0.057
53474.281978,16.337,0.055
53521.155975,16.785,0.107
53521.166177,16.683,0.12
53521.176358,16.526,0.117
53521.186818,16.661,0.115
53521.197027,16.792,0.155
53683.449853,16.757,0.107
53683.462234,16.686,0.146
53683.474463,16.765,0.087
53683.48687,16.672,0.229
53683.499164,16.835,0.094
53701.446578,16.743,0.096
53701.471817,16.747,0.094
53701.496867,16.713,0.1
53728.396812,16.573,0.08
53728.410153,16.503,0.055
53728.423735,16.583,0.081
53728.436843,16.618,0.091
53728.449957,16.619,0.065
53742.407581,16.582,0.048
53742.420293,16.621,0.052
53742.433172,16.678,0.054
53742.446143,16.584,0.046
53742.458891,16.593,0.046
53772.285251,16.557,0.063
53772.297885,16.644,0.068
53772.310688,16.621,0.068
53772.323342,16.585,0.067
53772.336084,16.621,0.067
53786.298277,16.57,0.051
53786.311284,16.69,0.069
53786.324294,16.615,0.054
53786.337346,16.649,0.063
53786.350402,16.714,0.089
53812.258144,16.816,0.105
53812.269215,17.066,0.133
53812.280285,16.987,0.124
53812.291361,16.987,0.126
53812.302446,16.991,0.12
53824.262648,16.674,0.059
53824.274491,16.637,0.063
53824.286172,16.683,0.068
53824.29759,16.607,0.079
53824.309128,16.722,0.091
53843.197205,16.232,0.052
53843.208621,16.246,0.055
53843.21994,16.248,0.055
53843.23127,16.316,0.059
53843.243514,16.313,0.059
53855.189839,16.251,0.059
53855.221723,16.3,0.063
53855.232302,16.285,0.063
53878.159822,16.82,0.139
53878.175478,16.791,0.142
53878.226901,16.745,0.145
54054.4541,16.722,0.089
54054.466823,16.783,0.091
54054.479569,16.695,0.083
54054.492639,16.849,0.092
54054.506069,16.696,0.079
54068.398698,16.734,0.081
54068.411849,16.769,0.086
54068.424897,16.81,0.086
54068.437894,16.837,0.084
54068.450695,16.7,0.076
54086.361233,16.727,0.107
54086.374882,16.98,0.129
54086.388265,16.798,0.102
54086.402169,16.772,0.099
54086.415649,16.796,0.099
54109.32057,16.444,0.107
54109.332422,16.711,0.178
54109.355981,16.483,0.14
54109.368218,16.547,0.208
54169.267914,16.624,0.046
54169.27883,16.678,0.05
54169.289825,16.684,0.057
54169.300734,16.654,0.055
54169.311673,16.739,0.065
54186.225682,16.364,0.087
54186.235819,16.286,0.084
54186.245952,16.292,0.086
54186.256096,16.182,0.084
54186.266473,16.219,0.116
54201.230356,16.665,0.059
54201.239715,16.656,0.059
54201.249519,16.725,0.063
54201.25897,16.626,0.057
54201.268728,16.688,0.061
54209.175871,16.53,0.079
54209.184658,16.612,0.074
54209.193879,16.462,0.109
54209.202881,16.656,0.089
54209.211573,16.701,0.101
54453.334437,16.771,0.057
54453.347702,16.639,0.05
54453.360769,16.726,0.05
54453.373813,16.752,0.046
54453.386844,16.719,0.041
54478.337635,16.458,0.035
54478.350622,16.399,0.041
54478.36368,16.459,0.03
54478.376674,16.396,0.059
54478.390326,16.391,0.054
54508.297639,16.506,0.056
54508.309658,16.542,0.066
54508.321761,16.5,0.058
54508.333654,16.525,0.053
54508.34554,16.525,0.058
54561.13196,16.897,0.13
54561.143282,16.862,0.125
54561.15458,16.784,0.127
54561.165881,16.758,0.119
54561.177397,16.65,0.116
54568.183734,16.609,0.067
54568.194893,16.627,0.068
54568.205683,16.639,0.068
54568.216521,16.651,0.07
54568.227314,16.625,0.068
54583.191406,16.25,0.073
54583.201477,16.192,0.069
54597.154669,16.305,0.137
54597.164515,16.266,0.128
54597.174513,16.325,0.128
54597.184574,16.295,0.139
54597.19459,16.275,0.128
54614.162592,16.719,0.106
54614.172796,16.69,0.099
54614.183009,16.751,0.104
54614.193711,16.754,0.107
54614.205233,16.766,0.116
54620.161855,16.71,0.074
54620.174889,16.648,0.072
54620.185012,16.738,0.08
54620.195134,16.627,0.072
54620.205261,16.731,0.08
