mjd,m,merr
52620.404214,16.13,0.157
52620.419622,15.916,0.04
52620.43437,15.86,0.035
52636.372811,15.893,0.043
52636.387431,15.879,0.038
52636.401852,16.164,0.049
52636.416497,16.237,0.054
52636.430974,16.009,0.043
52651.275948,16.041,0.046
52651.291131,15.997,0.041
52651.306303,15.938,0.038
52651.321475,15.887,0.036
52651.336636,15.882,0.035
52653.318722,16.031,0.049
52653.33376,16.183,0.054
52653.348636,15.95,0.045
52653.363553,15.863,0.041
52653.378534,15.836,0.04
52660.370372,15.901,0.074
52684.350083,15.872,0.058
52684.365702,15.832,0.056
52684.380609,15.768,0.051
52684.395694,15.771,0.051
52684.410554,15.764,0.051
52693.270126,15.852,0.026
52693.28639,15.839,0.026
52693.302235,15.792,0.024
52693.317753,15.783,0.024
52693.333201,15.782,0.026
52721.241394,15.776,0.024
52721.254129,15.763,0.024
52721.266926,15.792,0.024
52721.279696,15.885,0.028
52721.292509,16.1,0.037
52750.183323,15.82,0.03
52750.19408,15.794,0.03
52750.20488,15.828,0.031
52750.215635,15.833,0.03
52750.22641,15.899,0.033
52771.153116,15.924,0.059
52771.164993,16.157,0.072
52771.17705,16.085,0.07
52771.189151,15.903,0.059
52771.201053,15.877,0.059
52781.161143,15.847,0.043
52781.171869,15.825,0.041
52781.182816,15.79,0.043
52781.193513,15.8,0.043
52781.204719,15.812,0.043
52927.438847,15.878,0.074
52927.450855,15.837,0.068
52927.462506,15.822,0.065
52927.473939,15.856,0.065
52927.485472,15.84,0.059
52948.447438,15.726,0.033
52948.459538,15.714,0.031
52948.471465,15.753,0.033
52948.483544,15.804,0.033
52948.49576,15.879,0.037
52978.361735,15.761,0.041
52978.377819,15.728,0.04
52978.393032,15.704,0.038
52978.407862,15.685,0.036
52988.393805,15.868,0.036
52988.405476,15.985,0.043
53038.294773,15.991,0.05
53038.308522,15.839,0.043
53038.323275,15.799,0.041
53038.339946,15.812,0.043
53038.354335,15.809,0.044
53045.26893,15.903,0.039
53045.280602,15.912,0.039
53045.292365,15.867,0.039
53045.304729,15.835,0.037
53045.316473,15.827,0.039
53094.182187,15.754,0.028
53094.192624,15.802,0.03
53094.202983,15.821,0.03
53094.213657,15.875,0.031
53094.22396,15.925,0.033
53096.254691,15.408,0.054
53096.264613,15.941,0.078
53108.197617,15.91,0.033
53108.208881,15.884,0.033
53108.220175,15.882,0.031
53108.231476,15.868,0.031
53108.242693,15.857,0.031
53125.224319,15.861,0.1
53125.234181,15.939,0.094
53134.193968,15.786,0.035
53134.203512,15.748,0.033
53134.212947,15.738,0.035
53134.222706,15.751,0.044
53134.232373,15.773,0.046
53155.167356,15.805,0.076
53155.176151,15.813,0.076
53155.184948,15.84,0.078
53155.193795,15.813,0.078
53155.202655,15.805,0.078
53290.422168,16.004,0.059
53290.433355,15.795,0.046
53290.444778,15.82,0.046
53290.45596,15.821,0.044
53290.467156,15.747,0.041
53303.439341,15.763,0.046
53303.451206,15.754,0.039
53303.47502,15.819,0.059
53303.486891,15.827,0.068
53312.433362,15.683,0.055
53312.445606,15.653,0.052
53312.457919,15.606,0.05
53312.470163,15.642,0.052
53312.482499,15.718,0.054
53330.395476,15.711,0.04
53330.439406,15.815,0.04
53330.454501,15.823,0.04
53340.397348,15.555,0.055
53356.4082,15.848,0.031
53356.436282,15.904,0.033
53356.464818,15.948,0.035
53358.398013,15.906,0.031
53358.41101,15.868,0.03
53358.424045,15.835,0.031
53358.437206,15.823,0.03
53358.451055,15.818,0.03
53360.356335,15.784,0.033
53360.370201,15.834,0.035
53360.383614,15.781,0.031
53360.398144,15.785,0.03
53360.415274,15.808,0.031
53362.459317,15.748,0.052
53362.473256,15.779,0.033
53362.487571,15.81,0.033
53362.502195,15.897,0.033
53362.516074,15.928,0.033
53362.544761,16.009,0.044
53386.352618,15.793,0.026
53386.365635,15.739,0.026
53386.379151,15.79,0.026
53386.392172,15.797,0.026
53386.406529,15.847,0.028
53387.413908,15.827,0.03
53387.427266,15.824,0.03
53387.440544,15.86,0.031
53387.454444,15.952,0.033
53387.467784,15.957,0.033
53390.33689,15.794,0.037
53390.349635,15.763,0.035
53390.362381,15.727,0.035
53390.375209,15.805,0.033
53390.388713,15.809,0.033
53429.271932,15.815,0.033
53429.28317,15.885,0.037
53429.294403,15.905,0.037
53429.305632,15.977,0.041
53429.317437,15.946,0.041
53461.229188,16.034,0.039
53461.239535,15.903,0.035
53461.250451,15.778,0.031
53461.260873,15.784,0.031
53461.271284,15.801,0.031
53489.192941,15.773,0.057
53489.205179,15.796,0.043
53489.215368,15.84,0.061
53489.225513,15.808,0.057
53489.23566,15.962,0.091
53535.166684,15.885,0.057
53535.176598,15.82,0.055
53535.18654,15.854,0.059
53535.196461,15.829,0.057
53535.206391,15.877,0.059
53686.449347,15.746,0.026
53686.462274,15.757,0.026
53686.475113,15.827,0.028
53686.488343,15.996,0.033
53686.501227,16.045,0.033
53725.395851,15.914,0.043
53725.408867,15.864,0.059
53725.422012,15.609,0.054
53725.436823,15.633,0.054
53725.450382,15.666,0.055
53755.336182,16.032,0.046
53755.348867,16.079,0.048
53755.361817,16.018,0.044
53755.37511,15.883,0.039
53755.388101,15.801,0.037
53775.294649,15.766,0.043
53775.307451,15.758,0.041
53775.32062,15.721,0.041
53775.33392,15.727,0.048
53775.347078,15.877,0.052
53775.357701,15.99,0.071
53775.371716,15.892,0.073
53775.386712,16.352,0.12
53829.208487,15.888,0.041
53829.251369,16.277,0.091
53858.234313,15.811,0.068
53876.156249,16.206,0.068
53876.167242,16.028,0.061
54021.43708,15.933,0.081
54021.461576,16.254,0.102
54021.486042,15.961,0.078
54050.429243,15.633,0.043
54050.441466,15.652,0.043
54050.465956,15.628,0.041
54050.478132,15.67,0.041
54079.359276,15.828,0.052
54079.371292,15.764,0.046
54079.383371,15.831,0.05
54079.395386,15.898,0.055
54108.326298,15.713,0.037
54108.33901,15.793,0.039
54108.351714,15.787,0.037
54108.364417,15.796,0.037
54108.37713,15.853,0.041
54126.320918,15.928,0.041
54126.332952,16.089,0.046
54139.274399,15.801,0.033
54139.286121,15.729,0.036
54139.297586,15.845,0.056
54139.30927,15.771,0.036
54139.322288,15.801,0.045
54167.280871,15.811,0.054
54406.42996,15.991,0.056
54406.443027,15.844,0.053
54406.456171,15.943,0.058
54406.468559,15.844,0.053
54406.480089,15.929,0.058
54436.390108,15.862,0.038
54436.403779,15.85,0.04
54436.416152,15.818,0.036
54436.428522,15.811,0.036
54436.440746,15.788,0.035
54465.331479,15.716,0.04
54465.34394,15.714,0.04
54465.356329,15.706,0.038
54465.368797,15.708,0.038
54465.381431,15.687,0.04
54483.32733,15.791,0.046
54524.274939,15.8,0.038
54524.286532,15.751,0.043
54524.298972,15.742,0.043
54524.310381,15.757,0.046
54524.322019,15.787,0.041
54539.214796,15.887,0.043
54539.225333,15.818,0.04
54539.235867,15.765,0.038
54539.246721,15.764,0.038
54539.257261,15.735,0.038
54571.201867,15.757,0.069
54571.212801,15.745,0.064
54571.223725,15.829,0.061
54571.235152,15.937,0.068
54587.216284,15.737,0.074
54587.236372,15.748,0.079
54620.162199,15.873,0.056
54620.172521,15.823,0.054
54620.183513,15.907,0.059
54620.193845,15.951,0.061
54620.204255,16.069,0.066
