mjd,m,merr
52610.473234,15.168,0.311
52639.37349,15.313,0.02
52639.388268,15.31,0.02
52639.402948,15.308,0.02
52639.417921,15.344,0.02
52639.432975,15.355,0.02
52642.352131,15.411,0.018
52642.366343,15.45,0.018
52642.380643,15.459,0.018
52642.394882,15.475,0.018
52642.409094,15.527,0.02
52643.420387,15.329,0.023
52643.438188,15.344,0.018
52643.452156,15.349,0.017
52643.452944,15.347,0.02
52643.46612,15.352,0.018
52643.480046,15.327,0.017
52643.494357,15.376,0.018
52649.384032,15.401,0.02
52649.400241,15.414,0.02
52649.417171,15.453,0.022
52649.434552,15.505,0.022
52649.451398,15.461,0.022
52670.349126,15.391,0.023
52670.365027,15.417,0.023
52670.380844,15.425,0.023
52670.396493,15.446,0.025
52676.281873,15.417,0.022
52676.29728,15.455,0.022
52676.312754,15.474,0.022
52676.328348,15.463,0.024
52676.344027,15.458,0.024
52677.312993,15.389,0.02
52677.327431,15.419,0.026
52677.341885,15.445,0.03
52677.370821,15.422,0.044
52697.270484,15.398,0.023
52701.247175,15.341,0.021
52701.247649,15.342,0.02
52701.260318,15.308,0.02
52701.273439,15.352,0.021
52701.273913,15.373,0.02
52706.243744,14.932,0.015
52706.244104,14.936,0.015
52706.257016,14.964,0.016
52706.270597,15.001,0.016
52706.270955,15.003,0.015
52706.284772,15.025,0.016
52706.28513,15.048,0.016
52706.29788,15.044,0.016
52706.298239,15.058,0.016
52710.235566,15.477,0.024
52710.248863,15.381,0.022
52710.262265,15.215,0.02
52710.276006,15.088,0.018
52710.289535,15.069,0.017
52724.237248,15.49,0.02
52724.248864,15.49,0.022
52724.260466,15.495,0.02
52724.272095,15.458,0.02
52724.283707,15.394,0.02
52729.229557,15.218,0.02
52729.2298,15.237,0.018
52729.241618,15.224,0.018
52729.241862,15.301,0.018
52729.254429,15.254,0.02
52729.254923,15.276,0.018
52729.267037,15.28,0.02
52729.267796,15.311,0.02
52729.283011,15.338,0.021
52732.203229,15.302,0.021
52732.215682,15.295,0.021
52732.227581,15.328,0.028
52732.239686,15.328,0.026
52732.240605,15.383,0.025
52732.252562,15.386,0.021
52732.264977,15.402,0.021
52732.277186,15.375,0.023
52732.289153,15.417,0.023
52753.140178,15.171,0.017
52753.152064,15.229,0.018
52753.16396,15.22,0.018
52753.175849,15.218,0.018
52753.18785,15.231,0.018
52761.147999,14.933,0.018
52761.159636,14.897,0.018
52761.159774,14.881,0.015
52761.171544,14.857,0.017
52761.171926,14.862,0.021
52761.183305,14.894,0.022
52761.183887,14.907,0.025
52761.19514,14.906,0.02
52761.195765,14.889,0.023
52768.150334,15.042,0.035
52768.162967,14.971,0.033
52768.175346,14.908,0.031
52768.187238,14.902,0.033
52768.19907,14.899,0.035
52787.163252,15.3,0.022
52787.173822,15.321,0.022
52787.184356,15.351,0.024
52787.195069,15.315,0.024
52787.2058,15.358,0.024
52945.449063,15.177,0.025
52945.461191,15.225,0.025
52945.473339,15.243,0.025
52945.485568,15.265,0.025
52945.49775,15.303,0.025
52962.447026,15.219,0.018
52962.460037,15.244,0.017
52962.472476,15.249,0.017
52962.484679,15.26,0.017
52962.497432,15.284,0.018
52991.419315,14.976,0.017
52991.440749,14.819,0.011
52991.458828,14.804,0.013
52991.474573,14.854,0.011
52991.49183,14.902,0.011
53001.414003,14.89,0.008
53001.428103,14.933,0.008
53001.450741,14.998,0.01
53001.467707,15.022,0.01
53001.486111,15.079,0.01
53002.448542,15.447,0.013
53002.462274,15.447,0.013
53002.475763,15.411,0.013
53002.489183,15.278,0.013
53002.502593,15.093,0.011
53024.338483,15.118,0.011
53024.351227,15.152,0.013
53024.376956,15.171,0.017
53024.389806,15.193,0.018
53034.337252,15.223,0.018
53034.349594,15.224,0.018
53034.362291,15.261,0.018
53034.37492,15.261,0.018
53034.387178,15.281,0.018
53050.273103,15.384,0.017
53050.284696,15.389,0.017
53050.296351,15.412,0.017
53050.307955,15.367,0.017
53050.319656,15.371,0.024
53062.283257,15.119,0.046
53062.294686,15.13,0.022
53078.23087,15.315,0.018
53078.241585,15.333,0.018
53078.252341,15.377,0.078
53078.263014,15.348,0.018
53078.273639,15.339,0.018
53087.235417,15.336,0.013
53087.257875,15.084,0.01
53087.269051,15.047,0.01
53087.280137,14.984,0.01
53089.233073,15.201,0.012
53089.26596,15.231,0.013
53089.276819,15.255,0.013
53109.189268,15.305,0.018
53109.19995,15.323,0.018
53109.210657,15.339,0.018
53109.221343,15.341,0.018
53109.232154,15.337,0.018
53118.244379,15.048,0.012
53137.15669,15.218,0.018
53137.166185,15.234,0.02
53137.175714,15.231,0.02
53137.185258,15.251,0.022
53137.19476,15.264,0.022
53148.159661,15.02,0.013
53148.168545,15.063,0.016
53148.177437,15.087,0.02
53148.186721,15.122,0.018
53148.195863,15.097,0.016
53341.407708,15.468,0.054
53341.420086,15.493,0.054
53341.432476,15.493,0.054
53341.447774,15.541,0.054
53341.460176,15.498,0.053
53348.415839,15.44,0.026
53348.430083,15.492,0.026
53348.444394,15.503,0.028
53348.458605,15.516,0.026
53348.472875,15.485,0.036
53354.425413,14.914,0.013
53354.439806,14.957,0.015
53354.454254,14.985,0.013
53354.469077,15.004,0.015
53354.483519,15.023,0.013
53384.413976,15.213,0.102
53404.370264,15.297,0.015
53404.383621,15.347,0.016
53404.397081,15.338,0.016
53404.41005,15.336,0.018
53404.42293,15.346,0.02
53443.330067,15.067,0.015
53443.340758,15.075,0.015
53443.351411,15.104,0.017
53443.362072,15.141,0.026
53443.372731,15.13,0.028
53473.224993,15.185,0.02
53473.235194,15.173,0.02
53473.245087,15.204,0.02
53473.255164,15.224,0.02
53473.266292,15.236,0.02
53500.144413,15.279,0.02
53500.155647,15.287,0.02
53500.165797,15.317,0.02
53500.175808,15.336,0.022
53500.186239,15.352,0.022
53682.466807,15.109,0.024
53682.479378,15.144,0.024
53682.491783,15.19,0.024
53682.504562,15.247,0.024
53703.454597,15.135,0.017
53703.467722,15.125,0.017
53703.48037,15.171,0.017
53703.493047,15.194,0.018
53703.505845,15.215,0.018
53714.39522,15.067,0.017
53714.408182,15.006,0.017
53714.42104,14.969,0.015
53714.433826,14.936,0.015
53714.446568,14.95,0.015
53740.345896,15.193,0.018
53740.358844,15.216,0.018
53740.371591,15.261,0.018
53740.384387,15.268,0.018
53740.397309,15.287,0.018
53771.287073,15.205,0.018
53771.301086,15.23,0.024
53771.313729,15.215,0.024
53771.326682,15.237,0.022
53771.33946,15.248,0.026
53772.347315,15.006,0.017
53772.347445,15.048,0.018
53772.360062,15.043,0.017
53772.360191,15.063,0.017
53772.372882,15.06,0.017
53772.373012,15.101,0.017
53772.385766,15.093,0.017
53772.385896,15.133,0.018
53772.398838,15.105,0.017
53772.398968,15.144,0.018
53773.348079,15.507,0.03
53773.348203,15.462,0.028
53773.36067,15.54,0.03
53773.360795,15.457,0.028
53773.373936,15.508,0.03
53773.37406,15.444,0.026
53773.386975,15.345,0.024
53773.39973,15.206,0.022
53773.399855,15.148,0.02
53786.281827,15.073,0.015
53786.293713,15.022,0.015
53786.305705,14.974,0.015
53786.317606,14.945,0.015
53786.329522,14.937,0.015
53788.339157,15.308,0.018
53788.351137,15.316,0.018
53788.363318,15.33,0.018
53788.375346,15.279,0.115
53788.387457,15.331,0.026
53813.300861,15.064,0.022
53813.311872,15.084,0.024
53813.322873,15.101,0.024
53813.333888,15.101,0.026
53813.3449,15.175,0.028
53823.195417,15.002,0.015
53823.206289,15.027,0.015
53823.217181,15.055,0.015
53823.227988,15.074,0.015
53823.238815,15.099,0.015
53844.18564,14.97,0.017
53844.195882,14.991,0.017
53844.206169,15.008,0.018
53844.216436,15.015,0.018
53844.226879,15.018,0.018
53853.189974,15.294,0.028
53853.20052,15.309,0.028
53853.210991,15.311,0.028
53853.221616,15.316,0.03
53853.232087,15.396,0.046
53883.159585,15.421,0.068
53883.169932,15.367,0.064
53883.180337,15.394,0.068
53883.191139,15.462,0.073
53883.2032,15.412,0.073
53887.166796,15.355,0.054
53887.178648,15.33,0.057
53887.201164,15.36,0.068
53887.212505,15.308,0.065
54042.457473,15.227,0.046
54042.470071,15.192,0.038
54042.482837,15.15,0.036
54042.495109,15.19,0.036
54055.437571,15.347,0.026
54055.450394,15.367,0.026
54055.462951,15.388,0.026
54055.476132,15.415,0.025
54055.491407,15.398,0.025
54067.397567,15.143,0.02
54067.410502,15.046,0.018
54067.423236,14.87,0.015
54067.436584,14.787,0.013
54067.449402,14.8,0.013
54070.389951,14.866,0.018
54070.403174,14.891,0.017
54070.416133,14.951,0.017
54070.429195,14.997,0.015
54070.442144,15.012,0.015
54084.392126,14.872,0.02
54084.405297,14.917,0.021
54084.418163,14.922,0.021
54084.431205,14.981,0.02
54084.444237,15.006,0.021
54098.316915,15.521,0.031
54098.328735,15.478,0.028
54098.340349,15.478,0.028
54098.352101,15.417,0.024
54098.363759,15.224,0.02
54110.333478,15.279,0.051
54110.346056,15.316,0.038
54110.358643,15.304,0.031
54110.3712,15.304,0.03
54110.384249,15.292,0.031
54121.327245,15.098,0.015
54121.339428,15.1,0.017
54121.351609,15.126,0.017
54121.36381,15.158,0.017
54121.37606,15.175,0.017
54155.289189,15.227,0.023
54155.301134,15.237,0.023
54155.313375,15.258,0.023
54155.325531,15.243,0.021
54155.338334,15.273,0.021
54206.181415,15.279,0.021
54206.190608,15.303,0.023
54206.199794,15.299,0.023
54206.209424,15.307,0.023
54206.218701,15.311,0.023
54413.442778,14.96,0.013
54413.454987,14.94,0.013
54413.479392,14.964,0.011
54413.491613,14.962,0.011
54420.44817,14.998,0.013
54420.460995,14.937,0.011
54420.473436,14.911,0.011
54452.389797,15.383,0.015
54452.402945,15.383,0.015
54452.416294,15.351,0.015
54452.429579,15.352,0.015
54452.442724,15.341,0.015
54476.339456,15.282,0.013
54476.352311,15.284,0.011
54476.365157,15.312,0.013
54476.37801,15.363,0.013
54476.39085,15.343,0.013
54484.249587,14.96,0.024
54533.272529,14.945,0.009
54533.283725,14.957,0.009
54533.295181,14.982,0.009
54533.306404,14.995,0.009
54533.317864,15.019,0.009
54539.160987,14.989,0.013
54539.171624,14.994,0.013
54539.182396,15.002,0.013
54539.193225,15.013,0.013
54539.203896,15.055,0.013
54567.18264,14.873,0.011
54567.194025,14.907,0.011
54567.2051,14.942,0.013
54567.216304,14.977,0.013
54567.227669,14.991,0.013
54582.191693,15.374,0.022
54582.202253,15.423,0.022
54582.212773,15.441,0.024
54582.223278,15.462,0.024
54582.233823,15.47,0.026
54587.197043,15.158,0.018
54587.207588,15.165,0.018
54587.218176,15.204,0.018
54587.228734,15.223,0.02
54587.239226,15.209,0.018
54595.192615,15.002,0.018
54595.202601,14.931,0.017
54595.212609,14.888,0.017
54595.222686,14.91,0.017
54595.232658,14.942,0.017
54613.154601,15.391,0.024
54613.164435,15.363,0.022
54613.174479,15.368,0.022
54613.194272,15.377,0.026
54619.157267,15.071,0.022
54619.167481,14.983,0.02
54619.177771,14.918,0.017
54619.187964,14.864,0.017
54619.198208,14.856,0.017
