mjd,m,merr
52614.43024,16.237,0.061
52614.444955,16.143,0.087
52614.459574,16.282,0.104
52614.474206,16.249,0.086
52614.488625,16.19,0.048
52622.371989,16.019,0.046
52622.38668,15.938,0.041
52622.401215,16.0,0.041
52622.416067,16.029,0.041
52622.430822,15.996,0.041
52638.377139,16.272,0.046
52638.392165,16.33,0.048
52638.407183,16.291,0.049
52646.397413,16.18,0.045
52646.428354,16.211,0.045
52646.443323,16.264,0.051
52646.458426,16.189,0.048
52649.369595,16.331,0.048
52649.385266,16.297,0.046
52649.40075,16.288,0.046
52672.323452,16.161,0.049
52672.338574,16.154,0.045
52672.353268,16.185,0.043
52672.368332,16.182,0.043
52672.38352,16.198,0.043
52676.281161,16.026,0.041
52676.296404,15.97,0.04
52676.312867,16.038,0.043
52676.328889,16.039,0.045
52676.345131,16.024,0.045
52677.328273,16.238,0.048
52677.34542,16.218,0.074
52677.363344,16.347,0.076
52677.379571,16.428,0.101
52677.395824,16.286,0.078
52696.278606,16.157,0.033
52696.291227,16.15,0.033
52696.30427,16.169,0.033
52696.317129,16.149,0.033
52696.330537,16.196,0.035
52710.243358,16.278,0.056
52710.25665,16.305,0.056
52710.27068,16.397,0.063
52710.283848,16.383,0.066
52710.297094,16.378,0.066
52723.229086,16.316,0.048
52723.240496,16.288,0.081
52723.251959,16.348,0.046
52723.263471,16.322,0.044
52734.199226,16.243,0.043
52734.211403,16.258,0.045
52734.235745,16.284,0.048
52734.247883,16.305,0.049
52752.185049,16.0,0.037
52752.195176,15.993,0.035
52752.205363,15.967,0.037
52752.2155,15.991,0.037
52752.225628,15.973,0.037
52768.150399,16.088,0.107
52768.186634,15.962,0.102
52787.160044,15.944,0.048
52787.170849,15.971,0.048
52787.182098,15.979,0.056
52787.193165,15.948,0.046
52787.204355,15.981,0.049
52946.439756,16.377,0.076
52946.451623,16.403,0.093
52977.397288,16.078,0.044
52977.409417,16.037,0.039
52977.42139,15.958,0.033
52977.433326,15.945,0.031
52977.445375,15.954,0.03
52991.47903,16.212,0.031
52991.492496,16.188,0.03
52991.505087,16.202,0.031
52991.517616,16.231,0.033
52991.530154,16.175,0.063
53002.353487,16.151,0.021
53002.367087,16.185,0.023
53002.380593,16.188,0.023
53002.394416,16.185,0.023
53002.407994,16.2,0.021
53003.371937,16.11,0.024
53003.383935,16.095,0.022
53003.396098,16.099,0.026
53003.408228,16.126,0.037
53003.420268,15.986,0.054
53024.401202,16.264,0.059
53024.414819,16.392,0.092
53035.345956,16.265,0.043
53035.358947,16.237,0.041
53035.371587,16.283,0.043
53035.385353,16.237,0.041
53035.397928,16.237,0.037
53050.273523,16.144,0.028
53050.285116,16.173,0.028
53050.296771,16.202,0.028
53050.308374,16.189,0.03
53050.320075,16.177,0.043
53078.231267,16.056,0.033
53078.242064,16.086,0.031
53078.263412,16.126,0.037
53078.274037,16.141,0.031
53089.228674,16.082,0.026
53089.239308,16.121,0.026
53089.250021,16.11,0.026
53089.260772,16.138,0.026
53089.271353,16.15,0.028
53109.189639,16.208,0.037
53109.200321,16.203,0.037
53109.211027,16.222,0.037
53109.221714,16.247,0.039
53109.232525,16.206,0.037
53137.15703,16.109,0.039
53137.166526,16.132,0.039
53137.176056,16.145,0.043
53137.185599,16.124,0.043
53137.195102,16.127,0.044
53149.161813,16.295,0.048
53149.170956,16.253,0.048
53149.18141,16.235,0.048
53149.190398,16.191,0.048
53149.199327,16.135,0.046
53341.420556,16.243,0.091
53341.460647,16.277,0.091
53348.416567,16.059,0.046
53348.430826,16.163,0.045
53348.459331,16.03,0.043
53348.473602,15.995,0.064
53354.426149,16.296,0.043
53354.440543,16.319,0.043
53354.454993,16.278,0.041
53354.46979,16.252,0.038
53354.484272,16.331,0.043
53443.329819,16.232,0.035
53443.340509,16.265,0.039
53443.351163,16.25,0.041
53443.361823,16.259,0.054
53443.372482,16.278,0.065
53473.22539,16.038,0.039
53473.235597,16.07,0.041
53473.245487,16.094,0.041
53473.25557,16.113,0.041
53473.26669,16.099,0.043
53498.153681,16.213,0.055
53498.164029,16.291,0.085
53498.174008,16.296,0.063
53498.184165,16.385,0.246
53499.161034,15.965,0.037
53499.171957,16.031,0.037
53499.1821,15.999,0.039
53499.192358,16.076,0.039
53499.202586,16.03,0.039
53682.467249,16.292,0.059
53682.479818,16.245,0.063
53682.492326,16.225,0.052
53682.505002,16.16,0.05
53702.436018,15.981,0.031
53702.448741,15.991,0.033
53702.461506,15.94,0.031
53702.474081,15.964,0.031
53702.487037,15.975,0.031
53741.405071,16.026,0.026
53741.418231,16.04,0.026
53741.43117,16.032,0.028
53741.443891,16.008,0.026
53741.456622,15.974,0.026
53771.286791,16.241,0.044
53771.300807,16.287,0.05
53771.313448,16.25,0.048
53771.3264,16.248,0.046
53771.339179,16.306,0.065
53786.282252,16.246,0.035
53786.294142,16.187,0.037
53786.306133,16.233,0.039
53786.31805,16.238,0.041
53786.329944,16.251,0.037
53812.246208,16.185,0.049
53812.257711,16.166,0.049
53812.26932,16.169,0.049
53812.280904,16.209,0.053
53812.29222,16.241,0.056
53843.202374,16.253,0.045
53843.213807,16.274,0.048
53843.225326,16.307,0.048
53843.237114,16.289,0.048
53843.248758,16.276,0.049
53854.190004,16.307,0.063
53854.200407,16.336,0.211
53854.210682,16.259,0.073
53854.220933,16.332,0.064
53854.231151,16.329,0.068
53882.158488,16.195,0.059
53882.169305,16.163,0.058
53882.180213,16.31,0.066
53882.191038,16.228,0.061
53882.202095,16.204,0.063
53886.169835,16.164,0.068
53886.180457,16.138,0.068
53886.191179,16.22,0.076
53886.201918,16.165,0.074
53886.212737,16.201,0.074
54055.437279,16.374,0.061
54055.450103,16.287,0.056
54055.46266,16.207,0.053
54055.475817,16.26,0.051
54055.491116,16.233,0.046
54067.398011,15.982,0.04
54067.410945,15.986,0.038
54067.42368,16.02,0.036
54067.43707,15.995,0.035
54067.449844,16.0,0.036
54085.400923,16.164,0.054
54085.414141,16.232,0.102
54085.427056,16.127,0.058
54085.440064,16.21,0.066
54085.453081,16.251,0.068
54110.350286,16.236,0.052
54110.36595,16.244,0.052
54110.380021,16.266,0.052
54110.395657,16.151,0.054
54110.413688,16.085,0.048
54123.323667,16.329,0.043
54123.336119,16.269,0.043
54123.34838,16.277,0.043
54123.360589,16.284,0.043
54123.372796,16.281,0.041
54156.261871,16.154,0.049
54156.272942,16.07,0.046
54156.284341,16.029,0.045
54156.295622,16.125,0.048
54156.307347,16.066,0.045
54201.230835,16.261,0.041
54201.240193,16.245,0.039
54201.249997,16.221,0.039
54201.259456,16.323,0.043
54201.269219,16.297,0.041
54207.18186,16.119,0.048
54207.191141,16.176,0.048
54207.200493,16.16,0.046
54207.210311,16.157,0.048
54207.219881,16.155,0.046
54395.445928,16.092,0.063
54395.461933,16.094,0.058
54453.335215,16.277,0.037
54453.348478,16.261,0.035
54453.361545,16.211,0.031
54453.374591,16.179,0.028
54453.387622,16.094,0.024
54470.328429,16.241,0.065
54470.341297,16.251,0.028
54470.366914,16.318,0.094
54477.336443,16.148,0.028
54477.349258,16.048,0.026
54477.36205,16.04,0.026
54477.374861,16.024,0.026
54477.387861,16.009,0.026
54484.212384,15.896,0.068
54484.250974,16.075,0.057
54484.264006,16.014,0.052
54485.336777,16.263,0.072
54485.336936,16.536,0.093
54485.349574,16.217,0.068
54485.362372,16.278,0.07
54485.36253,16.49,0.087
54485.375323,16.486,0.087
54485.387959,16.266,0.068
54485.388116,16.488,0.087
54539.161451,16.038,0.033
54539.172091,16.047,0.031
54539.182863,16.031,0.031
54539.193695,16.048,0.03
54539.204364,16.109,0.03
54567.182346,15.982,0.028
54567.193731,15.987,0.028
54567.204808,16.041,0.03
54567.21601,16.034,0.03
54567.227375,16.047,0.03
54582.202193,18.377,0.559
54613.155903,16.121,0.059
54613.166181,16.129,0.059
54613.176489,16.144,0.063
54613.186809,16.113,0.061
54613.197007,16.12,0.061
54620.162557,16.257,0.048
54620.175187,16.201,0.048
54620.18531,16.238,0.048
54620.195434,16.255,0.052
54620.205557,16.197,0.048
