mjd,m,merr
52612.450577,15.205,0.018
52612.465833,15.197,0.017
52612.480981,15.265,0.018
52612.496202,15.45,0.02
52612.511451,15.669,0.026
52622.432624,15.223,0.021
52622.447095,15.197,0.02
52622.462058,15.217,0.021
52622.47649,15.307,0.021
52622.491448,15.463,0.025
52638.37753,15.216,0.02
52638.392555,15.267,0.02
52638.407574,15.404,0.036
52649.369856,15.262,0.02
52649.385526,15.334,0.021
52649.40101,15.585,0.026
52649.416761,15.55,0.025
52649.431927,15.306,0.021
52676.280903,15.249,0.021
52676.296146,15.439,0.026
52676.31261,15.667,0.031
52676.328632,15.48,0.028
52676.344874,15.283,0.023
52677.32879,15.297,0.021
52677.345942,15.219,0.045
52677.363862,15.222,0.025
52677.396343,15.493,0.031
52696.278357,15.365,0.017
52696.290972,15.563,0.02
52696.303992,15.666,0.022
52696.316879,15.439,0.018
52696.33029,15.315,0.017
52711.236229,15.557,0.046
52711.249274,15.532,0.033
52711.249633,15.417,0.036
52711.26273,15.336,0.036
52711.27546,15.252,0.026
52711.275819,15.227,0.035
52711.288594,15.249,0.026
52723.229348,15.381,0.022
52723.252202,15.25,0.017
52723.263712,15.187,0.017
52734.198872,15.577,0.025
52734.198986,15.444,0.031
52734.211049,15.364,0.021
52734.222922,15.274,0.02
52734.23539,15.229,0.02
52734.247532,15.218,0.02
52752.184827,15.415,0.022
52752.194954,15.617,0.026
52752.205141,15.615,0.028
52752.215278,15.476,0.024
52752.225406,15.34,0.02
52787.170628,15.222,0.025
52787.181876,15.242,0.028
52787.192944,15.258,0.026
52787.204089,15.352,0.028
52800.204941,15.759,0.111
52946.440033,15.357,0.03
52946.451901,15.457,0.043
52946.475644,15.734,0.098
52966.36553,15.419,0.025
52966.381562,15.266,0.021
52966.38955,15.225,0.02
52966.397641,15.216,0.02
52977.397086,15.405,0.026
52977.409215,15.461,0.026
52977.421188,15.587,0.024
52977.433124,15.734,0.026
52977.445173,15.696,0.026
52991.478646,15.501,0.016
52991.49211,15.669,0.02
52991.504702,15.507,0.016
52991.517229,15.319,0.015
52991.529767,15.207,0.025
53002.353876,15.492,0.013
53002.367482,15.558,0.015
53002.380983,15.426,0.012
53002.394809,15.243,0.01
53002.408389,15.21,0.01
53006.333209,15.439,0.024
53006.346024,15.264,0.022
53006.358154,15.214,0.024
53006.370252,15.155,0.017
53006.382349,15.194,0.018
53024.401541,15.291,0.026
53024.41516,15.42,0.038
53035.345735,15.233,0.018
53035.358726,15.202,0.017
53035.371366,15.21,0.017
53035.385132,15.248,0.017
53035.397707,15.377,0.018
53049.277232,15.301,0.013
53049.28954,15.205,0.013
53049.301337,15.145,0.013
53049.313141,15.141,0.013
53049.324981,15.186,0.013
53089.228985,15.635,0.017
53089.239618,15.512,0.017
53089.250332,15.352,0.013
53089.261083,15.244,0.013
53089.271681,15.172,0.013
53107.187781,15.19,0.016
53107.198221,15.209,0.016
53107.219211,15.377,0.02
53107.2297,15.564,0.023
53127.189511,15.362,0.054
53127.199429,15.477,0.063
53127.20902,15.581,0.068
53136.156553,15.268,0.021
53136.165363,15.238,0.021
53136.174175,15.225,0.021
53136.183075,15.188,0.021
53136.191844,15.273,0.025
53149.162932,15.297,0.023
53149.180288,15.512,0.028
53149.188882,15.672,0.033
53154.172281,15.337,0.056
53154.180569,15.256,0.049
53154.188844,15.258,0.045
53164.166781,15.264,0.035
53164.176253,15.236,0.025
53164.185742,15.211,0.025
53164.195413,15.225,0.03
53164.205042,15.266,0.028
53313.432981,15.206,0.039
53313.444911,15.279,0.041
53313.456834,15.384,0.043
53313.468758,15.534,0.048
53329.462131,15.248,0.023
53329.474614,15.263,0.023
53329.487412,15.379,0.025
53329.500187,15.549,0.028
53329.512785,15.697,0.033
53331.447417,15.249,0.024
53331.459795,15.329,0.024
53331.484549,15.684,0.033
53331.496921,15.597,0.03
53341.410878,15.201,0.035
53341.422885,15.156,0.033
53341.435356,15.176,0.033
53341.447371,15.215,0.033
53341.459386,15.314,0.037
53349.406045,15.38,0.03
53349.419881,15.264,0.026
53349.447206,15.232,0.025
53349.460683,15.319,0.026
53355.474562,15.147,0.016
53355.487763,15.148,0.016
53355.500917,15.196,0.018
53355.516193,15.326,0.02
53360.417394,15.216,0.021
53360.431934,15.256,0.025
53438.227066,15.697,0.02
53438.238646,15.532,0.018
53438.250262,15.328,0.015
53438.26188,15.25,0.015
53438.273538,15.167,0.013
53474.239576,15.578,0.028
53474.250651,15.65,0.03
53474.262045,15.443,0.024
53474.272,15.32,0.022
53474.282374,15.224,0.02
53498.153457,15.233,0.022
53498.163537,15.295,0.035
53498.17381,15.489,0.026
53499.160835,15.438,0.024
53499.171758,15.567,0.026
53499.181901,15.598,0.028
53499.19216,15.483,0.024
53499.202387,15.326,0.02
53521.15637,15.485,0.033
53521.166567,15.353,0.035
53521.176744,15.267,0.035
53521.187208,15.203,0.028
53521.197418,15.212,0.039
53683.450436,15.608,0.041
53683.462818,15.446,0.043
53683.475047,15.264,0.022
53683.499746,15.181,0.022
53701.447544,15.5,0.03
53701.472782,15.448,0.028
53701.485337,15.21,0.037
53701.497832,15.227,0.022
53741.404781,15.233,0.015
53741.41794,15.49,0.017
53741.43088,15.562,0.018
53741.443601,15.39,0.017
53741.456331,15.253,0.015
53771.286517,15.524,0.026
53771.30053,15.613,0.028
53771.313174,15.411,0.02
53771.326126,15.274,0.02
53771.338905,15.202,0.03
53786.298903,15.247,0.015
53786.311915,15.333,0.023
53786.324922,15.466,0.018
53786.337978,15.702,0.025
53786.351033,15.594,0.026
53812.303428,15.181,0.024
53812.314474,15.18,0.024
53824.262929,15.314,0.016
53824.274773,15.277,0.018
53824.286451,15.243,0.018
53824.29787,15.307,0.023
53824.309409,15.361,0.026
53843.198065,15.332,0.022
53843.209484,15.457,0.026
53843.220803,15.635,0.031
53843.232134,15.709,0.033
53843.244378,15.524,0.028
53854.190187,15.453,0.03
53854.200592,15.602,0.086
53854.210866,15.726,0.041
53854.221119,15.676,0.036
53854.231335,15.472,0.031
53882.158672,15.196,0.025
53882.169489,15.16,0.023
53882.180439,15.229,0.025
53882.191267,15.281,0.026
53882.202332,15.471,0.031
53886.169636,15.621,0.044
53886.180253,15.519,0.041
53886.190976,15.378,0.037
53886.201712,15.283,0.035
53886.212531,15.222,0.031
54054.45469,15.209,0.023
54054.467477,15.222,0.021
54054.493219,15.364,0.023
54068.399293,15.286,0.021
54068.412449,15.229,0.021
54068.425499,15.282,0.021
54068.438497,15.35,0.021
54068.451295,15.519,0.026
54085.401163,15.316,0.025
54085.42729,15.231,0.026
54085.440299,15.281,0.028
54085.453317,15.327,0.03
54110.350986,15.233,0.022
54110.396359,15.494,0.03
54110.41468,15.649,0.033
54123.323891,15.21,0.018
54123.336344,15.252,0.018
54123.348605,15.396,0.022
54123.360814,15.556,0.024
54123.37302,15.608,0.026
54186.225944,15.218,0.03
54186.236081,15.167,0.03
54186.246212,15.17,0.03
54186.256356,15.26,0.038
54201.230597,15.673,0.026
54201.239956,15.651,0.026
54201.24976,15.476,0.022
54201.25921,15.356,0.02
54201.268969,15.28,0.018
54207.220781,15.257,0.021
54207.230315,15.269,0.021
54207.239905,15.304,0.023
54207.249746,15.421,0.023
54207.26052,15.527,0.026
54216.178804,15.596,0.048
54216.187407,15.505,0.044
54216.204743,15.302,0.037
54395.44621,15.227,0.031
54395.462211,15.296,0.031
54453.388094,15.501,0.015
54453.40114,15.334,0.013
54453.414168,15.218,0.011
54453.427185,15.139,0.011
54453.4402,15.129,0.011
54470.328748,15.194,0.031
54470.341615,15.169,0.011
54470.367232,15.286,0.037
54470.379936,15.473,0.061
54478.351859,15.075,0.013
54478.364913,15.133,0.011
54478.378576,15.233,0.024
54478.39156,15.369,0.022
54508.29847,15.459,0.025
54508.310486,15.3,0.028
54508.32259,15.202,0.023
54508.334482,15.161,0.02
54508.346367,15.188,0.021
54543.251224,15.23,0.074
54543.262826,15.17,0.071
54561.132609,15.398,0.031
54561.155231,15.35,0.035
54561.166531,15.319,0.031
54561.178048,15.399,0.035
54568.184209,15.244,0.02
54568.195364,15.232,0.02
54568.206156,15.333,0.02
54568.216997,15.376,0.022
54568.22779,15.48,0.026
54583.191652,15.604,0.043
54583.201722,15.416,0.038
54614.163142,15.577,0.041
54614.173347,15.404,0.036
54614.183559,15.3,0.033
54614.194263,15.243,0.031
54614.205786,15.19,0.031
54620.162001,15.257,0.02
54620.174989,15.42,0.024
54620.185112,15.611,0.03
54620.195235,15.68,0.033
54620.20536,15.611,0.03
