mjd,m,merr
52608.459287,16.624,0.155
52608.474245,16.341,0.059
52608.489136,16.097,0.098
52608.504089,16.154,0.093
52619.453912,16.365,0.063
52619.468893,16.382,0.063
52619.484303,16.364,0.068
52619.499287,16.412,0.064
52619.514277,16.375,0.063
52640.388494,16.474,0.054
52640.403504,16.446,0.053
52640.418518,16.454,0.053
52640.434434,16.512,0.053
52640.449624,16.579,0.056
52646.390176,16.177,0.046
52646.404991,16.272,0.052
52646.419462,16.245,0.048
52646.434047,16.27,0.052
52646.448552,16.286,0.054
52647.387138,16.519,0.068
52647.401704,16.421,0.063
52647.416539,16.507,0.068
52647.43136,16.461,0.066
52647.446349,16.593,0.074
52667.323089,16.41,0.051
52667.33778,16.447,0.053
52667.352461,16.499,0.054
52667.367136,16.531,0.056
52667.381866,16.481,0.054
52672.38407,16.34,0.054
52672.398842,16.452,0.055
52672.412859,16.468,0.057
52672.427313,16.539,0.087
52672.4412,16.571,0.07
52673.294051,16.251,0.046
52673.309886,16.234,0.045
52673.324785,16.11,0.04
52673.341219,16.117,0.041
52673.356228,16.132,0.041
52704.290562,16.245,0.046
52704.291125,16.259,0.045
52704.303912,16.241,0.048
52704.30441,16.221,0.043
52704.317017,16.244,0.048
52704.317503,16.273,0.046
52704.330025,16.267,0.053
52704.330509,16.318,0.051
52704.342976,16.301,0.053
52704.343463,16.269,0.051
52705.242165,16.484,0.048
52705.256153,16.528,0.05
52705.270249,16.547,0.05
52705.283314,16.57,0.052
52705.296566,16.523,0.052
52707.248432,16.297,0.043
52707.261779,16.26,0.041
52707.274964,16.2,0.039
52707.288231,16.1,0.035
52707.301505,16.042,0.035
52729.230885,16.524,0.054
52729.242526,16.544,0.054
52729.253992,16.452,0.048
52729.266159,16.348,0.046
52729.277652,16.22,0.043
52734.252193,16.588,0.061
52734.264548,16.56,0.061
52734.276702,16.566,0.076
52738.184744,16.167,0.044
52738.196224,16.155,0.044
52738.207701,16.153,0.046
52738.219139,16.205,0.046
52738.23061,16.19,0.046
52755.196343,16.18,0.051
52755.196453,16.199,0.049
52755.208231,16.113,0.048
52755.208341,16.196,0.049
52755.220191,16.209,0.053
52755.220301,16.263,0.053
52755.232124,16.254,0.058
52755.232233,16.209,0.054
52755.244093,16.288,0.061
52755.244203,16.262,0.056
52758.199867,16.451,0.061
52758.199976,16.517,0.058
52758.211797,16.284,0.056
52758.211906,16.384,0.054
52758.223737,16.201,0.051
52758.223846,16.289,0.051
52758.235759,16.168,0.051
52758.235868,16.17,0.046
52758.247832,16.146,0.048
52758.247941,16.138,0.046
52941.432239,16.258,0.063
52941.443839,16.327,0.059
52941.455651,16.3,0.054
52941.467241,16.237,0.049
52941.479071,16.249,0.048
52965.46911,16.693,0.316
52973.426595,16.144,0.046
52973.438594,16.021,0.043
52973.450766,16.081,0.043
52973.463074,16.081,0.041
52995.386734,16.399,0.036
52995.399436,16.332,0.033
52995.411837,16.21,0.03
52995.424233,16.174,0.028
52995.437165,16.117,0.026
52997.442398,16.217,0.079
53027.40254,16.495,0.033
53027.415515,16.531,0.035
53027.428417,16.546,0.038
53027.44117,16.519,0.038
53027.453947,16.53,0.036
53029.37153,16.34,0.049
53033.330776,16.269,0.046
53033.343029,16.271,0.044
53033.355186,16.287,0.044
53033.367322,16.31,0.046
53033.379793,16.673,0.133
53053.291335,16.242,0.054
53053.303118,16.19,0.057
53053.31667,16.181,0.076
53053.329985,16.108,0.055
53053.341747,16.093,0.043
53058.292226,16.461,0.031
53058.305248,16.339,0.03
53058.317372,16.265,0.026
53058.329674,16.24,0.025
53058.341966,16.21,0.025
53061.289278,16.458,0.031
53061.301295,16.466,0.033
53061.313346,16.498,0.035
53061.325477,16.474,0.033
53061.337388,16.46,0.031
53079.25127,16.248,0.037
53079.261885,16.305,0.039
53079.272574,16.242,0.037
53079.283378,16.274,0.037
53079.294113,16.347,0.043
53110.187534,16.34,0.055
53110.198225,16.397,0.057
53110.208911,16.363,0.055
53110.2196,16.397,0.059
53110.230399,16.429,0.061
53114.257532,16.541,0.043
53114.27003,16.51,0.043
53116.204045,16.3,0.064
53116.2149,16.307,0.097
53116.225592,16.226,0.102
53116.236278,16.336,0.132
53116.248986,16.188,0.076
53138.15576,16.598,0.063
53138.165599,16.576,0.061
53138.175463,16.581,0.063
53138.185286,16.518,0.059
53138.195087,16.498,0.057
53142.203719,16.331,0.092
53144.171928,16.374,0.055
53144.181316,16.382,0.057
53144.190708,16.406,0.081
53144.210065,16.578,0.124
53315.463884,16.277,0.112
53346.385904,16.594,0.079
53346.398159,16.55,0.084
53346.410803,16.6,0.081
53346.423274,16.473,0.074
53346.43549,16.354,0.063
53347.442826,16.396,0.054
53347.456505,16.457,0.063
53347.47052,16.421,0.061
53347.48431,16.467,0.063
53351.42584,16.54,0.081
53351.440088,16.54,0.078
53351.45458,16.606,0.083
53351.469503,16.549,0.079
53351.484212,16.45,0.071
53353.418978,16.171,0.054
53353.43312,16.114,0.049
53353.447191,16.21,0.056
53353.461393,16.114,0.051
53353.475429,16.133,0.053
53383.349664,16.491,0.055
53383.363816,16.517,0.057
53383.376898,16.487,0.057
53383.39055,16.468,0.054
53383.404937,16.533,0.061
53403.358725,16.274,0.046
53403.371767,16.306,0.046
53403.385385,16.348,0.051
53403.413087,16.306,0.054
53468.229137,16.426,0.137
53468.238976,16.472,0.115
53468.250464,16.481,0.142
53468.260043,16.34,0.126
53468.26964,16.333,0.183
53496.150748,16.545,0.076
53496.160674,16.469,0.07
53496.170759,16.464,0.068
53496.180717,16.353,0.065
53496.190671,16.37,0.068
53503.182772,16.077,0.046
53503.191584,16.024,0.046
53503.200432,16.122,0.05
53503.210184,16.099,0.05
53503.220586,16.119,0.05
53674.471002,16.306,0.074
53674.483272,16.24,0.067
53674.49543,16.336,0.067
53704.453473,16.279,0.052
53704.465978,16.16,0.044
53704.478493,16.17,0.044
53704.491205,16.079,0.043
53704.503789,16.071,0.041
53707.45422,16.57,0.111
53707.46695,16.548,0.083
53707.479539,16.53,0.089
53707.492174,16.542,0.065
53707.504774,16.572,0.063
53710.447986,16.418,0.068
53710.460999,16.441,0.072
53710.473908,16.464,0.074
53710.486561,16.498,0.078
53710.499143,16.482,0.076
53734.412151,16.487,0.055
53734.425028,16.473,0.055
53734.437983,16.43,0.052
53734.451216,16.464,0.057
53734.464318,16.434,0.055
53746.396383,16.371,0.08
53746.408843,16.424,0.081
53746.421373,16.38,0.08
53746.433946,16.41,0.081
53746.446538,16.372,0.078
53758.344626,16.439,0.05
53758.357134,16.386,0.054
53758.369654,16.461,0.057
53758.382387,16.447,0.057
53758.395018,16.445,0.059
53787.457068,16.47,0.072
53787.468939,16.396,0.076
53789.342182,16.542,0.176
53789.35405,16.43,0.222
53789.365922,16.251,0.213
53789.377799,16.324,0.059
53789.389666,16.204,0.046
53790.302573,16.37,0.053
53790.314536,16.361,0.051
53790.326567,16.445,0.056
53791.290204,16.251,0.043
53791.302581,16.151,0.036
53791.314764,16.181,0.04
53791.327122,16.109,0.038
53791.339035,16.19,0.04
53792.279872,16.486,0.055
53792.291799,16.389,0.05
53792.303722,16.469,0.054
53792.31563,16.53,0.063
53792.327538,16.501,0.055
53792.340145,16.496,0.061
53792.351925,16.499,0.078
53792.363708,16.457,0.08
53792.375486,16.536,0.076
53792.387263,16.55,0.08
53793.280731,16.276,0.074
53793.316394,16.433,0.27
53802.285075,16.373,0.065
53802.29645,16.404,0.067
53802.307877,16.436,0.083
53802.319271,16.415,0.07
53802.33067,16.503,0.142
53817.211168,16.233,0.046
53817.223025,16.164,0.041
53817.234495,16.194,0.045
53817.245909,16.231,0.045
53817.25747,16.284,0.046
53821.290828,16.538,0.067
53821.30625,16.543,0.085
53821.33488,16.516,0.117
53821.349772,16.591,0.094
53824.290865,16.433,0.085
53824.30477,16.591,0.281
53824.318955,16.507,0.126
53824.336955,16.338,0.12
53824.351498,16.574,0.144
53828.287295,16.537,0.13
53828.299497,16.677,0.087
53828.314238,16.522,0.067
53828.330786,16.555,0.081
53828.344276,16.523,0.093
53831.185822,16.29,0.07
53831.195379,16.324,0.072
53831.204933,16.277,0.068
53831.214489,16.415,0.081
53831.224059,16.44,0.085
53845.20951,16.58,0.076
53845.220588,16.447,0.071
53846.240405,16.28,0.072
53846.251217,16.314,0.076
53846.262025,16.324,0.078
53846.272829,16.346,0.081
53846.283651,16.367,0.087
53850.200392,16.534,0.074
53850.21087,16.489,0.073
53850.221369,16.525,0.079
53850.231948,16.51,0.081
53851.237377,16.242,0.061
53851.249322,16.244,0.061
53851.259738,16.254,0.065
53851.270845,16.307,0.074
53851.280672,16.282,0.076
53854.215302,16.109,0.054
53854.22617,16.135,0.055
53854.239542,16.034,0.054
53854.250653,16.058,0.057
53857.223294,16.577,0.213
53879.155536,16.49,0.061
53879.166433,16.49,0.064
53879.177202,16.475,0.064
53879.187939,16.472,0.069
53879.198977,16.428,0.069
54056.431442,16.403,0.063
54056.443701,16.365,0.057
54056.455954,16.391,0.057
54056.468388,16.388,0.055
54056.480643,16.395,0.055
54059.438012,16.228,0.052
54059.446107,16.171,0.054
54059.450514,16.267,0.05
54059.462834,16.242,0.048
54059.469637,16.261,0.056
54059.475934,16.279,0.046
54059.483405,16.318,0.054
54059.48859,16.286,0.046
54059.495963,16.269,0.053
54059.508708,16.251,0.051
54064.446409,16.171,0.044
54064.459269,16.151,0.043
54064.472132,16.199,0.046
54064.485006,16.186,0.043
54064.497875,16.261,0.044
54082.449427,16.386,0.067
54082.462208,16.456,0.068
54082.474996,16.417,0.065
54082.487791,16.436,0.067
54082.500594,16.497,0.061
54085.462585,16.398,0.054
54085.475543,16.411,0.052
54085.488507,16.435,0.046
54085.501475,16.418,0.048
54085.514437,16.483,0.052
54091.351164,16.459,0.081
54091.364344,16.303,0.066
54091.37698,16.286,0.063
54091.388886,16.178,0.056
54091.401001,16.184,0.056
54153.277889,16.298,0.041
54153.289384,16.327,0.044
54153.30088,16.354,0.044
54153.312427,16.403,0.046
54153.323969,16.399,0.046
54155.295448,16.434,0.055
54155.30707,16.476,0.055
54155.318762,16.465,0.054
54155.330612,16.443,0.052
54155.342726,16.458,0.05
54174.220568,16.482,0.064
54174.231316,16.428,0.054
54174.242155,16.488,0.056
54174.253083,16.468,0.056
54174.263912,16.46,0.054
54174.269018,16.463,0.046
54174.279727,16.506,0.05
54174.290425,16.487,0.057
54174.301132,16.518,0.08
54174.311854,16.49,0.083
54177.284676,16.614,0.161
54180.230965,16.222,0.049
54180.241558,16.249,0.048
54180.25209,16.294,0.049
54180.262392,16.297,0.048
54180.272815,16.263,0.045
54180.285059,16.265,0.031
54180.295823,16.316,0.033
54180.306959,16.323,0.033
54180.317527,16.348,0.035
54180.328314,16.375,0.039
54200.175344,16.447,0.102
54200.194569,16.284,0.094
54200.213765,16.222,0.081
54205.224166,16.271,0.044
54205.233347,16.273,0.044
54205.24262,16.192,0.043
54205.251805,16.197,0.044
54205.261035,16.164,0.041
54208.219692,16.508,0.052
54208.228715,16.423,0.048
54208.237779,16.44,0.05
54208.246864,16.497,0.05
54208.255935,16.518,0.052
54212.227282,16.098,0.048
54212.236307,16.095,0.046
54212.245325,16.052,0.046
54212.254483,16.099,0.05
54212.263636,16.123,0.052
54416.441796,16.455,0.054
54416.454199,16.465,0.05
54416.466515,16.428,0.048
54416.478838,16.451,0.05
54416.491186,16.461,0.048
54438.451331,16.461,0.037
54438.464575,16.467,0.037
54438.477915,16.476,0.037
54438.49139,16.466,0.037
54438.50461,16.471,0.037
54478.456836,16.142,0.106
54478.4691,16.096,0.076
54478.481382,16.239,0.087
54478.493684,16.183,0.106
54478.505813,16.186,0.111
54481.276711,16.409,0.065
54481.289628,16.495,0.063
54481.302554,16.415,0.055
54481.315482,16.472,0.054
54481.328586,16.472,0.05
54498.337002,16.541,0.041
54498.349527,16.551,0.043
54498.362075,16.502,0.041
54498.374724,16.535,0.043
54498.387405,16.469,0.039
54506.329443,16.442,0.035
54506.34155,16.45,0.037
54506.353657,16.426,0.037
54506.365752,16.416,0.037
54506.377878,16.479,0.039
54507.394054,16.154,0.046
54507.407755,16.157,0.045
54507.419664,16.214,0.048
54507.43165,16.297,0.051
54507.443547,16.243,0.049
54522.387463,16.146,0.039
54522.399146,16.095,0.039
54522.41084,16.099,0.041
54522.422468,16.139,0.044
54522.434122,16.135,0.044
54527.278739,16.556,0.067
54527.301545,16.45,0.141
54527.312942,16.516,0.037
54527.324351,16.458,0.033
54535.275454,16.444,0.03
54535.28653,16.427,0.03
54535.297611,16.449,0.03
54535.308698,16.441,0.03
54535.319775,16.457,0.031
54535.338426,16.415,0.071
54535.349477,16.449,0.074
54535.361502,16.498,0.076
54535.372782,16.448,0.074
54535.383797,16.563,0.086
54540.168338,16.352,0.046
54540.179247,16.348,0.044
54540.190354,16.372,0.044
54540.201242,16.387,0.044
54540.212233,16.426,0.044
54553.298258,16.149,0.046
54553.310151,16.16,0.037
54553.322043,16.206,0.039
54553.334089,16.171,0.041
54553.34601,16.188,0.044
54558.125047,16.579,0.054
54558.136696,16.508,0.05
54558.148256,16.436,0.046
54558.159829,16.439,0.046
54558.171461,16.399,0.043
54561.243037,16.491,0.033
54561.254524,16.538,0.035
54561.265991,16.517,0.039
54561.288961,16.536,0.098
54580.190487,16.439,0.048
54580.20111,16.341,0.044
54580.211722,16.33,0.046
54580.222332,16.243,0.044
54580.233007,16.233,0.05
54583.255206,16.546,0.115
54583.265839,16.73,0.12
54583.27646,16.615,0.1
54583.287076,16.595,0.091
54590.151247,16.302,0.084
54590.160914,16.36,0.086
54590.170603,16.592,0.102
54590.180246,16.53,0.094
54590.189901,16.559,0.102
54590.202415,16.486,0.063
54590.212723,16.559,0.065
54590.223078,16.503,0.061
54590.233455,16.498,0.059
54590.24388,16.51,0.061
54611.156213,16.191,0.07
54611.166712,16.204,0.039
54611.176683,16.159,0.039
54611.186643,16.271,0.043
54611.196553,16.261,0.044
