mjd,m,merr
52639.443826,15.561,0.022
52639.458614,15.462,0.02
52639.473972,15.452,0.02
52639.488626,15.434,0.02
52639.503198,15.42,0.02
52649.441624,15.62,0.025
52649.456828,15.639,0.026
52649.471912,15.687,0.028
52649.486977,15.696,0.028
52649.502428,15.74,0.03
52665.383169,15.637,0.022
52665.397469,15.524,0.022
52665.411832,15.506,0.02
52665.426142,15.47,0.02
52665.440693,15.449,0.02
52676.290217,15.789,0.035
52676.306687,15.814,0.036
52676.322024,15.843,0.04
52676.338772,15.834,0.038
52676.354182,15.77,0.035
52677.321201,15.419,0.022
52677.33565,15.468,0.083
52677.350086,15.511,0.028
52677.364512,15.612,0.044
52677.379245,15.597,0.031
52706.3076,15.508,0.023
52706.32095,15.569,0.021
52706.334,15.423,0.021
52706.347667,15.435,0.021
52706.361042,15.422,0.021
52724.292808,15.793,0.026
52724.304355,15.75,0.024
52724.315917,15.785,0.026
52724.334406,15.733,0.026
52724.346887,15.695,0.024
52739.241938,15.784,0.036
52739.253433,15.809,0.038
52739.265118,15.74,0.036
52739.276791,15.79,0.038
52739.28852,15.747,0.036
52753.19597,15.386,0.02
52753.209018,15.413,0.022
52753.222001,15.446,0.022
52753.234039,15.453,0.022
52753.246091,15.475,0.024
52769.20674,15.65,0.057
52769.218538,15.617,0.055
52769.230218,15.616,0.054
52769.241933,15.597,0.054
52769.254113,15.641,0.055
52787.169039,15.729,0.028
52787.179593,15.755,0.03
52787.190318,15.748,0.03
52787.200913,15.766,0.03
52787.21167,15.784,0.03
52794.168418,15.498,0.03
52794.17881,15.606,0.031
52794.189473,15.641,0.033
52794.20025,15.636,0.035
52794.210657,15.644,0.035
52797.169051,15.639,0.05
52797.178922,15.661,0.052
52797.188889,15.632,0.052
52797.198905,15.667,0.054
52797.208885,15.613,0.055
52966.404933,15.436,0.03
52966.413677,15.36,0.026
52966.421976,15.36,0.025
52966.430439,15.384,0.025
52966.439447,15.41,0.025
52991.499473,15.72,0.022
52991.512643,15.704,0.022
52991.526382,15.618,0.024
53003.380705,15.467,0.013
53003.392876,15.559,0.015
53003.405034,15.446,0.018
53003.417141,15.515,0.031
53003.429441,15.536,0.049
53006.389742,15.762,0.03
53006.401909,15.776,0.028
53006.414653,15.768,0.026
53006.426884,15.744,0.028
53006.444239,15.745,0.028
53024.383719,15.642,0.031
53024.396557,15.672,0.037
53034.344105,15.76,0.03
53034.356426,15.794,0.03
53034.369008,15.78,0.028
53034.381641,15.765,0.028
53034.393938,15.711,0.026
53050.327007,15.619,0.037
53050.338696,15.662,0.054
53050.350379,15.658,0.065
53050.361989,15.699,0.061
53050.3736,15.68,0.046
53078.280502,15.665,0.022
53078.291299,15.643,0.02
53078.30207,15.708,0.024
53078.312711,15.708,0.024
53078.323473,15.751,0.024
53092.234064,15.65,0.021
53092.243928,15.619,0.021
53092.253855,15.54,0.02
53092.263775,15.522,0.02
53092.273916,15.512,0.018
53109.239881,15.41,0.018
53109.251004,15.391,0.018
53109.26208,15.407,0.018
53109.273187,15.404,0.02
53109.284275,15.407,0.02
53121.196157,15.762,0.025
53121.206631,15.76,0.025
53121.216815,15.77,0.025
53121.227239,15.784,0.025
53121.237762,15.817,0.026
53137.201184,15.419,0.024
53137.210764,15.426,0.024
53137.220287,15.467,0.024
53165.171304,15.617,0.037
53165.181289,15.629,0.031
53165.19127,15.642,0.048
53165.201247,15.66,0.044
53165.211266,15.647,0.054
53177.172007,15.676,0.028
53177.182138,15.67,0.028
53341.467389,15.856,0.079
53341.479931,15.83,0.079
53341.493719,15.863,0.079
53341.506728,15.851,0.074
53349.467914,15.461,0.033
53349.481417,15.442,0.031
53349.495087,15.411,0.03
53355.522871,15.639,0.035
53360.425488,15.555,0.036
53385.489187,15.769,0.028
53385.502364,15.768,0.03
53385.515452,15.781,0.03
53385.528392,15.74,0.028
53385.541864,15.729,0.028
53415.42379,15.757,0.031
53415.462719,15.572,0.028
53437.358581,15.747,0.026
53437.370203,15.726,0.024
53437.381529,15.75,0.026
53437.394687,15.749,0.026
53437.405973,15.752,0.028
53443.378514,15.629,0.046
53443.389155,15.565,0.024
53443.410418,15.509,0.111
53443.421042,15.571,0.065
53473.283481,15.545,0.026
53473.29422,15.506,0.026
53473.305338,15.471,0.024
53473.31723,15.473,0.026
53473.327825,15.437,0.026
53500.193544,15.545,0.024
53500.204167,15.575,0.024
53500.215625,15.646,0.026
53500.225647,15.66,0.028
53500.23556,15.679,0.028
53528.170979,15.716,0.041
53528.182521,15.703,0.041
53528.193523,15.762,0.044
53528.204247,15.81,0.046
53528.214864,15.787,0.048
53539.170698,15.646,0.065
53539.180215,15.683,0.07
53539.189738,15.687,0.072
53539.199261,15.668,0.074
53539.208767,15.712,0.085
53703.461697,15.454,0.024
53703.474814,15.503,0.024
53703.487489,15.506,0.024
53703.500246,15.621,0.024
53703.513165,15.653,0.024
53714.454393,15.417,0.02
53714.467188,15.439,0.02
53714.480243,15.509,0.022
53714.492978,15.512,0.02
53714.505887,15.559,0.02
53740.4053,15.459,0.02
53740.419494,15.466,0.02
53740.432813,15.526,0.02
53740.445999,15.591,0.02
53740.459635,15.617,0.022
53771.349598,15.572,0.044
53771.362525,15.551,0.081
53786.336474,15.456,0.02
53786.348415,15.581,0.035
53786.360349,15.4,0.046
53786.372292,15.422,0.022
53813.309269,15.747,0.044
53813.320271,15.82,0.046
53813.331273,15.776,0.046
53813.342289,15.778,0.046
53813.353308,15.795,0.046
53823.246128,15.602,0.021
53823.257246,15.548,0.02
53823.26823,15.518,0.02
53823.279266,15.494,0.02
53823.290052,15.452,0.02
53844.232919,15.494,0.028
53844.24314,15.584,0.031
53844.25344,15.602,0.03
53844.263657,15.545,0.03
53844.273892,15.631,0.031
53853.195795,15.435,0.03
53853.206365,15.415,0.03
53853.216864,15.47,0.03
53853.227468,15.423,0.03
53853.238115,15.425,0.03
53887.17307,15.711,0.055
53887.184956,15.724,0.061
53887.19619,15.754,0.063
53887.20754,15.758,0.065
53887.218894,15.811,0.067
53902.17008,15.737,0.051
53902.193274,15.776,0.053
54055.444713,15.438,0.036
54055.457246,15.547,0.035
54055.469734,15.454,0.033
54055.485145,15.542,0.031
54055.498169,15.557,0.031
54067.456807,15.754,0.026
54067.469697,15.739,0.026
54067.483535,15.667,0.025
54067.496723,15.633,0.023
54067.509328,15.539,0.021
54070.449951,15.579,0.024
54070.462849,15.678,0.024
54070.475869,15.688,0.024
54070.488753,15.706,0.024
54070.501638,15.745,0.028
54084.452551,15.491,0.036
54084.465588,15.498,0.033
54084.478515,15.476,0.031
54084.491357,15.587,0.035
54084.50428,15.569,0.035
54098.371046,15.568,0.028
54098.383061,15.589,0.024
54098.395016,15.694,0.026
54098.406965,15.673,0.024
54098.418994,15.712,0.024
54110.392252,15.5,0.051
54110.40498,15.476,0.046
54110.417686,15.593,0.046
54110.430481,15.568,0.046
54110.443155,15.59,0.048
54121.334934,15.741,0.024
54121.347109,15.704,0.024
54121.359298,15.62,0.02
54121.371567,15.64,0.02
54121.383751,15.512,0.018
54155.296933,15.538,0.028
54155.308673,15.541,0.026
54155.321109,15.55,0.025
54155.333842,15.455,0.025
54155.346363,15.558,0.025
54206.225462,15.752,0.031
54206.234795,15.813,0.033
54206.244127,15.735,0.03
54206.253826,15.8,0.033
54206.263214,15.771,0.031
54529.156904,15.529,0.031
54529.169635,15.495,0.03
54529.181105,15.446,0.028
54529.192455,15.547,0.03
54529.203757,15.514,0.028
54568.191432,15.437,0.022
54568.202256,15.455,0.022
54568.213111,15.485,0.022
54568.223902,15.506,0.022
54568.23474,15.51,0.022
54574.267606,15.657,0.068
54582.198523,15.73,0.028
54582.208962,15.714,0.028
54582.219531,15.697,0.028
54582.230091,15.631,0.026
54582.240561,15.543,0.024
54589.200651,15.752,0.028
54589.211012,15.744,0.026
54589.221356,15.776,0.026
54589.231713,15.769,0.026
54589.242078,15.762,0.024
54613.160267,15.685,0.028
54613.170246,15.693,0.028
54613.180106,15.7,0.028
54613.19007,15.707,0.028
54613.199996,15.7,0.03
54621.163208,15.671,0.024
54621.173367,15.592,0.022
54621.183506,15.51,0.022
54621.193872,15.527,0.022
54621.204025,15.526,0.022
