mjd,m,merr
52621.376341,14.447,0.012
52621.391228,14.38,0.01
52621.406716,14.295,0.01
52621.421683,14.239,0.01
52635.388191,14.485,0.012
52635.402668,14.455,0.012
52635.41782,14.369,0.012
52635.43249,14.331,0.01
52635.447484,14.255,0.01
52654.319159,14.245,0.013
52654.334012,14.314,0.015
52654.349053,14.303,0.015
52654.364594,14.427,0.018
52654.38047,14.508,0.016
52662.319995,14.291,0.01
52662.336141,14.352,0.012
52662.352181,14.453,0.012
52662.368202,14.512,0.013
52662.384805,14.449,0.012
52693.312239,14.818,0.015
52693.325724,14.547,0.012
52693.339729,14.788,0.016
52693.353449,14.362,0.01
52693.353692,14.816,0.016
52693.367893,14.268,0.01
52721.235769,14.409,0.01
52721.2479,14.5,0.012
52721.248143,14.856,0.018
52721.260026,14.515,0.012
52721.284292,14.373,0.01
52750.185477,14.37,0.012
52750.196397,14.331,0.01
52750.207868,14.283,0.01
52750.218795,14.282,0.01
52750.229726,14.27,0.01
52772.154112,14.477,0.017
52772.166048,14.507,0.018
52772.17793,14.512,0.018
52772.189892,14.423,0.017
52772.201865,14.345,0.015
52780.170008,14.424,0.018
52948.460289,14.356,0.012
52948.497555,14.308,0.01
52979.386225,14.507,0.02
52979.397436,14.474,0.02
52979.410124,14.397,0.023
53009.360724,14.509,0.013
53009.377298,14.503,0.013
53009.39184,14.397,0.012
53009.40761,14.329,0.012
53009.422618,14.282,0.012
53017.380665,14.358,0.01
53017.397403,14.286,0.008
53017.415739,14.259,0.008
53017.43541,14.311,0.01
53017.460957,14.457,0.01
53044.285473,14.379,0.012
53044.298106,14.499,0.013
53074.278451,14.382,0.01
53074.289395,14.489,0.012
53074.300439,14.516,0.012
53074.311525,14.564,0.013
53074.322526,14.535,0.012
53104.201582,14.369,0.008
53104.21245,14.316,0.008
53104.234139,14.266,0.008
53104.244931,14.302,0.008
53133.221291,14.457,0.012
53133.230299,14.388,0.012
53156.167504,14.527,0.016
53156.175888,14.595,0.018
53156.184247,14.628,0.018
53156.192679,14.574,0.018
53156.201115,14.471,0.016
53162.187564,14.292,0.013
53162.197166,14.309,0.013
53330.442515,14.229,0.009
53330.45502,14.32,0.009
53330.467544,14.341,0.013
53330.480049,14.456,0.013
53330.492557,14.541,0.013
53339.38095,14.392,0.02
53339.430548,14.566,0.023
53356.446381,14.276,0.009
53356.459407,14.3,0.009
53356.472402,14.337,0.009
53356.4987,14.53,0.011
53358.33527,14.397,0.01
53358.349014,14.345,0.01
53358.361912,14.301,0.01
53358.376626,14.314,0.01
53358.392534,14.333,0.01
53362.460653,14.478,0.015
53362.475464,14.315,0.009
53362.489935,14.31,0.009
53390.338142,14.537,0.013
53390.363634,14.529,0.013
53390.376458,14.387,0.009
53390.389973,14.369,0.009
53429.273184,14.435,0.009
53429.306973,14.529,0.011
53429.31869,14.444,0.011
53460.234686,14.454,0.009
53460.245142,14.547,0.009
53460.256076,14.565,0.009
53460.266739,14.489,0.009
53488.194295,14.543,0.011
53488.204322,14.502,0.009
53488.214566,14.414,0.009
53488.22541,14.379,0.009
53488.235615,14.342,0.009
53534.16257,14.458,0.018
53534.172168,14.419,0.017
53534.181779,14.368,0.017
53534.19141,14.32,0.015
53534.20103,14.309,0.015
53754.347005,14.215,0.013
53754.359569,14.224,0.011
53775.296015,14.472,0.013
53775.308819,14.482,0.013
53775.322145,14.533,0.015
53775.331129,14.593,0.015
53775.335286,14.605,0.015
53775.345133,14.601,0.015
53775.348446,14.597,0.015
53775.359192,14.458,0.021
53775.373209,14.427,0.016
53775.388206,14.381,0.021
53860.195149,14.322,0.012
53860.20782,14.399,0.013
53860.217776,14.449,0.013
53860.230585,14.503,0.015
53860.244166,14.496,0.015
53906.169565,14.373,0.015
53906.179052,14.444,0.018
53906.18858,14.485,0.02
53906.198139,14.461,0.025
53906.207654,14.377,0.023
54021.438349,14.323,0.016
54021.450531,14.315,0.016
54021.462843,14.374,0.016
54021.475102,14.472,0.018
54021.487309,14.56,0.018
54050.430559,14.348,0.013
54050.44278,14.302,0.013
54050.455084,14.27,0.013
54050.467272,14.394,0.013
54050.479446,14.473,0.013
54126.322163,14.507,0.012
54139.274039,14.464,0.007
54139.285972,14.4,0.009
54139.297711,14.394,0.011
54139.309395,14.331,0.007
54139.321075,14.282,0.009
54167.273456,14.369,0.011
54167.284552,14.396,0.011
54167.295649,14.396,0.011
54167.306742,14.423,0.015
54464.327519,14.329,0.013
54464.340026,14.348,0.013
54464.352557,14.407,0.013
54464.365427,14.489,0.013
54464.378013,14.576,0.015
54484.327743,14.509,0.018
54484.340047,14.58,0.018
54484.352377,14.563,0.018
54484.365113,14.466,0.016
54484.37732,14.44,0.016
54495.339497,14.514,0.015
54495.351737,14.547,0.015
54495.363732,14.492,0.013
54495.375933,14.392,0.013
54495.387929,14.36,0.013
54523.27395,14.646,0.013
54523.2855,14.633,0.013
54523.297189,14.524,0.013
54523.30867,14.43,0.012
54523.320311,14.395,0.012
54540.224208,14.484,0.015
54540.235732,14.413,0.013
54540.246688,14.381,0.013
54540.2575,14.309,0.013
54554.242966,14.566,0.015
54554.254943,14.518,0.013
54554.267202,14.429,0.013
54554.279223,14.37,0.013
54554.29126,14.32,0.012
54621.161352,14.321,0.016
54621.171951,14.299,0.016
54621.182483,14.314,0.018
54621.192869,14.346,0.018
54621.203685,14.371,0.018
