mjd,m,merr
52613.446165,15.873,0.033
52613.461309,15.904,0.033
52613.476682,15.896,0.035
52613.491877,15.964,0.035
52613.507101,15.94,0.033
52618.452646,15.879,0.048
52618.467943,15.944,0.072
52618.483389,15.988,0.039
52618.498823,15.954,0.046
52618.514206,15.987,0.043
52640.427386,15.909,0.028
52640.443231,15.939,0.028
52640.458124,15.875,0.026
52640.473155,15.854,0.026
52640.487981,15.892,0.028
52641.376058,15.935,0.031
52641.391076,15.905,0.031
52641.405979,15.872,0.03
52641.420865,15.872,0.031
52641.435756,15.85,0.03
52643.378316,15.874,0.03
52643.392592,15.85,0.031
52643.406785,15.89,0.033
52643.421049,15.881,0.031
52643.435181,15.919,0.031
52647.393512,15.9,0.033
52647.408338,15.944,0.035
52647.422762,15.934,0.035
52647.437169,15.945,0.035
52647.451574,15.924,0.033
52666.323916,15.902,0.031
52666.339038,15.848,0.03
52666.35391,15.872,0.031
52666.368935,15.92,0.031
52666.383601,15.93,0.033
52670.335145,15.924,0.031
52670.349119,15.98,0.033
52670.363113,16.008,0.033
52670.377123,15.911,0.033
52670.39114,15.973,0.033
52673.299469,16.177,0.039
52673.314841,16.131,0.035
52673.33009,15.966,0.031
52673.345419,15.953,0.031
52673.360705,15.924,0.031
52678.312787,15.981,0.074
52678.326833,15.897,0.104
52678.340826,15.86,0.031
52678.354881,15.869,0.033
52678.368943,15.868,0.033
52698.271767,15.868,0.038
52698.28923,15.828,0.031
52698.306921,15.855,0.031
52698.307271,15.901,0.03
52698.321275,15.954,0.033
52698.32164,15.911,0.031
52703.250517,15.968,0.031
52703.264058,15.918,0.05
52703.278078,15.923,0.031
52703.291441,15.902,0.03
52703.304882,15.965,0.093
52725.30402,16.02,0.031
52725.315582,16.083,0.041
52725.327374,16.204,0.115
52725.339173,16.205,0.102
52725.350891,16.069,0.102
52730.234595,15.946,0.031
52730.246221,15.934,0.031
52730.257959,15.93,0.031
52730.269656,15.929,0.031
52730.28146,15.91,0.031
52733.246191,15.872,0.031
52733.25856,15.879,0.033
52733.270767,15.863,0.031
52733.283818,15.907,0.033
52733.295776,15.886,0.052
52738.189795,15.981,0.043
52738.190245,15.95,0.043
52738.201489,15.995,0.043
52738.201849,15.986,0.043
52738.213172,16.007,0.043
52738.213529,15.956,0.043
52738.224776,16.004,0.043
52738.225135,15.988,0.045
52738.236381,15.958,0.041
52738.23674,15.957,0.043
52754.198104,16.589,0.061
52754.210286,16.39,0.052
52754.222545,16.03,0.039
52754.234729,15.94,0.037
52754.24691,15.868,0.037
52758.15049,15.959,0.03
52758.162505,15.942,0.03
52758.174587,15.948,0.031
52758.186746,15.92,0.031
52758.198789,15.919,0.03
52788.166183,15.878,0.041
52788.176446,15.899,0.055
52788.186726,15.975,0.081
52788.197075,16.016,0.117
52940.473148,15.862,0.093
52940.486581,15.863,0.098
52940.499261,15.906,0.111
52964.461896,15.882,0.028
52964.475017,15.869,0.028
52964.488211,15.915,0.028
52964.504523,15.887,0.026
52966.40859,15.88,0.035
52966.421335,15.899,0.035
52966.434056,15.934,0.033
52966.446844,15.863,0.031
52966.459473,15.922,0.033
52973.39909,15.891,0.035
52973.412068,15.843,0.031
52973.425176,15.856,0.031
52973.437967,15.853,0.031
52973.451037,15.862,0.031
52993.390348,15.889,0.024
52993.403434,15.926,0.026
52993.416805,15.916,0.024
52993.429908,15.898,0.02
52993.44311,15.94,0.02
52994.469381,15.95,0.026
52994.48268,15.948,0.02
52994.496475,16.043,0.022
52994.509823,16.355,0.03
52994.523283,16.642,0.037
52997.439766,15.894,0.063
53025.369703,15.941,0.024
53025.395832,15.873,0.02
53028.342242,15.86,0.018
53028.354886,15.884,0.018
53028.367481,15.903,0.018
53028.379968,15.9,0.018
53028.392456,15.883,0.018
53033.281046,16.001,0.04
53033.293726,16.241,0.048
53033.306253,16.56,0.061
53033.318745,16.761,0.071
53033.331195,16.438,0.053
53052.276471,15.982,0.028
53052.288248,15.949,0.028
53052.300099,15.99,0.028
53052.312084,15.932,0.028
53052.323989,15.923,0.028
53061.277793,15.901,0.018
53061.288988,15.898,0.02
53061.300211,15.886,0.02
53061.31137,15.876,0.02
53061.322533,15.85,0.02
53079.227031,16.029,0.038
53079.238105,15.906,0.031
53079.24916,15.894,0.031
53079.260096,15.881,0.03
53079.271058,15.894,0.031
53082.283754,15.842,0.02
53082.29508,15.917,0.022
53082.306907,15.867,0.022
53082.318336,15.876,0.022
53082.329986,15.923,0.022
53091.277531,15.848,0.022
53091.287943,15.87,0.022
53091.298564,15.897,0.02
53091.309006,15.903,0.02
53091.31942,15.912,0.022
53110.189413,15.967,0.041
53110.200406,15.973,0.04
53110.211286,15.944,0.041
53110.222237,16.007,0.043
53110.233147,15.98,0.043
53116.25551,15.988,0.048
53116.266721,15.986,0.063
53116.277852,16.003,0.105
53116.289077,16.027,0.144
53116.300211,15.997,0.076
53138.156439,15.922,0.038
53138.16616,15.962,0.038
53138.176534,15.986,0.04
53138.186167,15.936,0.038
53138.195811,15.928,0.036
53141.165517,16.282,0.046
53141.175086,16.519,0.054
53141.184728,16.751,0.065
53141.194242,16.553,0.054
53141.203895,16.267,0.043
53144.185026,15.884,0.043
53144.193924,15.882,0.059
53144.202774,15.941,0.053
53347.472765,16.152,0.041
53347.488742,15.97,0.033
53347.504937,15.997,0.035
53347.521922,15.947,0.031
53353.396804,15.978,0.037
53353.409736,16.013,0.041
53353.422681,15.938,0.039
53353.435609,15.992,0.039
53353.448599,15.988,0.039
53357.441798,15.877,0.03
53357.455221,15.831,0.03
53357.470331,15.861,0.031
53357.485405,15.923,0.033
53357.498694,15.866,0.031
53376.419183,15.908,0.03
53376.433069,15.961,0.031
53376.446628,15.945,0.031
53376.460331,15.94,0.031
53376.473928,15.925,0.031
53381.35933,15.956,0.037
53381.372654,15.977,0.046
53381.386634,15.983,0.057
53381.401279,15.988,0.035
53381.417177,16.05,0.048
53403.34719,15.963,0.074
53403.360707,15.952,0.031
53403.373416,15.969,0.031
53403.387346,15.948,0.033
53403.400271,15.958,0.033
53404.297776,15.992,0.013
53404.310741,16.006,0.013
53404.323557,16.006,0.013
53404.34303,16.023,0.013
53404.356378,16.003,0.013
53432.286307,15.92,0.083
53432.313266,15.978,0.059
53432.328057,16.073,0.187
53432.341093,15.993,0.104
53437.235891,16.016,0.031
53437.24836,15.995,0.03
53437.259982,15.998,0.031
53437.27145,15.974,0.031
53437.282889,15.965,0.031
53438.354577,15.95,0.033
53438.366794,15.953,0.033
53438.378324,15.953,0.033
53438.389937,15.974,0.035
53438.401519,15.965,0.037
53440.24128,15.984,0.03
53440.253045,15.983,0.031
53440.264653,15.999,0.031
53440.279884,15.985,0.031
53440.292503,15.976,0.031
53443.219304,15.938,0.03
53443.264323,15.986,0.035
53446.221322,15.941,0.031
53446.231922,15.91,0.031
53446.242505,15.894,0.031
53446.253592,15.868,0.031
53446.264798,15.92,0.035
53464.286108,16.128,0.052
53464.296261,16.134,0.041
53464.306432,16.15,0.039
53464.316618,15.985,0.037
53464.326778,15.886,0.037
53495.197586,15.983,0.059
53495.207896,15.947,0.057
53495.218131,16.036,0.067
53495.228339,15.933,0.065
53495.238648,15.93,0.074
53502.145833,16.266,0.048
53502.15662,16.177,0.046
53502.167164,16.088,0.044
53502.177986,15.963,0.041
53502.188454,15.891,0.041
53705.455427,15.953,0.037
53705.468426,15.942,0.035
53705.481083,15.965,0.033
53705.493791,15.938,0.033
53705.506462,15.988,0.033
53708.453096,15.947,0.033
53708.465896,16.004,0.035
53708.478818,15.939,0.033
53708.491646,15.971,0.035
53708.504299,16.014,0.035
53732.416952,16.022,0.052
53732.429742,15.947,0.05
53732.442388,16.006,0.046
53732.455164,16.006,0.05
53732.467934,15.966,0.048
53735.420816,16.026,0.094
53735.459879,16.041,0.037
53737.408599,15.989,0.031
53737.422023,16.013,0.031
53737.435449,16.033,0.031
53737.448797,15.997,0.059
53737.462105,15.98,0.031
53747.359586,15.984,0.08
53747.372414,15.973,0.076
53747.398945,15.966,0.08
53759.349115,15.961,0.031
53759.361907,15.952,0.031
53759.374577,15.957,0.033
53759.387267,15.978,0.035
53759.399942,15.959,0.039
53762.352971,16.206,0.039
53762.365677,16.078,0.033
53762.378699,15.952,0.03
53762.391587,15.956,0.03
53762.404608,15.98,0.031
53788.410556,15.916,0.035
53788.422466,15.984,0.039
53788.43442,15.989,0.041
53788.446754,15.905,0.059
53788.458943,15.968,0.043
53789.294344,16.706,0.112
53789.306948,16.827,0.107
53789.319967,16.558,0.142
53789.332486,16.114,0.107
53790.334782,15.995,0.037
53790.346469,15.966,0.037
53790.358174,15.998,0.039
53790.369865,15.966,0.039
53790.381564,15.991,0.039
53793.35197,16.011,0.035
53793.363689,15.999,0.033
53793.375427,15.975,0.05
53793.387173,15.978,0.037
53797.242984,16.013,0.033
53797.254539,16.01,0.031
53797.266181,15.939,0.091
53797.277758,15.933,0.031
53797.289325,15.989,0.063
53799.281988,15.975,0.028
53799.282835,16.023,0.037
53799.293982,15.956,0.026
53799.294319,16.032,0.033
53799.30583,15.981,0.031
53799.305876,15.976,0.026
53799.31754,16.016,0.033
53799.317724,15.968,0.028
53799.329043,15.987,0.033
53799.329501,15.984,0.028
53817.33673,15.926,0.043
53817.347585,15.883,0.041
53817.358466,15.965,0.044
53817.369371,15.987,0.046
53819.283163,15.98,0.039
53819.294115,15.947,0.074
53819.318072,15.946,0.039
53819.329262,15.955,0.037
53826.279064,15.986,0.039
53826.290916,16.012,0.059
53826.315354,15.942,0.074
53826.326841,15.954,0.044
53827.291314,15.989,0.037
53827.302431,15.967,0.041
53827.313355,15.982,0.039
53827.324112,16.077,0.044
53827.335042,16.015,0.046
53832.175337,16.063,0.055
53845.189063,16.017,0.048
53845.199767,16.007,0.048
53845.210628,16.028,0.048
53845.221351,16.052,0.05
53845.232097,16.025,0.052
53848.192015,15.994,0.05
53848.202621,15.986,0.046
53848.213339,15.951,0.048
53848.223978,15.968,0.052
53848.235323,16.023,0.054
53850.22246,15.975,0.041
53850.233093,16.012,0.048
53850.243785,16.003,0.046
53850.254695,16.0,0.043
53850.265811,16.016,0.043
53851.188727,15.997,0.046
53851.198949,15.949,0.046
53851.209227,16.007,0.046
53851.219525,15.968,0.046
53851.229865,15.976,0.049
53853.192814,16.139,0.048
53853.203237,16.032,0.046
53853.214648,15.955,0.044
53853.225057,15.889,0.044
53853.235492,15.94,0.044
53880.153002,16.586,0.096
53880.160284,16.414,0.076
53880.164126,16.261,0.076
53880.172026,16.143,0.059
53880.175285,16.044,0.061
53880.182696,16.028,0.053
53880.186495,15.95,0.055
53880.193382,16.017,0.051
53880.197674,15.957,0.059
53880.20436,16.039,0.056
53882.162034,16.031,0.044
53882.174946,16.064,0.046
53882.187931,16.064,0.046
53882.199156,16.029,0.046
53882.211038,16.032,0.046
53884.157213,16.01,0.049
53884.167925,15.996,0.049
53884.179059,15.964,0.051
53884.189863,16.092,0.058
53884.200549,16.051,0.061
54057.457466,16.064,0.039
54057.469957,16.042,0.037
54057.482431,16.048,0.037
54057.49493,16.004,0.035
54057.507406,16.039,0.037
54058.4417,15.953,0.043
54058.454859,15.989,0.045
54058.467445,16.044,0.046
54058.479928,16.155,0.049
54058.492338,16.26,0.053
54060.433641,15.988,0.037
54060.447571,16.016,0.037
54060.46049,15.999,0.037
54060.473393,16.001,0.037
54060.48646,16.03,0.037
54064.438166,15.939,0.04
54064.451798,15.977,0.04
54064.480502,15.957,0.04
54064.493071,15.967,0.04
54067.451322,16.051,0.028
54067.464393,16.278,0.037
54067.477467,16.592,0.05
54067.490721,16.676,0.05
54067.503804,16.302,0.035
54082.425609,15.955,0.074
54083.462006,15.989,0.054
54083.475901,16.056,0.117
54083.489193,15.956,0.039
54083.502287,15.969,0.055
54083.515384,16.003,0.083
54086.366787,16.009,0.043
54086.379715,16.126,0.044
54086.39265,16.469,0.059
54086.405591,16.673,0.068
54086.418529,16.445,0.052
54091.372141,16.075,0.033
54091.384723,16.072,0.033
54091.397308,16.073,0.033
54091.41023,16.023,0.033
54091.422824,16.01,0.033
54112.39106,16.014,0.045
54112.403626,16.099,0.12
54112.416125,16.222,0.054
54112.428675,16.289,0.059
54113.384013,16.215,0.048
54113.397153,16.167,0.046
54113.41136,16.037,0.045
54113.424266,16.018,0.046
54113.437224,16.002,0.049
54115.40541,15.99,0.043
54115.418154,15.973,0.043
54115.431046,15.963,0.045
54115.44403,15.948,0.043
54115.457279,15.955,0.045
54123.337394,16.012,0.04
54123.349788,15.984,0.038
54123.362317,15.993,0.038
54123.374719,15.989,0.036
54123.387368,16.02,0.038
54144.276931,15.985,0.035
54144.288837,16.016,0.036
54144.300823,16.045,0.036
54144.310315,16.016,0.028
54144.312777,16.031,0.038
54144.321432,15.982,0.028
54144.324699,16.014,0.041
54144.332631,15.97,0.028
54144.343729,15.966,0.028
54144.354837,15.999,0.031
54148.332526,15.984,0.038
54148.344227,16.015,0.04
54148.355785,16.145,0.045
54148.367335,16.282,0.053
54148.379283,16.321,0.054
54153.292756,16.018,0.043
54153.304946,15.946,0.035
54153.316636,15.941,0.035
54153.328899,15.946,0.035
54154.275658,15.98,0.028
54154.287138,15.984,0.028
54154.298636,15.989,0.026
54154.310113,15.994,0.028
54154.32157,15.998,0.028
54173.265225,16.01,0.033
54173.276067,15.987,0.03
54173.286807,16.0,0.03
54173.297475,15.977,0.03
54173.308131,15.967,0.03
54176.270355,16.218,0.037
54176.281006,16.627,0.054
54176.291561,16.705,0.057
54176.302349,16.479,0.046
54176.312947,16.191,0.035
54179.286144,15.975,0.03
54179.297033,16.019,0.03
54179.30845,16.026,0.031
54179.31976,15.986,0.031
54179.330751,16.03,0.035
54186.286703,16.011,0.033
54186.298261,15.987,0.03
54186.309564,16.0,0.03
54186.320986,15.977,0.03
54186.332294,15.967,0.03
54201.195751,16.032,0.049
54201.205223,16.123,0.054
54201.214454,15.997,0.046
54201.223685,16.057,0.048
54201.233019,16.071,0.049
54206.221141,15.98,0.03
54206.230189,15.995,0.031
54206.239228,15.927,0.03
54206.248281,15.956,0.03
54206.257399,15.958,0.03
54209.215792,16.006,0.094
54209.224788,15.879,0.089
54209.234355,15.993,0.059
54209.244188,15.937,0.046
54409.445753,15.955,0.033
54409.457995,15.914,0.033
54409.470219,15.904,0.031
54409.482439,15.933,0.031
54439.442723,16.043,0.022
54439.455621,16.065,0.022
54439.468506,16.031,0.022
54439.48137,16.067,0.024
54439.494248,16.064,0.024
54448.390387,15.929,0.03
54448.40353,15.908,0.022
54448.416561,15.948,0.02
54448.429588,15.958,0.02
54448.442614,15.925,0.018
54507.275419,15.904,0.02
54507.287663,15.925,0.022
54507.300065,15.895,0.02
54507.312332,15.928,0.02
54507.324743,15.919,0.02
54523.337849,15.867,0.022
54523.349599,15.864,0.022
54523.361298,15.917,0.024
54523.37302,15.921,0.024
54523.384734,15.903,0.026
54530.280059,16.081,0.067
54530.291475,16.054,0.028
54530.302998,16.044,0.024
54530.314355,16.018,0.033
54530.325708,16.06,0.067
54536.220139,15.981,0.022
54536.231225,16.006,0.022
54536.242162,15.993,0.02
54536.253109,15.977,0.022
54536.264171,15.949,0.02
54554.246872,15.958,0.02
54554.258768,16.052,0.022
54554.270923,16.142,0.024
54554.282835,16.24,0.026
54554.294768,16.193,0.026
54559.126087,15.943,0.024
54559.137733,15.899,0.024
54559.149326,15.909,0.024
54559.160781,15.865,0.024
54559.172259,15.907,0.022
54563.241695,16.026,0.022
54563.253144,16.165,0.026
54563.264612,16.492,0.035
54563.276072,16.712,0.043
54563.287517,16.501,0.037
54581.191944,15.946,0.031
54581.202614,15.953,0.033
54581.213286,15.914,0.031
54581.223957,16.036,0.035
54581.234654,16.186,0.041
54584.199995,16.034,0.031
54584.210879,16.047,0.031
54584.221774,16.044,0.031
54584.232671,16.082,0.035
54584.24359,16.076,0.035
54591.196125,16.26,0.041
54591.206526,16.134,0.039
54591.216803,16.034,0.037
54591.22708,15.966,0.037
54591.237357,15.968,0.037
