mjd,m,merr
52619.455193,16.143,0.053
52619.47017,16.162,0.054
52619.48558,16.241,0.059
52619.500568,16.168,0.053
52619.515557,16.253,0.056
52641.451262,16.064,0.037
52641.466354,16.076,0.039
52641.481566,16.063,0.039
52641.49678,16.072,0.039
52641.512254,16.111,0.041
52646.391418,16.263,0.054
52646.406236,16.31,0.055
52646.420706,16.267,0.054
52646.43534,16.428,0.063
52646.449792,16.321,0.057
52647.384709,16.196,0.044
52647.399679,16.23,0.048
52647.414135,16.264,0.048
52647.42858,16.385,0.054
52647.442971,16.377,0.052
52647.448669,16.401,0.064
52647.463419,16.476,0.068
52647.477959,16.42,0.063
52647.492733,16.474,0.068
52667.391697,16.369,0.048
52667.406927,16.392,0.052
52667.42241,16.402,0.052
52667.437717,16.43,0.061
52667.453079,16.297,0.054
52672.385245,16.111,0.052
52672.400012,16.056,0.039
52672.414032,16.117,0.041
52672.428488,16.189,0.057
52672.442371,16.172,0.05
52673.295705,16.446,0.054
52673.311611,16.36,0.053
52673.327969,16.302,0.048
52673.342864,16.25,0.048
52673.35787,16.138,0.045
52704.292187,16.107,0.041
52704.292302,16.155,0.043
52704.305474,16.087,0.041
52704.30559,16.176,0.043
52704.318569,16.073,0.041
52704.318684,16.158,0.045
52704.331574,16.062,0.043
52704.331689,16.186,0.048
52704.344529,16.064,0.041
52704.344646,16.184,0.046
52705.243577,16.39,0.046
52705.258538,16.313,0.043
52705.271565,16.328,0.043
52705.284655,16.267,0.041
52705.299622,16.231,0.041
52707.249627,16.4,0.048
52707.263011,16.415,0.048
52707.276173,16.403,0.048
52707.289418,16.445,0.05
52707.302794,16.397,0.048
52710.23613,16.103,0.043
52710.249423,16.189,0.048
52710.262856,16.214,0.048
52710.276573,16.236,0.05
52710.290104,16.278,0.052
52729.23204,16.286,0.043
52729.243681,16.318,0.044
52729.255148,16.351,0.046
52729.267314,16.402,0.048
52729.278801,16.439,0.052
52734.253383,16.082,0.039
52734.265738,16.17,0.057
52734.277897,16.154,0.068
52738.185795,16.392,0.055
52738.197279,16.308,0.052
52738.208754,16.377,0.055
52738.220196,16.392,0.055
52738.23167,16.374,0.054
52755.197129,16.144,0.049
52755.197472,16.018,0.043
52755.209021,16.139,0.049
52755.209365,16.054,0.045
52755.220981,16.163,0.051
52755.221324,16.1,0.048
52755.232911,16.15,0.053
52755.233254,16.118,0.049
52755.244883,16.218,0.059
52755.245226,16.054,0.048
52758.200653,16.425,0.054
52758.20112,16.425,0.054
52758.212585,16.396,0.056
52758.213055,16.445,0.054
52758.224526,16.354,0.054
52758.224994,16.291,0.051
52758.236546,16.275,0.051
52758.237015,16.306,0.049
52758.24862,16.268,0.051
52758.249087,16.188,0.049
52941.433524,16.192,0.061
52941.445223,16.249,0.059
52941.456938,16.156,0.049
52941.468519,16.075,0.045
52941.480368,16.084,0.04
52973.427473,16.147,0.048
52973.439487,16.124,0.046
52973.451644,16.079,0.043
52973.463949,16.101,0.043
52973.475885,16.073,0.04
52995.387959,16.269,0.031
52995.400664,16.179,0.028
52995.413066,16.165,0.028
52995.42546,16.102,0.026
52995.438395,16.096,0.025
52997.43079,16.251,0.129
52997.443679,16.284,0.076
53027.403771,16.096,0.023
53027.416744,16.093,0.023
53027.42969,16.087,0.025
53027.442395,16.092,0.025
53027.455173,16.075,0.023
53033.331693,16.127,0.041
53033.343948,16.132,0.041
53033.356105,16.212,0.043
53033.36824,16.247,0.043
53033.380712,16.325,0.061
53054.303998,16.091,0.031
53054.31882,16.134,0.031
53054.334171,16.159,0.033
53054.347306,16.255,0.035
53054.35986,16.302,0.037
53058.293502,16.224,0.025
53058.306428,16.156,0.023
53058.318553,16.118,0.021
53058.330855,16.104,0.021
53058.343148,16.123,0.021
53061.29045,16.431,0.031
53061.302468,16.425,0.031
53061.314518,16.416,0.031
53061.32665,16.377,0.03
53061.338563,16.424,0.03
53080.22582,16.378,0.044
53080.236745,16.42,0.046
53080.248922,16.381,0.046
53080.263131,16.292,0.043
53080.274533,16.337,0.043
53083.294317,16.421,0.035
53083.305614,16.428,0.038
53083.316939,16.405,0.033
53083.328204,16.422,0.04
53084.22868,16.156,0.026
53084.240181,16.185,0.028
53084.252614,16.32,0.03
53084.26399,16.251,0.03
53084.275888,16.246,0.03
53085.335885,16.409,0.038
53085.348119,16.371,0.038
53085.361548,16.414,0.059
53086.234056,16.03,0.071
53086.245425,16.088,0.124
53086.256645,16.193,0.076
53086.268875,16.11,0.046
53086.279942,16.171,0.048
53087.22324,15.995,0.026
53087.234536,16.044,0.026
53087.245104,15.963,0.024
53087.25581,15.977,0.026
53087.266568,15.989,0.026
53111.185989,16.378,0.059
53111.196763,16.206,0.05
53111.207515,16.188,0.048
53111.218227,16.154,0.05
53111.229026,16.126,0.046
53116.251282,16.394,0.096
53116.261993,16.353,0.084
53116.273114,16.351,0.087
53116.283927,16.4,0.104
53116.294654,16.454,0.078
53139.155589,16.072,0.043
53139.165343,16.044,0.043
53139.174941,16.128,0.046
53139.18446,16.12,0.044
53139.193958,16.146,0.046
53142.205982,16.105,0.064
53142.215386,16.092,0.031
53142.225165,16.071,0.035
53144.173012,16.367,0.054
53144.1824,16.428,0.061
53144.191791,16.311,0.063
53144.211149,16.305,0.078
53315.452797,16.215,0.104
53327.439754,16.201,0.066
53346.386919,16.043,0.051
53346.39917,16.042,0.056
53346.411817,16.084,0.054
53346.424287,16.089,0.054
53346.436502,16.164,0.059
53347.486999,16.197,0.049
53347.514833,16.261,0.049
53351.427202,16.446,0.068
53351.441537,16.441,0.068
53351.455985,16.397,0.064
53351.470969,16.42,0.069
53351.485754,16.249,0.059
53353.420419,16.387,0.066
53353.448646,16.365,0.063
53353.4769,16.397,0.064
53383.350959,16.355,0.05
53383.36511,16.385,0.052
53383.378192,16.292,0.048
53383.391845,16.385,0.052
53383.406231,16.411,0.055
53403.359875,16.254,0.045
53403.372918,16.276,0.045
53403.386519,16.169,0.043
53403.400676,16.173,0.045
53403.414218,16.129,0.046
53496.151653,16.404,0.068
53496.16162,16.314,0.061
53496.171664,16.23,0.057
53496.181623,16.187,0.057
53496.191585,16.136,0.057
53503.183867,16.128,0.05
53503.192726,16.125,0.05
53503.202501,16.122,0.05
53503.21133,16.173,0.052
53503.221678,16.219,0.057
53704.454946,16.326,0.054
53704.467455,16.283,0.05
53704.479972,16.197,0.048
53704.492683,16.125,0.046
53704.505403,16.1,0.044
53707.468445,16.392,0.057
53707.481035,16.505,0.093
53707.493669,16.42,0.063
53707.506354,16.41,0.055
53710.449033,16.148,0.057
53710.462327,16.189,0.059
53710.474958,16.226,0.061
53710.487615,16.234,0.065
53710.500195,16.296,0.065
53734.466117,16.1,0.041
53734.479203,16.07,0.039
53734.492552,16.124,0.043
53734.505675,16.169,0.044
53734.518767,16.12,0.043
53746.39731,16.237,0.07
53746.409769,16.157,0.063
53746.422302,16.1,0.063
53746.434977,16.03,0.057
53746.447463,16.055,0.059
53758.345937,16.39,0.048
53758.358446,16.414,0.055
53758.370967,16.331,0.052
53758.383699,16.4,0.055
53758.396368,16.401,0.061
53787.458778,16.191,0.057
53787.470658,16.247,0.065
53787.49482,16.181,0.124
53789.343616,16.286,0.176
53789.379238,16.086,0.046
53789.391103,16.081,0.041
53791.298015,16.38,0.045
53791.310179,16.375,0.045
53791.322344,16.408,0.048
53791.334479,16.432,0.046
53791.346428,16.437,0.046
53792.341555,16.375,0.052
53792.353335,16.349,0.076
53792.365116,16.397,0.067
53792.376897,16.44,0.074
53792.38867,16.478,0.072
53802.286331,16.363,0.065
53802.297708,16.332,0.063
53802.30914,16.333,0.1
53802.32053,16.384,0.067
53802.33193,16.319,0.124
53817.212139,16.247,0.045
53817.223998,16.17,0.041
53817.235473,16.123,0.041
53817.24688,16.085,0.038
53817.25844,16.084,0.038
53821.291953,16.46,0.065
53821.308785,16.301,0.08
53821.351512,16.169,0.065
53824.294079,16.363,0.085
53824.308093,16.504,0.202
53824.320369,16.44,0.074
53824.338358,16.409,0.076
53828.288413,16.11,0.068
53828.300631,16.148,0.057
53828.316052,16.119,0.046
53828.332409,16.204,0.063
53828.345854,16.165,0.063
53831.226494,16.351,0.074
53831.236605,16.405,0.081
53831.246999,16.331,0.076
53831.257229,16.391,0.081
53831.267305,16.327,0.076
53845.210462,16.253,0.054
53845.221547,16.297,0.059
53845.232627,16.372,0.068
53846.241561,16.167,0.068
53846.252374,16.27,0.076
53846.263182,16.314,0.078
53846.273984,16.253,0.078
53846.284802,16.402,0.087
53850.190995,16.219,0.054
53850.201479,16.201,0.056
53850.211963,16.131,0.053
53851.238721,16.162,0.057
53851.250587,16.171,0.057
53851.260698,16.202,0.059
53851.271814,16.13,0.063
53851.281641,16.178,0.068
53854.253181,16.529,0.089
53857.224668,16.141,0.094
53879.156746,16.094,0.043
53879.167619,16.144,0.046
53879.178388,16.161,0.046
53879.200168,16.197,0.054
54056.432743,16.182,0.054
54056.444997,16.105,0.046
54056.457253,16.071,0.044
54056.469686,16.018,0.041
54056.48194,16.043,0.043
54059.439456,16.396,0.065
54059.451962,16.393,0.061
54059.464287,16.441,0.061
54059.477465,16.382,0.054
54059.490036,16.302,0.05
54060.440532,16.459,0.078
54060.456275,16.417,0.069
54060.469112,16.455,0.073
54060.483905,16.43,0.069
54060.496697,16.401,0.071
54064.447919,16.083,0.044
54064.460779,16.072,0.044
54064.47364,16.147,0.046
54064.486514,16.246,0.046
54064.499384,16.189,0.044
54082.450953,16.338,0.07
54082.463734,16.276,0.065
54082.476524,16.352,0.067
54082.489318,16.299,0.063
54082.50212,16.391,0.059
54085.464183,16.185,0.044
54085.47714,16.177,0.043
54085.490106,16.268,0.043
54085.50307,16.254,0.044
54085.516038,16.279,0.046
54091.352054,16.412,0.078
54091.365234,16.377,0.069
54091.37787,16.392,0.069
54091.389775,16.431,0.071
54091.401893,16.43,0.071
54153.32553,16.306,0.043
54153.337223,16.225,0.043
54153.348794,16.155,0.048
54153.360361,16.149,0.048
54153.37193,16.108,0.068
54155.291235,16.463,0.054
54155.295882,16.377,0.052
54155.302834,16.467,0.054
54155.307508,16.365,0.052
54155.314504,16.551,0.055
54155.319208,16.391,0.05
54155.326239,16.482,0.052
54155.331055,16.454,0.052
54155.338262,16.514,0.05
54155.343345,16.399,0.046
54174.221523,16.476,0.059
54174.232273,16.482,0.056
54174.24311,16.433,0.054
54174.254039,16.465,0.054
54174.264877,16.437,0.053
54174.270238,16.338,0.043
54174.280945,16.375,0.044
54174.291653,16.333,0.046
54174.302352,16.254,0.057
54174.313076,16.178,0.076
54180.241956,16.093,0.043
54180.252489,16.136,0.043
54180.2629,16.086,0.04
54180.273215,16.116,0.038
54180.286296,16.133,0.03
54180.297225,16.129,0.03
54180.308245,16.137,0.03
54180.318812,16.142,0.03
54180.329565,16.273,0.037
54200.214887,16.123,0.073
54200.224392,16.137,0.078
54205.225472,16.287,0.046
54205.234654,16.257,0.044
54205.243935,16.204,0.044
54205.253134,16.15,0.043
54205.262354,16.134,0.041
54208.220976,16.384,0.046
54208.230004,16.403,0.046
54208.239084,16.369,0.046
54208.248167,16.364,0.041
54208.257237,16.378,0.043
54212.228496,16.056,0.046
54212.237506,16.052,0.044
54212.246532,16.068,0.044
54212.255687,16.099,0.05
54212.26485,16.15,0.054
54416.443033,16.148,0.043
54416.455437,16.183,0.043
54416.467747,16.186,0.041
54416.480072,16.203,0.043
54416.49242,16.2,0.041
54438.45281,16.165,0.03
54438.466058,16.254,0.033
54438.479515,16.311,0.035
54438.492874,16.256,0.033
54438.506089,16.292,0.035
54481.279149,16.074,0.046
54481.29207,16.031,0.043
54481.304997,16.044,0.041
54481.317915,16.041,0.035
54481.331021,16.051,0.033
54498.338183,16.289,0.035
54498.350731,16.359,0.037
54498.363351,16.318,0.037
54498.375902,16.352,0.037
54498.388584,16.303,0.035
54506.330978,16.158,0.028
54506.343083,16.137,0.028
54506.355183,16.078,0.028
54506.367275,16.063,0.028
54506.379403,15.966,0.026
54507.395934,16.151,0.045
54507.409693,16.061,0.041
54507.421545,16.07,0.043
54507.433527,16.098,0.043
54507.445442,16.116,0.045
54522.388958,16.378,0.05
54522.400629,16.394,0.052
54522.412321,16.37,0.054
54522.423954,16.398,0.055
54522.435607,16.291,0.054
54527.279888,16.263,0.054
54527.302695,16.1,0.035
54527.314085,16.082,0.026
54527.325498,16.05,0.024
54535.276818,15.989,0.02
54535.287911,16.017,0.022
54535.310099,16.044,0.022
54535.321149,16.048,0.022
54535.385907,16.327,0.068
54535.397176,16.37,0.071
54535.408175,16.339,0.068
54535.419172,16.412,0.078
54535.430328,16.391,0.081
54540.168874,16.115,0.039
54540.179761,16.204,0.041
54540.19087,16.224,0.041
54540.201759,16.225,0.039
54540.212749,16.278,0.041
54553.299574,16.294,0.057
54553.311463,16.318,0.043
54553.323359,16.352,0.046
54553.335414,16.382,0.05
54553.347335,16.405,0.054
54558.126346,16.334,0.05
54558.137995,16.332,0.044
54558.149552,16.322,0.044
54558.161129,16.304,0.043
54558.172763,16.318,0.043
54561.244181,16.348,0.031
54561.255663,16.323,0.031
54561.267134,16.376,0.037
54561.2786,16.308,0.046
54561.290114,16.428,0.087
54580.191404,16.334,0.044
54580.202026,16.351,0.046
54580.21264,16.354,0.048
54580.223248,16.23,0.046
54580.233925,16.177,0.048
54583.255611,16.621,0.144
54583.266245,16.434,0.096
54583.276865,16.432,0.091
54583.287484,16.375,0.076
54590.151615,16.386,0.087
54590.161282,16.407,0.087
54590.17097,16.405,0.089
54590.180618,16.354,0.086
54590.190271,16.284,0.089
54590.202828,16.164,0.048
54590.21314,16.1,0.044
54590.223488,16.062,0.041
54590.233869,16.087,0.041
54590.244296,16.028,0.039
54611.157248,16.184,0.039
54611.167733,16.137,0.037
54611.177571,16.1,0.037
54611.187532,16.136,0.039
54611.197438,16.127,0.039
