mjd,m,merr
52614.431367,15.697,0.041
52614.446063,15.643,0.058
52614.460682,15.614,0.058
52614.475312,15.669,0.053
52614.489732,15.683,0.03
52639.374619,15.979,0.033
52639.389395,15.962,0.033
52639.404076,15.85,0.03
52639.419047,15.768,0.026
52639.434105,15.776,0.026
52646.398439,15.68,0.028
52646.413631,15.689,0.03
52646.429387,15.72,0.03
52646.44435,15.726,0.031
52646.459452,15.709,0.031
52649.454761,16.122,0.037
52649.474553,16.57,0.057
52649.489203,16.313,0.046
52649.503967,15.958,0.035
52649.518161,15.781,0.03
52672.32491,15.773,0.033
52672.339564,15.75,0.031
52672.354263,15.741,0.028
52672.369342,15.732,0.03
52672.384513,15.726,0.03
52676.283173,15.711,0.028
52676.298578,15.703,0.028
52676.314078,15.707,0.026
52676.329681,15.685,0.028
52676.345324,15.671,0.028
52677.314099,15.762,0.028
52677.328537,15.771,0.033
52677.371959,15.773,0.05
52697.258506,15.664,0.054
52697.271079,15.706,0.038
52706.2447,15.715,0.028
52706.245302,15.769,0.03
52706.257971,15.727,0.028
52706.258576,15.717,0.028
52706.271554,15.706,0.026
52706.272156,15.719,0.028
52706.285727,15.716,0.026
52706.286328,15.706,0.028
52706.298838,15.675,0.026
52706.299439,15.671,0.028
52707.237933,15.817,0.026
52707.251126,15.806,0.024
52707.2645,15.826,0.026
52707.277702,15.816,0.026
52707.290939,15.808,0.024
52710.244075,15.658,0.031
52710.24419,15.734,0.038
52710.257733,15.697,0.033
52710.257848,15.687,0.036
52710.271396,15.7,0.033
52710.271511,15.668,0.036
52710.284564,15.645,0.033
52710.284679,15.694,0.038
52710.297924,15.624,0.033
52710.298039,15.727,0.041
52724.238328,15.774,0.026
52724.249939,15.8,0.026
52724.261542,15.827,0.026
52724.273177,15.81,0.026
52724.284786,15.788,0.026
52733.191537,15.901,0.036
52733.203962,16.007,0.04
52733.215824,15.953,0.038
52733.227703,15.873,0.035
52733.239904,15.787,0.033
52753.190137,15.683,0.028
52753.202224,15.638,0.028
52753.216171,15.674,0.028
52753.228229,15.683,0.028
52753.24025,15.674,0.03
52761.148107,15.683,0.04
52761.159971,15.732,0.035
52761.172262,15.709,0.041
52761.184223,15.687,0.045
52761.184566,16.679,0.134
52761.196103,15.791,0.051
52768.15106,15.639,0.055
52768.163643,15.63,0.057
52768.176025,15.6,0.055
52768.199837,15.55,0.055
52787.164206,15.625,0.028
52787.174776,15.629,0.03
52787.185375,15.672,0.03
52787.196084,15.675,0.03
52787.206757,15.67,0.03
52792.161115,15.829,0.058
52792.182748,15.777,0.051
52792.204564,15.807,0.054
52793.198524,15.829,0.058
52793.219188,15.777,0.051
52793.240082,15.807,0.054
52945.450359,15.687,0.038
52945.462478,15.683,0.036
52945.474636,15.74,0.036
52945.486879,15.685,0.035
52945.499054,15.687,0.036
52991.420052,15.716,0.03
52991.441487,15.693,0.022
52991.459565,15.695,0.024
52991.475311,15.724,0.02
52991.492679,15.715,0.02
53001.414864,15.744,0.016
53001.437246,15.716,0.016
53001.451612,15.698,0.016
53001.469057,15.673,0.015
53001.487104,15.704,0.016
53003.372283,15.717,0.017
53003.38428,15.713,0.017
53003.396442,15.697,0.018
53003.408572,15.702,0.028
53003.420613,15.7,0.043
53024.339204,15.731,0.015
53024.351947,15.72,0.017
53024.377677,15.794,0.052
53024.390527,15.772,0.026
53034.338421,15.756,0.026
53034.350833,15.75,0.028
53034.36346,15.735,0.026
53034.376118,15.711,0.026
53034.388382,15.753,0.026
53050.274257,15.731,0.02
53050.285852,15.732,0.02
53050.297506,15.737,0.018
53050.309213,15.728,0.02
53050.320811,15.754,0.031
53062.283964,15.744,0.074
53062.295393,15.792,0.037
53062.306949,15.837,0.08
53062.330188,15.798,0.124
53078.231964,16.132,0.037
53078.242761,15.89,0.026
53078.264109,15.714,0.026
53078.274734,15.696,0.022
53087.236139,15.732,0.018
53087.247114,15.711,0.016
53087.258598,15.735,0.018
53087.269774,15.733,0.018
53087.28086,15.745,0.018
53089.233796,15.724,0.02
53089.24477,15.71,0.02
53089.255741,15.796,0.021
53089.266684,15.965,0.025
53089.277541,16.261,0.031
53109.190284,15.897,0.03
53109.200968,15.782,0.026
53109.211675,15.76,0.026
53109.222361,15.729,0.026
53109.233172,15.749,0.026
53137.157625,15.89,0.033
53137.167154,15.948,0.035
53137.176651,16.016,0.041
53137.186194,16.096,0.044
53137.195758,15.985,0.041
53149.162203,15.757,0.03
53149.171346,15.775,0.031
53149.181799,15.708,0.031
53149.190788,15.742,0.033
53149.199717,15.78,0.035
53328.479918,15.758,0.043
53341.408664,15.801,0.069
53341.433434,16.257,0.097
53341.448729,16.612,0.137
53348.41679,15.739,0.033
53348.431049,15.751,0.033
53348.445328,15.713,0.033
53348.459554,15.761,0.035
53348.473825,15.77,0.048
53354.426381,15.751,0.028
53354.440774,15.754,0.026
53354.455226,15.884,0.03
53354.470052,16.233,0.04
53354.484504,16.583,0.053
53443.330439,15.752,0.024
53443.341129,15.744,0.024
53443.351785,15.759,0.03
53443.362443,15.753,0.041
53443.373098,15.698,0.043
53473.226088,15.69,0.028
53473.236296,15.727,0.03
53473.246188,15.725,0.03
53473.25627,15.751,0.031
53473.267389,15.729,0.03
53500.145315,15.837,0.031
53500.156543,15.794,0.03
53500.166694,15.759,0.031
53500.17671,15.771,0.031
53500.187219,15.766,0.031
53528.165247,15.765,0.046
53528.177045,15.769,0.05
53528.188604,15.774,0.052
53528.199388,15.74,0.054
53528.20998,15.776,0.059
53682.467828,15.749,0.037
53682.480398,15.688,0.037
53682.492906,15.713,0.035
53682.505582,15.68,0.033
53702.436738,16.418,0.048
53702.449463,16.007,0.035
53702.462226,15.739,0.028
53702.4748,15.696,0.026
53702.487756,15.712,0.026
53714.396238,15.728,0.028
53714.40919,15.716,0.026
53714.422052,15.731,0.026
53714.434832,15.692,0.024
53714.44758,15.75,0.026
53740.346916,15.723,0.024
53740.359847,15.709,0.024
53740.372597,15.721,0.024
53740.385394,15.72,0.026
53740.398395,15.72,0.024
53771.287492,15.682,0.03
53771.301505,15.708,0.033
53771.314148,15.68,0.041
53771.327102,15.627,0.026
53771.339882,15.661,0.03
53786.282823,15.681,0.022
53786.294714,15.687,0.026
53786.306704,15.695,0.026
53786.318622,15.662,0.026
53786.330515,15.671,0.024
53812.246893,15.768,0.035
53812.258393,15.685,0.033
53812.270004,15.689,0.033
53812.281588,15.711,0.035
53812.29303,15.676,0.033
53843.203298,15.737,0.028
53843.214744,15.732,0.028
53843.226251,15.72,0.028
53843.238038,15.726,0.03
53843.249689,15.725,0.031
53854.190647,15.651,0.035
53854.211329,15.71,0.041
53854.221601,15.95,0.045
53854.2318,16.242,0.059
53882.159108,15.652,0.036
53882.169952,15.654,0.036
53882.180875,15.654,0.036
53882.191749,15.698,0.038
53882.202825,15.664,0.038
53886.170841,16.471,0.096
53886.181472,16.53,0.104
53886.192199,16.14,0.076
53886.202961,15.825,0.057
53886.213803,15.726,0.05
54055.438007,15.675,0.035
54055.450827,15.659,0.033
54055.463384,15.672,0.033
54055.476565,15.671,0.03
54055.491842,15.672,0.031
54067.398603,15.663,0.03
54067.411539,15.654,0.028
54067.424273,15.681,0.026
54067.437663,15.662,0.026
54067.450434,15.691,0.025
54085.401757,15.671,0.033
54085.41497,15.59,0.056
54085.427884,15.647,0.036
54085.440889,15.662,0.041
54085.453908,15.675,0.04
54110.351571,15.734,0.033
54110.366981,15.715,0.033
54110.381051,15.732,0.033
54110.396946,15.706,0.037
54110.415264,15.705,0.035
54123.324473,16.116,0.035
54123.336924,16.461,0.048
54123.349188,16.457,0.046
54123.361395,16.118,0.035
54123.373603,15.84,0.028
54156.262587,15.913,0.041
54156.273655,15.831,0.036
54156.285088,15.753,0.033
54156.296338,15.742,0.033
54156.308065,15.738,0.033
54206.220057,15.716,0.031
54206.22939,15.712,0.031
54206.238699,15.701,0.03
54206.248085,15.675,0.028
54206.257772,15.697,0.028
54413.443994,15.683,0.02
54413.456203,15.696,0.02
54413.468411,15.684,0.018
54413.480653,15.693,0.018
54413.492828,15.701,0.018
54452.391465,16.531,0.037
54452.404616,16.229,0.03
54452.41796,15.877,0.02
54452.431248,15.708,0.017
54452.444389,15.683,0.017
54477.337064,15.704,0.018
54477.349875,15.72,0.018
54477.362668,15.701,0.018
54477.375479,15.707,0.018
54477.388479,15.722,0.018
54484.264416,15.637,0.037
54539.16257,15.703,0.024
54539.173211,15.682,0.024
54539.183985,15.704,0.024
54539.194814,15.699,0.022
54539.205483,15.718,0.022
54567.183342,15.691,0.022
54567.194723,15.716,0.022
54567.205802,15.715,0.022
54567.217121,15.718,0.022
54567.228409,15.723,0.022
54582.192492,15.699,0.043
54582.202553,15.696,0.045
54582.212685,15.716,0.046
54582.223062,15.673,0.045
54582.233314,15.7,0.046
54597.217083,15.632,0.068
54613.156229,15.714,0.043
54613.166507,15.615,0.041
54613.176816,15.641,0.043
54613.187135,15.572,0.041
54613.197333,15.586,0.043
54620.163955,15.941,0.035
54620.17598,15.953,0.035
54620.186102,15.929,0.037
54620.196224,15.814,0.033
54620.206345,15.734,0.03
