mjd,m,merr
52641.451262,15.695,0.024
52641.466354,15.725,0.026
52641.481566,15.711,0.026
52641.49678,15.715,0.026
52641.512254,15.748,0.028
52646.391418,15.475,0.024
52646.406236,15.421,0.024
52646.420706,15.426,0.022
52646.43534,15.42,0.024
52646.449792,15.399,0.022
52667.391697,15.515,0.022
52667.406927,15.519,0.022
52667.42241,15.542,0.022
52667.437717,15.563,0.026
52667.453079,15.627,0.028
52672.385245,15.723,0.035
52672.400012,15.68,0.026
52672.414032,15.62,0.024
52672.428488,15.483,0.03
52672.442371,15.457,0.026
52673.295705,15.631,0.033
52673.310909,15.644,0.02
52673.311611,15.588,0.031
52673.325799,15.59,0.02
52673.327969,15.546,0.028
52673.342864,15.532,0.03
52673.35787,15.474,0.028
52704.292187,15.474,0.025
52704.305474,15.486,0.025
52704.30559,15.46,0.028
52704.318569,15.494,0.025
52704.318684,15.449,0.026
52704.331574,15.541,0.028
52704.331689,15.551,0.028
52704.344529,15.537,0.028
52704.344646,15.511,0.03
52705.243577,15.629,0.022
52705.258538,15.64,0.022
52705.271565,15.664,0.022
52705.284655,15.672,0.022
52705.299622,15.69,0.024
52706.232511,15.676,0.026
52706.24574,15.705,0.026
52706.258876,15.678,0.024
52706.271968,15.676,0.024
52706.285104,15.673,0.024
52707.238512,15.344,0.018
52707.249627,15.314,0.018
52707.251708,15.306,0.018
52707.263011,15.344,0.018
52707.265089,15.343,0.018
52707.276173,15.344,0.018
52707.2783,15.339,0.018
52707.289418,15.341,0.018
52707.291535,15.352,0.018
52707.302794,15.37,0.018
52729.23204,15.714,0.024
52729.243681,15.749,0.026
52729.255148,15.733,0.026
52729.267314,15.721,0.026
52729.278801,15.773,0.028
52734.253383,15.522,0.022
52734.265738,15.511,0.028
52734.277897,15.593,0.041
52738.185795,15.447,0.022
52738.197279,15.481,0.024
52738.208754,15.499,0.024
52738.220196,15.509,0.024
52738.23167,15.513,0.024
52755.197129,15.584,0.03
52755.209021,15.592,0.03
52755.220981,15.665,0.033
52755.232911,15.636,0.033
52755.244883,15.67,0.035
52758.200653,15.618,0.026
52758.212585,15.587,0.028
52758.224526,15.596,0.028
52758.236546,15.634,0.028
52758.24862,15.659,0.03
52941.433524,15.771,0.043
52941.445223,15.585,0.031
52941.456938,15.458,0.028
52941.468519,15.496,0.026
52941.480368,15.528,0.025
52973.427473,15.706,0.035
52973.439487,15.698,0.031
52973.451644,15.7,0.031
52973.463949,15.637,0.028
52973.475885,15.56,0.026
52995.387959,15.531,0.016
52995.400664,15.545,0.016
52995.413066,15.589,0.016
52995.42546,15.543,0.016
52995.438395,15.568,0.016
52997.443679,15.313,0.035
53027.403771,15.426,0.013
53027.416744,15.43,0.013
53027.42969,15.423,0.015
53027.442395,15.403,0.013
53027.455173,15.406,0.013
53033.331693,15.705,0.026
53033.343948,15.741,0.026
53033.356105,15.751,0.026
53033.36824,15.718,0.026
53033.380712,15.75,0.037
53054.303998,15.386,0.017
53054.31882,15.324,0.015
53054.334171,15.294,0.015
53054.347306,15.301,0.015
53054.35986,15.322,0.015
53055.265322,15.507,0.12
53055.276475,15.431,0.041
53055.287701,15.471,0.03
53055.298837,15.494,0.035
53055.309942,15.414,0.028
53058.293502,15.344,0.012
53058.306428,15.351,0.013
53058.318553,15.373,0.012
53058.330855,15.412,0.012
53058.343148,15.423,0.012
53061.29045,15.315,0.012
53061.302468,15.316,0.012
53061.314518,15.31,0.012
53061.32665,15.312,0.012
53061.338563,15.3,0.012
53062.284789,15.584,0.048
53062.296969,15.563,0.031
53062.309216,15.675,0.084
53062.333693,15.609,0.071
53064.293137,15.515,0.024
53064.305644,15.5,0.022
53064.329904,15.481,0.024
53064.348449,15.448,0.022
53080.22582,15.702,0.024
53080.236745,15.734,0.024
53080.248922,15.718,0.024
53080.263131,15.723,0.024
53080.274533,15.747,0.024
53083.294317,15.729,0.02
53083.305614,15.691,0.021
53083.316939,15.715,0.02
53083.328204,15.702,0.021
53084.228483,15.652,0.018
53084.22868,15.678,0.018
53084.239984,15.698,0.016
53084.240181,15.659,0.016
53084.252614,15.654,0.016
53084.263793,15.576,0.016
53084.26399,15.628,0.016
53084.27569,15.448,0.015
53084.275888,15.568,0.016
53085.335885,15.569,0.018
53085.348119,15.576,0.018
53085.361548,15.57,0.03
53086.234056,15.481,0.04
53086.245425,15.488,0.071
53086.256645,15.497,0.038
53086.268875,15.6,0.028
53086.279942,15.598,0.028
53087.22324,15.691,0.018
53087.234536,15.69,0.018
53087.245104,15.671,0.018
53087.25581,15.683,0.018
53087.266568,15.694,0.018
53111.185989,15.631,0.03
53111.196763,15.548,0.028
53111.207515,15.439,0.024
53111.218227,15.447,0.024
53111.229026,15.363,0.022
53116.251282,15.651,0.048
53116.261993,15.689,0.045
53116.273114,15.664,0.043
53116.283927,15.727,0.051
53116.294654,15.64,0.036
53139.155589,15.423,0.024
53139.165343,15.485,0.026
53139.174941,15.471,0.024
53139.18446,15.496,0.026
53139.193958,15.494,0.026
53142.205982,15.484,0.04
53142.215386,15.421,0.018
53142.225165,15.446,0.02
53144.173012,15.748,0.03
53144.1824,15.688,0.03
53144.191791,15.733,0.037
53144.211149,15.61,0.044
53315.452797,15.598,0.058
53327.439754,15.794,0.046
53346.386919,15.592,0.033
53346.39917,15.659,0.038
53346.411817,15.65,0.036
53346.424287,15.668,0.038
53346.436502,15.681,0.038
53347.486999,15.742,0.033
53347.514833,15.662,0.03
53351.427202,15.617,0.033
53351.441537,15.507,0.03
53351.455985,15.481,0.028
53351.470969,15.474,0.03
53351.485754,15.479,0.03
53353.420419,15.69,0.035
53353.448646,15.736,0.036
53353.4769,15.749,0.036
53383.350959,15.608,0.024
53383.36511,15.54,0.024
53383.378192,15.5,0.024
53383.391845,15.612,0.026
53383.406231,15.675,0.026
53403.359875,15.637,0.026
53403.372918,15.645,0.026
53403.386519,15.703,0.03
53403.400676,15.755,0.033
53403.414218,15.79,0.035
53441.217132,15.695,0.024
53441.228552,15.714,0.024
53441.24014,15.699,0.024
53441.251602,15.685,0.024
53441.263748,15.726,0.024
53496.151653,15.373,0.026
53496.16162,15.376,0.024
53496.171664,15.345,0.024
53496.181623,15.386,0.026
53496.191585,15.366,0.028
53503.183867,15.447,0.026
53503.192726,15.47,0.026
53503.202501,15.481,0.028
53503.21133,15.501,0.026
53503.221678,15.543,0.03
53704.454946,15.654,0.028
53704.467455,15.648,0.028
53704.479972,15.674,0.03
53704.492683,15.73,0.03
53704.505403,15.711,0.03
53707.455713,15.577,0.061
53707.468445,15.597,0.028
53707.481035,15.578,0.039
53707.493669,15.659,0.031
53707.506354,15.701,0.03
53710.449033,15.496,0.03
53710.462327,15.516,0.03
53710.474958,15.521,0.031
53710.487615,15.54,0.031
53710.500195,15.567,0.031
53734.466117,15.671,0.028
53734.479203,15.688,0.028
53734.492552,15.671,0.028
53734.505675,15.708,0.03
53734.518767,15.732,0.031
53746.39731,15.536,0.035
53746.409769,15.493,0.033
53746.422302,15.377,0.033
53746.434977,15.469,0.035
53746.447463,15.45,0.033
53758.345937,15.655,0.024
53758.358446,15.661,0.026
53758.370967,15.716,0.03
53758.383699,15.705,0.028
53758.396368,15.724,0.031
53787.458778,15.692,0.033
53787.470658,15.745,0.039
53789.343616,15.665,0.094
53789.355488,15.776,0.118
53789.367357,15.668,0.089
53789.379238,15.605,0.026
53789.391103,15.572,0.024
53791.298015,15.573,0.021
53791.310179,15.612,0.023
53791.322344,15.637,0.025
53791.334479,15.608,0.023
53791.346428,15.628,0.023
53792.341555,15.733,0.028
53792.353335,15.711,0.037
53792.365116,15.72,0.035
53792.376897,15.678,0.035
53792.38867,15.575,0.03
53802.286331,15.748,0.037
53802.297708,15.786,0.037
53802.30914,15.827,0.065
53802.32053,15.749,0.037
53802.33193,15.806,0.065
53817.212139,15.516,0.023
53817.223998,15.523,0.023
53817.235473,15.524,0.025
53817.24688,15.565,0.025
53817.25844,15.53,0.023
53821.291953,15.595,0.03
53821.308785,15.608,0.041
53824.294079,15.594,0.041
53824.308093,15.622,0.087
53824.320369,15.638,0.035
53824.338358,15.671,0.037
53828.288413,15.676,0.046
53828.300631,15.686,0.037
53828.316052,15.723,0.031
53828.332409,15.702,0.039
53828.345854,15.753,0.043
53831.226494,15.563,0.035
53831.236605,15.588,0.037
53831.246999,15.625,0.037
53831.257229,15.659,0.039
53831.267305,15.632,0.037
53845.210462,15.66,0.033
53845.221547,15.657,0.035
53845.232627,15.653,0.035
53846.241561,15.684,0.043
53846.252374,15.651,0.041
53846.263182,15.672,0.043
53846.273984,15.641,0.041
53846.284802,15.61,0.041
53850.190995,15.501,0.03
53850.201479,15.484,0.03
53850.211963,15.49,0.03
53851.238721,15.525,0.031
53851.250587,15.537,0.031
53851.260698,15.53,0.033
53851.271814,15.541,0.037
53851.281641,15.548,0.037
53854.253181,15.518,0.035
53857.224668,15.527,0.055
53879.156746,15.725,0.03
53879.167619,15.724,0.031
53879.178388,15.713,0.031
53879.200168,15.67,0.035
54056.432743,15.711,0.033
54056.444997,15.788,0.035
54056.457253,15.706,0.031
54056.469686,15.687,0.03
54056.48194,15.644,0.03
54059.439456,15.686,0.031
54059.451962,15.685,0.031
54059.464287,15.721,0.03
54059.477465,15.751,0.03
54059.490036,15.705,0.028
54060.440532,15.431,0.03
54060.456275,15.347,0.026
54060.469112,15.311,0.026
54060.483905,15.333,0.026
54060.496697,15.306,0.026
54064.447919,15.429,0.024
54064.460779,15.458,0.024
54064.47364,15.438,0.024
54064.486514,15.475,0.022
54064.499384,15.475,0.022
54082.476524,15.582,0.033
54082.489318,15.578,0.031
54082.50212,15.715,0.031
54085.464183,15.633,0.026
54085.47714,15.609,0.026
54085.490106,15.657,0.024
54085.50307,15.68,0.026
54085.516038,15.661,0.026
54091.352054,15.321,0.03
54091.365234,15.33,0.028
54091.37787,15.396,0.028
54091.389775,15.424,0.03
54091.401893,15.442,0.03
54153.32553,15.763,0.026
54153.337223,15.75,0.026
54153.348794,15.703,0.03
54153.360361,15.712,0.031
54153.37193,15.611,0.044
54155.295882,15.467,0.022
54155.307508,15.482,0.022
54155.319208,15.492,0.022
54155.331055,15.51,0.022
54155.343345,15.562,0.022
54174.221523,15.7,0.03
54174.232273,15.687,0.028
54174.24311,15.566,0.026
54174.254039,15.561,0.026
54174.264877,15.501,0.023
54174.270238,15.485,0.018
54174.280945,15.423,0.018
54174.291653,15.406,0.02
54174.302352,15.387,0.026
54174.313076,15.419,0.028
54180.241956,15.722,0.031
54180.252489,15.729,0.03
54180.2629,15.735,0.03
54180.273215,15.71,0.026
54180.286296,15.674,0.02
54180.297225,15.616,0.02
54180.308245,15.569,0.018
54180.318812,15.536,0.018
54180.329565,15.479,0.018
54200.214887,15.75,0.038
54200.224392,15.794,0.04
54205.225472,15.373,0.02
54205.234654,15.449,0.02
54205.243935,15.421,0.02
54205.253134,15.468,0.022
54205.262354,15.465,0.022
54208.220976,15.35,0.02
54208.230004,15.392,0.02
54208.239084,15.353,0.022
54208.248167,15.403,0.02
54208.257237,15.437,0.022
54212.228496,15.495,0.028
54212.237506,15.535,0.028
54212.246532,15.555,0.028
54212.255687,15.533,0.03
54212.26485,15.582,0.03
54416.443033,15.578,0.024
54416.455437,15.611,0.024
54416.467747,15.614,0.024
54416.480072,15.599,0.024
54416.49242,15.646,0.024
54438.45281,15.358,0.015
54438.466058,15.406,0.017
54438.479515,15.463,0.017
54438.492874,15.416,0.017
54438.506089,15.44,0.017
54481.279149,15.646,0.037
54481.29207,15.719,0.033
54481.304997,15.683,0.03
54481.317915,15.606,0.026
54481.331021,15.552,0.022
54498.338183,15.374,0.015
54498.350731,15.38,0.015
54498.363351,15.332,0.015
54498.375902,15.353,0.017
54498.388584,15.411,0.015
54506.267359,15.429,0.015
54506.268973,15.422,0.025
54506.27969,15.471,0.015
54506.281086,15.425,0.025
54506.29187,15.461,0.015
54506.293379,15.423,0.025
54506.304161,15.49,0.017
54506.305492,15.464,0.025
54506.316494,15.505,0.017
54506.317918,15.524,0.025
54506.330978,15.476,0.015
54506.343083,15.514,0.017
54506.355183,15.498,0.017
54506.367275,15.54,0.017
54506.379403,15.541,0.018
54507.395934,15.629,0.03
54507.409693,15.543,0.028
54507.421545,15.505,0.028
54507.433527,15.432,0.026
54507.445442,15.355,0.026
54522.388958,15.474,0.024
54522.400629,15.512,0.024
54522.412321,15.555,0.026
54522.423954,15.573,0.026
54522.435607,15.523,0.028
54527.279888,15.566,0.031
54527.291287,15.823,0.067
54527.302695,15.693,0.02
54527.314085,15.671,0.018
54527.325498,15.69,0.017
54535.276818,15.371,0.013
54535.287911,15.349,0.013
54535.298985,15.33,0.013
54535.310099,15.334,0.013
54535.321149,15.326,0.013
54535.385907,15.452,0.026
54535.397176,15.434,0.026
54535.408175,15.504,0.028
54535.419172,15.527,0.031
54535.430328,15.534,0.033
54540.168874,15.443,0.022
54540.179761,15.472,0.022
54540.19087,15.468,0.022
54540.201759,15.459,0.022
54540.212749,15.494,0.02
54553.299574,15.63,0.033
54553.311463,15.635,0.022
54553.323359,15.642,0.024
54553.335414,15.665,0.026
54553.347335,15.672,0.028
54558.126346,15.653,0.026
54558.137995,15.653,0.024
54558.149552,15.634,0.024
54558.161129,15.667,0.024
54558.172763,15.716,0.024
54561.244181,15.676,0.017
54561.255663,15.683,0.017
54561.267134,15.664,0.02
54561.2786,15.666,0.026
54561.290114,15.664,0.044
54580.191404,15.587,0.022
54580.202026,15.596,0.022
54580.21264,15.577,0.022
54580.223248,15.577,0.024
54580.233925,15.621,0.028
54583.255611,15.641,0.057
54583.266245,15.626,0.041
54583.276865,15.618,0.039
54583.287484,15.698,0.037
54590.151615,15.463,0.046
54590.161282,15.548,0.045
54590.17097,15.535,0.045
54590.180618,15.565,0.045
54590.190271,15.573,0.051
54590.202828,15.554,0.028
54590.21314,15.602,0.028
54590.223488,15.647,0.028
54590.233869,15.627,0.026
54590.244296,15.633,0.026
54611.157248,15.692,0.024
54611.167733,15.705,0.024
54611.177571,15.678,0.024
54611.187532,15.725,0.026
54611.197438,15.699,0.026
