mjd,m,merr
52608.460312,16.564,0.137
52608.475268,16.73,0.091
52608.490166,16.733,0.168
52608.505125,16.844,0.231
52641.48042,16.539,0.057
52641.49563,16.559,0.061
52641.510821,16.694,0.065
52646.449046,16.606,0.072
52672.413563,16.812,0.076
52672.428018,16.682,0.1
52673.295071,17.008,0.139
52673.310137,17.357,0.092
52673.310909,16.96,0.127
52673.325799,17.308,0.162
52673.356473,16.837,0.058
52673.357239,16.931,0.119
52704.291361,16.61,0.066
52704.31774,16.739,0.073
52704.330858,16.601,0.073
52705.242825,17.09,0.083
52705.29722,17.18,0.091
52707.262896,17.074,0.083
52707.276056,16.983,0.076
52729.243101,16.929,0.074
52729.278223,16.975,0.081
52734.252788,17.085,0.094
52734.277299,17.266,0.192
52738.185681,17.22,0.117
52738.197165,17.193,0.117
52738.208641,17.297,0.128
52738.220082,17.179,0.113
52738.231556,17.166,0.111
52755.196678,17.059,0.112
52755.208567,17.089,0.114
52755.220528,17.224,0.125
52755.232459,17.119,0.125
52755.244431,17.348,0.155
52760.150589,17.025,0.104
52760.162633,17.148,0.114
52760.174662,16.995,0.101
52760.186696,17.055,0.106
52760.198775,17.137,0.111
52765.149456,17.241,0.2
52765.161405,17.142,0.129
52765.185311,17.114,0.13
52765.19782,17.174,0.127
52941.444965,16.792,0.102
52941.468261,16.85,0.101
52973.427349,16.938,0.109
52973.439362,17.022,0.106
52973.45152,16.987,0.099
52973.463824,17.118,0.111
52973.47576,16.949,0.099
52997.442616,16.586,0.104
53027.428625,16.952,0.058
53029.371733,16.755,0.066
53033.380068,17.014,0.137
53054.303002,16.7,0.055
53055.265213,16.991,0.444
53055.276366,16.612,0.109
53055.287592,16.553,0.076
53055.298728,16.479,0.081
53055.309833,16.548,0.074
53058.317578,16.997,0.056
53080.263027,16.877,0.072
53080.27443,16.869,0.07
53083.304667,17.188,0.094
53083.32726,17.289,0.099
53085.265186,16.879,0.191
53085.276149,16.862,0.189
53085.287053,16.872,0.222
53085.2979,16.799,0.205
53085.360587,17.313,0.248
53085.371749,17.285,0.191
53085.382961,16.944,0.117
53086.226906,16.831,0.159
53086.234234,16.821,0.134
53086.238043,16.756,0.13
53086.249246,16.783,0.168
53086.256822,16.826,0.142
53086.260776,16.814,0.12
53086.272081,16.74,0.104
53086.280119,16.818,0.089
53111.185891,16.958,0.104
53111.196665,17.162,0.122
53111.207418,17.057,0.111
53111.218129,16.984,0.107
53111.228928,17.023,0.109
53116.251103,16.922,0.167
53116.261812,17.026,0.157
53116.272934,17.074,0.193
53116.283747,17.132,0.208
53116.294474,16.951,0.132
53139.155499,16.742,0.078
53139.165252,16.819,0.087
53139.17485,16.864,0.087
53139.18437,16.862,0.089
53139.193868,16.892,0.091
53142.161549,16.968,0.086
53142.184138,16.933,0.081
53142.193992,16.91,0.076
53142.203897,17.116,0.196
53144.172083,16.969,0.098
53144.190862,16.955,0.135
53144.210219,16.706,0.144
53315.451771,16.666,0.158
53315.464071,16.725,0.167
53321.469799,16.566,0.226
53327.43922,17.349,0.191
53346.386825,16.829,0.104
53346.399076,16.845,0.109
53346.411723,16.865,0.112
53346.424192,17.029,0.124
53346.436408,17.233,0.157
53347.443672,16.769,0.076
53347.457386,16.713,0.081
53347.485329,16.776,0.086
53351.426042,17.088,0.127
53351.440293,16.952,0.106
53351.454802,16.963,0.112
53351.469728,17.034,0.124
53351.484414,17.097,0.129
53353.448091,16.48,0.071
53353.462294,16.474,0.071
53353.476312,16.701,0.084
53383.350312,16.858,0.08
53383.377545,16.957,0.089
53383.391198,16.987,0.093
53383.405584,16.968,0.094
53403.359231,17.171,0.102
53403.372274,17.194,0.104
53403.385892,17.009,0.094
53403.400033,17.074,0.107
53403.413593,17.075,0.107
53443.223958,16.812,0.091
53466.265893,17.033,0.104
53466.285412,17.098,0.113
53466.296484,17.355,0.144
53466.306321,17.428,0.155
53496.150847,16.579,0.08
53496.160774,16.512,0.074
53496.170859,16.406,0.067
53496.180817,16.468,0.074
53496.190771,16.512,0.078
53503.182967,17.121,0.124
53503.191831,17.045,0.117
53503.200952,17.108,0.122
53503.210379,17.198,0.135
53503.220781,17.218,0.141
53704.454279,16.714,0.076
53704.49201,16.457,0.061
53704.504724,16.506,0.063
53707.455035,17.334,0.67
53707.467766,16.972,0.126
53707.480356,16.907,0.157
53707.492992,16.972,0.117
53710.448555,17.291,0.15
53710.461566,17.266,0.155
53710.474478,17.104,0.133
53710.487135,17.231,0.152
53710.499717,16.89,0.109
53734.465568,16.971,0.094
53734.478654,16.997,0.096
53734.49189,16.994,0.1
53734.505061,17.073,0.105
53734.518205,16.943,0.094
53746.396728,16.76,0.118
53746.409188,16.734,0.115
53746.421719,16.68,0.111
53746.434292,16.726,0.113
53746.446885,16.872,0.131
53758.35779,17.142,0.105
53758.370311,17.248,0.12
53758.383042,17.217,0.115
53758.395712,17.24,0.126
53787.457744,17.133,0.133
53787.469617,17.165,0.148
53789.342968,16.555,0.198
53789.354835,16.505,0.266
53789.366707,16.717,0.329
53789.390454,16.7,0.07
53791.322196,17.115,0.089
53791.334332,17.133,0.091
53791.346281,17.05,0.083
53792.340919,17.092,0.1
53792.352697,17.237,0.155
53792.364478,17.125,0.144
53792.376257,17.086,0.133
53792.388033,17.189,0.144
53802.285706,17.077,0.126
53802.297082,17.11,0.13
53802.308512,17.134,0.196
53802.319903,17.142,0.133
53802.331304,17.107,0.25
53817.211307,17.126,0.097
53817.223164,17.107,0.094
53817.234633,17.158,0.102
53817.246048,17.179,0.104
53817.257607,17.072,0.092
53818.27395,17.027,0.109
53818.28457,17.125,0.117
53818.295176,17.221,0.128
53819.171502,16.763,0.117
53819.193316,16.995,0.205
53819.204076,16.577,0.281
53819.214717,16.714,0.263
53819.214864,16.699,0.253
53821.291463,16.598,0.072
53821.306886,16.478,0.083
53821.335507,16.61,0.104
53821.350404,16.608,0.096
53824.292438,17.013,0.15
53824.30554,17.104,0.446
53824.31973,17.042,0.137
53824.337723,17.073,0.144
53824.352271,16.97,0.403
53828.287925,17.124,0.203
53828.300147,17.078,0.133
53828.314867,17.375,0.141
53828.344903,17.181,0.163
53831.225786,16.543,0.091
53831.235898,16.567,0.094
53831.246288,16.567,0.094
53831.26658,16.597,0.098
53845.1881,16.965,0.107
53845.199194,17.008,0.112
53845.21036,17.054,0.117
53845.221444,17.042,0.122
53845.232524,16.952,0.114
53846.251638,16.937,0.131
53846.262443,16.839,0.122
53846.284067,16.872,0.133
53850.1905,17.05,0.119
53850.200982,17.076,0.122
53850.21146,17.086,0.125
53850.22196,16.933,0.116
53850.232541,16.957,0.168
53851.238193,17.04,0.124
53851.250054,17.006,0.122
53851.260164,16.991,0.124
53851.271285,17.032,0.142
53851.281107,17.241,0.183
53854.21591,17.018,0.122
53854.226778,17.123,0.135
53854.25126,17.154,0.159
53857.224076,16.914,0.203
54056.432093,16.96,0.107
54056.444348,17.082,0.115
54056.456604,17.082,0.113
54056.469038,17.085,0.111
54056.481291,17.019,0.104
54059.476816,16.761,0.074
54060.440381,16.801,0.102
54060.456125,16.782,0.097
54060.468962,16.53,0.078
54060.483763,16.514,0.076
54060.496547,16.53,0.076
54064.44724,16.783,0.081
54064.460099,16.84,0.083
54064.472962,16.911,0.091
54064.485835,16.903,0.083
54082.450263,17.335,0.167
54082.488628,16.65,0.089
54085.463461,16.891,0.089
54085.502351,17.07,0.098
54085.515316,17.006,0.096
54091.351499,16.411,0.076
54091.364681,16.549,0.083
54091.389221,16.613,0.084
54091.401338,16.706,0.091
54153.359885,17.056,0.117
54153.37145,17.176,0.252
54155.295593,16.56,0.063
54155.307216,16.639,0.065
54174.220706,17.044,0.102
54174.242294,17.137,0.101
54174.264057,17.059,0.096
54174.280336,17.126,0.091
54174.291031,17.104,0.1
54174.301741,17.217,0.142
54174.312464,17.236,0.198
54177.285738,16.795,0.3
54180.231101,16.874,0.089
54180.241693,16.838,0.084
54180.252225,16.908,0.087
54180.262527,17.052,0.096
54180.272951,17.028,0.089
54180.29655,16.993,0.072
54180.307637,16.993,0.072
54180.328922,17.076,0.083
54200.17595,17.157,0.139
54200.195479,17.221,0.137
54200.21437,17.028,0.117
54205.224881,17.117,0.098
54205.261765,17.057,0.094
54208.247579,16.827,0.081
54212.227892,16.882,0.105
54212.236906,17.111,0.122
54212.245922,16.948,0.109
54212.255082,17.117,0.135
54212.264239,17.09,0.13
54416.442262,16.849,0.081
54478.458219,16.938,0.193
54478.470489,16.732,0.162
54478.482769,16.93,0.147
54478.495073,16.956,0.211
54478.507205,16.922,0.162
54481.278048,17.071,0.13
54507.395081,16.44,0.054
54507.408841,16.47,0.056
54507.432671,16.606,0.064
54527.279316,16.593,0.055
54527.290716,16.501,0.178
54535.275789,17.025,0.057
54535.350164,17.15,0.092
54535.362187,17.089,0.092
54535.373472,17.186,0.102
54535.384481,17.276,0.112
54540.19053,17.02,0.096
54540.201418,17.006,0.093
54540.21241,16.94,0.087
54552.351157,16.993,0.098
54558.12621,16.465,0.059
54558.160993,16.509,0.055
54558.172626,16.59,0.059
54561.289544,17.06,0.154
54580.190622,16.602,0.061
54580.201244,16.592,0.061
54580.211856,16.599,0.065
54580.222466,16.682,0.07
54580.233141,16.683,0.08
54583.255344,17.162,0.187
54583.265976,17.325,0.22
54583.276597,17.289,0.203
54583.287215,17.142,0.15
54590.151371,16.759,0.132
54590.16104,17.012,0.162
54590.170727,16.831,0.134
54590.180371,16.967,0.158
54590.190027,17.03,0.17
54590.202553,16.832,0.091
54590.223217,16.918,0.094
54590.244021,16.963,0.096
54611.156838,16.777,0.076
54611.167387,16.841,0.072
54611.187258,17.044,0.089
