mjd,m,merr
52641.452536,16.739,0.059
52641.467876,16.606,0.054
52641.482904,16.408,0.048
52641.498049,16.328,0.043
52641.513537,16.175,0.035
52646.393301,15.874,0.035
52646.407723,15.91,0.037
52646.422273,15.966,0.037
52646.436828,15.963,0.039
52646.451277,16.104,0.043
52647.449789,16.492,0.089
52647.464538,16.497,0.091
52647.47908,16.491,0.086
52667.392989,16.606,0.054
52667.408222,16.621,0.059
52667.423698,16.618,0.059
52667.439012,16.641,0.063
52667.454366,16.644,0.063
52672.386423,16.709,0.07
52672.401224,16.526,0.052
52672.41527,16.326,0.048
52672.429663,16.171,0.044
52672.443546,16.056,0.041
52673.296083,16.42,0.041
52673.296848,16.355,0.068
52673.311986,16.513,0.043
52673.312748,16.362,0.068
52673.328419,16.496,0.043
52673.329183,16.466,0.069
52673.343241,16.504,0.043
52673.344004,16.442,0.069
52673.358247,16.623,0.048
52673.359006,16.478,0.074
52704.292657,16.475,0.041
52704.293013,16.444,0.056
52704.306309,16.549,0.064
52704.319039,16.478,0.041
52704.319397,16.578,0.064
52704.332046,16.614,0.051
52704.332405,16.537,0.064
52704.34536,16.623,0.069
52705.301634,16.222,0.037
52705.315548,16.212,0.037
52705.337773,16.276,0.039
52705.350836,16.342,0.043
52705.365204,16.312,0.044
52707.238644,16.419,0.05
52707.251879,16.451,0.048
52707.265218,16.471,0.05
52707.278428,16.484,0.05
52707.291664,16.518,0.05
52707.305206,16.562,0.052
52707.318936,16.556,0.052
52707.332111,16.492,0.048
52707.34591,16.545,0.052
52707.359138,16.618,0.057
52709.234424,16.618,0.068
52709.248456,16.616,0.07
52709.277009,16.61,0.065
52709.292953,16.653,0.067
52729.233153,16.538,0.052
52729.244723,16.575,0.052
52729.256187,16.64,0.054
52729.268356,16.597,0.054
52729.279841,16.581,0.054
52734.254459,16.417,0.048
52734.266817,16.19,0.043
52734.278973,16.114,0.104
52734.30338,15.953,0.152
52738.186965,16.37,0.054
52738.198446,16.421,0.055
52738.20992,16.408,0.055
52738.221365,16.501,0.057
52738.23284,16.498,0.057
52755.197925,16.528,0.068
52755.209817,16.571,0.071
52755.221777,16.579,0.073
52755.233708,16.519,0.071
52755.245677,16.529,0.074
52758.201573,16.496,0.058
52758.213506,16.473,0.058
52758.225446,16.465,0.061
52758.237467,16.519,0.063
52758.249539,16.509,0.064
52965.483848,16.413,0.207
52973.42848,16.422,0.063
52973.440489,16.421,0.061
52973.452664,16.446,0.061
52973.464944,16.429,0.058
52973.476896,16.42,0.059
52994.461387,16.105,0.035
52994.473906,16.091,0.026
52994.486455,16.142,0.026
52994.499009,16.211,0.026
52996.390842,16.296,0.035
52996.403665,16.325,0.036
52996.41667,16.307,0.035
52996.42943,16.309,0.033
52996.442208,16.391,0.035
53025.344755,15.996,0.026
53025.36826,16.077,0.031
53025.392293,16.145,0.053
53028.376183,15.99,0.02
53028.389051,16.059,0.021
53028.40148,16.081,0.021
53028.413659,16.111,0.023
53028.425875,16.196,0.026
53033.332797,16.263,0.043
53033.345054,16.286,0.044
53033.357233,16.299,0.041
53033.369344,16.331,0.046
53033.381967,16.358,0.059
53054.305642,16.631,0.048
53054.320644,16.671,0.048
53054.335278,16.529,0.044
53054.348413,16.513,0.043
53054.360965,16.43,0.039
53057.344045,16.574,0.186
53057.39331,16.529,0.186
53080.226859,16.478,0.05
53080.237784,16.522,0.052
53080.25051,16.46,0.05
53080.264167,16.516,0.052
53080.275572,16.405,0.048
53082.294644,15.976,0.026
53082.306273,15.937,0.025
53082.317994,15.897,0.025
53082.329959,15.892,0.025
53082.341449,15.943,0.025
53084.29422,16.302,0.03
53084.305627,16.369,0.031
53084.328437,16.391,0.033
53084.340483,16.285,0.033
53091.279753,16.517,0.046
53091.289825,16.591,0.048
53091.299982,16.568,0.043
53091.310465,16.582,0.045
53091.320614,16.58,0.043
53111.186971,16.556,0.07
53111.197745,16.496,0.065
53111.208496,16.488,0.065
53111.219235,16.552,0.068
53111.230007,16.493,0.067
53115.250292,16.217,0.041
53115.261133,16.299,0.043
53115.271941,16.345,0.046
53115.282828,16.337,0.046
53115.294094,16.327,0.045
53139.15657,16.66,0.068
53139.16625,16.746,0.074
53139.175847,16.709,0.07
53139.185371,16.691,0.068
53139.194882,16.744,0.072
53141.176922,15.976,0.036
53141.185916,16.039,0.038
53141.194943,16.032,0.038
53141.203927,16.088,0.04
53141.213238,16.128,0.043
53327.440942,16.287,0.092
53346.38805,16.527,0.076
53346.400439,16.412,0.074
53346.412925,16.418,0.073
53346.425391,16.445,0.073
53346.437608,16.564,0.084
53347.488183,16.433,0.061
53347.502126,16.506,0.061
53351.428475,16.609,0.079
53351.442797,16.41,0.066
53351.457278,16.305,0.061
53351.47227,16.154,0.056
53351.487046,16.081,0.053
53353.421653,16.168,0.053
53353.43579,16.198,0.054
53353.449866,16.242,0.056
53353.464073,16.251,0.058
53353.478118,16.291,0.058
53383.352683,16.593,0.055
53383.366278,16.416,0.05
53383.379358,16.481,0.057
53383.393011,16.502,0.055
53383.407397,16.465,0.057
53403.36128,16.63,0.061
53403.374343,16.653,0.061
53403.387928,16.574,0.061
53403.40206,16.611,0.066
53403.415624,16.684,0.074
53496.152661,16.533,0.07
53496.162629,16.465,0.068
53496.172674,16.544,0.07
53496.182631,16.551,0.072
53496.192595,16.547,0.078
53503.184866,16.21,0.05
53503.193719,16.291,0.054
53503.203573,16.215,0.052
53503.21344,16.261,0.054
53503.222684,16.328,0.057
53704.456425,16.271,0.046
53704.468938,16.32,0.046
53704.481452,16.346,0.048
53704.494184,16.283,0.046
53704.506909,16.374,0.05
53707.457211,16.226,0.057
53707.469954,16.274,0.094
53707.482611,16.226,0.055
53707.495165,16.226,0.052
53707.507848,16.26,0.041
53710.44999,16.155,0.044
53710.463373,16.153,0.05
53710.475911,16.149,0.048
53710.48857,16.183,0.05
53710.501152,16.201,0.048
53734.467372,16.558,0.059
53734.480456,16.46,0.057
53734.493813,16.594,0.063
53734.506923,16.603,0.061
53734.520036,16.614,0.065
53746.398468,16.361,0.072
53746.410929,16.398,0.074
53746.423463,16.425,0.078
53746.436173,16.474,0.08
53746.448625,16.495,0.08
53758.34712,16.087,0.031
53758.359645,16.094,0.039
53758.372151,16.162,0.041
53758.384881,16.102,0.039
53758.39761,16.15,0.043
53787.460512,16.109,0.048
53787.472394,16.178,0.057
53787.496584,16.127,0.096
53787.508862,16.241,0.128
53789.34504,16.238,0.17
53789.356911,16.632,0.263
53789.368782,16.394,0.13
53789.38066,16.304,0.044
53789.392525,16.33,0.044
53791.29918,16.475,0.046
53791.311336,16.532,0.051
53791.323748,16.523,0.049
53791.335642,16.536,0.049
53791.347577,16.548,0.051
53792.342949,16.204,0.041
53792.354731,16.184,0.05
53792.366509,16.242,0.057
53792.378293,16.326,0.065
53792.390065,16.31,0.052
53802.3334,16.431,0.107
53802.344942,16.616,0.08
53802.356401,16.646,0.089
53802.368084,16.554,0.078
53802.379553,16.601,0.08
53817.213655,16.249,0.043
53817.22511,16.308,0.045
53817.236606,16.282,0.045
53817.247994,16.312,0.045
53817.259572,16.335,0.046
53821.293851,16.571,0.068
53821.338332,16.193,0.055
53821.352654,16.139,0.054
53824.295476,16.734,0.102
53824.310323,16.588,0.137
53824.326031,16.585,0.065
53824.339758,16.465,0.078
53828.289561,16.472,0.081
53828.302493,16.53,0.072
53828.318489,16.527,0.057
53828.334152,16.473,0.07
53828.347434,16.511,0.078
53831.227775,16.22,0.063
53831.238193,16.254,0.065
53831.248343,16.251,0.065
53831.258512,16.305,0.068
53831.268623,16.311,0.067
53845.189254,16.312,0.058
53845.200371,16.372,0.059
53845.211517,16.336,0.059
53845.222605,16.39,0.064
53845.233682,16.435,0.074
53846.24264,16.107,0.059
53846.253448,16.116,0.059
53846.26426,16.146,0.059
53846.275053,16.166,0.061
53850.192073,16.627,0.078
53850.202464,16.611,0.078
53850.212951,16.624,0.079
53850.223456,16.732,0.091
53850.234038,16.525,0.078
53851.240387,16.271,0.059
53851.251873,16.388,0.067
53851.262377,16.433,0.068
53851.273097,16.323,0.07
53851.282926,16.44,0.078
53854.255528,16.358,0.07
53857.271529,16.261,0.067
53857.310316,16.509,0.105
53879.157816,16.374,0.051
53879.16867,16.46,0.058
53879.179439,16.453,0.058
53879.190178,16.477,0.063
53879.201793,16.51,0.069
53884.15797,16.662,0.094
53884.169699,16.677,0.098
53884.181452,16.677,0.104
53884.193224,16.63,0.104
53884.205018,16.682,0.117
53885.153648,16.365,0.058
53885.16445,16.36,0.059
53885.175602,16.323,0.059
53885.186414,16.453,0.068
53885.197466,16.39,0.068
54056.433912,16.701,0.076
54056.446164,16.669,0.072
54056.458421,16.637,0.068
54056.470853,16.659,0.067
54056.483106,16.6,0.063
54060.441804,16.301,0.064
54060.457467,16.421,0.071
54060.470298,16.323,0.064
54060.485096,16.434,0.069
54060.497884,16.481,0.073
54064.449418,16.339,0.044
54064.462281,16.28,0.044
54064.475139,16.206,0.039
54064.488017,16.159,0.037
54064.500887,16.121,0.033
54082.452474,16.444,0.074
54082.465253,16.488,0.072
54082.478046,16.5,0.076
54082.490838,16.575,0.078
54082.50364,16.542,0.072
54085.465771,16.546,0.05
54085.478729,16.619,0.05
54085.491694,16.542,0.044
54085.504657,16.509,0.044
54085.517622,16.55,0.046
54091.378985,16.432,0.073
54091.390893,16.439,0.069
54091.403007,16.438,0.069
54153.326948,16.541,0.043
54153.338563,16.546,0.043
54153.350133,16.546,0.05
54153.361694,16.563,0.054
54153.373269,16.805,0.17
54155.297034,16.647,0.065
54155.308667,16.68,0.063
54155.320373,16.66,0.061
54155.332353,16.661,0.057
54155.344549,16.599,0.052
54174.26652,16.18,0.041
54174.271347,16.159,0.033
54174.277521,16.229,0.045
54174.28205,16.163,0.037
54174.288545,16.233,0.046
54174.292754,16.236,0.039
54174.303458,16.232,0.046
54174.310522,16.212,0.048
54174.314178,16.276,0.048
54180.232425,16.332,0.084
54180.243017,16.318,0.054
54180.253549,16.261,0.048
54180.263965,16.176,0.041
54180.274299,16.201,0.04
54180.287392,16.067,0.031
54180.298408,16.042,0.031
54180.309307,16.07,0.033
54180.319873,16.106,0.033
54180.330629,16.111,0.033
54200.215936,16.589,0.079
54200.225406,16.543,0.076
54200.254391,16.366,0.071
54205.226793,16.217,0.039
54205.235968,16.192,0.039
54205.245255,16.207,0.039
54205.254459,16.227,0.041
54205.263679,16.273,0.043
54208.222272,16.142,0.039
54208.231309,16.19,0.039
54208.240387,16.135,0.039
54208.249464,16.191,0.039
54208.258542,16.189,0.039
54212.229582,16.546,0.059
54212.238589,16.611,0.061
54212.247621,16.608,0.061
54212.256768,16.564,0.061
54212.265938,16.587,0.063
54438.454109,16.686,0.048
54438.467374,16.621,0.046
54438.480807,16.56,0.046
54438.494166,16.367,0.041
54438.507388,16.308,0.037
54481.281576,16.27,0.065
54481.294498,16.36,0.057
54481.307421,16.401,0.059
54481.32034,16.289,0.05
54481.333445,16.34,0.044
54498.339554,16.4,0.035
54498.352104,16.505,0.037
54498.364728,16.433,0.039
54498.377276,16.528,0.039
54498.390044,16.476,0.037
54506.332492,16.611,0.039
54506.344601,16.657,0.043
54506.356696,16.617,0.043
54506.368788,16.558,0.043
54506.38091,16.474,0.041
54507.399077,16.462,0.053
54507.411405,16.509,0.054
54507.423274,16.627,0.059
54507.435291,16.57,0.059
54507.447168,16.624,0.063
54522.390286,16.209,0.044
54522.401954,16.2,0.048
54522.413635,16.189,0.048
54522.425276,16.344,0.054
54522.436931,16.264,0.054
54527.328058,16.363,0.03
54527.339455,16.451,0.033
54527.350827,16.458,0.035
54527.362362,16.451,0.035
54527.373743,16.367,0.037
54535.278012,16.474,0.031
54535.289106,16.477,0.031
54535.300207,16.45,0.031
54535.311293,16.517,0.033
54535.32234,16.536,0.033
54535.387802,16.61,0.059
54535.399069,16.699,0.064
54535.421067,16.736,0.074
54535.432222,16.753,0.081
54553.30074,16.367,0.067
54553.312634,16.407,0.039
54553.324526,16.39,0.039
54553.3366,16.458,0.044
54553.348513,16.385,0.044
54558.127793,16.283,0.039
54558.139436,16.306,0.037
54558.150984,16.298,0.035
54558.162568,16.287,0.035
54558.174202,16.346,0.035
54561.245548,16.399,0.028
54561.256995,16.403,0.028
54561.268464,16.408,0.035
54561.279926,16.507,0.048
54561.291494,16.489,0.063
54580.192448,16.618,0.052
54580.20307,16.593,0.052
54580.213683,16.616,0.054
54580.224292,16.625,0.057
54580.23497,16.602,0.065
54584.246501,16.415,0.044
54584.257158,16.363,0.043
54584.267736,16.393,0.046
54584.278309,16.456,0.048
54584.288933,16.512,0.057
54590.152588,16.127,0.069
54590.162295,16.232,0.074
54590.171941,16.311,0.081
54590.181588,16.304,0.081
54590.19124,16.285,0.084
54591.198865,16.591,0.055
54591.209181,16.64,0.059
54591.219456,16.683,0.065
54591.229738,16.738,0.07
54591.24002,16.732,0.074
54611.15831,16.614,0.052
54611.168762,16.594,0.052
54611.178678,16.613,0.052
54611.18855,16.666,0.057
54611.198458,16.693,0.059
54614.160835,16.579,0.048
54614.170791,16.562,0.052
54614.180761,16.54,0.05
54614.190734,16.552,0.054
54614.20072,16.662,0.059
