mjd,m,merr
52619.455064,15.469,0.03
52619.485451,15.488,0.03
52619.50044,15.558,0.03
52619.515429,15.585,0.031
52646.392234,15.714,0.028
52646.406735,15.743,0.03
52646.421283,15.722,0.028
52646.435837,15.597,0.026
52646.450288,15.165,0.018
52647.448796,15.595,0.03
52647.463547,15.666,0.031
52647.492864,15.71,0.035
52667.353588,15.281,0.02
52672.386307,15.516,0.024
52672.401107,15.544,0.022
52672.415153,15.526,0.022
52672.429546,15.556,0.026
52672.44343,15.58,0.026
52673.328097,15.185,0.02
52705.301503,15.704,0.022
52705.315382,15.637,0.024
52705.337603,15.64,0.024
52705.350707,15.535,0.02
52705.365067,15.158,0.017
52707.250685,15.491,0.02
52707.264061,15.489,0.018
52707.277249,15.515,0.02
52707.290494,15.53,0.02
52707.303917,15.576,0.02
52708.235695,15.215,0.017
52708.249784,15.218,0.017
52708.263113,15.256,0.018
52708.276423,15.278,0.018
52708.289758,15.314,0.018
52729.233038,15.626,0.022
52729.244609,15.602,0.022
52729.256072,15.555,0.022
52729.268241,15.591,0.022
52729.279726,15.63,0.024
52734.254338,15.609,0.024
52734.266697,15.37,0.02
52734.278853,15.154,0.024
52738.18673,15.001,0.015
52738.198209,15.079,0.017
52738.209689,15.085,0.017
52738.221129,15.143,0.018
52738.232608,15.216,0.018
52755.221208,15.362,0.026
52755.24511,15.482,0.028
52758.201004,15.66,0.028
52758.212938,15.706,0.03
52758.236898,15.702,0.031
52758.24897,15.74,0.033
52965.483717,15.577,0.1
52973.42823,15.354,0.023
52973.440238,15.388,0.025
52973.452413,15.395,0.023
52973.464693,15.445,0.023
52973.476647,15.469,0.023
52994.460795,15.63,0.021
52994.473312,15.406,0.013
52994.510992,14.777,0.008
52996.390231,15.474,0.016
52996.403055,15.538,0.016
52996.415839,15.537,0.015
52996.428818,15.563,0.015
52996.441595,15.572,0.015
53025.344195,15.561,0.016
53025.367706,15.665,0.096
53025.391732,15.613,0.048
53028.388463,15.005,0.008
53028.400891,15.041,0.008
53028.413053,15.1,0.01
53033.332062,15.097,0.015
53033.344319,15.155,0.015
53033.356474,15.206,0.015
53033.368609,15.252,0.017
53033.381081,15.273,0.026
53053.293551,15.611,0.024
53053.306187,15.601,0.031
53053.318803,15.689,0.046
53053.332118,15.681,0.024
53053.343879,15.701,0.024
53055.276475,15.453,0.041
53055.287701,15.494,0.03
53055.298837,15.468,0.033
53055.309942,15.502,0.03
53057.343437,15.223,0.064
53057.392701,15.345,0.069
53079.253182,15.362,0.017
53079.263824,15.408,0.017
53079.274633,15.403,0.017
53079.285333,15.424,0.017
53079.303791,15.506,0.018
53082.317398,14.919,0.01
53082.329366,14.795,0.008
53084.316557,15.58,0.016
53084.327843,15.555,0.015
53091.235218,15.325,0.015
53091.254978,15.336,0.026
53091.277339,15.415,0.015
53110.18934,14.876,0.015
53110.200032,14.957,0.015
53110.210717,14.988,0.015
53110.221406,15.014,0.017
53110.232206,15.089,0.017
53115.249745,15.361,0.016
53115.260587,15.346,0.016
53115.271392,15.396,0.018
53115.282281,15.432,0.018
53115.293546,15.445,0.018
53138.156742,15.337,0.02
53138.166608,15.33,0.02
53138.176436,15.363,0.02
53138.186259,15.391,0.022
53138.196061,15.424,0.022
53141.176383,15.698,0.026
53141.185391,15.68,0.025
53141.19442,15.63,0.025
53141.203404,15.656,0.025
53141.212712,15.443,0.021
53315.465358,15.236,0.041
53321.470996,15.424,0.097
53327.440834,15.275,0.033
53346.387865,14.865,0.016
53346.400254,14.904,0.018
53346.41274,15.07,0.02
53346.425206,15.014,0.02
53346.437423,15.114,0.021
53347.48808,14.921,0.016
53347.502024,14.972,0.016
53347.515909,15.006,0.018
53351.42741,15.3,0.025
53351.441745,15.317,0.026
53351.456193,15.36,0.026
53351.471176,15.414,0.028
53351.485961,15.431,0.03
53383.352554,15.659,0.024
53383.366149,15.721,0.026
53383.37923,15.695,0.024
53383.392883,15.696,0.026
53383.407268,15.567,0.022
53403.360277,15.502,0.023
53403.38691,15.513,0.023
53403.401059,15.539,0.025
53403.414601,15.557,0.026
53440.235401,14.979,0.013
53440.247136,15.007,0.013
53440.258749,15.077,0.013
53440.273934,15.123,0.015
53440.286651,15.178,0.015
53441.217132,15.665,0.024
53441.24014,15.249,0.017
53441.251602,15.013,0.013
53468.231038,15.387,0.048
53468.24097,15.417,0.043
53468.252365,15.445,0.061
53468.261944,15.377,0.059
53468.271555,15.455,0.074
53496.152562,15.614,0.031
53496.162529,15.585,0.03
53496.172573,15.557,0.03
53496.182531,15.583,0.031
53496.192494,15.564,0.031
53503.184068,15.53,0.028
53503.192923,15.526,0.026
53503.202698,15.562,0.028
53503.211994,15.557,0.028
53503.221875,15.564,0.03
53704.455351,15.497,0.024
53704.467859,15.529,0.022
53704.480377,15.568,0.026
53704.493085,15.527,0.022
53704.505819,15.553,0.024
53707.456122,15.229,0.046
53707.468852,14.938,0.02
53707.481441,14.75,0.015
53707.494076,14.759,0.013
53707.506762,14.864,0.011
53710.449706,15.446,0.026
53710.462998,15.492,0.028
53710.475627,15.55,0.03
53710.488285,15.481,0.026
53710.500867,15.553,0.028
53734.467235,15.497,0.024
53734.480319,15.539,0.024
53734.493676,15.529,0.024
53734.506786,15.582,0.024
53734.519883,15.563,0.026
53746.397774,15.348,0.03
53746.410235,15.389,0.031
53746.422767,15.392,0.031
53746.435478,15.48,0.033
53746.44793,15.464,0.031
53758.34699,15.262,0.015
53758.359515,15.272,0.018
53758.372021,15.315,0.018
53758.384751,15.321,0.018
53758.39748,15.367,0.02
53787.459714,15.617,0.031
53787.471592,15.59,0.033
53787.508033,15.399,0.059
53789.343993,15.065,0.048
53789.355866,15.103,0.059
53789.379615,15.079,0.017
53789.391481,15.116,0.017
53790.291937,15.603,0.025
53790.303851,15.68,0.028
53790.315799,15.704,0.028
53790.327837,15.748,0.028
53790.339741,15.631,0.025
53792.341925,15.572,0.022
53792.353706,15.627,0.031
53792.365486,15.586,0.033
53792.377269,15.604,0.033
53792.389043,15.592,0.03
53802.333273,15.723,0.063
53802.344815,15.649,0.035
53802.356274,15.429,0.031
53802.367956,15.161,0.022
53802.379426,14.951,0.018
53817.213515,15.116,0.016
53817.224971,15.174,0.016
53817.236467,15.2,0.016
53817.247856,15.221,0.016
53817.259433,15.254,0.018
53821.292962,15.604,0.028
53821.309792,15.633,0.041
53821.338206,15.627,0.035
53821.352526,15.579,0.033
53824.294451,15.079,0.024
53824.338734,15.247,0.024
53828.289435,15.52,0.039
53828.302368,15.565,0.03
53828.334025,15.552,0.031
53828.347306,15.592,0.035
53831.22763,15.787,0.044
53831.238048,15.761,0.043
53831.248199,15.797,0.044
53831.258364,15.72,0.043
53831.268471,15.563,0.037
53845.189042,15.494,0.028
53845.200157,15.522,0.028
53845.211304,15.523,0.028
53845.222392,15.583,0.031
53845.233469,15.602,0.033
53846.242555,15.379,0.031
53846.253363,15.43,0.031
53846.264176,15.483,0.033
53846.274968,15.543,0.037
53846.28579,15.513,0.037
53850.191776,15.59,0.031
53850.202169,15.599,0.031
53850.212654,15.588,0.031
53850.223158,15.55,0.031
53850.23374,15.612,0.035
53851.239529,15.565,0.031
53851.251016,15.596,0.031
53851.261527,15.611,0.033
53851.272246,15.595,0.035
53851.282069,15.592,0.039
53854.254663,14.899,0.018
53857.225022,15.622,0.052
53879.157017,15.603,0.026
53879.167871,15.609,0.026
53879.178642,15.589,0.026
53879.189381,15.574,0.028
53879.200422,15.613,0.031
53885.152997,15.514,0.028
53885.163798,15.586,0.03
53885.174954,15.593,0.031
53885.18576,15.551,0.031
53885.196818,15.588,0.035
54056.43378,15.597,0.028
54056.446033,15.602,0.028
54056.45829,15.596,0.028
54056.470723,15.604,0.026
54056.482975,15.619,0.026
54059.439845,15.202,0.018
54059.447405,15.218,0.023
54059.452352,15.23,0.018
54059.464676,15.255,0.018
54059.470932,15.259,0.025
54059.478113,15.289,0.018
54059.484703,15.259,0.021
54059.490426,15.298,0.017
54059.497263,15.3,0.021
54059.510021,15.334,0.021
54064.448326,15.414,0.018
54064.461187,15.447,0.02
54064.474048,15.451,0.02
54064.486922,15.481,0.02
54064.499793,15.516,0.02
54082.451366,15.393,0.03
54082.464147,15.418,0.028
54082.476937,15.439,0.028
54082.489731,15.493,0.03
54082.502533,15.52,0.03
54085.464615,15.631,0.022
54085.477571,15.371,0.017
54085.490538,15.126,0.013
54085.503502,14.824,0.009
54085.516469,14.742,0.009
54091.352503,15.657,0.038
54091.365686,15.602,0.035
54091.378318,15.618,0.035
54091.390224,15.623,0.033
54091.402341,15.651,0.033
54153.325888,15.321,0.015
54153.337581,15.337,0.015
54153.34915,15.404,0.02
54153.360715,15.405,0.02
54153.372285,15.454,0.024
54155.296888,15.439,0.022
54155.30852,15.146,0.017
54155.320226,14.918,0.013
54155.332205,14.756,0.011
54155.344401,14.767,0.011
54174.266381,15.606,0.025
54174.271223,15.603,0.02
54174.277383,15.55,0.025
54174.281927,15.584,0.022
54174.288407,15.56,0.026
54174.292633,15.559,0.022
54174.299323,15.568,0.04
54174.303336,15.583,0.026
54174.310385,15.587,0.028
54174.314055,15.596,0.026
54180.232291,15.706,0.063
54180.242883,15.607,0.031
54180.253416,15.586,0.026
54180.26383,15.626,0.025
54180.274142,15.576,0.023
54180.287275,15.592,0.02
54180.298291,15.599,0.02
54180.30919,15.63,0.02
54180.319756,15.641,0.022
54180.330511,15.653,0.022
54200.215593,15.285,0.025
54200.225099,15.289,0.026
54200.23465,15.326,0.026
54200.25408,15.344,0.028
54205.225836,15.505,0.022
54205.235014,15.55,0.022
54205.244297,15.531,0.022
54205.253497,15.551,0.022
54205.262716,15.567,0.022
54208.221331,15.213,0.017
54208.230364,15.037,0.015
54208.239441,14.867,0.013
54208.248523,14.78,0.011
54208.257597,14.768,0.011
54212.229459,15.293,0.018
54212.238469,15.344,0.02
54212.2475,15.369,0.02
54212.256646,15.37,0.022
54212.265818,15.406,0.022
54438.453921,14.749,0.009
54438.480618,14.833,0.009
54438.493977,14.888,0.009
54438.5072,14.968,0.011
54481.279802,15.553,0.028
54481.292723,15.578,0.026
54481.30565,15.577,0.026
54481.318572,15.57,0.022
54481.331674,15.562,0.02
54506.331478,15.471,0.015
54506.343586,15.502,0.015
54506.35568,15.513,0.015
54506.367775,15.533,0.017
54506.379897,15.564,0.017
54507.397134,15.425,0.025
54507.410893,15.41,0.023
54507.422758,15.489,0.025
54507.43472,15.473,0.026
54507.446661,15.508,0.026
54522.389275,15.695,0.026
54522.400945,15.626,0.024
54522.412635,15.556,0.024
54522.424269,15.249,0.018
54522.435926,15.038,0.015
54529.276604,15.54,0.015
54529.288032,15.566,0.015
54529.299658,15.586,0.015
54529.311456,15.579,0.015
54529.322827,15.575,0.015
54535.277838,15.55,0.013
54535.288929,15.577,0.015
54535.300032,15.554,0.015
54535.31112,15.544,0.015
54535.322168,15.586,0.015
54535.387112,15.585,0.028
54535.398379,15.566,0.026
54535.409378,15.579,0.03
54535.420377,15.62,0.03
54535.431532,15.602,0.033
54553.299855,15.538,0.024
54553.311744,15.554,0.018
54553.323637,15.566,0.018
54553.335712,15.604,0.02
54553.347618,15.604,0.022
54558.127506,15.394,0.017
54558.139148,15.441,0.017
54558.150698,15.466,0.017
54558.162282,15.468,0.017
54558.173916,15.508,0.017
54562.24672,15.265,0.011
54562.258326,15.032,0.009
54562.29342,14.794,0.007
54580.192314,15.639,0.022
54580.202935,15.654,0.022
54580.213548,15.654,0.024
54580.224159,15.651,0.024
54580.234836,15.584,0.026
54584.201673,15.155,0.015
54584.212556,15.211,0.015
54584.223456,15.242,0.015
54584.234359,15.251,0.017
54584.245285,15.291,0.017
54590.152463,15.058,0.028
54590.16217,14.987,0.028
54590.171816,14.987,0.028
54590.181464,15.115,0.03
54590.191117,15.153,0.031
54591.197777,14.771,0.011
54591.208172,14.8,0.011
54591.21845,14.855,0.013
54591.228723,14.889,0.015
54591.239009,14.954,0.015
54611.158146,15.538,0.02
54611.168619,15.567,0.022
54611.178537,15.567,0.02
54611.188407,15.543,0.022
54611.198317,15.575,0.022
54614.170671,15.03,0.013
54614.180644,15.066,0.015
54614.190615,15.099,0.015
54614.2006,15.142,0.015
