mjd,m,merr
52621.373825,16.041,0.035
52621.388514,16.039,0.037
52621.403305,16.087,0.037
52621.418051,16.094,0.037
52621.432866,16.093,0.037
52635.389944,15.468,0.028
52635.404405,15.509,0.03
52635.41956,15.577,0.03
52635.434602,15.577,0.03
52635.449229,15.646,0.033
52654.397393,16.048,0.063
52654.412301,16.021,0.059
52654.427722,16.039,0.058
52654.442712,16.064,0.054
52662.322888,15.697,0.035
52662.353979,15.726,0.036
52662.370006,15.8,0.038
52662.386598,15.782,0.036
52693.3132,16.106,0.038
52693.32693,16.114,0.041
52693.34069,16.167,0.046
52693.354654,16.185,0.048
52693.369099,16.147,0.049
52721.236976,15.998,0.036
52721.249108,16.055,0.038
52721.261233,16.0,0.036
52721.273363,16.044,0.038
52721.285496,16.059,0.041
52750.186685,16.238,0.051
52750.198136,16.229,0.049
52750.209076,16.122,0.045
52750.220006,16.036,0.043
52750.230932,15.794,0.035
52772.154903,15.506,0.041
52772.16697,15.564,0.043
52772.178737,15.624,0.044
52772.190699,15.611,0.046
52772.202676,15.661,0.046
52780.171119,16.185,0.102
52948.460722,15.848,0.041
52948.473118,15.881,0.043
52948.485532,15.905,0.041
52948.49799,15.994,0.041
52979.387125,16.079,0.084
52979.398338,16.097,0.091
52979.411024,15.969,0.102
52979.441371,15.743,0.087
53009.361855,16.179,0.056
53009.378419,15.97,0.048
53009.392973,15.768,0.04
53009.408716,15.678,0.036
53009.423733,15.529,0.031
53017.417062,16.127,0.043
53044.286478,16.168,0.059
53044.299111,16.177,0.059
53074.279281,16.168,0.048
53074.290226,16.28,0.051
53074.301268,16.203,0.051
53074.312372,16.118,0.046
53074.323354,15.933,0.041
53104.245771,16.231,0.046
53104.25663,16.234,0.049
53104.284909,16.102,0.051
53104.295428,16.127,0.054
53133.222039,15.783,0.036
53133.231048,15.784,0.035
53156.168217,15.554,0.041
53156.176603,15.587,0.043
53156.184961,15.476,0.04
53156.193421,15.463,0.04
53156.201845,15.496,0.041
53162.178526,16.016,0.087
53162.188273,16.046,0.056
53162.197875,16.058,0.053
53162.207536,16.049,0.084
53330.443308,15.502,0.028
53330.455812,15.572,0.03
53330.468337,15.546,0.043
53330.480842,15.595,0.033
53330.493351,15.656,0.033
53339.382366,16.065,0.102
53339.394694,15.934,0.089
53339.419652,16.075,0.099
53339.431971,16.055,0.097
53356.447269,16.125,0.044
53356.460294,16.114,0.044
53356.473292,16.132,0.041
53356.486612,16.177,0.044
53356.499732,16.129,0.041
53358.336191,16.109,0.04
53358.349935,16.083,0.04
53358.362835,16.115,0.041
53358.37755,16.152,0.041
53358.39356,16.18,0.043
53362.447835,15.752,0.096
53362.461553,15.907,0.044
53362.47671,15.853,0.037
53362.491619,15.894,0.037
53390.351758,15.59,0.03
53390.377329,15.542,0.026
53390.390848,15.569,0.026
53429.285293,15.889,0.035
53429.296528,15.892,0.035
53429.319565,15.962,0.037
53452.22411,15.761,0.059
53460.225299,16.222,0.041
53460.235608,16.136,0.037
53460.246081,15.99,0.031
53460.257007,15.822,0.028
53460.267663,15.759,0.028
53488.195178,16.061,0.035
53488.205203,16.108,0.037
53488.21545,16.111,0.037
53488.226296,16.112,0.037
53488.236501,16.073,0.037
53534.163287,15.818,0.054
53534.172885,15.877,0.054
53534.182504,15.765,0.05
53534.192122,15.954,0.059
53534.201826,15.929,0.059
53687.440061,16.051,0.048
53687.452464,16.046,0.044
53687.465002,16.042,0.039
53687.489776,16.095,0.039
53724.405936,15.76,0.065
53724.419028,15.712,0.063
53754.348078,16.209,0.085
53754.360675,15.959,0.063
53775.350279,16.101,0.054
53775.363029,16.054,0.072
53775.37577,16.133,0.068
53775.390244,16.047,0.091
53775.404095,15.97,0.097
53775.417928,16.01,0.12
53860.195995,15.995,0.049
53860.208669,15.966,0.048
53860.21862,16.052,0.053
53860.231723,16.064,0.054
53860.245016,16.114,0.058
53906.169899,15.478,0.038
53906.179388,15.459,0.038
53906.188915,15.505,0.045
53906.198477,15.551,0.053
53906.207989,15.618,0.058
54050.431476,15.547,0.039
54050.443697,15.522,0.037
54050.468188,15.6,0.037
54050.480363,15.706,0.039
54107.376517,15.677,0.079
54107.389353,15.589,0.071
54107.415019,15.807,0.081
54126.323154,16.094,0.045
54126.335197,16.02,0.043
54139.275235,15.838,0.028
54139.287162,15.888,0.031
54139.298903,15.895,0.039
54139.310587,15.898,0.031
54139.322266,15.971,0.043
54167.274637,15.687,0.03
54167.285731,15.735,0.039
54167.296828,15.712,0.03
54167.307922,15.761,0.039
54167.319024,15.791,0.043
54464.379293,16.124,0.045
54464.39224,15.977,0.041
54464.405051,15.801,0.036
54464.418056,15.682,0.033
54464.430747,15.607,0.031
54484.328213,16.221,0.064
54484.340517,16.259,0.064
54484.352847,16.175,0.063
54484.365582,16.1,0.059
54484.377789,15.931,0.048
54495.340089,15.983,0.038
54495.352329,16.023,0.04
54495.364324,15.991,0.04
54495.376524,15.974,0.04
54495.388632,16.004,0.04
54523.274525,15.752,0.028
54523.286075,15.75,0.028
54523.297754,15.8,0.028
54523.309238,15.785,0.03
54523.320877,15.823,0.03
54540.225238,15.891,0.038
54540.236764,15.94,0.038
54540.247714,15.936,0.038
54540.258523,15.954,0.036
54540.269281,15.935,0.036
54554.243469,16.091,0.04
54554.255446,16.144,0.041
54554.267704,16.234,0.043
54554.279725,16.176,0.041
54554.291764,16.196,0.043
54555.181263,15.84,0.043
54555.192984,15.875,0.045
54555.205066,15.897,0.045
54555.216926,15.914,0.045
54555.228665,15.949,0.046
54621.162096,15.677,0.043
54621.172941,15.61,0.041
54621.183328,15.534,0.043
54621.193614,15.474,0.04
54621.204429,15.511,0.043
