mjd,m,merr
52620.462538,16.824,0.078
52620.477679,16.86,0.13
52620.49276,16.981,0.131
52620.508063,16.964,0.102
52620.523147,17.04,0.126
52623.449793,16.557,0.078
52623.46546,16.664,0.087
52623.481287,16.792,0.12
52623.497088,16.7,0.093
52623.513092,16.778,0.1
52637.407217,16.649,0.483
52650.358613,16.55,0.055
52650.372955,16.595,0.054
52650.387044,16.631,0.054
52650.40122,16.632,0.052
52650.415245,16.696,0.057
52652.384725,16.347,0.048
52652.399895,16.437,0.048
52652.415223,16.507,0.046
52652.430507,16.556,0.048
52652.445671,16.64,0.052
52652.452418,16.655,0.052
52652.467462,16.721,0.057
52652.482693,16.737,0.063
52652.500872,16.783,0.061
52652.515945,16.797,0.063
52664.3484,16.599,0.055
52664.363675,16.628,0.07
52664.378896,16.596,0.118
52664.409519,16.653,0.274
52680.335244,16.328,0.049
52680.359497,16.506,0.054
52680.377774,16.587,0.054
52680.394283,16.643,0.056
52680.412266,16.644,0.059
52681.283846,17.017,0.146
52681.301115,16.752,0.102
52681.319638,16.417,0.055
52681.338031,16.169,0.039
52695.312805,16.197,0.041
52695.326604,16.254,0.043
52695.340387,16.331,0.061
52695.354159,16.305,0.061
52712.24787,17.059,0.259
52712.287538,17.144,0.144
52712.300761,17.165,0.144
52722.24353,16.279,0.043
52722.255657,16.383,0.046
52722.268125,16.411,0.046
52722.280443,16.499,0.048
52722.292593,16.474,0.048
52751.202159,16.243,0.069
52751.213265,16.215,0.051
52751.224074,16.219,0.048
52751.234914,16.36,0.054
52751.245917,16.389,0.056
52770.204895,17.041,0.193
52770.216529,16.974,0.181
52770.228213,16.834,0.158
52770.239834,17.115,0.206
52770.251299,16.923,0.175
52800.179683,16.769,0.281
52800.189745,16.679,0.25
52800.199788,17.047,0.276
52800.209827,16.703,0.194
52810.173316,16.905,0.102
52810.18331,16.626,0.078
52812.174326,17.042,0.113
52812.184554,17.212,0.135
52812.194915,17.144,0.133
52812.205102,17.184,0.139
52812.215446,17.238,0.146
52976.455619,16.61,0.052
52976.469126,16.688,0.057
52976.482339,16.676,0.057
52976.495758,16.747,0.057
52976.50895,16.736,0.057
52990.402764,16.587,0.057
52990.416054,16.545,0.055
52990.430059,16.655,0.061
52990.443113,16.609,0.081
52990.456327,16.694,0.072
53023.344763,17.156,0.065
53023.35826,17.173,0.068
53023.371252,17.178,0.07
53023.384124,17.101,0.065
53023.396891,16.849,0.052
53035.352925,16.188,0.043
53035.365947,16.285,0.045
53035.378585,16.391,0.048
53035.391719,16.404,0.048
53035.405304,16.493,0.048
53046.348926,16.648,0.07
53046.360863,16.653,0.07
53046.372845,16.78,0.08
53046.384986,16.787,0.08
53046.397031,16.802,0.081
53065.284787,17.102,0.084
53065.296863,17.154,0.087
53065.308787,16.992,0.074
53065.320767,16.778,0.061
53065.332588,16.509,0.048
53094.227529,16.994,0.078
53094.237168,17.018,0.079
53094.24698,17.087,0.084
53094.256748,17.02,0.079
53094.266554,17.159,0.087
53096.240457,17.095,0.207
53096.250382,17.088,0.187
53096.260339,17.132,0.194
53107.243091,16.733,0.054
53107.254363,16.508,0.044
53107.265557,16.275,0.037
53107.276766,16.177,0.033
53107.288038,16.28,0.037
53122.198065,17.044,0.109
53122.208715,17.329,0.142
53122.219102,17.067,0.135
53122.229584,17.093,0.098
53122.24007,16.997,0.087
53127.209498,16.82,0.224
53127.229343,17.166,0.298
53136.199343,17.183,0.102
53136.208699,17.107,0.098
53136.218005,16.915,0.083
53136.227306,16.749,0.072
53136.236626,16.546,0.063
53153.206377,16.974,0.113
53153.215326,17.028,0.117
53153.224074,17.065,0.124
53153.23294,17.006,0.12
53153.241718,17.028,0.126
53154.205638,17.1,0.161
53154.214544,16.976,0.152
53154.223358,17.089,0.172
53154.232217,16.968,0.155
53154.241034,16.978,0.159
53164.172383,16.914,0.08
53164.182588,16.556,0.057
53164.192802,16.424,0.059
53164.203017,16.244,0.044
53164.213257,16.158,0.041
53178.172891,16.287,0.046
53178.18297,16.185,0.041
53178.193107,16.237,0.044
53178.203322,16.232,0.054
53178.2134,16.346,0.052
53319.464459,16.185,0.055
53319.476334,16.238,0.057
53319.488209,16.31,0.059
53319.50007,16.321,0.057
53319.511932,16.411,0.061
53330.463131,16.476,0.076
53330.491012,16.69,0.091
53331.45374,16.563,0.085
53331.46612,16.56,0.083
53331.4785,16.705,0.089
53331.490871,16.67,0.087
53331.503243,16.664,0.085
53341.477673,17.276,0.261
53341.489742,17.162,0.233
53341.50233,17.298,0.255
53341.5144,17.288,0.255
53356.474169,16.888,0.078
53356.487727,16.915,0.076
53356.501229,16.9,0.076
53356.514616,16.945,0.078
53356.528064,17.031,0.081
53358.406794,16.636,0.067
53358.419816,16.691,0.07
53358.432884,16.736,0.072
53358.445966,16.786,0.072
53358.45983,16.807,0.07
53360.424844,16.518,0.08
53360.437987,16.61,0.107
53360.451127,16.621,0.198
53386.415801,16.797,0.067
53386.428944,16.763,0.065
53386.442001,16.806,0.065
53386.45515,16.819,0.067
53386.471898,16.865,0.07
53401.389511,16.83,0.106
53422.325201,17.041,0.203
53422.337177,16.947,0.194
53441.3386,16.908,0.067
53441.351323,16.937,0.068
53441.362361,16.944,0.068
53441.373379,16.953,0.072
53441.384948,16.973,0.076
53450.273576,17.083,0.139
53450.285054,17.059,0.137
53450.296159,16.937,0.122
53450.306816,17.092,0.148
53450.318772,17.134,0.152
53479.230166,16.966,0.2
53479.240354,16.887,0.191
53479.252211,16.848,0.183
53479.26316,16.882,0.202
53479.272668,16.96,0.207
53537.172332,16.926,0.285
53537.202562,17.217,0.281
53551.180572,17.044,0.118
53551.190592,17.013,0.13
53551.200747,17.131,0.133
53551.210673,16.901,0.115
53684.444355,16.571,0.111
53684.456957,16.644,0.1
53684.469442,16.633,0.089
53684.482161,16.752,0.109
53684.494603,16.647,0.091
53700.451112,16.534,0.074
53700.464088,16.484,0.067
53700.476843,16.527,0.07
53700.489801,16.515,0.063
53700.502503,16.591,0.063
53728.40399,16.477,0.059
53728.417268,16.495,0.059
53728.430695,16.498,0.065
53728.443744,16.662,0.08
53728.456936,16.622,0.067
53772.349114,16.375,0.05
53772.361863,16.346,0.048
53772.374687,16.475,0.052
53772.387664,16.512,0.054
53772.400645,16.603,0.057
53825.236802,16.726,0.058
53825.24805,16.737,0.058
53825.259208,16.721,0.058
53825.270441,16.744,0.061
53825.281715,16.774,0.063
53842.244146,16.525,0.084
53842.255725,16.66,0.096
53842.278974,16.737,0.117
53855.195355,16.526,0.068
53855.206004,16.553,0.069
53855.216536,16.6,0.073
53855.227129,16.605,0.074
53855.237722,16.689,0.081
53878.165677,17.019,0.152
53878.181379,16.93,0.139
53878.20168,17.053,0.157
53878.2176,17.237,0.178
53878.232817,17.304,0.203
53892.16783,16.766,0.205
53892.177884,16.772,0.216
53892.188031,16.548,0.178
53892.198209,16.835,0.233
53892.20855,16.693,0.213
53903.171629,16.955,0.132
53903.189395,16.997,0.144
53903.204811,17.033,0.135
53903.214983,17.043,0.14
53903.224637,16.839,0.12
54053.45202,16.8,0.117
54053.46644,16.804,0.144
54070.454639,16.216,0.048
54070.468065,16.338,0.053
54070.48106,16.344,0.053
54070.49406,16.458,0.061
54070.507121,16.402,0.061
54086.369436,17.068,0.153
54086.382978,17.244,0.172
54086.396267,17.141,0.145
54086.410161,17.308,0.165
54086.423828,17.028,0.119
54109.374593,16.884,0.251
54109.386468,16.932,0.221
54109.398328,17.176,0.3
54140.33659,16.533,0.059
54140.348769,16.492,0.054
54140.361138,16.572,0.059
54140.373157,16.645,0.066
54140.385318,16.646,0.068
54187.276203,16.935,0.137
54187.286909,17.084,0.157
54187.297451,17.021,0.144
54187.308356,17.201,0.172
54200.228982,17.049,0.07
54200.268277,17.027,0.115
54210.221211,16.481,0.058
54210.23025,16.531,0.058
54210.238968,16.695,0.066
54210.247664,16.549,0.058
54210.256606,16.682,0.069
54218.234869,16.767,0.168
54218.243447,17.079,0.22
54218.252047,17.022,0.216
54218.260647,16.914,0.194
54481.386989,16.242,0.054
54481.399512,16.325,0.059
54481.411612,16.3,0.069
54481.435961,16.489,0.064
54509.326642,16.375,0.051
54509.338667,16.355,0.049
54509.35072,16.499,0.056
54509.362751,16.495,0.056
54509.375398,16.574,0.058
54527.309148,17.038,0.096
54527.320589,17.163,0.102
54527.331722,17.191,0.104
54536.271281,16.501,0.056
54536.282164,16.599,0.061
54536.293275,16.613,0.061
54536.304187,16.54,0.058
54536.315055,16.584,0.059
54560.247678,16.872,0.097
54560.259561,16.856,0.101
54560.271101,16.908,0.104
54560.282923,16.71,0.086
54560.294406,16.806,0.096
