mjd,m,merr
52619.486979,17.059,0.142
52619.50197,16.878,0.116
52619.516956,16.865,0.111
52641.452401,16.469,0.052
52641.467742,16.414,0.052
52641.48277,16.473,0.054
52641.497914,16.388,0.05
52641.513404,16.48,0.054
52646.393797,16.725,0.08
52646.408219,16.658,0.076
52646.422773,16.584,0.068
52646.437322,16.585,0.068
52646.451771,16.59,0.068
52647.450157,16.706,0.094
52647.479449,16.667,0.091
52647.494226,16.426,0.076
52667.393376,16.607,0.059
52667.408608,16.529,0.057
52667.424082,16.46,0.054
52667.439397,16.495,0.059
52667.45475,16.421,0.057
52672.387247,16.744,0.08
52672.402046,16.626,0.063
52672.416092,16.461,0.059
52672.430482,16.487,0.063
52672.444363,16.489,0.067
52673.297224,16.667,0.073
52673.313125,16.567,0.064
52673.32956,16.545,0.066
52673.344377,16.527,0.063
52673.35938,16.698,0.074
52704.294083,16.518,0.061
52704.307381,16.554,0.064
52704.320466,16.525,0.063
52704.333476,16.513,0.063
52704.346433,16.566,0.066
52705.302331,16.587,0.054
52705.316193,16.616,0.055
52705.338414,16.501,0.052
52705.351475,16.455,0.052
52705.365847,16.411,0.052
52707.248485,16.736,0.073
52707.261676,16.697,0.069
52707.274742,16.694,0.068
52707.288192,16.59,0.063
52707.301257,16.614,0.064
52729.233722,16.403,0.046
52729.245291,16.513,0.052
52729.256755,16.477,0.05
52729.268922,16.486,0.052
52729.280406,16.629,0.059
52734.255057,16.53,0.055
52734.267413,16.426,0.083
52737.243396,16.477,0.061
52737.256251,16.536,0.065
52737.268045,16.55,0.067
52737.279858,16.539,0.063
52737.291713,16.553,0.063
52756.196517,16.585,0.069
52756.209017,16.688,0.079
52756.221121,16.517,0.068
52756.233303,16.624,0.081
52756.245546,16.502,0.074
52760.201935,16.375,0.054
52760.213982,16.404,0.056
52760.22617,16.431,0.059
52760.238212,16.492,0.066
52760.250408,16.494,0.071
52765.188079,16.556,0.076
52765.200594,16.585,0.074
52788.168866,16.497,0.12
52788.190264,16.692,0.186
52972.447815,16.636,0.057
52972.460627,16.578,0.05
52972.473556,16.574,0.05
52972.486329,16.643,0.055
52972.499138,16.439,0.046
52995.389388,16.692,0.048
52995.4021,16.702,0.046
52995.43983,16.55,0.04
52997.432274,16.778,0.185
53027.40521,16.616,0.035
53027.418217,16.575,0.035
53027.431127,16.645,0.04
53027.443888,16.7,0.041
53027.456633,16.579,0.035
53033.333443,16.711,0.068
53033.345742,16.679,0.065
53033.357878,16.682,0.063
53033.369989,16.63,0.078
53033.382611,16.561,0.087
53054.305973,16.689,0.052
53054.320975,16.68,0.052
53054.335609,16.614,0.048
53054.348743,16.657,0.05
53054.361317,16.608,0.05
53058.382581,16.646,0.041
53061.34161,16.404,0.031
53061.353583,16.422,0.033
53061.37832,16.563,0.046
53061.390184,16.518,0.045
53080.227623,16.463,0.048
53080.238583,16.533,0.052
53080.25216,16.476,0.05
53080.264902,16.525,0.05
53080.276299,16.599,0.054
53081.248543,16.587,0.051
53083.295645,16.634,0.045
53083.318269,16.682,0.046
53085.349603,16.537,0.051
53085.362907,16.426,0.069
53085.374065,16.383,0.086
53085.385279,16.448,0.078
53111.187657,16.581,0.07
53111.198433,16.507,0.067
53111.209183,16.512,0.065
53111.219921,16.452,0.065
53111.230696,16.535,0.068
53112.130781,16.792,0.096
53112.141526,16.75,0.068
53112.152676,16.763,0.069
53112.163079,16.743,0.068
53112.173378,16.889,0.096
53116.252919,16.882,0.152
53116.274752,16.73,0.107
53116.285567,16.825,0.144
53139.157206,16.533,0.063
53139.166886,16.537,0.063
53139.176482,16.525,0.065
53139.186007,16.51,0.063
53139.195518,16.685,0.076
53142.207251,16.494,0.076
53144.214136,16.673,0.128
53144.223425,16.529,0.165
53144.242226,16.996,0.363
53144.251577,16.646,0.17
53327.441906,16.526,0.127
53346.448643,16.674,0.094
53346.462446,16.656,0.091
53346.475541,16.581,0.083
53346.488772,16.734,0.098
53346.500917,16.659,0.089
53347.48914,16.739,0.087
53347.503092,16.754,0.078
53347.516962,16.656,0.076
53353.422694,16.737,0.101
53353.436785,16.718,0.094
53353.450868,16.762,0.096
53353.465065,16.54,0.078
53353.479112,16.763,0.091
53383.353328,16.435,0.054
53383.366922,16.569,0.063
53383.380004,16.707,0.072
53383.393656,16.75,0.074
53383.408042,16.796,0.083
53403.388445,16.698,0.073
53403.402562,16.627,0.071
53403.416125,16.597,0.073
53440.371924,16.697,0.072
53440.382928,16.639,0.068
53440.395078,16.743,0.081
53440.405565,16.608,0.074
53440.417183,16.722,0.087
53446.229384,16.78,0.091
53446.239998,16.758,0.083
53446.26231,16.744,0.081
53466.268356,16.531,0.063
53466.277687,16.512,0.061
53466.287355,16.54,0.065
53466.29882,16.635,0.078
53466.308384,16.583,0.068
53496.153062,16.565,0.076
53496.163032,16.55,0.074
53496.173076,16.53,0.074
53496.183034,16.497,0.072
53496.192996,16.482,0.074
53707.457753,16.224,0.105
53707.483151,16.311,0.087
53707.495708,16.421,0.072
53707.508389,16.537,0.063
53710.450272,16.671,0.087
53710.463655,16.397,0.068
53710.476193,16.394,0.065
53710.488851,16.479,0.076
53710.501435,16.471,0.072
53734.468064,16.441,0.054
53734.481147,16.468,0.057
53734.494504,16.424,0.054
53734.507654,16.394,0.05
53734.520728,16.413,0.054
53746.399278,16.588,0.094
53746.41174,16.571,0.093
53746.424294,16.445,0.083
53746.436983,16.597,0.093
53746.449445,16.511,0.085
53758.399333,16.827,0.085
53758.41202,16.765,0.08
53758.424555,16.649,0.07
53758.437278,16.861,0.091
53758.450311,16.924,0.098
53787.461175,16.606,0.08
53787.473068,16.682,0.093
53787.497261,16.469,0.093
53789.357437,16.215,0.168
53789.369309,16.605,0.137
53789.381187,16.683,0.074
53789.393052,16.631,0.063
53791.311762,16.578,0.056
53792.343466,16.467,0.054
53792.355247,16.596,0.087
53792.367026,16.596,0.08
53792.37881,16.681,0.1
53792.39058,16.555,0.068
53802.334035,16.426,0.102
53802.34558,16.405,0.067
53802.35703,16.62,0.093
53802.368715,16.637,0.085
53802.380184,16.781,0.105
53815.236061,16.706,0.102
53815.247509,16.759,0.118
53815.258847,16.722,0.1
53815.270346,16.663,0.083
53815.281704,16.612,0.083
53817.214211,16.641,0.054
53817.225667,16.613,0.053
53817.237165,16.54,0.051
53817.248555,16.595,0.053
53817.260297,16.509,0.048
53821.297649,16.73,0.081
53821.311822,16.587,0.133
53821.326145,16.631,0.242
53821.338964,16.525,0.085
53821.353283,16.444,0.085
53824.295991,16.759,0.12
53824.310837,16.73,0.146
53824.326549,16.782,0.089
53824.341026,16.632,0.098
53828.290189,16.485,0.098
53828.303119,16.428,0.068
53828.319118,16.513,0.059
53828.334781,16.502,0.078
53828.348157,16.467,0.081
53831.228485,16.775,0.102
53831.239045,16.967,0.122
53831.249053,16.958,0.124
53831.259238,16.896,0.117
53831.269356,16.819,0.107
53846.230181,16.733,0.069
53846.243061,16.566,0.094
53846.253868,16.53,0.093
53846.264679,16.54,0.093
53846.275472,16.473,0.089
53846.286295,16.58,0.1
53851.240959,16.478,0.074
53851.252435,16.543,0.078
53851.263037,16.621,0.089
53851.273525,16.458,0.083
53851.283738,16.568,0.096
53854.256139,16.613,0.096
53857.272542,16.627,0.1
53857.299406,16.514,0.111
53857.311418,16.581,0.12
53884.1586,16.518,0.085
53884.170328,16.529,0.089
53884.182083,16.55,0.094
53884.193855,16.406,0.089
53884.20565,16.642,0.113
54056.434557,16.82,0.102
54056.44681,16.829,0.096
54056.459068,16.533,0.07
54056.471498,16.612,0.07
54056.483752,16.631,0.072
54060.442748,16.691,0.104
54060.458214,16.783,0.107
54060.471046,16.8,0.106
54060.485845,16.911,0.119
54060.498629,16.889,0.114
54064.449971,16.67,0.07
54064.462835,16.644,0.07
54064.475693,16.549,0.063
54064.48857,16.538,0.059
54064.50144,16.561,0.057
54082.45303,16.525,0.076
54082.46581,16.636,0.078
54082.478603,16.592,0.074
54082.491394,16.532,0.07
54082.504197,16.617,0.074
54085.466357,16.665,0.065
54085.479316,16.529,0.052
54085.492281,16.505,0.05
54085.505244,16.476,0.048
54085.51821,16.464,0.048
54091.353958,16.781,0.124
54091.367136,16.615,0.097
54091.379771,16.673,0.101
54091.391673,16.635,0.092
54091.403792,16.563,0.086
54153.32746,16.514,0.048
54153.339071,16.542,0.05
54153.350638,16.514,0.065
54153.362198,16.653,0.063
54153.373772,16.722,0.155
54155.297461,16.501,0.059
54155.309094,16.599,0.061
54155.320803,16.585,0.057
54155.332783,16.712,0.065
54155.344978,16.674,0.057
54156.270507,16.6,0.057
54156.282039,16.566,0.055
54156.293571,16.506,0.054
54156.305121,16.521,0.054
54156.316673,16.486,0.052
54174.267209,16.586,0.063
54174.271954,16.547,0.05
54174.282657,16.535,0.054
54174.289237,16.582,0.069
54174.293359,16.552,0.055
54174.300149,16.514,0.096
54174.304062,16.549,0.07
54174.311212,16.572,0.068
54174.31478,16.445,0.059
54175.264178,16.74,0.059
54175.267683,16.746,0.073
54175.274871,16.778,0.059
54175.27859,16.799,0.074
54175.285509,16.778,0.059
54175.28981,16.715,0.071
54175.296157,16.777,0.059
54175.300679,16.831,0.079
54175.30681,16.759,0.059
54175.311544,16.793,0.078
54176.319821,16.686,0.069
54176.319947,16.603,0.054
54176.33059,16.709,0.074
54176.330781,16.743,0.063
54176.341386,16.68,0.069
54176.341668,16.748,0.067
54176.352241,16.737,0.076
54176.352671,16.75,0.065
54176.363104,16.775,0.079
54176.363629,16.754,0.065
54180.23282,16.639,0.074
54180.243411,16.737,0.087
54180.253946,16.641,0.069
54180.264362,16.726,0.071
54180.288189,16.651,0.05
54180.299031,16.696,0.052
54180.309895,16.573,0.046
54180.320552,16.536,0.046
54180.331213,16.484,0.044
54200.216237,16.62,0.079
54200.225706,16.79,0.091
54200.235257,16.643,0.084
54205.264549,16.432,0.05
54205.273936,16.446,0.05
54205.283332,16.466,0.054
54205.292752,16.596,0.063
54205.302152,16.549,0.061
54208.222733,16.592,0.055
54208.231779,16.661,0.063
54208.240851,16.624,0.059
54208.249933,16.6,0.054
54208.259015,16.616,0.057
54212.23018,16.405,0.055
54212.23919,16.422,0.057
54212.248219,16.519,0.063
54212.257368,16.505,0.067
54212.266534,16.573,0.067
54438.454667,16.683,0.048
54438.46793,16.669,0.05
54438.481362,16.603,0.048
54438.494724,16.732,0.055
54438.507946,16.762,0.055
54481.334339,16.506,0.052
54481.347381,16.52,0.048
54481.360296,16.581,0.048
54481.373368,16.502,0.044
54481.386271,16.648,0.052
54498.340148,16.726,0.048
54498.352698,16.697,0.048
54498.365323,16.738,0.05
54498.37787,16.653,0.046
54498.39064,16.622,0.044
54506.333184,16.788,0.048
54506.345287,16.758,0.048
54506.357381,16.682,0.046
54506.369474,16.695,0.046
54506.381594,16.595,0.044
54507.447678,16.68,0.066
54507.459598,16.564,0.078
54507.471553,16.596,0.074
54507.483407,16.527,0.066
54507.496214,16.619,0.069
54521.402048,16.402,0.063
54521.437308,16.545,0.08
54527.328639,16.736,0.044
54527.340034,16.664,0.043
54527.351408,16.661,0.044
54527.36294,16.75,0.05
54527.374323,16.629,0.044
54534.340506,16.566,0.056
54534.351649,16.565,0.056
54534.362983,16.5,0.054
54534.374068,16.524,0.056
54534.385123,16.627,0.073
54535.270163,16.488,0.033
54535.27365,16.526,0.074
54535.278526,16.505,0.033
54535.281236,16.486,0.031
54535.284604,16.539,0.074
54535.289619,16.497,0.033
54535.295664,16.581,0.081
54535.300719,16.532,0.033
54535.306645,16.686,0.086
54535.311804,16.583,0.035
54535.314507,16.579,0.035
54535.317763,16.636,0.083
54535.322852,16.677,0.039
54540.21755,16.561,0.052
54540.228579,16.457,0.046
54540.239623,16.433,0.043
54540.2507,16.485,0.044
54540.261711,16.508,0.044
54552.306266,16.521,0.046
54552.318343,16.491,0.05
54552.330587,16.544,0.052
54552.342694,16.549,0.054
54552.354902,16.517,0.055
54561.246124,16.477,0.031
54561.257572,16.454,0.033
54561.269041,16.549,0.041
54561.280506,16.517,0.052
54561.292073,16.458,0.08
54568.239407,16.586,0.084
54568.250392,16.703,0.092
54568.261197,16.639,0.087
54568.272226,16.583,0.083
54568.28303,16.676,0.094
54580.192975,16.649,0.057
54580.203597,16.706,0.061
54580.214213,16.699,0.063
54580.224821,16.703,0.067
54580.235499,16.576,0.067
54583.268489,16.546,0.146
54583.279134,16.539,0.091
54583.28974,16.769,0.1
54590.246752,16.527,0.055
54590.257044,16.475,0.055
54590.277657,16.364,0.091
54590.287955,16.538,0.076
54611.158701,16.681,0.057
54611.169147,16.675,0.059
54611.179063,16.675,0.055
54611.188935,16.768,0.065
54611.198842,16.708,0.063
