mjd,m,merr
52610.450247,16.56,0.231
52639.376485,16.56,0.055
52639.391256,16.538,0.055
52639.405984,16.519,0.055
52639.42091,16.544,0.055
52639.435965,16.539,0.052
52643.407094,16.586,0.066
52643.42327,16.552,0.061
52643.439506,16.454,0.051
52643.455828,16.505,0.051
52643.472286,16.499,0.049
52649.456437,16.803,0.067
52649.476121,16.78,0.07
52649.490804,16.843,0.072
52649.505146,16.751,0.072
52649.519338,16.815,0.076
52670.351743,16.408,0.054
52670.367658,16.391,0.058
52670.383471,16.457,0.059
52670.399108,16.579,0.069
52670.417584,16.659,0.071
52676.285254,16.603,0.063
52676.316175,16.507,0.057
52676.331869,16.551,0.061
52676.34742,16.526,0.061
52677.31592,16.822,0.072
52677.330363,16.713,0.094
52677.344808,16.667,0.115
52677.373823,16.413,0.257
52701.250164,16.59,0.061
52701.263307,16.644,0.059
52701.276427,16.638,0.059
52701.303627,16.562,0.086
52701.317002,16.605,0.069
52701.343134,16.574,0.071
52706.299356,16.432,0.046
52706.312466,16.392,0.044
52706.32587,16.48,0.048
52706.339224,16.426,0.048
52706.35247,16.474,0.052
52724.240104,16.426,0.048
52724.251715,16.435,0.048
52724.263363,16.474,0.05
52724.274957,16.571,0.055
52724.286573,16.53,0.052
52729.232073,16.205,0.041
52729.244136,16.24,0.043
52729.270077,16.35,0.049
52729.285644,16.389,0.051
52732.242741,16.766,0.083
52732.254845,16.633,0.073
52732.267115,16.511,0.061
52732.279333,16.442,0.059
52732.291293,16.331,0.054
52753.191704,16.763,0.072
52753.203781,16.814,0.078
52753.217747,16.715,0.074
52753.229794,16.833,0.081
52753.241817,16.688,0.081
52761.150011,16.267,0.046
52761.16178,16.366,0.054
52761.173551,16.374,0.065
52761.185311,16.448,0.083
52761.197142,16.511,0.085
52789.163995,16.832,0.117
52789.174568,16.808,0.111
52789.185153,16.655,0.102
52789.195732,16.774,0.099
52791.164548,16.923,0.248
52962.450574,16.278,0.046
52962.463635,16.393,0.05
52962.475918,16.433,0.05
52962.488513,16.429,0.05
52962.500961,16.443,0.05
52974.455642,16.663,0.064
52974.467702,16.716,0.066
52974.478586,16.718,0.066
52974.49043,16.755,0.068
52974.503723,16.833,0.071
53000.475614,16.555,0.036
53000.489433,16.629,0.038
53002.45144,16.55,0.033
53002.46511,16.55,0.033
53002.478721,16.558,0.035
53002.492219,16.582,0.035
53034.339941,16.465,0.055
53034.352319,16.552,0.054
53034.364949,16.564,0.057
53034.377607,16.579,0.057
53034.389869,16.559,0.057
53051.280075,16.625,0.046
53051.291806,16.586,0.046
53051.303484,16.6,0.046
53051.315177,16.637,0.048
53051.326856,16.615,0.048
53062.294425,16.831,0.091
53062.306674,16.959,0.208
53062.331254,16.503,0.244
53062.345116,16.485,0.153
53078.270047,16.672,0.069
53078.280951,16.606,0.059
53078.291964,16.429,0.049
53078.303081,16.349,0.048
53078.314018,16.238,0.045
53087.292524,16.649,0.041
53109.189125,16.544,0.061
53109.199459,16.606,0.066
53109.209882,16.609,0.066
53109.220333,16.593,0.066
53109.23058,16.57,0.064
53118.248838,16.728,0.048
53137.158573,16.803,0.081
53137.168383,16.845,0.087
53137.178386,16.683,0.079
53137.188629,16.784,0.087
53137.200214,16.73,0.089
53148.161404,16.288,0.041
53148.170246,16.197,0.046
53148.17917,16.211,0.051
53148.188518,16.256,0.051
53148.197562,16.288,0.049
53348.418657,16.734,0.086
53354.457134,16.75,0.068
53354.486406,16.51,0.054
53357.471022,16.803,0.074
53357.485578,16.735,0.069
53357.50012,16.741,0.068
53357.514631,16.783,0.111
53384.417468,16.236,0.329
53404.373541,16.345,0.038
53404.386902,16.445,0.045
53404.400363,16.484,0.049
53404.413329,16.464,0.051
53404.426273,16.465,0.053
53500.189243,16.31,0.05
53500.199795,16.282,0.048
53500.211315,16.23,0.05
53500.221238,16.213,0.048
53500.231249,16.254,0.054
53529.157747,16.53,0.091
53529.1681,16.499,0.085
53529.178515,16.507,0.098
53529.188811,16.562,0.093
53529.199392,16.536,0.091
53703.457355,16.855,0.074
53703.470468,16.718,0.067
53703.483114,16.826,0.07
53703.495787,16.817,0.072
53703.508716,16.729,0.065
53713.462263,16.428,0.096
53713.475093,16.242,0.122
53713.488308,16.452,0.261
53713.514178,16.531,0.174
53739.424088,16.59,0.141
53739.437069,16.543,0.081
53739.450317,16.485,0.05
53739.463905,16.434,0.048
53770.288836,16.812,0.068
53770.301894,16.78,0.065
53770.31496,16.536,0.052
53770.329118,16.399,0.044
53770.342822,16.251,0.041
53787.357688,16.417,0.495
53813.303789,16.513,0.083
53813.314798,16.417,0.08
53813.325798,16.409,0.08
53813.347825,16.306,0.074
53823.198052,16.787,0.069
53823.209001,16.614,0.059
53823.219822,16.622,0.058
53823.241464,16.516,0.051
53844.187722,16.74,0.083
53844.197971,16.711,0.08
53844.208259,16.662,0.081
53844.218529,16.689,0.087
53844.228975,16.545,0.076
53853.191599,16.605,0.091
53853.202152,16.633,0.099
53853.212647,16.713,0.096
53853.223249,16.574,0.096
53853.233724,16.7,0.109
53883.16107,16.429,0.083
53883.171424,16.281,0.074
53883.181831,16.383,0.081
53883.192637,16.261,0.074
53883.204681,16.324,0.079
53886.189335,16.915,0.134
53886.19913,16.754,0.12
53887.192099,16.596,0.179
53887.203448,16.831,0.216
53887.214769,16.578,0.178
54042.460363,16.354,0.112
54042.472734,16.19,0.064
54042.485532,16.18,0.061
54042.497771,16.233,0.058
54056.443666,16.68,0.089
54056.458343,16.58,0.078
54056.471077,16.537,0.074
54056.484164,16.564,0.074
54056.496759,16.738,0.083
54066.447893,16.765,0.092
54066.504558,16.799,0.102
54070.444857,16.549,0.054
54070.457753,16.624,0.052
54070.470781,16.689,0.055
54084.394933,16.826,0.116
54084.408073,16.746,0.116
54084.42094,16.624,0.106
54084.433988,16.563,0.091
54084.447119,16.507,0.107
54098.366281,16.678,0.07
54098.378346,16.598,0.057
54098.390303,16.617,0.057
54098.402243,16.62,0.052
54098.414282,16.601,0.05
54110.348806,16.653,0.132
54110.361395,16.561,0.107
54110.374044,16.74,0.116
54110.387018,16.57,0.102
54121.329923,16.781,0.055
54121.342103,16.779,0.057
54121.354287,16.806,0.055
54121.366485,16.734,0.052
54155.341627,16.356,0.058
54205.221033,16.591,0.074
54205.239513,16.614,0.073
54205.248847,16.496,0.069
54205.258279,16.528,0.069
54452.420207,16.6,0.041
54452.446632,16.597,0.041
54476.394099,16.557,0.033
54476.419835,16.655,0.037
54476.43283,16.659,0.039
54509.273824,16.633,0.041
54509.285881,16.629,0.041
54509.309958,16.717,0.044
54509.322098,16.708,0.041
54529.159289,16.308,0.053
54529.172219,16.364,0.054
54529.194835,16.455,0.058
54582.194149,16.674,0.065
54582.215281,16.71,0.07
54582.22574,16.699,0.074
54582.236288,16.718,0.074
54587.199257,16.571,0.052
54587.209801,16.567,0.052
54587.220412,16.566,0.052
54587.230967,16.607,0.055
54587.241446,16.613,0.057
54595.194736,16.531,0.061
54595.204711,16.395,0.055
54595.214716,16.347,0.054
54595.224782,16.308,0.052
54595.234755,16.212,0.048
54613.156686,16.45,0.057
54613.16662,16.435,0.054
54613.176527,16.408,0.055
54613.196323,16.432,0.057
54619.159244,16.697,0.091
54619.169545,16.731,0.068
54619.179747,16.811,0.072
54619.190003,16.811,0.074
54619.200192,16.791,0.076
