mjd,m,merr
52639.375988,16.005,0.035
52639.390763,16.116,0.037
52639.405494,16.286,0.044
52639.420416,16.178,0.039
52639.435473,16.044,0.033
52649.45692,15.907,0.031
52649.476482,15.969,0.033
52649.491394,16.015,0.035
52649.505582,16.135,0.041
52649.519701,16.202,0.043
52672.326025,18.189,0.279
52672.340745,18.09,0.269
52676.285728,16.021,0.037
52676.30104,16.074,0.037
52676.316571,16.199,0.041
52676.332264,16.203,0.044
52676.347811,16.107,0.041
52677.315436,16.02,0.035
52677.329876,15.969,0.043
52677.358755,15.889,0.072
52677.373339,16.017,0.046
52706.246617,16.074,0.038
52706.259887,16.13,0.04
52706.273467,16.193,0.041
52706.287638,16.177,0.04
52706.300751,16.013,0.036
52710.245632,16.155,0.049
52710.259289,16.138,0.049
52710.272953,16.023,0.043
52710.286137,15.968,0.041
52710.299481,15.907,0.041
52724.239627,15.931,0.03
52724.251239,15.934,0.03
52724.262847,15.929,0.03
52724.27448,15.965,0.031
52724.286093,16.006,0.033
52733.241192,15.934,0.036
52733.253327,15.969,0.038
52733.2654,15.963,0.038
52733.27743,15.897,0.036
52733.289617,15.9,0.043
52753.191149,16.126,0.041
52753.203227,16.025,0.037
52753.217192,15.98,0.037
52753.229238,16.0,0.037
52753.241262,15.902,0.037
52761.149579,15.959,0.041
52761.161861,15.932,0.043
52761.173734,15.908,0.048
52761.1857,15.922,0.059
52761.197883,15.97,0.063
52768.165046,15.97,0.081
52768.177055,16.006,0.085
52768.188108,15.814,0.104
52768.188919,16.141,0.093
52787.164952,15.947,0.037
52787.175538,15.964,0.037
52787.186132,16.025,0.041
52787.196838,16.089,0.043
52787.207506,16.188,0.046
52792.162426,15.921,0.061
52792.184176,16.061,0.064
52792.205875,16.27,0.084
52793.199645,15.921,0.061
52793.220299,16.061,0.064
52793.241192,16.27,0.084
52991.421673,15.905,0.041
52991.442961,15.966,0.03
52991.461192,15.958,0.033
52991.476785,16.083,0.03
52991.494154,16.177,0.033
53001.416151,16.053,0.018
53001.438534,16.048,0.018
53001.45293,16.13,0.02
53001.470365,16.173,0.02
53001.489215,16.227,0.02
53003.373483,16.093,0.024
53003.385478,16.155,0.026
53003.39764,16.216,0.031
53003.409771,16.163,0.044
53003.421813,16.025,0.063
53024.340648,16.129,0.043
53024.35348,16.057,0.126
53024.366228,16.139,0.194
53024.379121,15.933,0.126
53024.391971,16.0,0.02
53034.33941,16.041,0.035
53034.351788,15.955,0.031
53034.364416,15.948,0.031
53034.377075,15.938,0.031
53034.389337,15.991,0.031
53050.275201,16.142,0.03
53050.286799,16.228,0.031
53050.29845,16.255,0.03
53050.310157,16.199,0.031
53050.321756,16.097,0.057
53053.344686,16.054,0.031
53053.35632,15.994,0.028
53053.367988,16.054,0.037
53053.379635,16.28,0.085
53053.391253,16.028,0.037
53054.297653,16.01,0.026
53054.311314,15.958,0.024
53054.327113,15.928,0.024
53054.340978,15.976,0.024
53054.353499,15.957,0.024
53055.281133,15.968,0.049
53055.293648,15.873,0.071
53055.306112,16.045,0.053
53062.2852,15.917,0.083
53062.296629,16.042,0.046
53062.308249,16.052,0.117
53062.331425,16.174,0.152
53078.23288,16.026,0.033
53078.243656,15.948,0.033
53078.265005,15.988,0.033
53078.27563,15.955,0.031
53087.237223,16.126,0.025
53087.259681,16.043,0.023
53087.270858,15.997,0.023
53087.281944,15.954,0.021
53089.23488,16.067,0.026
53089.245854,16.169,0.028
53089.256825,16.266,0.031
53089.267767,16.225,0.031
53089.278625,16.194,0.03
53109.191116,16.056,0.033
53109.201817,16.082,0.035
53109.212506,16.19,0.037
53109.223267,16.244,0.039
53109.234004,16.29,0.043
53137.196997,16.005,0.043
53137.206588,15.943,0.039
53137.216107,16.017,0.043
53149.163115,16.235,0.044
53149.172304,16.246,0.046
53149.182712,16.124,0.043
53149.191701,16.086,0.043
53149.200629,16.011,0.039
53165.1676,16.299,0.126
53165.177582,16.144,0.065
53165.187566,16.104,0.054
53165.197544,16.043,0.08
53348.418194,16.076,0.043
53348.432491,16.007,0.043
53348.446716,15.965,0.041
53348.460941,16.023,0.043
53348.475234,16.056,0.059
53354.427852,16.044,0.036
53354.442215,16.016,0.035
53354.456656,16.026,0.033
53354.471509,16.003,0.033
53354.485928,16.052,0.035
53443.332046,15.973,0.031
53443.342737,15.952,0.03
53443.35339,15.949,0.039
53443.36405,16.017,0.059
53443.374704,16.121,0.061
53447.300556,15.912,0.031
53447.300677,15.921,0.033
53447.311359,15.918,0.033
53447.311478,15.953,0.033
53447.322722,15.926,0.031
53447.322842,15.943,0.035
53447.344281,15.979,0.033
53447.344401,16.072,0.035
53473.226991,16.171,0.044
53473.237199,16.116,0.043
53473.247092,16.036,0.039
53473.257172,15.99,0.037
53473.268293,15.967,0.039
53500.188947,16.073,0.041
53500.199501,15.981,0.037
53500.211021,15.952,0.037
53500.220943,15.927,0.037
53500.230954,15.903,0.037
53528.166112,16.081,0.061
53528.177904,16.263,0.078
53528.189465,16.269,0.08
53528.200251,16.156,0.07
53528.210879,16.078,0.074
53682.469133,15.95,0.048
53682.481703,15.928,0.048
53682.494297,15.919,0.043
53682.506888,15.91,0.043
53703.456926,16.053,0.035
53703.470038,16.133,0.037
53703.482684,16.24,0.041
53703.495357,16.132,0.037
53703.508287,15.982,0.033
53714.397534,16.08,0.039
53714.410487,16.157,0.041
53714.423348,16.2,0.041
53714.436128,16.168,0.039
53714.448877,16.009,0.033
53740.399965,16.235,0.041
53740.412987,16.149,0.037
53740.426885,16.055,0.033
53740.4406,16.002,0.031
53740.454189,15.949,0.03
53771.290515,16.159,0.059
53771.304463,16.217,0.048
53771.317089,16.133,0.063
53771.330015,16.006,0.041
53771.343077,15.943,0.052
53786.284111,15.96,0.028
53786.296007,15.994,0.031
53786.307999,16.015,0.035
53786.319911,16.101,0.037
53786.331803,16.206,0.041
53813.303301,16.134,0.057
53813.31431,16.081,0.055
53813.325311,15.981,0.052
53813.336327,15.961,0.052
53813.347338,15.96,0.054
53823.197529,15.942,0.031
53823.208476,16.003,0.033
53823.219303,16.023,0.033
53823.230114,16.046,0.035
53823.24094,16.188,0.038
53844.187395,16.17,0.048
53844.197643,16.155,0.046
53844.207928,16.108,0.048
53844.218198,16.087,0.048
53844.228645,15.989,0.044
53853.191882,16.194,0.059
53853.202433,16.252,0.063
53853.212931,16.221,0.058
53853.223533,16.168,0.061
53853.234009,16.178,0.063
53883.16133,16.223,0.059
53883.171684,16.105,0.056
53883.182089,16.099,0.056
53883.192896,15.941,0.049
53883.204935,15.98,0.051
53887.168607,16.149,0.1
53887.180473,16.062,0.102
53887.191702,16.129,0.113
54042.447839,16.549,0.177
54042.472286,16.196,0.086
54042.485082,16.038,0.071
54042.497322,16.042,0.069
54055.439887,16.18,0.056
54055.452705,16.192,0.056
54055.465256,16.06,0.048
54055.480698,16.031,0.045
54055.493713,15.974,0.04
54067.451976,16.145,0.033
54067.464859,16.21,0.04
54067.478731,16.212,0.04
54067.491731,16.119,0.035
54067.504558,16.059,0.03
54070.444266,16.042,0.031
54070.457162,16.134,0.033
54070.47019,16.256,0.037
54070.483068,16.269,0.037
54070.495958,16.234,0.037
54084.394443,16.097,0.059
54084.407609,16.159,0.068
54084.420479,16.331,0.081
54084.433521,16.181,0.063
54084.446652,16.136,0.071
54098.365853,16.181,0.044
54098.377919,16.274,0.043
54098.389876,16.19,0.037
54098.401815,16.062,0.031
54098.413854,16.013,0.03
54110.335765,16.184,0.127
54110.348339,16.06,0.068
54110.360928,16.061,0.066
54110.37356,16.128,0.066
54110.386552,16.162,0.069
54121.329469,16.207,0.033
54121.341647,16.284,0.037
54121.353832,16.187,0.033
54121.36603,16.131,0.031
54121.378286,16.028,0.03
54155.291711,16.062,0.051
54155.303664,15.985,0.046
54155.315817,16.006,0.043
54155.328185,15.914,0.04
54155.341017,15.958,0.04
54206.221016,15.964,0.04
54206.230347,16.085,0.043
54206.239672,16.039,0.041
54206.249042,16.179,0.045
54206.258731,16.195,0.046
54452.393151,16.185,0.03
54452.406293,16.095,0.028
54452.41964,16.004,0.024
54452.432926,15.971,0.024
54452.446065,15.952,0.022
54477.338303,15.936,0.024
54477.351113,15.961,0.024
54477.363903,16.018,0.026
54477.376712,16.07,0.028
54477.389711,16.15,0.03
54529.146034,15.925,0.04
54529.158696,16.013,0.045
54529.171625,16.014,0.043
54529.182897,16.017,0.043
54529.194243,16.072,0.043
54530.214416,16.03,0.039
54530.225786,15.979,0.033
54530.237148,15.945,0.033
54530.248532,15.992,0.076
54530.2599,15.973,0.055
54539.209148,16.184,0.031
54539.220042,16.141,0.03
54539.230882,16.062,0.026
54539.241739,15.996,0.026
54539.252757,15.946,0.024
54567.184893,15.92,0.028
54567.195991,16.003,0.03
54567.207065,16.075,0.031
54567.2184,16.117,0.031
54567.229753,16.209,0.035
54582.19365,15.927,0.033
54582.204207,15.944,0.033
54582.214783,15.927,0.033
54582.225242,15.939,0.035
54582.235788,15.982,0.037
54597.196696,16.098,0.098
54597.217909,16.013,0.093
54597.239267,15.896,0.085
54613.156275,16.076,0.039
54613.166183,16.127,0.041
54613.176114,16.189,0.044
54613.19591,16.227,0.048
54620.165239,16.201,0.044
54620.176672,16.12,0.041
54620.186801,16.041,0.041
54620.196918,15.99,0.039
54620.207038,15.941,0.037
