mjd,m,merr
52612.452997,14.406,0.009
52612.46816,14.271,0.009
52612.483316,14.203,0.007
52612.498633,14.176,0.007
52612.513789,14.157,0.007
52676.282968,14.783,0.015
52676.298212,14.881,0.016
52676.314679,14.755,0.015
52676.330698,14.485,0.013
52677.347358,14.348,0.015
52696.333218,14.275,0.007
52696.34584,14.347,0.007
52696.358306,14.477,0.009
52696.370793,14.601,0.022
52711.237658,14.231,0.012
52711.251061,14.256,0.012
52711.26416,14.335,0.012
52711.264519,14.603,0.02
52711.277247,14.491,0.013
52711.290379,14.614,0.015
52711.290738,14.723,0.023
52723.231014,14.237,0.018
52723.242496,14.177,0.009
52723.253881,14.17,0.007
52723.26539,14.191,0.007
52739.189474,14.319,0.012
52739.200942,14.422,0.013
52739.201057,14.661,0.023
52739.212776,14.563,0.015
52739.224718,14.638,0.015
52739.224832,14.757,0.03
52739.236247,14.617,0.018
52752.186614,14.261,0.009
52752.196748,14.319,0.009
52752.206932,14.402,0.009
52752.217075,14.515,0.011
52752.227201,14.598,0.011
52787.172567,14.459,0.015
52787.205992,14.476,0.015
52794.185218,14.393,0.016
52946.44179,14.266,0.011
52966.400467,14.228,0.008
52966.409128,14.261,0.008
52966.417461,14.295,0.008
52966.425966,14.342,0.008
52966.434898,14.421,0.008
52977.398701,14.525,0.013
52977.410862,14.409,0.009
52977.422804,14.327,0.009
52977.434739,14.351,0.009
52977.446788,14.251,0.007
52991.481295,14.559,0.008
52991.494029,14.617,0.008
52991.506621,14.788,0.01
52991.519159,14.899,0.01
52991.531678,14.84,0.015
53003.375856,14.897,0.008
53003.387874,14.862,0.008
53003.400216,14.615,0.008
53003.412298,14.452,0.012
53003.424621,14.337,0.016
53006.334782,14.248,0.009
53006.347598,14.284,0.009
53006.359728,14.25,0.009
53006.371826,14.278,0.007
53006.383923,14.37,0.009
53024.402958,14.807,0.016
53024.416564,14.858,0.018
53035.347503,14.414,0.009
53035.360493,14.303,0.007
53035.373739,14.22,0.007
53035.386964,14.275,0.007
53035.399474,14.269,0.007
53049.279209,14.892,0.009
53049.291517,14.855,0.009
53049.303314,14.621,0.007
53049.315161,14.464,0.007
53049.32696,14.352,0.007
53089.230229,14.56,0.007
53089.240931,14.587,0.007
53089.251898,14.664,0.007
53089.262369,14.656,0.007
53089.272949,14.592,0.007
53107.188935,14.282,0.008
53107.199337,14.331,0.008
53107.209859,14.436,0.01
53107.220336,14.554,0.01
53107.230823,14.665,0.012
53136.212023,14.203,0.01
53136.220757,14.19,0.01
53149.163918,14.486,0.012
53149.172459,14.403,0.01
53149.181333,14.366,0.01
53149.190018,14.3,0.01
53149.198569,14.269,0.01
53164.167628,14.197,0.015
53164.1771,14.224,0.012
53164.186579,14.254,0.01
53164.196262,14.311,0.013
53164.20589,14.338,0.013
53329.463967,14.364,0.012
53329.476449,14.482,0.012
53329.489268,14.62,0.013
53329.502025,14.662,0.013
53329.514622,14.635,0.013
53349.462821,14.236,0.012
53349.476645,14.192,0.01
53349.490278,14.198,0.01
53349.503962,14.21,0.01
53349.518009,14.237,0.01
53355.476353,14.385,0.008
53355.489526,14.533,0.01
53355.502655,14.68,0.012
53355.517933,14.692,0.012
53360.419714,14.236,0.01
53360.434253,14.263,0.01
53360.450036,14.377,0.018
53385.483851,14.43,0.009
53385.497068,14.45,0.009
53385.510082,14.508,0.009
53385.523095,14.745,0.011
53385.53626,14.829,0.013
53415.418752,14.412,0.009
53415.432385,14.297,0.018
53415.457676,14.224,0.015
53437.353917,14.533,0.009
53437.365538,14.672,0.009
53437.376859,14.66,0.011
53437.388154,14.631,0.009
53437.401314,14.48,0.009
53474.241374,14.341,0.009
53474.252451,14.42,0.009
53474.264107,14.546,0.011
53474.274547,14.715,0.013
53474.284708,14.885,0.015
53498.196972,14.681,0.068
53498.21962,14.627,0.031
53498.230256,14.478,0.013
53498.24038,14.387,0.011
53499.162234,14.904,0.015
53499.173154,14.848,0.013
53499.1833,14.65,0.011
53499.193555,14.5,0.011
53499.203785,14.395,0.009
53521.158122,14.652,0.015
53521.168323,14.662,0.015
53521.17874,14.557,0.015
53521.188965,14.46,0.017
53521.199188,14.367,0.017
53683.488762,14.261,0.022
53702.488478,14.651,0.011
53741.406823,14.303,0.007
53741.419982,14.323,0.007
53741.43292,14.336,0.007
53741.44564,14.351,0.007
53741.458436,14.384,0.007
53771.289607,14.267,0.013
53771.303634,14.367,0.009
53771.316247,14.49,0.026
53771.329187,14.624,0.013
53771.342194,14.702,0.041
53786.300973,14.326,0.007
53786.313983,14.257,0.008
53786.327002,14.216,0.007
53786.340059,14.191,0.007
53786.353107,14.2,0.01
53812.247597,14.475,0.012
53812.259107,14.61,0.013
53812.27071,14.668,0.013
53812.282295,14.642,0.013
53812.293737,14.539,0.013
53843.203944,14.26,0.008
53843.215398,14.297,0.008
53843.226904,14.389,0.008
53843.238694,14.495,0.01
53843.250336,14.638,0.012
53854.191288,14.567,0.013
53854.201695,14.406,0.03
53854.211971,14.33,0.012
53854.222243,14.301,0.01
53854.232445,14.246,0.01
53882.159732,14.245,0.012
53882.181546,14.178,0.01
53882.192453,14.153,0.01
53886.171264,14.22,0.013
53886.181896,14.185,0.013
53886.192623,14.171,0.013
53886.203402,14.187,0.013
53886.214252,14.192,0.013
54054.456606,14.458,0.012
54054.469391,14.337,0.01
54054.482065,14.256,0.01
54054.495128,14.218,0.008
54054.508563,14.211,0.008
54068.401252,14.84,0.015
54068.414408,14.616,0.013
54068.427453,14.426,0.01
54068.440454,14.322,0.01
54068.453246,14.257,0.008
54085.402763,14.582,0.013
54085.415794,14.612,0.018
54085.428707,14.597,0.018
54085.441715,14.438,0.015
54085.454731,14.307,0.01
54110.352531,14.218,0.009
54110.36791,14.243,0.009
54110.382173,14.255,0.009
54110.398381,14.209,0.009
54110.416219,14.285,0.011
54123.325265,14.314,0.007
54123.337715,14.251,0.007
54123.362185,14.194,0.007
54123.374393,14.208,0.007
54125.374412,14.76,0.013
54125.374517,14.784,0.013
54125.386505,14.875,0.015
54125.386611,14.872,0.015
54125.39811,14.85,0.015
54125.398215,14.861,0.015
54125.410821,14.612,0.012
54125.410996,14.723,0.013
54125.423177,14.457,0.012
54156.263298,14.209,0.008
54156.274361,14.203,0.008
54156.285792,14.206,0.008
54156.297589,14.233,0.008
54156.308777,14.26,0.01
54201.232074,14.169,0.007
54201.241562,14.18,0.007
54201.251234,14.19,0.007
54201.260704,14.203,0.007
54201.270478,14.237,0.007
54207.221738,14.453,0.012
54207.2313,14.57,0.012
54207.24097,14.743,0.015
54207.250852,14.882,0.015
54207.262625,14.862,0.015
54216.179962,14.399,0.017
54216.188645,14.364,0.015
54216.19729,14.388,0.017
54216.205902,14.392,0.017
54216.214527,14.444,0.017
54453.390221,14.499,0.007
54453.403254,14.519,0.007
54453.416276,14.62,0.007
54453.429301,14.63,0.007
54453.442345,14.577,0.007
54478.340703,14.639,0.007
54478.353767,14.603,0.007
54478.380408,14.256,0.011
54478.393392,14.291,0.009
54508.30056,14.665,0.015
54508.312568,14.861,0.018
54508.324671,14.866,0.016
54508.33656,14.723,0.015
54508.34844,14.548,0.013
54561.180162,14.207,0.018
54561.203045,14.134,0.015
54561.214401,14.141,0.013
54561.225856,14.148,0.013
54568.186021,14.619,0.011
54568.197143,14.623,0.011
54568.20795,14.542,0.011
54568.218786,14.417,0.009
54568.22957,14.293,0.009
54582.193793,14.372,0.018
54582.203851,14.291,0.018
54582.213982,14.265,0.018
54582.234616,14.196,0.016
54597.196441,14.194,0.017
54597.207118,14.239,0.017
54597.217657,14.246,0.018
54597.2284,14.296,0.018
54597.239015,14.401,0.02
54613.15742,14.786,0.023
54613.167695,14.579,0.02
54613.178001,14.426,0.018
54613.188323,14.328,0.016
54613.198521,14.297,0.016
54620.16504,14.223,0.007
54620.176468,14.277,0.007
54620.18659,14.34,0.009
54620.196715,14.431,0.009
54620.206838,14.525,0.011
