mjd,m,merr
52620.444312,16.095,0.043
52620.45925,16.113,0.043
52620.473893,15.766,0.043
52620.488456,15.584,0.03
52620.503142,15.44,0.056
52623.45019,15.667,0.037
52623.465858,15.698,0.039
52623.481685,15.744,0.054
52623.497485,15.729,0.041
52623.513491,15.813,0.043
52651.288128,15.897,0.046
52651.303307,15.872,0.043
52651.318481,15.945,0.043
52651.333643,15.957,0.04
52651.349777,15.955,0.038
52652.384469,15.692,0.028
52652.39964,15.857,0.031
52652.414967,15.806,0.028
52652.430251,15.85,0.028
52652.445416,15.891,0.03
52664.348791,15.925,0.033
52664.364068,15.936,0.043
52664.379291,15.928,0.065
52681.283598,15.874,0.052
52681.300808,15.882,0.048
52681.319391,15.911,0.037
52681.337718,15.955,0.035
52695.3311,15.625,0.024
52695.350361,15.719,0.033
52695.367174,15.79,0.105
52712.289438,15.634,0.041
52712.302735,15.686,0.043
52722.341586,15.813,0.026
52722.354202,15.627,0.024
52722.367315,15.491,0.02
52722.380362,15.323,0.018
52722.39286,15.315,0.02
52724.275921,15.845,0.03
52725.310053,15.585,0.026
52725.322979,15.651,0.056
52725.336227,15.617,0.04
52725.349162,15.693,0.038
52725.361858,15.731,0.038
52751.252857,15.292,0.018
52751.263572,15.29,0.018
52751.274271,15.367,0.02
52751.285628,15.387,0.022
52751.29848,15.461,0.022
52782.166001,15.982,0.041
52782.176664,15.992,0.043
52782.187286,15.969,0.037
52782.198083,16.056,0.048
52782.20872,16.014,0.089
52800.179862,15.916,0.094
52800.210007,16.036,0.107
52810.173496,15.481,0.028
52810.183489,15.506,0.03
52810.213334,15.719,0.065
52812.174078,15.984,0.044
52812.184374,16.001,0.046
52812.194737,15.976,0.046
52812.204923,16.021,0.048
52812.215268,15.962,0.048
52976.401817,16.08,0.033
52976.412899,16.177,0.035
52976.435037,16.217,0.036
52990.402463,15.955,0.037
52990.415753,15.923,0.035
52990.429758,15.981,0.035
52990.442812,15.948,0.055
52990.456026,15.998,0.041
53023.34439,15.932,0.024
53023.357948,15.929,0.026
53023.38381,16.018,0.028
53023.396577,16.064,0.03
53024.464327,16.012,0.054
53024.517102,16.231,0.2
53046.348688,15.845,0.037
53046.360625,15.879,0.037
53046.372607,15.892,0.039
53046.384749,15.905,0.037
53046.396794,15.945,0.039
53107.242876,15.254,0.017
53107.254148,15.259,0.017
53107.265342,15.301,0.017
53107.276552,15.349,0.018
53107.287823,15.37,0.018
53127.199394,15.822,0.07
53127.209297,15.74,0.065
53127.229142,15.799,0.068
53136.199535,15.566,0.026
53136.20889,15.592,0.028
53136.218197,15.624,0.028
53136.227497,15.62,0.03
53136.236817,15.649,0.03
53154.20545,15.486,0.039
53154.214356,15.383,0.037
53154.223113,15.354,0.035
53154.232029,15.296,0.035
53154.240845,15.363,0.037
53164.172195,15.98,0.037
53164.182399,15.972,0.035
53164.192613,15.956,0.037
53164.202828,15.953,0.037
53164.213068,16.031,0.039
53330.47691,15.976,0.046
53330.491214,15.994,0.046
53356.474382,15.847,0.03
53356.501442,15.926,0.03
53356.514828,15.992,0.031
53356.528277,15.988,0.03
53358.406597,16.045,0.043
53358.41962,16.024,0.043
53358.432688,16.017,0.041
53358.445769,16.107,0.043
53358.459634,16.15,0.043
53360.425071,15.813,0.044
53360.438213,15.812,0.063
53360.464497,16.102,0.163
53386.415542,15.659,0.026
53386.428684,15.692,0.026
53386.441742,15.711,0.026
53386.454891,15.72,0.028
53386.47164,15.747,0.028
53401.351197,15.936,0.046
53401.363816,15.931,0.046
53401.376438,15.844,0.046
53430.307719,16.063,0.043
53430.319426,16.074,0.044
53430.33177,16.076,0.044
53430.343457,16.119,0.046
53430.360129,16.058,0.046
53441.33885,15.718,0.024
53441.351573,15.749,0.026
53441.36261,15.763,0.026
53441.373632,15.79,0.026
53441.385196,15.855,0.03
53479.229964,15.678,0.061
53479.24015,15.718,0.067
53479.252009,15.654,0.061
53479.262958,15.766,0.07
53479.272466,15.74,0.067
53491.198222,15.874,0.046
53491.219508,15.868,0.039
53491.230454,15.896,0.039
53491.24104,15.949,0.043
53537.192677,16.009,0.113
53537.202742,15.952,0.085
53552.172035,15.467,0.035
53552.182223,15.525,0.039
53552.192408,15.534,0.039
53552.202811,15.557,0.043
53552.213468,15.603,0.046
53685.451277,16.067,0.072
53700.450775,15.541,0.031
53700.463835,15.523,0.031
53700.476589,15.577,0.031
53700.489547,15.604,0.031
53700.502249,15.634,0.03
53727.4575,16.039,0.054
53757.327736,15.96,0.043
53757.340541,15.926,0.043
53757.353193,15.967,0.044
53757.366036,15.944,0.044
53757.37886,15.981,0.044
53773.355396,15.856,0.037
53773.36815,15.658,0.031
53773.381349,15.502,0.026
53773.394242,15.361,0.022
53773.407015,15.357,0.02
53826.282158,15.932,0.028
53826.292832,15.985,0.048
53826.325203,16.028,0.031
53827.289158,15.655,0.021
53842.243914,16.031,0.063
53842.255491,16.017,0.059
53842.267066,16.018,0.063
53842.278741,15.982,0.068
53877.24975,16.102,0.178
53877.260377,16.058,0.157
53904.169534,15.396,0.031
53904.179467,15.431,0.031
53904.189438,15.473,0.033
53904.199554,15.512,0.035
53904.209649,15.526,0.035
54052.456215,15.44,0.031
54052.468674,15.498,0.035
54052.48093,15.487,0.031
54052.493189,15.502,0.031
54052.505515,15.587,0.035
54071.463263,16.184,0.061
54071.489071,16.168,0.053
54071.501815,16.145,0.049
54098.388833,15.698,0.03
54098.400978,15.715,0.028
54098.41331,15.77,0.028
54098.425596,15.783,0.028
54124.336076,15.439,0.021
54124.348577,15.487,0.023
54124.361283,15.572,0.025
54124.373743,15.594,0.026
54124.386159,15.619,0.025
54140.336889,15.796,0.033
54140.349073,15.838,0.035
54140.361444,15.847,0.035
54140.373463,15.867,0.035
54140.385624,15.873,0.036
54188.268241,15.363,0.045
54188.287897,15.429,0.048
54188.297872,15.441,0.049
54188.307683,15.421,0.048
54198.237783,16.16,0.087
54198.247396,16.074,0.089
54198.257007,16.022,0.039
54198.266645,16.02,0.037
54210.22146,16.036,0.038
54210.2305,16.112,0.038
54210.239219,16.122,0.038
54210.247915,16.107,0.04
54210.256857,16.112,0.041
54218.234673,15.512,0.055
54218.24325,15.407,0.048
54218.251853,15.361,0.044
54218.260453,15.36,0.046
54481.411953,15.557,0.041
54481.436303,15.343,0.026
54498.330476,16.184,0.046
54498.34291,16.227,0.046
54498.354731,16.13,0.043
54498.366555,16.083,0.041
54498.378428,15.668,0.03
54526.281945,15.696,0.031
54526.293217,15.755,0.033
54526.304594,15.833,0.035
54526.316025,15.82,0.035
54526.327188,15.814,0.035
54537.268755,16.088,0.071
54537.279699,16.015,0.092
54537.290724,16.114,0.116
54537.301784,16.036,0.097
54537.312801,16.078,0.092
54559.243276,15.99,0.045
54559.255503,16.057,0.046
54559.267376,16.081,0.046
54559.278811,16.106,0.048
54559.290208,16.052,0.045
54569.239574,15.552,0.031
54569.250665,15.67,0.033
54569.26159,15.669,0.033
54569.272527,15.676,0.035
54569.283441,15.707,0.035
54618.165206,15.997,0.064
54618.175708,16.093,0.081
54618.185941,16.094,0.074
54618.196345,16.075,0.069
54618.207162,16.053,0.068
