mjd,m,merr
52620.456667,15.782,0.028
52620.471799,15.768,0.03
52620.486874,15.758,0.043
52620.502192,15.578,0.039
52620.517275,15.424,0.022
52623.445053,14.909,0.015
52623.460876,14.941,0.018
52623.476576,15.089,0.028
52623.492467,15.116,0.022
52623.508481,15.214,0.026
52637.40216,15.137,0.085
52650.291884,15.063,0.017
52650.308472,15.026,0.017
52650.322927,15.06,0.015
52650.337214,15.113,0.015
52650.351619,15.129,0.015
52652.379561,15.428,0.02
52652.394697,15.454,0.02
52652.409932,15.543,0.02
52652.425326,15.537,0.02
52652.440403,15.544,0.02
52664.282223,14.972,0.013
52664.297469,15.028,0.013
52664.312739,15.113,0.015
52664.328081,15.172,0.015
52664.343334,15.236,0.017
52680.250625,15.264,0.023
52680.267241,15.43,0.023
52680.28341,15.401,0.025
52680.299195,15.449,0.025
52680.329885,15.559,0.026
52680.354078,15.615,0.026
52680.37242,15.702,0.026
52680.388927,15.71,0.026
52680.406909,15.696,0.028
52681.27807,15.555,0.033
52681.29466,15.62,0.041
52681.313161,15.657,0.028
52681.331647,15.705,0.028
52695.324382,15.759,0.026
52695.342653,15.787,0.037
52695.360868,15.73,0.041
52712.268882,15.293,0.041
52712.282156,15.05,0.024
52712.295424,14.922,0.022
52722.268792,15.719,0.022
52722.285363,15.703,0.022
52722.299493,15.718,0.022
52722.315309,15.637,0.02
52722.334689,15.306,0.017
52723.167684,15.649,0.03
52723.179227,15.671,0.024
52723.190681,15.657,0.024
52723.2027,15.644,0.028
52723.214751,15.672,0.024
52751.193946,15.384,0.02
52751.205991,15.226,0.026
52751.217585,14.941,0.015
52751.235708,14.799,0.013
52751.246976,14.88,0.015
52770.201048,15.494,0.051
52782.161916,15.545,0.026
52782.172537,15.542,0.026
52782.1832,15.59,0.028
52782.193881,15.573,0.031
52782.204547,15.574,0.059
52947.476187,15.693,0.035
52947.488513,15.67,0.033
52947.500641,15.722,0.033
52976.397664,15.626,0.02
52976.408723,15.685,0.021
52976.419792,15.648,0.02
52976.430852,15.685,0.021
52976.441922,15.666,0.02
52978.442958,15.075,0.018
52978.45596,15.1,0.017
52978.468813,15.075,0.015
52978.48171,15.083,0.017
52978.494419,15.147,0.018
52988.390323,15.666,0.035
52988.403256,15.665,0.039
52988.416295,15.675,0.039
52988.429158,15.7,0.041
52988.442241,15.645,0.037
53008.370886,15.289,0.024
53008.383435,15.393,0.03
53008.396016,15.371,0.026
53038.336957,15.748,0.036
53038.349377,15.841,0.041
53038.361941,15.826,0.061
53038.374594,15.912,0.048
53038.386946,15.819,0.041
53045.286088,15.157,0.02
53045.303482,15.19,0.02
53045.315825,15.205,0.02
53045.328041,15.243,0.021
53045.340992,15.278,0.023
53065.230458,15.683,0.025
53065.242413,15.652,0.025
53065.254351,15.648,0.025
53065.266252,15.678,0.025
53065.278161,15.68,0.025
53094.223445,15.476,0.02
53094.233612,15.147,0.015
53096.242434,15.135,0.041
53096.252171,15.139,0.04
53096.26205,15.118,0.043
53122.194822,15.294,0.031
53122.226351,15.383,0.026
53122.236927,15.399,0.024
53125.205731,15.518,0.096
53134.195492,15.503,0.03
53134.204492,15.318,0.02
53134.213484,15.349,0.021
53134.222559,15.343,0.035
53134.231556,15.406,0.068
53153.166779,15.765,0.035
53153.175746,15.783,0.037
53153.184898,15.768,0.037
53153.193958,15.777,0.037
53153.203133,15.774,0.039
53155.168968,15.778,0.091
53155.178418,15.697,0.089
53155.18757,15.845,0.094
53155.19628,15.785,0.086
53169.170773,15.613,0.031
53169.180533,15.386,0.026
53169.190212,15.011,0.02
53169.200225,14.652,0.016
53169.209971,14.627,0.016
53319.45912,15.688,0.033
53319.470989,15.701,0.033
53319.482886,15.737,0.033
53319.494742,15.755,0.033
53319.506604,15.746,0.031
53330.457827,15.846,0.04
53330.471129,15.863,0.061
53330.485565,15.797,0.041
53330.499531,15.86,0.046
53356.468451,15.8,0.028
53356.495511,15.584,0.021
53356.508965,15.347,0.018
53356.522449,15.203,0.015
53358.401185,15.765,0.028
53358.414206,15.611,0.026
53358.427196,15.323,0.022
53358.440349,15.164,0.017
53358.454218,15.034,0.017
53360.41996,15.065,0.02
53360.433105,15.102,0.02
53360.446243,15.168,0.052
53389.485562,15.649,0.026
53389.501537,15.646,0.026
53389.516708,15.689,0.028
53401.346534,15.283,0.022
53401.359152,15.347,0.024
53401.371772,15.38,0.024
53401.384398,15.401,0.026
53401.397079,15.479,0.033
53430.302588,15.65,0.028
53430.314301,15.67,0.028
53430.326543,15.694,0.028
53430.338346,15.722,0.03
53430.354869,15.767,0.031
53431.221031,15.536,0.018
53431.233273,15.558,0.018
53431.245528,15.573,0.018
53431.257759,15.58,0.018
53431.270553,15.594,0.018
53433.284345,15.715,0.022
53433.299752,15.744,0.022
53433.314119,15.774,0.022
53433.329596,15.794,0.022
53433.344173,15.786,0.022
53441.334882,15.583,0.02
53441.347073,15.585,0.02
53441.358635,15.616,0.022
53441.369653,15.605,0.022
53441.380674,15.632,0.024
53491.215758,15.371,0.035
53491.226716,15.382,0.03
53491.237224,15.43,0.028
53536.187982,15.157,0.046
53536.198015,15.038,0.044
53536.208042,14.974,0.044
53685.44629,15.697,0.033
53700.445824,15.732,0.033
53700.458793,15.651,0.03
53700.471599,15.558,0.028
53700.484352,15.324,0.02
53700.497302,15.085,0.017
53727.401299,15.682,0.03
53727.414155,15.518,0.031
53727.426937,15.328,0.022
53727.439838,14.925,0.015
53727.452616,14.787,0.017
53757.323096,15.291,0.02
53757.335835,15.354,0.022
53757.34855,15.399,0.022
53757.361359,15.423,0.022
53757.374153,15.427,0.024
53772.348144,15.627,0.028
53772.360892,15.636,0.028
53772.373716,15.635,0.026
53772.386602,15.618,0.028
53772.399673,15.685,0.028
53773.350344,15.677,0.03
53773.363107,15.645,0.03
53773.376204,15.72,0.03
53773.38915,15.688,0.028
53773.40201,15.672,0.028
53827.252463,15.754,0.023
53827.263171,15.76,0.023
53827.273846,15.806,0.023
53827.284577,15.849,0.025
53827.295388,15.842,0.025
53842.192353,15.725,0.036
53842.204221,15.517,0.031
53842.215912,15.321,0.028
53842.227602,15.234,0.03
53842.23939,15.078,0.026
53877.169606,15.694,0.124
53904.166186,15.822,0.046
53904.176094,15.815,0.046
53904.186044,15.727,0.046
53904.196083,15.698,0.043
53904.206127,15.661,0.044
54052.45132,15.62,0.03
54052.463791,15.675,0.031
54052.476053,15.604,0.028
54052.488303,15.652,0.03
54052.500563,15.7,0.031
54071.394268,15.586,0.048
54071.4071,15.253,0.033
54071.419935,14.836,0.023
54071.432743,14.732,0.02
54071.445529,14.88,0.021
54080.366265,15.626,0.043
54080.378296,15.662,0.041
54080.390243,15.675,0.046
54098.372213,15.286,0.02
54098.384382,15.265,0.018
54098.396553,15.317,0.02
54098.408714,15.374,0.02
54098.421068,15.402,0.021
54109.350971,15.006,0.033
54109.363573,15.05,0.028
54109.388999,15.109,0.028
54124.331444,15.178,0.016
54124.343906,15.215,0.018
54124.356711,15.287,0.018
54124.369165,15.334,0.02
54124.381594,15.338,0.021
54140.302742,15.535,0.02
54140.314579,15.563,0.024
54140.326427,15.576,0.022
54140.338874,15.646,0.024
54140.35077,15.642,0.024
54158.306155,15.657,0.04
54158.31718,15.581,0.038
54188.253867,15.497,0.063
54188.263603,15.41,0.053
54198.224204,15.17,0.018
54198.253053,15.02,0.015
54198.262696,15.043,0.015
54212.216234,14.931,0.018
54212.224757,14.958,0.02
54212.233296,15.01,0.02
54212.241867,15.03,0.021
54212.250337,15.12,0.023
54218.187553,15.965,0.094
54218.196175,15.989,0.093
54218.204792,16.049,0.1
54218.213428,16.083,0.102
54498.325407,15.691,0.03
54498.337835,15.661,0.03
54498.34967,15.679,0.03
54498.361499,15.732,0.031
54498.373359,15.759,0.031
54526.27712,15.698,0.031
54526.288398,15.694,0.031
54526.299667,15.743,0.033
54526.311111,15.651,0.031
54526.322387,15.633,0.03
54537.264013,15.797,0.056
54537.274959,15.706,0.068
54537.285988,15.705,0.066
54537.297047,15.634,0.051
54559.26308,15.626,0.03
54569.191127,15.105,0.025
54569.202066,15.165,0.026
54569.212964,15.158,0.026
54569.223862,15.244,0.028
54569.23524,15.295,0.028
54585.190019,15.636,0.109
54585.22023,15.532,0.092
54585.230258,15.755,0.099
54618.161531,14.754,0.025
54618.172093,14.814,0.025
54618.18242,14.929,0.026
54618.19284,14.968,0.028
54618.203643,15.064,0.028
