mjd,m,merr
52612.460643,16.489,0.063
52612.475738,16.613,0.068
52612.490976,16.546,0.061
52612.506148,16.723,0.073
52612.521181,16.684,0.071
52620.45692,16.674,0.061
52620.47205,16.75,0.094
52620.487129,16.608,0.08
52620.502446,16.539,0.096
52620.51753,16.361,0.05
52623.445312,16.352,0.055
52623.461138,16.328,0.055
52623.476837,16.286,0.08
52623.492727,16.379,0.065
52623.508744,16.449,0.068
52650.292664,16.236,0.048
52650.309186,16.288,0.046
52650.323654,16.34,0.044
52650.337929,16.418,0.044
52650.352385,16.405,0.044
52652.380316,16.308,0.044
52652.395453,16.307,0.041
52652.410687,16.269,0.037
52652.426081,16.286,0.037
52652.441164,16.293,0.037
52664.28248,16.358,0.041
52664.297727,16.426,0.043
52664.312998,16.452,0.044
52664.328341,16.525,0.048
52664.343593,16.559,0.05
52680.250497,16.367,0.058
52680.267113,16.213,0.049
52680.283282,16.268,0.051
52680.299067,16.199,0.046
52680.329757,16.321,0.049
52680.35395,16.36,0.048
52680.372291,16.289,0.045
52680.388798,16.396,0.048
52680.406781,16.383,0.051
52681.278879,16.71,0.098
52681.295763,16.704,0.094
52681.314098,16.499,0.059
52681.332496,16.454,0.05
52695.325957,16.289,0.039
52695.34366,16.332,0.057
52695.361896,16.334,0.07
52712.269167,16.488,0.122
52712.282444,16.621,0.096
52712.295714,16.492,0.094
52722.269042,16.47,0.041
52722.285613,16.481,0.041
52722.299744,16.576,0.044
52722.315559,16.65,0.048
52722.334939,16.615,0.052
52751.194181,16.331,0.05
52751.206226,16.39,0.054
52751.217822,16.389,0.048
52751.235942,16.507,0.055
52751.247213,16.48,0.054
52770.15501,16.551,0.167
52770.189707,16.396,0.144
52770.201412,16.482,0.117
52782.162134,16.583,0.067
52782.172751,16.566,0.067
52782.183415,16.512,0.061
52782.194095,16.427,0.068
52782.204765,16.432,0.13
52800.186594,16.182,0.13
52800.196632,16.178,0.126
52800.206684,16.44,0.154
52810.170267,16.311,0.065
52810.180249,16.319,0.067
52810.190143,16.311,0.065
52947.47649,16.447,0.068
52947.488816,16.379,0.061
52947.500944,16.324,0.057
52976.409004,16.638,0.049
52976.420073,16.545,0.046
52976.431132,16.465,0.043
52976.4422,16.386,0.04
52990.39824,16.381,0.044
52990.411418,16.292,0.039
52990.425537,16.288,0.039
52990.43847,16.296,0.041
52990.451742,16.298,0.046
53023.339896,16.294,0.028
53023.353364,16.292,0.028
53023.366311,16.327,0.03
53023.37932,16.317,0.03
53023.39221,16.369,0.033
53046.295696,16.273,0.046
53046.3077,16.31,0.048
53046.319815,16.38,0.05
53046.331821,16.373,0.05
53046.344017,16.454,0.054
53065.231232,16.315,0.043
53065.243186,16.268,0.041
53065.255119,16.327,0.043
53065.267023,16.398,0.046
53065.278928,16.412,0.046
53077.304287,16.291,0.098
53094.2238,16.129,0.041
53094.233969,16.262,0.043
53094.243657,16.21,0.043
53094.253541,16.258,0.043
53094.263212,16.323,0.046
53107.23935,16.671,0.048
53107.250565,16.692,0.05
53107.261817,16.68,0.052
53107.273026,16.688,0.054
53107.284297,16.687,0.055
53127.196061,16.54,0.13
53127.206007,16.427,0.118
53127.215916,16.652,0.144
53127.225819,16.737,0.155
53127.235752,16.642,0.144
53136.196013,16.592,0.063
53136.205369,16.693,0.068
53136.214677,16.6,0.063
53136.223978,16.675,0.07
53136.233294,16.705,0.076
53153.16477,16.13,0.063
53153.173233,16.194,0.063
53153.18187,16.033,0.054
53153.190626,16.114,0.059
53153.199205,16.199,0.063
53154.16699,16.679,0.118
53154.175783,16.459,0.094
53154.18454,16.613,0.104
53154.193311,16.441,0.094
53154.202125,16.414,0.089
53164.169105,16.648,0.083
53164.179304,16.644,0.065
53164.189515,16.665,0.067
53164.199733,16.636,0.068
53164.209955,16.47,0.059
53319.459316,16.535,0.067
53319.471187,16.443,0.061
53319.483083,16.411,0.057
53319.49494,16.387,0.055
53319.506801,16.306,0.05
53355.467002,16.655,0.059
53355.480958,16.576,0.059
53355.494753,16.643,0.061
53355.508088,16.646,0.059
53355.520872,16.612,0.065
53358.402077,16.726,0.063
53358.415096,16.616,0.059
53358.428167,16.65,0.065
53358.441241,16.585,0.055
53358.455109,16.499,0.052
53359.406231,16.713,0.068
53359.422424,16.798,0.066
53359.438479,16.692,0.059
53359.454588,16.728,0.061
53359.47084,16.677,0.061
53389.485806,16.721,0.059
53389.501781,16.706,0.061
53389.516952,16.7,0.061
53401.347017,16.695,0.074
53401.359634,16.629,0.07
53401.372255,16.497,0.063
53401.384882,16.502,0.065
53401.397563,16.412,0.065
53430.303064,16.69,0.068
53430.314777,16.702,0.068
53430.327018,16.643,0.065
53430.33882,16.659,0.07
53430.355344,16.491,0.061
53479.25964,16.402,0.15
53491.215963,16.228,0.055
53491.226923,16.242,0.057
53491.237431,16.267,0.057
53537.169227,16.653,0.159
53537.189359,16.515,0.155
53537.199429,16.606,0.218
53537.2095,17.132,0.496
53685.446545,16.241,0.055
53700.446583,16.381,0.057
53700.459644,16.334,0.052
53700.47236,16.209,0.046
53700.485111,16.165,0.043
53700.498059,16.212,0.044
53727.401558,16.424,0.055
53727.414414,16.439,0.074
53727.427196,16.479,0.057
53727.440099,16.523,0.059
53727.452874,16.61,0.067
53757.323353,16.413,0.048
53757.336091,16.303,0.044
53757.348806,16.279,0.044
53757.361614,16.285,0.044
53757.374411,16.255,0.044
53773.350879,16.709,0.074
53773.363625,16.713,0.076
53773.376721,16.681,0.067
53773.389668,16.565,0.061
53773.402527,16.411,0.05
53827.252742,16.533,0.045
53827.263452,16.521,0.045
53827.274232,16.599,0.048
53827.284859,16.61,0.049
53827.295669,16.657,0.051
53842.193047,16.337,0.048
53842.204916,16.347,0.049
53842.216606,16.264,0.051
53842.228297,16.312,0.066
53842.240086,16.209,0.064
53904.16637,16.628,0.098
53904.176281,16.643,0.102
53904.186233,16.619,0.1
53904.196274,16.657,0.102
53904.206319,16.759,0.122
54052.451825,16.259,0.055
54052.464293,16.288,0.059
54052.476555,16.265,0.055
54052.488809,16.251,0.055
54052.501072,16.275,0.055
54071.40763,16.385,0.086
54071.433273,16.438,0.081
54071.446056,16.384,0.076
54081.391562,16.331,0.057
54081.404981,16.263,0.054
54081.418092,16.284,0.052
54081.431063,16.233,0.046
54081.44384,16.278,0.046
54098.372459,16.612,0.066
54098.384626,16.597,0.059
54098.396797,16.676,0.061
54098.40896,16.67,0.061
54098.421315,16.706,0.064
54109.389255,16.148,0.091
54124.3317,16.358,0.041
54124.344162,16.307,0.04
54124.356965,16.306,0.04
54124.369419,16.279,0.04
54124.381849,16.257,0.04
54140.33229,16.636,0.066
54140.344473,16.612,0.063
54140.356988,16.678,0.066
54140.368987,16.602,0.061
54140.381046,16.609,0.066
54188.254081,16.579,0.191
54188.26382,16.482,0.153
54198.224421,16.964,0.302
54198.24366,16.582,0.17
54198.253273,16.656,0.065
54198.262918,16.704,0.065
54210.217838,16.262,0.046
54210.226878,16.268,0.046
54210.235586,16.231,0.045
54210.244288,16.255,0.046
54210.252996,16.333,0.049
54498.325756,16.701,0.066
54498.338184,16.689,0.064
54498.350017,16.832,0.074
54498.361847,16.942,0.084
54498.373707,16.84,0.073
54526.277451,16.666,0.058
54526.28873,16.66,0.058
54526.30011,16.59,0.054
54526.31144,16.648,0.058
54526.322717,16.69,0.059
54537.264329,16.332,0.058
54537.275273,16.461,0.079
54537.286305,16.462,0.078
54537.297364,16.567,0.068
54537.308374,16.683,0.124
54559.239251,16.911,0.091
54559.250775,16.92,0.092
54559.26337,16.656,0.074
54559.274901,16.593,0.069
54559.286294,16.492,0.064
54569.191403,16.564,0.078
54569.202342,16.628,0.083
54569.21324,16.569,0.078
54569.224136,16.605,0.079
54569.235515,16.632,0.079
54585.21032,16.61,0.289
54585.220496,16.707,0.18
54618.161772,16.467,0.112
54618.17246,16.428,0.112
54618.182661,16.613,0.125
54618.193082,16.536,0.12
54618.203885,16.511,0.106
