mjd,m,merr
52613.449914,15.881,0.033
52613.465086,15.546,0.024
52613.480431,15.324,0.02
52613.495628,15.04,0.017
52613.510916,15.058,0.017
52618.456413,15.452,0.035
52618.471712,15.559,0.048
52618.487144,15.516,0.026
52618.502589,15.608,0.048
52618.518061,15.56,0.028
52619.447417,15.218,0.02
52619.463,15.295,0.022
52619.478433,15.353,0.024
52619.49397,15.4,0.024
52619.509482,15.44,0.026
52620.454446,15.421,0.024
52620.469578,15.137,0.018
52620.484648,15.047,0.018
52620.499944,15.135,0.02
52620.515032,15.207,0.03
52640.391435,15.25,0.02
52640.406444,15.302,0.023
52640.421462,15.348,0.021
52640.437364,15.39,0.023
52643.438588,15.826,0.028
52643.452556,15.889,0.028
52643.466519,15.915,0.028
52643.480445,15.927,0.028
52643.494754,15.938,0.028
52647.397568,15.313,0.02
52647.412019,15.367,0.02
52647.42644,15.403,0.022
52647.440881,15.434,0.022
52647.455207,15.495,0.022
52670.395822,15.186,0.017
52670.409742,15.0,0.015
52670.423734,15.036,0.017
52670.437677,15.119,0.017
52670.451587,15.184,0.018
52673.303163,15.667,0.024
52673.31845,15.683,0.024
52673.333707,15.704,0.024
52673.349031,15.734,0.026
52673.364373,15.751,0.026
52703.308727,15.641,0.078
52703.322602,15.648,0.054
52703.335926,15.618,0.065
52703.35001,15.628,0.024
52703.363266,15.615,0.111
52707.306137,15.844,0.026
52707.319867,15.845,0.026
52707.333046,15.869,0.028
52707.346845,15.904,0.028
52707.360077,15.932,0.03
52730.237745,15.704,0.022
52730.249364,15.723,0.022
52730.26113,15.75,0.024
52730.272798,15.771,0.024
52730.284607,15.768,0.026
52733.249609,15.092,0.017
52733.261806,15.154,0.017
52733.274047,15.24,0.017
52733.286983,15.271,0.018
52733.298936,15.335,0.026
52738.187778,15.448,0.022
52738.199258,15.475,0.024
52738.210734,15.505,0.024
52738.222184,15.541,0.024
52738.233656,15.558,0.024
52755.198862,15.872,0.031
52755.216274,15.492,0.022
52755.229407,15.278,0.018
52755.241434,15.111,0.017
52755.253559,15.044,0.017
52758.202711,15.746,0.024
52758.21456,15.753,0.026
52758.226415,15.766,0.026
52758.238373,15.776,0.028
52758.250313,15.794,0.028
52788.168759,15.562,0.046
52788.179023,15.685,0.091
52788.189327,15.619,0.074
52788.210358,15.693,0.055
52793.219912,15.833,0.052
52793.22995,15.874,0.063
52793.239914,15.878,0.061
52966.462979,15.631,0.026
52966.475388,15.662,0.026
52966.48793,15.711,0.026
52966.500471,15.707,0.026
52966.51314,15.712,0.026
52973.429101,15.637,0.031
52973.441117,15.643,0.03
52973.453286,15.636,0.03
52973.465581,15.674,0.03
52973.477532,15.705,0.031
52994.472754,15.754,0.018
52994.486062,15.772,0.017
52994.500013,15.805,0.017
52994.513286,15.806,0.018
52994.526658,15.806,0.017
52997.4431,15.167,0.024
53025.373003,15.236,0.022
53025.399135,15.324,0.015
53028.345477,15.801,0.015
53028.358121,15.822,0.017
53028.370716,15.812,0.015
53028.383204,15.815,0.015
53028.395693,15.831,0.015
53033.333998,15.808,0.028
53033.346296,15.498,0.02
53033.358433,15.325,0.018
53033.370905,15.123,0.017
53033.383165,15.056,0.018
53053.345277,15.362,0.018
53053.356893,15.392,0.017
53053.368563,15.456,0.022
53053.380209,15.496,0.041
53053.392414,15.573,0.03
53061.28089,15.209,0.011
53061.292101,15.064,0.009
53061.303275,15.047,0.009
53061.314435,15.078,0.009
53061.325691,15.106,0.011
53079.25409,15.71,0.022
53079.264732,15.749,0.024
53079.27554,15.762,0.024
53079.286241,15.789,0.024
53079.304698,15.768,0.024
53082.29785,15.207,0.013
53082.309678,15.225,0.013
53082.321232,15.286,0.015
53082.332756,15.247,0.013
53091.280301,15.84,0.022
53091.290789,15.834,0.022
53091.301338,15.853,0.02
53091.311776,15.822,0.02
53091.32219,15.737,0.018
53110.190195,15.164,0.018
53110.200887,15.205,0.018
53110.211573,15.257,0.02
53110.22232,15.287,0.02
53110.233079,15.327,0.022
53116.25828,15.535,0.037
53116.269492,15.59,0.035
53116.280623,15.733,0.085
53116.291846,15.719,0.057
53116.302982,15.601,0.026
53138.157726,15.312,0.02
53138.167591,15.354,0.02
53138.177408,15.414,0.02
53138.187233,15.419,0.02
53138.197035,15.424,0.02
53141.168248,15.756,0.028
53141.177911,15.785,0.028
53141.187534,15.817,0.028
53141.197187,15.858,0.03
53141.206635,15.91,0.031
53144.178719,15.662,0.028
53144.18761,15.664,0.033
53144.196435,15.695,0.053
53144.205286,15.692,0.036
53346.438438,15.134,0.023
53346.450725,15.204,0.026
53346.46319,15.226,0.025
53346.475415,15.271,0.025
53346.487618,15.361,0.031
53351.42879,15.648,0.035
53351.443127,15.678,0.035
53351.457945,15.733,0.038
53351.472583,15.718,0.04
53351.487358,15.755,0.038
53353.400005,15.07,0.018
53353.412944,15.112,0.018
53353.425887,15.176,0.02
53353.438875,15.229,0.02
53353.454288,15.27,0.02
53376.423102,15.871,0.031
53376.436985,15.792,0.026
53376.450728,15.451,0.018
53376.464246,15.218,0.015
53376.477928,15.042,0.015
53381.42053,15.417,0.043
53381.433384,15.51,0.05
53381.446241,15.597,0.07
53381.459215,15.59,0.102
53381.472174,15.608,0.052
53403.350364,15.149,0.017
53403.36383,15.169,0.017
53403.376681,15.263,0.017
53403.390542,15.307,0.018
53403.403428,15.364,0.02
53410.35132,15.241,0.013
53410.364102,15.288,0.013
53410.376596,15.332,0.015
53410.389192,15.375,0.015
53410.402662,15.421,0.015
53432.344714,15.126,0.035
53432.367492,15.235,0.028
53432.378848,15.272,0.02
53432.390544,15.319,0.022
53436.254545,15.632,0.022
53436.266248,15.661,0.024
53436.277914,15.679,0.024
53436.289563,15.678,0.024
53436.30193,15.72,0.024
53437.287978,15.546,0.02
53437.291196,15.505,0.018
53437.299599,15.565,0.022
53437.302819,15.504,0.02
53437.31161,15.568,0.022
53437.314831,15.556,0.02
53437.323237,15.596,0.022
53437.326527,15.594,0.022
53437.334955,15.63,0.024
53437.33817,15.606,0.022
53440.300444,15.979,0.031
53440.314527,15.946,0.031
53440.32709,15.826,0.028
53440.340198,15.509,0.02
53440.354257,15.276,0.018
53443.222566,15.586,0.043
53443.267537,15.647,0.02
53446.224469,15.906,0.031
53446.235067,15.782,0.028
53446.246185,15.499,0.022
53446.257387,15.365,0.018
53446.267955,15.167,0.02
53464.289495,15.786,0.028
53464.299665,15.824,0.031
53464.309824,15.804,0.028
53464.320021,15.811,0.033
53464.330174,15.808,0.035
53468.231941,15.965,0.065
53468.241872,15.972,0.046
53468.253265,15.783,0.087
53468.262845,15.55,0.05
53468.272456,15.445,0.068
53495.20079,15.293,0.031
53495.211096,15.3,0.03
53495.221319,15.338,0.031
53495.231564,15.379,0.035
53495.241835,15.445,0.043
53503.185167,15.191,0.02
53503.194017,15.073,0.017
53503.203871,15.066,0.018
53503.214232,15.123,0.018
53503.222981,15.114,0.02
53522.162658,15.551,0.028
53522.172881,15.619,0.031
53522.183122,15.592,0.033
53522.193448,15.646,0.035
53522.203677,15.674,0.037
53705.459238,15.847,0.033
53705.471869,15.85,0.031
53705.484677,15.797,0.03
53705.497256,15.833,0.03
53705.509965,15.879,0.03
53708.456648,15.567,0.024
53708.469418,15.587,0.024
53708.482367,15.618,0.026
53708.495116,15.653,0.026
53708.507779,15.685,0.026
53710.450754,15.113,0.018
53710.464164,15.059,0.018
53710.476677,15.116,0.018
53710.489335,15.2,0.02
53710.501935,15.249,0.022
53732.420386,15.868,0.046
53732.433175,15.567,0.035
53732.445855,15.344,0.026
53732.458612,15.134,0.022
53732.471406,15.037,0.02
53735.463373,15.775,0.031
53735.47677,15.809,0.048
53735.489543,15.84,0.043
53735.502396,15.844,0.048
53735.515241,15.794,0.05
53746.399748,15.405,0.031
53746.41221,15.243,0.026
53746.424765,15.074,0.022
53746.437451,15.103,0.022
53746.449916,15.141,0.024
53759.404274,15.392,0.022
53759.416952,15.418,0.024
53759.429676,15.48,0.037
53759.442297,15.471,0.041
53762.408745,15.829,0.026
53762.421448,15.896,0.037
53762.434061,15.913,0.043
53762.459476,15.932,0.043
53787.461818,15.713,0.033
53787.473726,15.72,0.035
53787.498007,15.735,0.046
53790.293202,15.825,0.031
53790.305119,15.787,0.03
53790.317091,15.78,0.03
53790.329106,15.836,0.03
53790.338179,15.88,0.031
53790.341007,15.861,0.03
53790.349873,15.931,0.035
53790.361565,15.968,0.035
53790.373256,15.975,0.037
53790.38496,15.952,0.037
53793.343437,15.614,0.067
53793.355171,15.68,0.026
53793.366891,15.717,0.028
53793.378631,15.729,0.028
53793.390373,15.769,0.043
53797.246237,15.843,0.028
53797.257794,15.793,0.033
53797.281019,15.703,0.057
53799.286176,15.741,0.024
53799.29766,15.767,0.024
53799.309171,15.754,0.022
53799.32088,15.783,0.024
53799.332397,15.793,0.028
53818.235368,15.781,0.03
53818.246449,15.81,0.03
53818.257601,15.851,0.031
53818.268851,15.918,0.033
53818.280006,15.944,0.035
53819.286487,15.837,0.044
53819.308657,15.826,0.057
53819.321435,15.816,0.033
53819.332603,15.869,0.031
53820.3138,15.828,0.107
53820.337325,15.751,0.059
53826.28234,15.813,0.03
53826.318623,16.019,0.07
53826.330109,15.966,0.039
53827.294349,15.803,0.03
53827.305464,15.803,0.031
53827.32715,15.854,0.035
53827.338153,15.828,0.037
53845.189985,15.533,0.028
53845.201101,15.383,0.025
53845.212252,15.184,0.021
53845.223338,15.104,0.02
53845.234415,15.108,0.023
53846.243461,15.931,0.05
53846.254266,15.763,0.043
53846.265078,15.471,0.031
53846.27587,15.338,0.03
53846.28669,15.136,0.026
53850.192855,15.505,0.028
53850.203244,15.546,0.03
53850.213736,15.522,0.03
53850.224242,15.572,0.031
53850.234824,15.6,0.033
53850.269527,15.676,0.031
53850.280758,15.684,0.031
53850.291878,15.714,0.033
53850.304298,15.74,0.035
53850.315542,15.771,0.037
53853.239028,15.734,0.035
53853.25067,15.461,0.03
53853.261756,15.275,0.026
53853.272479,15.09,0.022
53853.282952,15.062,0.022
53879.158673,15.463,0.023
53879.169451,15.478,0.023
53879.18022,15.481,0.025
53879.190959,15.516,0.025
53879.202575,15.519,0.028
53882.164878,15.891,0.037
53882.1778,15.909,0.037
53882.190789,15.959,0.041
53882.202013,15.959,0.041
53882.213924,15.919,0.044
53884.158992,15.794,0.043
53884.170721,15.818,0.044
53884.182474,15.823,0.046
53884.194247,15.858,0.05
53884.206042,15.813,0.05
53885.154488,15.668,0.03
53885.16523,15.659,0.031
53885.176382,15.65,0.031
53885.187196,15.723,0.035
53885.198481,15.75,0.036
54059.451973,15.194,0.025
54059.472319,15.099,0.02
54059.485999,15.104,0.02
54059.498559,15.168,0.018
54060.437047,15.914,0.037
54060.450976,15.971,0.039
54060.463887,15.932,0.037
54060.476794,15.913,0.035
54060.489863,15.9,0.035
54083.46573,15.935,0.057
54083.492924,15.919,0.057
54083.506017,15.995,0.078
54086.370288,15.281,0.024
54086.383217,15.342,0.024
54086.396154,15.404,0.024
54086.409095,15.422,0.024
54086.422033,15.43,0.022
54091.354403,15.713,0.04
54091.367585,15.734,0.038
54091.375558,15.693,0.024
54091.380214,15.758,0.04
54091.388146,15.737,0.024
54091.392121,15.784,0.038
54091.400732,15.766,0.024
54091.404235,15.799,0.038
54091.413655,15.769,0.024
54091.426252,15.765,0.024
54113.387426,15.765,0.033
54113.400594,15.731,0.033
54113.414839,15.776,0.038
54113.427815,15.796,0.04
54113.440683,15.837,0.041
54115.408761,15.447,0.026
54115.421503,15.497,0.028
54115.434398,15.539,0.03
54115.447423,15.54,0.028
54115.460637,15.597,0.031
54123.340769,15.226,0.021
54123.353158,15.064,0.018
54123.365694,15.066,0.018
54123.378085,15.116,0.02
54123.390735,15.164,0.02
54144.357952,15.301,0.015
54144.369421,15.316,0.015
54144.380509,15.354,0.02
54144.392167,15.387,0.017
54144.404236,15.432,0.018
54148.335724,15.791,0.031
54148.34736,15.73,0.03
54148.358921,15.825,0.033
54148.370552,15.798,0.035
54148.382428,15.843,0.036
54152.286945,15.934,0.02
54152.29884,15.893,0.02
54152.310731,15.635,0.017
54152.322634,15.403,0.015
54152.334546,15.181,0.011
54154.279206,15.811,0.022
54154.290686,15.784,0.022
54154.302178,15.823,0.022
54154.31365,15.818,0.02
54154.32509,15.853,0.022
54173.264844,15.378,0.021
54173.26862,15.332,0.017
54173.275538,15.206,0.018
54173.279349,15.129,0.015
54173.286599,15.062,0.016
54173.290018,15.061,0.013
54173.297303,15.082,0.016
54173.300669,15.065,0.013
54173.308,15.101,0.016
54173.311389,15.112,0.013
54176.273621,15.797,0.024
54176.284255,15.816,0.026
54176.294958,15.82,0.026
54176.305644,15.798,0.024
54176.316198,15.819,0.026
54179.289573,15.395,0.017
54179.300577,15.426,0.018
54179.311981,15.462,0.018
54179.323034,15.464,0.02
54179.334311,15.513,0.02
54185.227535,15.525,0.036
54185.237738,15.584,0.038
54185.247937,15.616,0.038
54185.25815,15.572,0.038
54185.268566,15.624,0.04
54186.290638,15.327,0.017
54186.3017,15.125,0.015
54186.313472,15.051,0.013
54186.324878,15.065,0.013
54186.33596,15.118,0.013
54200.216745,15.36,0.026
54200.226213,15.366,0.026
54206.224115,15.621,0.022
54206.23315,15.633,0.022
54206.242193,15.65,0.022
54206.251243,15.702,0.022
54206.260366,15.722,0.024
54209.218938,15.787,0.07
54209.227923,15.613,0.105
54209.237484,15.429,0.063
54209.247317,15.333,0.044
54439.445746,15.809,0.02
54439.458645,15.762,0.02
54439.471524,15.819,0.02
54439.48439,15.798,0.02
54439.497265,15.848,0.022
54507.32871,15.276,0.013
54507.340747,15.325,0.013
54507.352876,15.366,0.013
54507.364948,15.41,0.013
54507.377002,15.439,0.013
54507.448536,15.606,0.03
54507.460455,15.646,0.038
54507.472408,15.682,0.033
54507.484266,15.671,0.031
54507.497071,15.745,0.033
54522.39127,15.381,0.02
54522.402955,15.328,0.018
54522.414621,15.454,0.022
54522.426258,15.441,0.022
54522.437921,15.48,0.024
54529.277363,15.034,0.009
54529.288795,15.078,0.009
54529.300421,15.122,0.011
54529.312219,15.176,0.011
54529.323588,15.188,0.011
54535.388833,15.703,0.03
54535.400098,15.721,0.03
54535.4111,15.699,0.03
54535.422099,15.737,0.033
54535.433255,15.749,0.036
54536.268544,15.053,0.009
54536.279533,15.113,0.009
54536.290525,15.17,0.009
54536.301485,15.236,0.011
54536.31249,15.257,0.011
54553.301618,15.849,0.039
54553.31352,15.877,0.024
54553.325401,15.89,0.026
54553.337473,15.932,0.03
54553.349398,15.946,0.03
54558.1288,15.794,0.024
54558.140445,15.825,0.022
54558.151995,15.85,0.022
54558.163572,15.879,0.024
54558.175204,15.927,0.024
54562.247544,15.668,0.017
54562.259148,15.683,0.017
54562.270793,15.694,0.017
54562.282554,15.697,0.017
54562.29424,15.729,0.017
54580.199449,15.952,0.049
54580.209698,16.056,0.054
54580.219931,16.019,0.053
54580.230804,15.937,0.053
54580.241792,15.922,0.053
54584.247269,15.66,0.022
54584.257926,15.66,0.022
54584.268503,15.701,0.024
54584.279078,15.71,0.024
54584.289698,15.728,0.028
54591.189493,15.567,0.046
54591.199086,15.641,0.051
54591.199255,15.589,0.022
54591.208841,15.581,0.046
54591.209573,15.608,0.024
54591.218423,15.602,0.049
54591.21985,15.655,0.026
54591.228667,15.709,0.056
54591.230131,15.668,0.028
54591.240415,15.661,0.028
54611.159801,15.809,0.053
54611.168007,15.811,0.053
54611.176335,15.789,0.051
54611.184549,15.84,0.054
54611.192753,15.798,0.053
54614.161632,15.227,0.015
54614.171591,15.244,0.015
54614.181559,15.314,0.017
54614.191533,15.326,0.017
54614.201518,15.382,0.018
