mjd,m,merr
52613.448487,16.117,0.043
52613.463658,16.113,0.043
52613.479006,16.132,0.044
52613.494202,16.222,0.046
52613.509489,16.232,0.046
52618.454985,15.977,0.059
52618.470282,15.964,0.057
52618.48572,15.98,0.043
52618.501167,16.066,0.057
52618.516636,16.099,0.043
52640.430053,16.234,0.039
52640.460889,16.261,0.039
52640.475816,16.27,0.039
52640.49076,16.225,0.037
52643.380577,16.037,0.035
52643.394714,16.072,0.039
52643.408973,16.027,0.037
52643.423175,16.047,0.037
52643.43732,16.062,0.037
52647.395867,16.096,0.041
52647.410666,16.117,0.043
52647.425116,16.179,0.046
52647.439451,16.232,0.048
52647.453886,16.221,0.046
52666.326316,16.12,0.04
52666.356601,16.064,0.038
52670.394998,16.08,0.037
52670.408919,16.097,0.039
52670.422914,16.218,0.044
52670.436857,16.172,0.044
52670.450764,16.226,0.046
52673.317548,16.205,0.039
52673.332805,16.135,0.037
52673.348128,16.058,0.035
52673.363464,15.946,0.031
52698.323645,16.163,0.043
52698.324247,16.096,0.036
52698.35054,16.042,0.041
52698.363601,16.029,0.045
52698.364204,15.995,0.038
52703.307357,16.326,0.094
52703.321297,16.158,0.115
52703.334633,16.268,0.124
52703.348709,16.202,0.043
52725.306537,15.945,0.031
52725.318101,15.935,0.055
52725.329888,15.944,0.052
52725.341685,16.176,0.109
52725.353412,15.959,0.078
52730.271515,16.272,0.044
52730.283324,16.199,0.043
52733.248295,16.192,0.043
52733.260484,16.208,0.043
52733.27273,16.252,0.044
52733.285692,16.25,0.048
52733.29765,16.253,0.061
52738.238379,15.951,0.041
52738.238738,15.983,0.043
52738.250896,16.071,0.046
52738.262707,16.042,0.045
52738.263066,15.968,0.043
52738.27439,16.043,0.046
52738.274746,15.983,0.043
52738.286256,16.04,0.045
52738.286615,16.066,0.046
52755.228852,16.34,0.05
52755.24088,16.305,0.05
52755.253004,16.248,0.048
52758.20148,16.115,0.035
52758.213324,16.159,0.039
52758.225179,16.189,0.041
52758.23714,16.178,0.039
52758.249081,16.227,0.043
52788.167589,16.042,0.057
52788.209188,15.952,0.081
52793.209216,15.881,0.117
52793.219207,15.901,0.057
52793.239204,16.004,0.07
52966.462383,16.015,0.039
52966.474792,16.004,0.037
52966.487285,16.074,0.039
52966.512544,16.09,0.037
52973.45358,15.842,0.031
52973.479511,15.935,0.033
52973.492474,15.94,0.033
52973.505412,16.012,0.035
52993.392115,15.98,0.026
52993.4052,16.075,0.028
52993.418573,16.096,0.028
52993.431675,16.081,0.026
52993.444944,16.102,0.026
52994.472195,16.0,0.026
52994.51272,15.998,0.022
52994.526099,16.012,0.022
52997.442547,16.285,0.076
53025.372459,16.044,0.039
53025.398591,16.051,0.274
53028.344941,16.047,0.022
53028.370181,15.978,0.02
53028.395157,15.929,0.02
53033.346784,16.308,0.046
53033.371416,16.369,0.078
53053.306638,16.131,0.057
53053.319254,15.991,0.044
53053.33257,15.957,0.033
53053.344331,15.922,0.03
53061.280383,16.01,0.022
53061.302768,16.017,0.024
53061.313927,16.073,0.024
53079.26423,16.115,0.033
53079.275038,16.156,0.035
53079.28574,16.164,0.035
53079.304196,16.227,0.037
53082.297332,16.029,0.024
53082.309159,16.027,0.024
53091.279783,16.046,0.026
53110.189722,16.303,0.057
53110.200413,16.346,0.057
53110.2111,16.332,0.057
53110.221789,16.379,0.061
53110.232606,16.331,0.059
53116.302464,15.91,0.059
53138.157202,16.455,0.07
53138.167068,16.486,0.068
53138.176886,16.485,0.07
53138.18671,16.565,0.074
53138.196512,16.724,0.085
53141.187082,15.858,0.035
53141.196735,15.91,0.035
53141.206182,15.937,0.039
53144.178306,16.067,0.066
53144.20487,15.967,0.073
53321.47146,16.161,0.248
53346.388423,15.969,0.049
53346.400812,15.862,0.046
53346.413299,15.842,0.045
53346.425765,15.895,0.046
53346.437981,15.885,0.045
53347.508066,15.951,0.033
53347.525087,15.878,0.03
53351.427956,16.121,0.053
53351.442278,16.045,0.049
53351.456757,16.013,0.048
53351.47173,16.025,0.051
53351.486525,16.066,0.053
53353.399081,15.881,0.039
53353.412019,15.883,0.041
53353.424962,15.92,0.041
53353.437949,15.923,0.041
53353.453363,15.984,0.041
53357.444029,16.022,0.037
53357.457414,16.087,0.039
53357.47255,16.088,0.039
53357.48765,16.125,0.041
53357.502208,16.174,0.043
53376.449606,15.959,0.031
53376.463124,15.981,0.031
53376.476806,16.025,0.035
53381.3746,16.371,0.096
53381.388567,16.364,0.137
53381.403212,16.309,0.057
53381.419118,16.243,0.091
53403.349501,15.982,0.041
53403.362968,15.937,0.033
53403.375801,15.914,0.033
53403.389675,15.93,0.033
53403.402565,15.936,0.033
53432.288618,16.068,0.191
53432.317023,16.087,0.133
53432.34291,16.147,0.087
53437.289936,16.01,0.031
53437.301559,15.967,0.031
53437.313571,15.991,0.031
53437.325193,15.97,0.031
53438.404273,16.044,0.039
53438.416665,15.955,0.039
53438.440357,15.811,0.037
53438.452203,15.814,0.041
53440.313137,16.269,0.044
53440.325701,16.266,0.043
53440.338812,16.228,0.041
53443.221205,15.984,0.037
53443.254509,15.93,0.2
53443.266176,16.071,0.033
53446.223134,15.864,0.031
53446.233733,15.896,0.031
53446.244845,15.846,0.03
53446.266616,15.81,0.033
53464.288165,16.055,0.037
53464.298339,16.066,0.043
53464.318686,16.089,0.043
53468.231443,16.007,0.078
53468.241372,16.104,0.072
53468.252766,16.113,0.098
53468.262347,16.266,0.122
53468.271959,16.186,0.146
53495.19995,16.21,0.072
53495.21025,16.212,0.07
53495.220481,16.31,0.08
53495.230681,16.363,0.105
53495.24099,16.346,0.102
53502.147262,16.0,0.041
53502.158035,16.03,0.043
53502.168598,16.039,0.043
53502.179417,16.091,0.046
53502.18987,16.071,0.048
53522.162229,16.284,0.057
53522.172455,16.31,0.059
53522.182696,16.299,0.063
53522.192943,16.259,0.061
53522.203251,16.183,0.061
53705.457421,16.162,0.046
53705.483162,16.185,0.044
53705.495785,16.173,0.043
53705.508508,16.219,0.043
53708.467896,16.025,0.037
53708.480823,16.0,0.037
53708.493641,16.073,0.039
53708.506299,16.064,0.039
53732.418937,16.261,0.067
53732.431725,16.18,0.065
53732.444371,16.246,0.063
53732.457146,16.238,0.063
53732.469956,16.258,0.067
53735.435788,15.792,0.137
53735.461897,16.039,0.039
53737.411019,15.96,0.031
53737.424376,16.064,0.035
53737.43776,16.067,0.035
53737.46441,16.185,0.039
53759.351151,16.185,0.041
53759.363936,16.181,0.043
53759.376614,16.207,0.046
53759.389281,16.263,0.046
53759.401959,16.217,0.05
53762.407288,16.072,0.035
53762.419793,16.089,0.046
53762.432586,16.101,0.052
53762.445188,16.206,0.096
53762.457993,16.172,0.063
53788.462603,15.991,0.044
53788.474513,16.0,0.048
53788.486486,16.025,0.052
53788.49848,15.962,0.052
53788.510552,16.049,0.065
53789.29665,16.068,0.059
53789.309523,16.036,0.053
53789.322276,16.242,0.137
53789.334802,16.059,0.104
53789.347466,16.142,0.12
53790.336735,15.934,0.035
53790.348428,15.991,0.039
53790.36012,16.003,0.039
53790.371813,16.007,0.041
53790.38351,15.972,0.039
53793.34251,16.295,0.126
53793.354243,16.34,0.05
53793.377701,16.263,0.055
53793.389445,16.194,0.063
53794.302582,15.89,0.044
53794.314341,15.908,0.031
53794.326468,15.921,0.031
53797.256886,16.348,0.044
53797.268532,16.532,0.113
53797.280109,16.284,0.041
53797.291675,16.272,0.072
53799.283547,16.119,0.031
53799.28475,16.143,0.039
53799.295542,16.097,0.031
53799.296235,16.149,0.039
53799.30747,16.07,0.03
53799.307746,16.091,0.035
53799.319273,16.006,0.03
53799.319457,16.04,0.035
53799.330966,16.053,0.037
53799.331056,16.058,0.031
53817.339781,15.981,0.044
53817.350639,15.933,0.043
53817.361507,15.994,0.046
53817.372423,15.98,0.048
53818.234831,16.298,0.048
53818.245913,16.251,0.045
53818.257069,16.224,0.045
53818.268316,16.249,0.045
53818.279472,16.245,0.045
53819.29604,16.111,0.109
53819.319995,15.994,0.041
53820.335912,16.027,0.248
53826.280946,15.947,0.037
53826.292789,15.961,0.039
53826.317233,15.972,0.067
53826.328717,16.021,0.043
53827.304581,16.287,0.05
53827.315503,16.182,0.061
53827.337192,16.101,0.05
53845.190971,16.235,0.059
53845.201679,16.308,0.063
53845.212537,16.277,0.061
53845.223267,16.294,0.065
53845.234012,16.351,0.068
53848.238268,16.189,0.07
53848.25946,16.213,0.068
53848.270321,16.157,0.067
53848.280805,16.229,0.068
53850.279477,16.315,0.057
53850.290587,16.285,0.059
53850.303004,16.232,0.055
53850.31409,16.343,0.067
53851.190411,16.029,0.049
53851.200642,15.989,0.046
53851.210922,15.915,0.043
53851.221212,15.91,0.046
53851.231548,15.877,0.045
53853.194724,16.066,0.046
53853.206129,16.07,0.046
53853.216535,15.991,0.046
53853.226945,15.988,0.046
53853.23737,16.051,0.05
53880.154736,15.977,0.055
53880.16202,16.041,0.049
53880.16588,15.991,0.057
53880.173765,16.031,0.053
53880.177053,16.06,0.063
53880.184441,16.031,0.051
53880.188222,16.048,0.059
53880.195127,16.052,0.053
53880.199404,16.121,0.065
53880.206174,16.133,0.061
53882.164048,16.071,0.046
53882.176969,16.065,0.046
53884.15897,16.207,0.058
53884.169676,16.185,0.059
53884.180808,16.261,0.066
53884.191665,16.321,0.071
53884.202423,16.237,0.071
53885.156561,15.928,0.052
53885.168616,15.933,0.054
53885.180809,15.887,0.055
53885.192925,15.889,0.055
53885.205063,15.886,0.059
54057.459421,16.296,0.052
54057.471905,16.347,0.052
54057.496879,16.221,0.046
54057.509359,16.295,0.048
54058.443956,15.992,0.048
54058.457121,16.017,0.049
54058.469709,16.056,0.049
54058.482195,16.045,0.048
54058.494597,16.073,0.048
54060.4356,16.066,0.043
54060.449527,16.098,0.044
54060.462438,16.108,0.046
54060.475347,16.172,0.048
54060.488414,16.215,0.048
54064.440434,16.263,0.058
54064.455584,16.24,0.054
54064.469685,16.326,0.058
54064.48277,16.367,0.058
54064.495331,16.243,0.049
54083.464148,16.196,0.083
54083.478045,15.993,0.094
54083.491339,16.125,0.054
54083.504431,16.145,0.074
54086.368797,16.118,0.054
54086.381725,16.156,0.048
54086.39466,15.968,0.041
54086.407604,15.905,0.037
54086.420541,15.886,0.035
54091.374103,16.246,0.043
54091.386687,16.287,0.043
54091.399273,16.311,0.043
54091.412195,16.3,0.043
54091.424791,16.306,0.043
54112.39345,16.316,0.064
54112.40601,16.267,0.058
54112.418545,16.317,0.061
54112.431097,16.282,0.061
54113.385974,16.094,0.046
54113.399116,16.128,0.048
54113.413387,16.056,0.051
54113.426244,16.05,0.058
54113.439229,16.087,0.054
54115.407823,16.065,0.046
54115.420566,16.09,0.049
54115.433459,16.142,0.051
54115.446484,16.11,0.049
54115.459698,16.161,0.054
54123.339329,16.312,0.053
54123.351725,16.345,0.053
54123.36426,16.357,0.053
54123.376651,16.368,0.056
54123.389303,16.304,0.048
54144.368101,16.252,0.039
54144.379191,16.243,0.046
54144.402917,16.265,0.043
54148.334777,16.287,0.049
54148.346484,16.355,0.053
54148.358043,16.385,0.056
54148.369674,16.415,0.059
54148.381549,16.355,0.058
54152.310171,16.036,0.028
54152.322073,15.977,0.028
54152.333984,15.942,0.026
54154.289681,16.009,0.03
54154.324102,15.825,0.024
54173.264179,16.24,0.045
54173.267073,16.179,0.037
54173.274872,16.235,0.045
54173.285932,16.208,0.045
54173.288643,16.236,0.037
54173.296636,16.219,0.045
54173.299309,16.242,0.039
54173.307331,16.255,0.045
54173.310023,16.283,0.039
54176.272224,16.029,0.031
54176.293458,16.059,0.031
54176.304267,16.052,0.031
54176.314812,16.021,0.031
54179.288161,16.05,0.031
54179.299079,16.005,0.03
54179.310473,16.022,0.031
54179.321649,16.014,0.033
54179.332787,16.005,0.033
54185.227024,15.96,0.051
54185.237205,15.984,0.056
54185.247424,15.962,0.054
54185.257637,15.989,0.056
54185.268055,15.959,0.054
54186.28906,16.179,0.037
54186.311897,16.236,0.039
54186.323178,16.242,0.039
54186.334455,16.284,0.041
54201.235069,16.047,0.048
54201.244401,15.981,0.043
54201.253656,16.042,0.045
54201.262916,16.087,0.048
54201.272153,16.176,0.053
54206.250412,15.918,0.028
54209.217595,16.215,0.085
54209.226582,16.289,0.096
54209.236152,16.235,0.067
54209.245982,16.255,0.1
54440.416369,16.065,0.024
54440.429291,16.08,0.026
54440.442423,16.125,0.026
54440.455453,16.139,0.026
54440.468373,16.21,0.031
54444.393514,16.23,0.037
54444.432515,16.311,0.096
54448.392623,16.263,0.046
54448.405761,16.269,0.043
54448.418789,16.202,0.055
54448.431813,16.124,0.026
54507.35232,16.109,0.026
54523.363977,15.808,0.022
54523.3757,15.845,0.024
54523.387411,15.859,0.024
54530.282183,16.227,0.072
54530.293678,16.265,0.033
54530.305155,16.244,0.033
54530.316502,16.301,0.048
54530.327855,16.27,0.094
54536.278977,15.916,0.02
54536.289969,15.901,0.02
54536.300929,15.891,0.02
54536.311935,15.916,0.02
54554.309114,16.015,0.022
54554.333232,16.078,0.026
54554.345316,16.112,0.028
54559.140421,16.344,0.033
54580.198965,16.655,0.092
54580.219445,16.586,0.089
54580.230319,16.512,0.084
54585.196972,16.243,0.12
54585.217651,16.358,0.139
54585.227926,16.474,0.181
54585.238199,16.424,0.117
54592.192369,16.171,0.039
54592.203094,16.144,0.039
54592.213609,16.201,0.041
54592.224123,16.193,0.041
54592.234672,16.233,0.043
54611.159286,15.899,0.056
54611.167493,15.847,0.053
54611.175822,15.967,0.059
54611.184034,15.891,0.056
54611.19224,15.981,0.059
54615.163064,16.074,0.128
54615.184147,16.047,0.041
54615.194611,16.098,0.043
54615.205079,16.105,0.044
