mjd,m,merr
52639.466263,16.528,0.058
52639.481655,16.598,0.063
52639.496583,16.651,0.066
52639.512582,16.532,0.059
52639.527773,16.565,0.064
52643.407755,16.56,0.064
52643.423797,16.626,0.068
52643.440064,16.621,0.063
52643.456365,16.552,0.056
52643.472837,16.629,0.059
52648.327222,16.54,0.063
52648.341845,16.521,0.061
52648.356622,16.595,0.085
52648.371455,16.654,0.065
52648.386132,16.581,0.059
52666.320809,16.582,0.05
52666.336146,16.593,0.048
52666.351567,16.639,0.05
52666.366985,16.602,0.046
52666.382666,16.597,0.05
52670.352357,16.599,0.061
52670.368156,16.578,0.066
52670.383964,16.585,0.064
52670.3996,16.552,0.064
52670.418091,16.712,0.073
52674.33048,16.551,0.05
52674.345724,16.566,0.052
52674.359995,16.582,0.052
52674.374054,16.602,0.054
52674.388209,16.592,0.054
52698.302601,16.592,0.048
52698.31603,16.634,0.05
52698.330726,16.606,0.048
52698.344918,16.548,0.048
52698.359649,16.517,0.05
52703.24764,16.614,0.063
52703.260885,16.562,0.089
52703.274133,16.52,0.087
52703.287461,16.559,0.061
52703.300582,16.691,0.068
52724.241834,16.57,0.059
52724.253936,16.594,0.059
52724.265989,16.562,0.058
52724.279185,16.572,0.058
52724.291317,16.562,0.058
52730.239992,16.598,0.059
52730.252032,16.587,0.059
52730.264706,16.772,0.073
52730.276693,16.858,0.078
52730.288827,17.155,0.106
52754.214688,16.6,0.071
52754.227127,16.706,0.079
52754.239848,16.653,0.078
52754.252314,16.675,0.083
52754.264807,16.707,0.086
52761.198974,16.665,0.105
52761.21099,16.6,0.083
52761.223104,16.569,0.076
52761.235181,16.546,0.068
52761.247198,16.536,0.076
52764.151034,16.593,0.066
52764.163276,16.576,0.066
52764.175309,16.622,0.069
52764.187952,16.607,0.068
52764.200449,16.589,0.066
52789.164436,16.695,0.096
52789.175006,16.713,0.092
52789.185592,17.273,0.16
52789.206864,16.992,0.125
52791.164989,16.424,0.137
52962.451217,16.603,0.061
52962.464276,16.575,0.057
52962.476558,16.556,0.055
52962.489171,16.608,0.057
52962.501644,16.599,0.055
52974.457436,16.725,0.059
52974.470118,16.671,0.054
52974.482831,16.619,0.05
52974.495473,16.582,0.05
52974.508413,16.589,0.05
52992.473536,17.103,0.073
52992.486337,17.04,0.076
52992.499459,16.796,0.066
52992.512952,16.677,0.094
52992.526165,16.582,0.049
52996.400445,16.588,0.041
52996.413723,16.68,0.043
52996.427175,16.571,0.037
52996.440472,16.608,0.037
52996.453532,16.566,0.037
53001.403201,16.641,0.039
53001.416207,16.588,0.035
53001.429198,16.608,0.035
53001.442336,16.582,0.035
53001.455436,16.59,0.035
53027.334055,16.552,0.037
53027.346787,16.604,0.037
53027.359643,16.603,0.035
53027.372439,16.627,0.037
53027.385112,16.635,0.035
53034.335205,16.593,0.066
53034.347055,16.605,0.063
53034.358968,16.501,0.058
53034.370969,16.477,0.058
53034.382945,16.52,0.059
53051.280626,16.541,0.043
53051.292357,16.59,0.044
53051.304034,16.642,0.044
53051.315728,16.62,0.043
53051.327407,16.631,0.044
53078.314547,16.639,0.063
53078.32555,16.581,0.061
53078.336482,16.663,0.064
53078.347392,16.608,0.064
53078.358389,16.566,0.064
53084.281672,16.553,0.035
53084.292582,16.583,0.035
53084.30347,16.629,0.037
53084.314709,16.563,0.035
53084.327961,16.565,0.035
53087.282652,16.541,0.035
53087.293173,16.547,0.037
53087.304002,16.561,0.037
53087.314937,16.583,0.039
53087.325457,16.627,0.039
53109.189552,16.627,0.066
53109.199889,16.578,0.063
53109.210311,16.611,0.064
53109.220759,16.599,0.064
53109.231063,16.627,0.066
53137.201153,16.642,0.081
53137.210839,16.612,0.079
53137.221172,16.639,0.079
53137.231063,16.651,0.079
53137.240663,16.556,0.071
53148.161073,16.521,0.048
53148.169986,16.554,0.055
53148.178898,16.607,0.067
53148.187971,16.488,0.059
53148.196884,16.646,0.059
53165.167179,16.782,0.216
53165.177424,16.589,0.124
53165.187349,16.653,0.099
53165.223137,16.642,0.125
53348.396245,16.611,0.072
53348.409709,16.639,0.072
53348.423002,16.713,0.072
53348.436333,16.637,0.07
53348.449207,16.692,0.072
53354.393175,17.149,0.102
53354.406296,17.292,0.111
53354.419436,16.964,0.08
53354.432603,16.748,0.061
53354.445727,16.622,0.055
53357.471432,16.631,0.086
53357.50053,16.49,0.073
53357.515224,16.66,0.145
53377.349396,16.622,0.054
53377.362704,16.609,0.054
53377.376043,16.625,0.054
53377.389387,16.594,0.052
53377.402714,16.578,0.05
53493.244928,16.613,0.083
53493.25509,16.512,0.076
53493.266085,16.567,0.087
53493.276898,16.701,0.1
53493.287161,16.602,0.093
53501.192155,16.619,0.074
53501.203939,16.601,0.072
53501.214312,16.583,0.07
53501.224305,16.583,0.074
53501.23426,16.549,0.072
53529.15749,16.628,0.098
53529.167842,16.736,0.104
53529.178256,17.055,0.148
53529.188553,17.339,0.189
53529.199133,17.098,0.155
53713.462833,16.995,0.154
53713.475664,17.637,0.529
53713.514747,16.521,0.159
53739.411676,16.558,0.203
53739.424663,16.624,0.126
53739.437663,16.557,0.081
53739.450894,16.553,0.052
53739.464479,16.63,0.054
53770.289472,16.612,0.055
53770.302463,16.579,0.054
53770.315531,16.618,0.054
53770.329692,16.574,0.05
53770.34341,16.612,0.054
53788.296837,16.577,0.101
53788.309459,16.515,0.054
53788.32221,16.651,0.066
53788.334865,16.53,0.045
53788.347715,16.624,0.049
53789.28114,16.459,0.076
53789.287753,16.543,0.078
53789.293086,16.514,0.094
53789.300262,16.492,0.071
53789.30501,16.531,0.078
53789.313363,16.412,0.092
53789.316952,16.334,0.105
53789.32911,16.271,0.104
53789.338408,16.391,0.124
53790.277148,16.587,0.061
53790.285556,16.535,0.054
53790.28888,16.598,0.061
53790.297472,16.591,0.058
53790.300683,16.628,0.065
53790.309453,16.554,0.056
53790.312438,16.605,0.061
53790.321497,16.496,0.054
53790.324186,16.619,0.061
53791.290566,16.445,0.051
53791.302976,16.499,0.049
53791.315128,16.56,0.053
53791.327459,16.61,0.058
53791.339356,16.734,0.059
53792.280277,16.603,0.057
53792.292203,16.723,0.063
53792.304124,16.918,0.076
53792.316026,17.107,0.093
53792.327939,16.967,0.078
53793.293042,16.755,0.298
53793.304979,16.787,0.259
53794.302017,16.554,0.083
53794.313775,16.549,0.054
53794.325898,16.503,0.052
53813.3119,16.598,0.079
53813.323364,16.596,0.081
53813.334755,16.63,0.084
53813.346243,16.652,0.091
53813.35775,16.661,0.094
53844.190925,16.551,0.066
53844.202061,16.484,0.064
53844.213265,16.577,0.071
53852.194264,16.861,0.101
53852.204581,16.663,0.087
53852.214781,16.575,0.083
53852.224955,16.472,0.079
53881.160315,16.571,0.076
53881.162394,16.545,0.08
53881.170264,16.622,0.079
53881.173549,16.606,0.083
53881.180494,16.661,0.081
53881.184602,16.482,0.072
53881.192863,16.524,0.074
53881.195779,16.62,0.083
53881.20297,16.622,0.083
53881.206922,16.5,0.081
53886.167538,16.905,0.127
53886.189804,16.621,0.104
53886.199602,16.573,0.097
54057.446519,16.598,0.086
54057.460552,16.551,0.076
54057.474346,16.644,0.079
54057.487582,16.578,0.073
54057.500917,16.468,0.066
54068.451265,16.591,0.057
54068.464172,16.6,0.054
54068.489988,16.625,0.052
54068.502884,16.684,0.057
54083.451445,16.757,0.173
54083.464456,16.653,0.16
54205.22139,16.603,0.073
54205.230633,16.536,0.066
54205.23987,16.58,0.069
54205.249204,16.645,0.074
54205.258635,16.695,0.078
54208.211647,16.58,0.064
54208.220384,16.642,0.069
54208.229079,16.525,0.066
54208.237936,16.662,0.069
54208.246671,16.573,0.064
54424.44979,16.632,0.044
54424.462471,16.635,0.043
54424.475106,16.669,0.044
54424.487851,16.635,0.043
54424.500616,16.63,0.043
54450.398782,16.596,0.037
54450.411801,16.59,0.037
54450.424859,16.661,0.039
54450.437899,16.618,0.039
54450.450934,16.593,0.037
54454.3914,16.702,0.057
54454.404695,16.981,0.068
54454.417858,17.324,0.083
54454.431139,17.275,0.07
54454.444564,16.951,0.052
54475.389915,16.593,0.039
54475.402842,16.617,0.07
54475.415856,16.623,0.059
54475.428696,16.623,0.039
54475.441537,16.593,0.037
54483.271359,16.613,0.091
54483.284367,16.562,0.08
54483.297577,16.585,0.072
54483.310604,16.557,0.07
54483.323643,16.593,0.068
54495.404369,16.608,0.046
54495.416901,16.615,0.048
54495.429546,16.553,0.044
54495.44233,16.592,0.048
54495.454992,16.553,0.046
54509.274846,16.573,0.037
54509.286907,16.562,0.035
54509.298902,16.587,0.037
54509.310981,16.595,0.037
54509.323118,16.548,0.033
54524.335484,16.548,0.035
54524.346971,16.569,0.035
54524.358678,16.503,0.039
54524.37017,16.587,0.039
54524.381717,16.603,0.041
54532.275391,16.618,0.033
54532.286744,16.73,0.037
54532.297973,17.028,0.048
54532.309719,17.355,0.065
54532.321624,17.202,0.059
54555.245629,16.59,0.037
54555.25748,16.596,0.035
54555.269356,16.586,0.035
54555.281242,16.557,0.035
54555.293025,16.592,0.035
54586.193492,16.675,0.07
54586.213865,16.56,0.048
54586.23437,16.568,0.072
54594.202531,16.596,0.057
54594.212943,16.572,0.054
54594.223275,16.598,0.057
54594.233619,16.573,0.059
54594.243937,16.622,0.063
54618.160152,16.614,0.059
54618.170357,16.518,0.057
54618.180567,16.507,0.054
54618.190798,16.539,0.054
54618.200995,16.57,0.055
