mjd,m,merr
52614.433117,16.392,0.079
52614.462423,16.272,0.096
52614.477051,16.286,0.087
52614.491469,16.152,0.046
52639.376868,16.21,0.039
52639.391641,16.187,0.037
52639.406368,16.244,0.041
52639.421295,16.242,0.041
52639.436349,16.293,0.039
52646.40046,16.18,0.046
52646.415489,16.158,0.046
52646.43119,16.198,0.045
52646.446304,16.169,0.046
52646.461248,16.235,0.049
52649.45705,16.068,0.035
52649.476599,16.041,0.033
52649.491511,15.989,0.033
52649.5057,16.003,0.035
52649.519818,16.055,0.037
52672.326648,16.126,0.043
52672.341368,16.212,0.046
52672.356022,16.205,0.043
52672.371084,16.18,0.043
52672.386269,16.218,0.058
52676.285858,16.26,0.044
52676.301167,16.213,0.041
52676.316702,16.229,0.041
52676.33239,16.268,0.044
52676.347936,16.216,0.044
52677.316293,16.038,0.033
52677.330736,15.966,0.072
52677.359609,15.993,0.07
52677.374196,16.071,0.074
52706.246976,16.365,0.048
52706.247334,16.186,0.048
52706.260246,16.349,0.046
52706.260604,16.248,0.048
52706.273826,16.367,0.048
52706.274184,16.206,0.048
52706.287997,16.384,0.048
52706.288356,16.266,0.051
52706.301109,16.368,0.048
52706.301468,16.267,0.053
52710.245747,16.225,0.051
52710.246107,16.106,0.059
52710.259404,16.2,0.051
52710.259762,16.113,0.056
52710.273069,16.13,0.048
52710.273459,16.102,0.059
52710.286252,16.151,0.048
52710.286612,16.015,0.054
52710.299596,16.098,0.046
52710.299956,16.039,0.058
52724.240461,16.282,0.039
52724.252073,16.255,0.037
52724.263718,16.276,0.037
52724.275316,16.306,0.039
52724.28693,16.272,0.039
52733.241434,16.15,0.043
52733.25357,16.208,0.045
52733.265642,16.194,0.045
52733.266194,15.99,0.056
52733.277735,16.219,0.045
52733.278205,16.034,0.064
52733.28986,16.196,0.053
52753.191483,16.096,0.037
52753.20356,16.149,0.041
52753.217526,16.144,0.041
52753.229573,16.153,0.041
52753.241596,16.199,0.044
52787.165585,16.3,0.046
52787.176179,16.321,0.048
52787.186774,16.326,0.052
52787.197482,16.385,0.052
52787.208149,16.406,0.054
52792.162639,15.919,0.064
52792.173422,15.835,0.081
52792.206088,16.021,0.079
52793.199824,15.919,0.064
52793.210181,15.835,0.081
52793.241373,16.021,0.079
52797.165548,16.075,0.111
52797.195336,16.062,0.124
52797.205378,16.041,0.133
52991.421858,16.085,0.046
52991.443146,16.085,0.031
52991.461377,16.066,0.035
52991.476969,16.107,0.03
52991.494338,16.101,0.031
53001.41702,16.304,0.028
53001.439385,16.311,0.028
53001.453786,16.347,0.028
53001.471225,16.361,0.028
53001.490078,16.345,0.028
53003.374336,16.307,0.028
53003.386343,16.328,0.028
53003.398572,16.323,0.033
53003.410623,16.37,0.054
53003.422667,16.302,0.08
53024.340826,15.996,0.054
53024.392149,16.003,0.02
53034.339728,16.275,0.043
53034.352105,16.289,0.041
53034.364735,16.314,0.043
53034.377393,16.283,0.041
53034.389655,16.289,0.041
53050.276042,16.069,0.028
53050.28764,16.065,0.026
53050.299291,16.11,0.026
53050.310999,16.118,0.028
53050.322595,16.108,0.063
53062.285905,16.368,0.096
53062.297335,16.37,0.057
53062.308954,16.312,0.13
53062.33213,16.366,0.146
53078.233675,16.206,0.037
53078.244453,16.21,0.043
53078.265802,16.268,0.044
53078.276427,16.264,0.037
53087.298359,16.197,0.026
53087.320862,16.241,0.028
53087.331983,16.21,0.028
53089.235591,16.165,0.028
53089.246566,16.179,0.028
53089.257537,16.188,0.028
53089.268481,16.198,0.03
53089.279339,16.221,0.028
53109.191856,16.092,0.033
53109.202558,16.107,0.033
53109.213246,16.13,0.035
53109.224032,16.082,0.033
53109.234745,16.175,0.037
53137.19768,16.262,0.05
53137.207268,16.283,0.052
53137.216789,16.207,0.05
53149.163374,16.117,0.037
53149.172564,16.042,0.037
53149.182972,16.035,0.037
53149.191961,16.023,0.039
53149.200889,16.055,0.039
53165.167772,16.381,0.109
53165.177754,16.379,0.072
53165.187738,16.346,0.063
53165.197716,16.282,0.083
53341.462669,15.992,0.091
53348.419031,16.335,0.054
53348.433312,16.419,0.061
53348.447551,16.388,0.059
53348.461753,16.376,0.059
53348.476067,16.35,0.089
53354.428789,16.042,0.035
53354.443075,15.957,0.033
53354.457487,15.999,0.031
53354.47234,15.987,0.031
53354.486761,16.034,0.033
53443.332167,16.186,0.037
53443.342858,16.2,0.035
53443.353511,16.276,0.05
53443.364171,16.292,0.074
53443.374825,16.282,0.065
53473.227792,16.299,0.046
53473.238077,16.253,0.046
53473.247894,16.331,0.048
53473.257974,16.297,0.048
53473.269094,16.323,0.05
53500.189546,16.103,0.039
53500.200097,16.148,0.041
53500.211618,16.12,0.041
53500.221538,16.115,0.043
53500.231549,16.161,0.043
53528.166616,16.257,0.067
53528.178407,16.297,0.074
53528.189986,16.31,0.08
53528.200755,16.337,0.083
53528.211383,16.327,0.087
53682.469275,16.357,0.068
53682.481844,16.423,0.072
53682.494439,16.321,0.063
53682.50703,16.318,0.061
53703.457067,16.125,0.035
53703.47018,16.104,0.035
53703.482826,16.137,0.035
53703.495499,16.112,0.035
53703.508428,16.105,0.035
53714.398257,16.037,0.039
53714.411209,16.079,0.037
53714.424072,16.065,0.035
53714.436851,16.108,0.035
53714.449595,16.102,0.035
53740.400683,16.177,0.037
53740.413838,16.215,0.037
53740.427601,16.22,0.037
53740.441407,16.195,0.035
53740.454907,16.219,0.037
53771.290645,15.995,0.052
53771.304593,16.008,0.035
53771.317219,15.988,0.044
53771.330145,16.0,0.041
53771.343275,15.947,0.059
53786.284251,16.088,0.03
53786.296147,16.116,0.033
53786.308137,16.124,0.037
53786.320049,16.108,0.035
53786.331941,16.152,0.037
53813.304398,16.18,0.057
53813.315406,16.16,0.059
53813.326408,16.142,0.059
53813.337423,16.14,0.061
53813.348432,16.027,0.055
53823.198457,16.129,0.036
53823.209407,16.075,0.035
53823.220229,16.135,0.035
53823.231049,16.146,0.036
53823.241873,16.169,0.036
53844.1875,16.272,0.05
53844.197751,16.307,0.052
53844.208035,16.292,0.054
53844.218305,16.443,0.063
53844.228751,16.336,0.057
53848.183468,16.442,0.065
53848.194074,16.383,0.061
53848.204745,16.452,0.065
53848.215414,16.363,0.061
53848.226055,16.332,0.063
53853.191975,16.318,0.061
53853.202526,16.313,0.068
53853.213025,16.252,0.058
53853.223626,16.338,0.068
53853.234102,16.361,0.073
53883.161415,16.343,0.071
53883.17177,16.45,0.083
53883.182174,16.424,0.081
53883.193056,16.285,0.073
53883.205021,16.307,0.073
53887.169433,16.056,0.093
53887.181299,15.912,0.087
53887.192534,16.07,0.102
53887.203881,16.078,0.104
53887.215224,16.15,0.113
54042.460909,16.125,0.083
54042.473383,16.056,0.058
54042.486081,16.094,0.053
54042.498323,16.045,0.051
54055.440032,16.052,0.049
54055.45285,16.025,0.048
54055.465399,16.084,0.048
54055.480843,15.952,0.04
54055.493854,15.99,0.04
54064.437707,16.332,0.056
54064.441694,16.354,0.043
54064.450837,16.296,0.054
54064.454564,16.251,0.041
54064.466744,16.268,0.053
54064.467423,16.227,0.039
54064.479807,16.138,0.046
54064.480282,16.154,0.035
54064.492628,16.197,0.046
54064.493159,16.153,0.033
54066.437171,16.052,0.063
54066.460606,16.043,0.045
54066.462043,15.961,0.052
54066.503694,16.002,0.043
54067.452124,16.263,0.041
54067.465006,16.327,0.048
54067.478887,16.275,0.048
54067.491879,16.298,0.045
54067.504698,16.366,0.045
54070.445286,16.119,0.033
54070.458182,16.081,0.031
54070.47121,16.055,0.03
54070.484087,16.154,0.033
54070.496978,16.129,0.035
54084.395513,16.384,0.078
54084.408655,16.333,0.076
54084.421521,16.376,0.081
54084.43457,16.355,0.071
54084.447702,16.315,0.091
54098.3668,16.156,0.043
54098.378865,16.174,0.037
54098.390822,16.185,0.037
54098.402766,16.153,0.033
54098.414801,16.169,0.033
54110.336822,16.362,0.127
54110.349377,16.403,0.086
54110.361966,16.296,0.079
54110.374614,16.314,0.076
54110.38759,16.394,0.084
54121.330472,16.329,0.035
54121.342652,16.307,0.035
54121.354839,16.349,0.035
54121.367035,16.369,0.037
54121.379291,16.349,0.037
54155.291857,16.108,0.053
54155.30381,16.088,0.048
54155.315962,16.136,0.048
54155.328626,16.131,0.046
54155.341302,16.209,0.048
54206.221618,16.189,0.045
54206.23095,16.136,0.041
54206.240278,16.133,0.041
54206.249648,16.078,0.04
54206.259332,16.072,0.04
54452.393334,16.064,0.026
54452.406476,16.073,0.026
54452.41982,16.107,0.026
54452.433106,16.12,0.026
54452.446246,16.141,0.026
54477.339115,16.235,0.033
54477.351925,16.223,0.031
54477.36472,16.267,0.033
54477.377524,16.263,0.033
54477.390522,16.267,0.033
54484.268994,16.103,0.061
54529.147067,16.397,0.054
54529.159728,16.364,0.054
54529.172657,16.364,0.053
54529.183932,16.325,0.051
54529.195275,16.29,0.049
54539.209301,16.165,0.031
54539.220195,16.116,0.03
54539.231035,16.154,0.03
54539.241892,16.159,0.031
54539.25291,16.172,0.03
54567.185478,16.292,0.035
54567.196553,16.286,0.035
54567.207625,16.32,0.037
54567.218961,16.272,0.035
54567.230316,16.303,0.037
54582.194499,16.287,0.044
54582.205057,16.358,0.048
54582.215631,16.327,0.048
54582.226089,16.339,0.048
54582.236636,16.398,0.052
54597.239398,16.061,0.093
54613.156989,16.303,0.046
54613.166923,16.283,0.044
54613.176831,16.313,0.046
54613.196627,16.273,0.046
54620.165338,16.218,0.041
54620.17677,16.2,0.041
54620.186899,16.243,0.044
54620.197017,16.239,0.046
54620.207138,16.255,0.044
