mjd,m,merr
52602.40507,16.529,0.112
52602.419524,16.375,0.097
52602.434692,16.388,0.099
52602.44899,16.477,0.104
52602.463302,16.644,0.111
52621.44137,16.217,0.044
52621.455938,16.261,0.046
52621.470523,16.28,0.046
52636.441564,16.195,0.049
52636.45727,16.264,0.051
52636.472105,16.362,0.056
52636.486786,16.748,0.079
52636.501752,17.06,0.101
52653.387299,16.177,0.054
52653.402226,16.34,0.056
52653.417369,16.706,0.074
52653.447416,16.396,0.053
52684.358754,16.181,0.068
52684.374104,16.186,0.068
52684.389271,16.158,0.064
52684.404102,16.196,0.066
52684.418997,16.197,0.064
52693.357479,16.285,0.044
52721.262132,16.249,0.035
52750.255172,16.359,0.057
52750.265876,16.227,0.063
52750.276739,16.163,0.13
52772.159818,16.116,0.072
52772.171883,16.153,0.078
52772.183618,16.123,0.076
52772.195699,16.088,0.072
52772.207501,16.082,0.07
52781.164696,16.261,0.044
52781.186354,16.234,0.043
52781.197213,16.192,0.041
52801.166971,16.155,0.141
52801.176959,16.077,0.128
52801.186924,16.105,0.133
52801.19701,16.41,0.189
52801.20696,16.797,0.255
52809.210546,16.354,0.083
52948.455121,16.536,0.074
52948.467071,16.617,0.078
52948.479053,16.41,0.065
52948.491344,16.278,0.057
52948.503241,16.208,0.052
52978.456555,16.263,0.051
52988.367056,16.241,0.063
52988.378284,16.21,0.059
52988.389487,16.166,0.056
52988.401162,16.209,0.058
52988.412877,16.129,0.058
53008.414743,16.4,0.064
53008.427959,16.443,0.066
53008.456677,16.143,0.046
53038.362721,16.283,0.087
53038.376977,16.292,0.068
53038.394813,16.424,0.1
53038.42694,16.303,0.081
53045.323138,16.299,0.063
53045.334249,16.269,0.061
53045.345471,16.205,0.059
53045.356683,16.21,0.057
53045.367793,16.241,0.059
53096.273041,16.192,0.074
53096.283604,16.168,0.076
53096.29391,16.142,0.076
53096.304186,16.172,0.089
53096.314501,16.217,0.091
53125.210424,16.175,0.128
53125.220276,16.158,0.113
53125.23011,16.155,0.109
53125.239972,16.115,0.093
53134.218879,16.212,0.055
53134.228575,16.271,0.074
53134.238011,16.278,0.057
53155.20805,16.16,0.094
53155.216655,16.132,0.091
53155.225319,16.193,0.087
53155.233909,16.149,0.083
53155.24252,16.148,0.081
53193.171305,16.198,0.111
53193.181266,16.255,0.12
53193.211287,16.188,0.057
53312.441198,16.231,0.081
53312.45349,16.316,0.083
53312.465783,16.43,0.094
53312.478001,16.34,0.083
53312.490384,16.221,0.072
53340.430392,16.212,0.085
53340.442653,16.214,0.081
53340.454942,16.308,0.089
53340.467759,16.281,0.081
53340.480479,16.48,0.094
53356.465809,16.29,0.05
53356.478808,16.248,0.048
53451.297752,16.227,0.061
53451.308723,16.232,0.061
53451.320234,16.21,0.061
53451.33132,16.205,0.061
53461.291678,16.481,0.055
53461.302291,16.495,0.055
53461.313066,16.393,0.052
53489.241944,16.201,0.055
53535.171959,16.264,0.067
53535.181879,16.563,0.087
53535.191821,16.836,0.109
53535.201745,16.763,0.104
53686.457239,16.22,0.043
53686.483214,16.386,0.048
53686.496133,16.757,0.068
53686.509097,16.9,0.08
53725.403931,16.156,0.08
53725.416961,16.334,0.098
53725.431869,16.273,0.089
53725.445546,16.344,0.093
53725.458572,16.385,0.098
53755.344153,16.154,0.055
53755.356844,16.247,0.057
53755.370046,16.201,0.055
53755.382997,16.194,0.054
53755.396177,16.233,0.055
53774.35073,16.254,0.057
53774.365308,16.225,0.054
53774.378614,16.213,0.054
53774.391866,16.216,0.052
53774.405321,16.175,0.048
53775.425165,16.005,0.078
53775.451156,16.132,0.081
53775.486246,16.248,0.092
53777.35141,16.298,0.089
53777.364383,16.211,0.08
53777.377572,16.212,0.078
53777.390563,16.241,0.081
53777.403798,16.178,0.076
53777.440041,16.279,0.084
53777.469722,16.242,0.086
53807.330177,16.445,0.132
53807.342103,16.404,0.102
53807.354243,16.356,0.099
53833.214803,16.676,0.117
53833.225147,16.956,0.137
53833.246395,16.392,0.069
53858.199036,16.48,0.167
53858.209387,16.325,0.099
53858.2199,16.427,0.124
53858.230196,16.377,0.13
53858.24057,16.417,0.101
53864.20697,16.59,0.16
53876.217074,16.417,0.328
53876.227668,16.239,0.16
53876.238281,16.406,0.139
53905.167422,16.609,0.073
53905.177476,16.81,0.094
53905.187448,16.693,0.081
53905.197364,16.35,0.061
54051.467482,16.272,0.065
54051.479691,16.27,0.063
54051.49188,16.206,0.059
54051.504499,16.225,0.089
54072.451832,16.317,0.102
54072.465553,16.325,0.099
54072.478542,16.124,0.081
54072.491376,16.181,0.079
54072.504636,16.191,0.071
54079.366782,16.188,0.08
54079.378786,16.202,0.078
54079.390877,16.229,0.078
54079.402888,16.687,0.12
54079.414913,16.888,0.142
54108.385116,16.255,0.063
54108.397744,16.214,0.061
54108.410609,16.28,0.068
54108.423432,16.223,0.065
54108.436063,16.27,0.068
54125.325296,16.282,0.051
54125.33695,16.213,0.048
54125.348578,16.204,0.048
54125.360184,16.3,0.051
54139.329298,16.207,0.066
54139.341005,16.23,0.056
54139.352446,16.345,0.084
54139.363887,16.74,0.132
54139.375671,17.013,0.216
54157.329036,16.463,0.071
54157.34006,16.639,0.083
54157.351071,17.234,0.142
54157.362091,17.199,0.135
54157.373198,16.818,0.096
54436.449911,16.208,0.051
54436.465574,16.268,0.054
54436.478806,16.331,0.054
54436.491474,16.306,0.054
54436.504173,16.341,0.058
54465.403012,16.22,0.061
54465.415412,16.231,0.063
54465.427813,16.264,0.063
54483.423569,16.141,0.054
54483.435642,16.26,0.058
54496.419833,16.219,0.051
54496.434499,16.267,0.049
54524.319168,16.262,0.063
54539.265125,16.245,0.079
54539.275631,16.246,0.079
54539.286129,16.283,0.084
54539.297079,16.278,0.087
54539.307451,16.267,0.078
54555.186425,16.319,0.064
54555.19814,16.593,0.081
54555.210382,16.748,0.094
54555.222126,16.726,0.091
54555.233826,16.223,0.059
54571.241713,16.391,0.087
54571.252554,16.586,0.106
54571.263258,16.594,0.111
54571.274021,16.566,0.104
54571.28487,16.343,0.089
54587.202294,18.162,0.51
54587.212467,17.788,0.38
54587.22263,17.659,0.305
54587.232546,17.742,0.33
54587.242829,17.235,0.206
54620.167848,16.292,0.101
54620.178837,16.303,0.109
54620.199496,16.311,0.117
54620.209911,16.24,0.097
