mjd,m,merr
52612.45339,15.833,0.031
52612.468554,15.828,0.031
52612.483711,15.874,0.031
52612.499028,15.881,0.031
52612.514182,15.932,0.031
52652.400189,15.809,0.036
52652.414445,15.762,0.02
52652.415347,15.718,0.035
52652.460923,15.716,0.036
52664.285646,15.95,0.035
52664.302975,15.962,0.035
52664.320046,15.971,0.036
52664.336893,15.894,0.036
52664.35323,15.859,0.038
52681.293617,15.985,0.079
52681.308578,16.064,0.059
52681.323513,16.128,0.056
52681.338254,16.088,0.051
52696.333624,16.015,0.03
52696.346303,16.024,0.03
52696.358728,16.049,0.031
52696.3712,16.051,0.076
52698.300527,15.776,0.022
52698.313669,15.749,0.022
52698.328644,15.762,0.024
52698.342842,15.795,0.024
52698.357346,15.787,0.026
52711.244132,16.334,0.055
52711.257729,16.26,0.052
52711.271488,16.302,0.055
52711.284858,16.277,0.054
52711.298392,16.275,0.054
52723.231971,15.969,0.057
52723.243458,15.974,0.035
52723.254839,15.98,0.031
52723.266349,15.972,0.031
52739.190314,15.884,0.037
52739.201801,15.888,0.037
52739.213343,15.895,0.037
52739.224843,15.898,0.037
52739.236416,15.938,0.039
52752.186949,15.811,0.03
52752.197083,15.78,0.03
52752.207268,15.724,0.03
52752.217411,15.715,0.03
52752.227538,15.73,0.03
52787.162329,15.724,0.041
52787.173221,15.765,0.04
52787.18464,15.705,0.041
52787.195451,15.633,0.043
52787.206431,15.817,0.033
52787.206644,15.719,0.041
52946.442487,16.233,0.065
52946.454443,16.24,0.111
52966.401096,15.787,0.033
52966.409837,15.777,0.031
52966.418124,15.814,0.031
52966.42659,15.804,0.031
52966.435519,15.828,0.031
52977.447792,16.008,0.035
52977.460202,15.998,0.035
52977.472337,15.965,0.033
52977.484769,15.992,0.033
52977.497171,16.02,0.035
52990.40143,15.799,0.03
52990.414037,15.802,0.028
52990.427044,15.841,0.03
52990.439505,15.886,0.033
52990.45197,15.875,0.038
53006.33036,16.066,0.049
53006.342956,16.045,0.051
53006.35551,15.888,0.04
53006.368076,15.862,0.036
53006.380691,15.822,0.036
53023.334009,15.951,0.023
53023.346754,15.952,0.023
53023.358814,15.997,0.025
53023.370774,15.99,0.026
53023.384128,16.02,0.026
53035.347865,16.265,0.043
53035.360824,16.288,0.044
53035.374107,16.307,0.043
53035.387294,16.26,0.041
53035.399805,16.227,0.037
53037.344255,16.115,0.04
53037.357002,16.168,0.041
53037.369542,16.116,0.04
53037.382171,16.108,0.04
53037.39805,16.136,0.04
53049.279538,15.963,0.024
53049.291845,15.919,0.022
53049.303646,15.925,0.022
53049.31549,15.859,0.022
53049.327289,15.812,0.022
53077.291113,16.0,0.122
53077.301854,16.068,0.076
53092.230551,16.255,0.04
53092.240415,16.146,0.035
53092.250342,16.012,0.031
53092.260267,15.961,0.03
53092.270125,15.947,0.028
53107.23197,16.109,0.036
53107.242314,16.146,0.036
53107.252709,16.141,0.036
53107.26318,16.159,0.04
53107.273677,16.17,0.04
53121.192591,16.257,0.04
53121.20348,16.208,0.04
53121.213678,16.244,0.041
53121.224072,16.249,0.043
53121.234496,16.253,0.043
53136.193479,15.945,0.041
53136.203847,15.962,0.041
53136.212646,15.982,0.043
53136.221352,15.976,0.043
53136.230162,16.006,0.048
53150.164924,16.166,0.046
53150.174021,16.085,0.054
53164.168235,16.177,0.083
53164.177686,16.171,0.053
53164.187244,16.101,0.051
53164.196879,16.262,0.068
53164.206487,16.198,0.061
53313.435219,16.256,0.105
53313.459073,16.172,0.091
53313.470996,16.157,0.087
53313.482922,16.239,0.091
53329.464336,16.178,0.054
53329.47682,16.16,0.053
53329.489639,16.126,0.051
53329.502396,16.159,0.049
53329.514994,16.093,0.048
53331.449653,16.016,0.048
53331.462035,16.057,0.048
53331.486784,16.033,0.046
53331.499159,16.043,0.048
53341.437555,15.748,0.067
53341.449574,15.759,0.067
53349.463123,15.78,0.04
53349.476943,15.769,0.04
53349.49059,15.775,0.04
53349.504275,15.836,0.041
53349.518323,15.848,0.043
53355.477335,15.948,0.033
53355.490503,15.973,0.035
53355.503629,15.973,0.035
53355.518912,15.99,0.036
53360.420416,15.748,0.043
53360.43558,15.841,0.038
53360.45074,15.752,0.084
53385.484237,16.109,0.037
53385.497455,16.065,0.037
53385.510468,16.128,0.039
53385.523483,16.166,0.041
53385.536679,16.073,0.039
53415.419121,16.148,0.043
53415.432753,16.206,0.137
53415.458044,16.189,0.059
53437.354256,16.283,0.041
53437.365881,16.225,0.039
53437.3772,16.251,0.039
53437.388492,16.239,0.041
53437.401656,16.279,0.043
53474.241673,16.085,0.043
53474.252748,16.084,0.041
53474.264408,16.091,0.041
53474.274847,16.087,0.043
53474.285007,16.103,0.043
53521.158414,16.215,0.059
53521.168615,16.229,0.065
53521.179034,16.242,0.063
53521.18926,16.237,0.074
53521.199479,16.167,0.078
53683.452631,16.105,0.07
53683.46487,16.1,0.065
53683.477104,16.039,0.054
53683.489517,16.166,0.063
53683.50181,16.184,0.067
53701.44983,15.915,0.054
53701.475068,15.935,0.044
53701.487623,16.081,0.05
53701.500116,16.012,0.046
53728.399394,16.028,0.039
53728.412747,16.031,0.037
53728.426338,16.082,0.057
53728.439422,16.067,0.05
53728.452537,16.072,0.039
53742.410167,16.162,0.033
53742.422833,16.116,0.031
53742.435716,16.154,0.031
53742.448723,16.171,0.031
53742.461566,16.164,0.03
53772.290124,16.131,0.044
53772.302871,16.179,0.044
53772.315565,16.175,0.044
53772.328248,16.188,0.046
53772.341035,16.222,0.048
53786.301627,16.167,0.035
53786.314637,16.14,0.038
53786.327666,16.036,0.031
53786.340719,15.95,0.031
53786.353766,15.895,0.036
53812.305749,16.172,0.057
53812.316796,16.124,0.055
53824.265735,15.8,0.026
53824.277412,15.792,0.028
53824.28893,15.77,0.028
53824.300343,15.787,0.035
53824.311887,15.781,0.036
53843.247364,15.776,0.037
53843.258607,15.815,0.039
53843.269797,15.84,0.044
53843.280993,15.791,0.046
53843.292529,15.808,0.052
53853.128109,16.16,0.059
53853.140739,16.219,0.064
53853.153546,16.15,0.066
53853.164607,16.221,0.064
53853.175445,16.167,0.102
53855.191867,16.097,0.048
53855.202623,16.184,0.051
53855.213146,16.07,0.048
53855.223749,16.127,0.051
53855.234333,16.139,0.051
53878.162563,15.752,0.049
53878.178279,15.764,0.051
53878.198619,15.739,0.051
53878.214467,15.821,0.054
53878.229768,15.735,0.053
54054.4572,15.715,0.038
54054.469982,15.748,0.038
54054.482658,15.8,0.036
54054.495719,15.816,0.036
54054.509154,15.814,0.036
54068.453854,15.897,0.038
54068.46753,15.918,0.038
54068.481459,15.919,0.043
54086.364932,16.197,0.068
54086.378577,16.202,0.064
54086.391986,16.125,0.058
54086.405875,15.941,0.046
54086.419351,15.886,0.041
54109.346603,16.112,0.112
54109.358367,16.038,0.097
54169.270265,16.202,0.031
54169.281177,16.208,0.033
54169.292178,16.201,0.037
54169.303084,16.237,0.039
54169.314025,16.256,0.043
54186.228206,15.837,0.051
54186.238344,15.772,0.046
54186.24848,15.797,0.048
54186.258617,15.8,0.048
54186.268995,15.786,0.048
54201.232456,16.118,0.035
54201.241942,16.171,0.037
54201.251615,16.121,0.035
54201.261088,16.16,0.035
54201.271036,16.166,0.037
54209.213616,16.101,0.073
54209.222376,16.145,0.081
54209.231923,16.318,0.139
54209.241419,16.194,0.129
54209.250596,16.268,0.12
54508.301304,15.944,0.035
54508.313197,15.985,0.041
54508.3253,15.962,0.036
54508.337185,15.97,0.035
54508.349068,16.044,0.038
54561.180819,16.222,0.092
54561.192321,16.126,0.106
54561.203704,16.202,0.079
54561.215057,16.223,0.069
54561.226512,16.287,0.071
54583.193728,15.735,0.046
54583.204222,15.734,0.048
54589.196617,15.939,0.031
54589.206994,15.966,0.031
54589.217341,16.004,0.031
54589.227684,15.989,0.03
54589.238051,15.987,0.03
54614.16482,16.067,0.056
54614.175026,16.168,0.061
54614.185238,16.114,0.059
54614.195941,16.119,0.059
54614.207568,16.088,0.061
54621.160264,15.865,0.03
54621.170383,15.918,0.031
54621.180572,15.922,0.031
54621.190717,15.915,0.031
54621.201071,15.947,0.033
