mjd,m,merr
52602.399696,14.972,0.028
52602.428929,14.987,0.03
52621.378875,14.974,0.016
52621.393764,14.882,0.016
52621.409259,14.842,0.015
52621.424223,14.843,0.015
52621.439447,14.827,0.016
52636.390503,15.167,0.021
52636.404923,15.042,0.02
52636.419583,15.015,0.018
52636.434114,14.971,0.016
52653.381888,14.873,0.016
52653.411857,14.845,0.015
52653.427035,14.851,0.015
52660.373617,15.141,0.036
52684.368883,14.84,0.023
52684.384048,14.918,0.025
52684.398876,14.88,0.025
52684.413777,14.9,0.025
52693.337422,14.905,0.013
52693.353155,14.889,0.013
52693.368368,14.912,0.015
52693.383506,14.942,0.015
52693.398796,14.978,0.015
52721.257645,15.268,0.017
52721.270429,15.224,0.015
52721.283199,15.209,0.017
52721.296003,15.192,0.017
52750.18644,14.942,0.013
52750.19724,14.93,0.013
52750.208003,14.903,0.013
52750.218757,14.919,0.013
52750.229625,14.935,0.015
52772.155714,14.901,0.024
52772.167783,14.892,0.024
52772.179541,14.928,0.026
52772.191514,14.957,0.026
52772.203484,14.987,0.028
52781.174223,14.854,0.018
52781.207152,14.906,0.02
52801.203915,15.007,0.063
52948.451269,14.941,0.017
52948.463339,14.951,0.017
52948.475212,14.943,0.017
52948.487362,14.997,0.017
52948.499506,15.035,0.017
52978.368427,15.004,0.023
52978.383382,15.092,0.025
52978.396602,15.094,0.023
52978.411961,15.154,0.023
52978.427288,15.179,0.023
52988.362498,14.934,0.016
52988.374286,14.942,0.016
52988.385495,14.965,0.016
52988.396726,14.972,0.016
52988.408869,14.988,0.018
53008.381467,15.216,0.023
53008.396248,15.16,0.021
53008.410261,15.084,0.018
53038.358764,14.922,0.02
53038.372959,14.968,0.026
53038.388046,14.904,0.022
53038.403272,14.96,0.03
53045.271937,15.028,0.018
53045.283644,15.07,0.018
53045.295372,15.12,0.022
53045.307736,15.123,0.02
53045.319481,15.14,0.022
53096.237606,14.95,0.033
53096.257517,14.964,0.028
53096.26744,14.956,0.03
53108.246767,15.02,0.015
53108.257894,15.069,0.015
53108.269029,15.065,0.015
53108.280056,15.124,0.017
53108.291209,15.17,0.017
53125.207252,15.185,0.059
53125.217103,15.199,0.052
53125.226935,15.219,0.05
53125.236798,15.227,0.048
53134.196518,15.124,0.018
53134.206059,15.179,0.02
53134.215497,15.189,0.022
53134.225254,15.212,0.026
53134.234921,15.17,0.028
53155.169785,15.238,0.044
53155.178578,15.168,0.043
53155.187377,15.099,0.041
53155.196229,15.138,0.041
53155.205103,15.043,0.037
53330.444518,15.043,0.02
53330.457041,14.996,0.018
53330.469548,14.962,0.024
53330.482054,14.943,0.022
53339.383973,15.045,0.04
53339.396303,15.017,0.038
53339.408661,14.95,0.035
53339.421261,14.91,0.033
53339.433583,14.871,0.031
53356.448353,14.922,0.017
53356.461381,14.968,0.017
53356.474377,14.965,0.017
53356.487698,15.001,0.017
53356.500829,15.047,0.017
53358.396789,15.197,0.018
53358.41161,15.175,0.02
53358.426273,15.168,0.018
53358.440885,15.153,0.018
53358.455411,15.148,0.018
53362.462322,14.954,0.02
53362.477486,14.971,0.017
53362.493234,14.954,0.017
53390.339762,15.116,0.02
53390.352505,15.132,0.02
53390.365256,15.212,0.022
53390.378075,15.201,0.02
53390.391595,15.214,0.02
53429.2748,15.247,0.02
53429.286036,15.226,0.02
53429.297271,15.255,0.02
53429.308605,15.222,0.02
53429.320308,15.143,0.02
53432.330578,15.573,0.057
53433.283235,15.085,0.013
53433.312042,14.947,0.011
53433.327095,14.946,0.011
53438.282531,15.25,0.018
53438.294769,15.23,0.015
53438.307783,15.212,0.015
53438.319959,15.183,0.015
53438.332083,15.103,0.015
53450.170347,15.096,0.039
53461.232383,15.171,0.018
53461.242744,15.208,0.018
53461.253632,15.188,0.018
53461.264078,15.221,0.018
53461.274491,15.228,0.018
53489.195911,14.876,0.022
53489.208153,14.958,0.02
53489.218336,14.949,0.028
53489.22853,15.045,0.026
53489.23866,15.019,0.031
53535.168787,15.018,0.024
53535.1787,15.009,0.026
53535.188645,14.987,0.024
53535.198569,14.96,0.024
53535.2085,14.953,0.024
53687.46702,15.024,0.015
53725.399702,15.19,0.028
53725.412718,15.136,0.031
53725.427605,15.045,0.028
53755.340028,14.934,0.018
53755.352628,14.885,0.017
53755.378873,14.893,0.017
53755.392015,14.891,0.017
53775.35109,15.189,0.031
53775.363845,15.262,0.039
53775.376583,15.221,0.026
53775.402091,15.244,0.055
53775.404967,15.128,0.043
53775.432845,15.073,0.041
53775.446736,14.961,0.033
53807.349488,15.138,0.033
53833.242475,15.149,0.025
53858.206166,14.993,0.023
53858.237223,14.92,0.02
53864.213444,15.239,0.046
53864.234424,15.184,0.045
53905.164684,15.095,0.021
53905.17467,15.137,0.021
53905.184682,15.195,0.025
53905.194614,15.205,0.025
53905.204692,15.13,0.025
53906.164803,14.947,0.03
53906.17494,14.977,0.026
53906.185064,14.972,0.03
53906.195187,15.076,0.037
53906.205336,15.09,0.037
54050.481147,14.87,0.02
54079.362537,15.306,0.033
54079.374546,15.301,0.031
54079.38663,15.27,0.031
54079.398643,15.274,0.035
54108.330103,14.86,0.017
54108.342808,14.896,0.017
54108.355518,14.905,0.018
54108.368221,14.931,0.018
54108.380937,14.923,0.018
54126.323894,14.871,0.023
54126.335936,14.881,0.016
54139.288612,14.883,0.015
54139.300358,14.936,0.018
54139.312041,14.937,0.015
54139.323723,14.928,0.018
54167.287167,14.94,0.02
54167.309365,14.944,0.018
54436.486858,14.928,0.018
54465.386028,15.139,0.025
54465.398439,15.112,0.025
54465.41084,15.17,0.025
54465.423238,15.194,0.026
54484.330576,14.952,0.025
54484.34287,15.034,0.025
54484.355208,15.03,0.025
54484.367943,15.113,0.026
54484.380149,15.098,0.026
54496.403651,15.051,0.023
54496.415477,14.95,0.021
54496.42786,14.943,0.02
54496.442858,14.914,0.021
54496.457316,14.918,0.021
54524.279337,14.962,0.021
54524.290806,15.067,0.026
54524.303234,15.122,0.026
54524.31476,15.148,0.026
54524.326268,15.151,0.023
54540.315789,14.984,0.018
