mjd,m,merr
52619.458136,15.301,0.025
52619.473106,15.317,0.025
52619.488513,15.35,0.025
52619.503509,15.392,0.026
52619.51849,15.409,0.025
52641.45406,15.217,0.017
52641.4694,15.212,0.017
52641.484428,15.21,0.018
52641.499573,15.292,0.018
52641.515057,15.301,0.018
52646.452762,15.334,0.022
52646.468066,15.378,0.024
52646.483111,15.425,0.022
52646.498144,15.478,0.024
52646.512963,15.511,0.024
52647.451845,15.401,0.025
52647.466528,15.483,0.026
52647.481067,15.521,0.028
52647.495843,15.514,0.028
52647.510505,15.609,0.033
52667.394539,15.246,0.018
52667.40982,15.204,0.018
52667.425243,15.154,0.017
52667.440557,15.234,0.018
52667.45591,15.282,0.02
52671.389308,15.305,0.018
52671.404645,15.323,0.018
52671.419945,15.337,0.02
52671.435126,15.337,0.02
52671.450464,15.441,0.022
52672.388898,15.331,0.022
52672.403742,15.311,0.018
52672.417739,15.382,0.022
52672.432133,15.422,0.024
52672.446012,15.47,0.028
52673.314772,15.272,0.02
52704.347428,15.505,0.028
52704.347544,15.525,0.026
52704.360623,15.535,0.03
52704.360737,15.574,0.028
52704.37351,15.522,0.028
52704.373625,15.54,0.026
52704.386505,15.538,0.03
52704.38662,15.559,0.028
52704.399422,15.538,0.03
52704.399537,15.537,0.028
52705.303849,15.449,0.02
52705.317744,15.458,0.02
52705.33997,15.524,0.022
52705.353004,15.517,0.022
52705.367394,15.558,0.024
52707.249682,15.39,0.025
52707.249797,15.363,0.021
52707.262873,15.409,0.023
52707.27596,15.439,0.023
52707.276075,15.479,0.023
52707.289386,15.497,0.025
52707.302453,15.497,0.025
52729.235136,15.316,0.018
52729.246679,15.347,0.018
52729.25815,15.388,0.018
52729.270315,15.417,0.02
52729.281797,15.461,0.02
52734.256484,15.499,0.022
52734.268843,15.535,0.03
52734.280993,15.734,0.157
52734.29325,15.46,0.107
52734.305406,15.535,0.168
52737.244438,15.594,0.028
52737.257406,15.574,0.028
52737.269094,15.545,0.026
52737.280908,15.55,0.026
52737.292759,15.477,0.024
52756.197194,15.385,0.026
52756.197303,15.369,0.025
52756.209694,15.43,0.026
52756.209803,15.411,0.025
52756.221801,15.465,0.028
52756.233981,15.516,0.031
52756.246225,15.528,0.031
52756.246334,15.531,0.031
52758.203306,15.462,0.025
52758.203648,15.501,0.025
52758.215224,15.522,0.026
52758.215567,15.504,0.025
52758.227512,15.533,0.026
52758.239545,15.563,0.026
52758.251266,15.588,0.03
52758.251612,15.564,0.028
52788.169409,15.504,0.049
52788.180044,15.61,0.066
52788.190803,15.511,0.059
52790.161556,15.608,0.053
52790.172641,15.668,0.066
52790.183226,15.564,0.046
52790.19386,15.465,0.046
52790.20458,15.476,0.046
52972.448808,15.467,0.02
52972.461619,15.506,0.02
52972.474546,15.449,0.02
52972.487321,15.507,0.018
52972.500191,15.482,0.018
52994.463167,15.47,0.018
52994.475696,15.514,0.016
52994.488238,15.511,0.015
52994.500809,15.551,0.015
52994.513388,15.541,0.015
52996.392669,15.399,0.016
52996.405494,15.424,0.018
52996.418502,15.464,0.016
52996.431267,15.461,0.016
52996.444049,15.5,0.016
53025.346448,15.51,0.016
53025.369939,15.528,0.023
53028.377964,15.521,0.013
53028.390831,15.469,0.013
53028.403245,15.419,0.012
53028.415455,15.355,0.012
53028.427692,15.331,0.012
53033.334457,15.348,0.02
53033.346755,15.294,0.018
53033.358892,15.291,0.018
53033.371363,15.293,0.024
53033.383623,15.331,0.035
53054.306969,15.512,0.018
53054.321973,15.497,0.018
53054.336607,15.484,0.017
53054.34974,15.391,0.017
53054.362315,15.313,0.017
53055.363789,15.265,0.035
53080.28008,15.534,0.02
53080.291603,15.497,0.02
53080.303615,15.457,0.02
53080.31496,15.379,0.018
53080.326243,15.335,0.018
53082.296431,15.309,0.013
53082.30806,15.301,0.013
53082.319783,15.253,0.013
53082.331767,15.227,0.013
53082.343233,15.208,0.013
53084.295995,15.268,0.012
53084.307406,15.237,0.012
53084.31898,15.24,0.012
53084.330212,15.199,0.012
53084.342276,15.198,0.012
53085.269197,15.3,0.013
53085.281911,15.259,0.012
53085.315707,15.246,0.013
53091.281569,15.246,0.013
53091.291634,15.276,0.013
53091.301793,15.296,0.013
53091.312275,15.353,0.015
53091.322417,15.374,0.015
53111.188736,15.37,0.024
53111.199514,15.341,0.024
53111.21026,15.309,0.022
53111.221002,15.274,0.022
53111.231827,15.243,0.022
53115.251968,15.204,0.015
53115.262934,15.148,0.015
53115.273581,15.23,0.016
53115.284471,15.272,0.016
53115.295769,15.336,0.016
53139.158206,15.309,0.022
53139.167884,15.306,0.022
53139.177482,15.255,0.02
53139.187006,15.243,0.02
53139.196518,15.224,0.022
53141.216008,15.256,0.018
53141.226056,15.256,0.018
53141.235659,15.261,0.02
53141.245918,15.324,0.021
53141.255287,15.266,0.021
53327.443303,15.248,0.035
53346.450361,15.354,0.028
53346.463696,15.31,0.026
53346.477372,15.255,0.026
53346.490023,15.256,0.024
53346.502164,15.248,0.024
53347.490554,15.237,0.021
53347.504474,15.224,0.02
53347.518354,15.244,0.021
53353.480557,15.358,0.025
53353.495057,15.427,0.025
53353.509281,15.431,0.025
53353.523508,15.454,0.028
53383.409595,15.416,0.024
53383.422925,15.446,0.026
53383.436244,15.446,0.022
53383.449544,15.471,0.024
53383.463107,15.496,0.024
53403.362789,15.269,0.02
53403.375848,15.279,0.02
53403.389462,15.245,0.02
53403.403578,15.305,0.021
53403.417124,15.361,0.023
53436.255179,15.276,0.017
53436.278548,15.327,0.018
53436.290196,15.375,0.018
53436.302564,15.416,0.02
53437.288615,15.421,0.018
53437.300237,15.445,0.02
53437.323873,15.476,0.02
53437.335591,15.516,0.022
53440.41919,15.33,0.024
53440.430277,15.309,0.026
53440.440765,15.3,0.028
53440.451249,15.259,0.028
53440.462906,15.276,0.033
53478.209668,15.26,0.055
53496.194745,15.531,0.033
53496.205025,15.547,0.031
53496.215257,15.503,0.033
53496.225542,15.447,0.033
53496.235806,15.506,0.035
53707.458843,15.561,0.044
53707.471598,15.707,0.142
53707.484244,15.563,0.065
53707.4968,15.503,0.03
53707.50987,15.452,0.028
53710.451318,15.491,0.03
53710.46473,15.392,0.028
53710.477261,15.392,0.026
53710.489905,15.314,0.026
53710.502556,15.264,0.024
53734.469738,15.327,0.02
53734.482851,15.319,0.02
53734.496185,15.26,0.02
53734.509419,15.263,0.018
53734.522407,15.237,0.018
53746.400322,15.25,0.028
53746.412785,15.259,0.028
53746.42534,15.287,0.03
53746.438028,15.377,0.031
53746.450493,15.387,0.031
53758.400499,15.501,0.026
53758.413069,15.504,0.026
53758.425608,15.432,0.024
53758.438347,15.356,0.022
53758.451363,15.313,0.022
53787.463404,15.257,0.024
53787.475422,15.284,0.048
53787.499648,15.358,0.031
53789.358482,15.366,0.059
53789.370356,15.259,0.039
53789.382231,15.245,0.018
53789.394094,15.257,0.018
53791.300621,15.372,0.018
53791.312783,15.321,0.018
53791.325186,15.305,0.018
53791.337141,15.272,0.016
53791.349015,15.246,0.016
53792.344506,15.238,0.018
53792.356273,15.265,0.026
53792.368052,15.255,0.024
53792.379834,15.25,0.024
53792.391604,15.27,0.02
53802.335538,15.412,0.039
53802.347088,15.469,0.03
53802.358538,15.517,0.03
53802.370219,15.55,0.033
53802.381695,15.543,0.03
53815.284157,15.351,0.03
53815.295307,15.362,0.041
53815.30648,15.284,0.024
53815.317665,15.277,0.026
53815.328857,15.249,0.026
53817.2152,15.517,0.021
53817.226639,15.527,0.021
53817.238143,15.461,0.021
53817.24956,15.396,0.02
53817.261285,15.365,0.018
53821.299154,15.253,0.02
53821.31404,15.275,0.05
53821.327656,15.208,0.059
53821.340895,15.348,0.033
53821.356239,15.406,0.03
53824.297653,15.36,0.031
53824.311862,15.378,0.035
53824.327575,15.436,0.026
53824.342785,15.486,0.041
53828.291706,15.518,0.037
53828.305364,15.529,0.031
53828.321314,15.586,0.026
53828.336781,15.561,0.033
53828.349655,15.551,0.039
53831.230184,15.395,0.03
53831.240744,15.441,0.031
53831.250974,15.47,0.031
53831.261079,15.463,0.031
53831.271081,15.483,0.031
53846.189052,15.303,0.021
53846.199764,15.306,0.021
53846.210575,15.252,0.021
53846.221289,15.271,0.021
53846.231954,15.261,0.021
53846.24438,15.217,0.028
53846.25518,15.291,0.03
53846.265986,15.257,0.03
53846.276793,15.261,0.03
53846.287605,15.317,0.031
53850.193455,15.207,0.023
53850.203843,15.246,0.023
53850.214336,15.214,0.023
53850.224842,15.24,0.025
53850.235423,15.299,0.026
53851.241814,15.379,0.028
53851.253291,15.391,0.028
53851.263891,15.441,0.03
53851.274384,15.456,0.033
53851.284588,15.502,0.035
53854.258331,15.51,0.033
53857.27451,15.554,0.037
53857.300368,15.566,0.044
53857.312372,15.524,0.044
53879.159732,15.298,0.018
53879.170551,15.321,0.02
53879.181282,15.342,0.02
53879.192021,15.389,0.021
53879.203638,15.432,0.023
53884.159522,15.491,0.033
53884.171257,15.554,0.037
53884.18301,15.543,0.037
53884.194804,15.599,0.041
53884.206575,15.574,0.041
53885.15554,15.535,0.028
53885.166344,15.536,0.028
53885.177435,15.559,0.03
53885.188251,15.54,0.03
53885.199539,15.529,0.031
54060.445327,15.291,0.028
54060.459553,15.257,0.026
54060.472386,15.236,0.026
54060.487182,15.265,0.026
54060.499968,15.269,0.026
54064.451063,15.301,0.02
54064.463921,15.335,0.02
54064.476778,15.369,0.022
54064.489658,15.419,0.022
54064.502528,15.452,0.022
54082.454133,15.211,0.024
54082.466917,15.221,0.022
54082.479707,15.24,0.022
54082.492499,15.212,0.02
54082.505303,15.254,0.022
54085.467509,15.292,0.018
54085.480468,15.303,0.017
54085.493433,15.326,0.017
54085.506396,15.357,0.018
54085.51936,15.387,0.018
54091.354961,15.258,0.03
54091.368143,15.281,0.03
54091.380776,15.306,0.028
54091.392681,15.318,0.028
54091.404796,15.324,0.028
54153.328444,15.52,0.02
54153.34005,15.482,0.02
54153.351615,15.41,0.022
54153.363174,15.365,0.02
54153.374747,15.323,0.022
54155.298762,15.53,0.024
54155.3104,15.463,0.022
54155.322112,15.428,0.02
54155.334101,15.349,0.018
54155.346296,15.325,0.017
54156.271523,15.522,0.022
54156.283057,15.493,0.022
54156.294591,15.473,0.02
54156.30614,15.426,0.02
54156.317692,15.352,0.018
54174.268159,15.54,0.023
54174.273401,15.549,0.022
54174.279155,15.547,0.026
54174.284106,15.546,0.022
54174.290188,15.56,0.036
54174.294804,15.552,0.022
54174.301102,15.582,0.041
54174.305507,15.571,0.024
54174.312166,15.578,0.028
54174.316223,15.573,0.022
54177.324447,15.478,0.068
54180.234011,15.6,0.028
54180.244632,15.548,0.026
54180.255136,15.546,0.025
54180.265552,15.505,0.023
54180.275887,15.502,0.021
54180.333153,15.279,0.017
54180.343884,15.241,0.017
54180.354429,15.254,0.017
54180.364969,15.246,0.017
54180.375742,15.198,0.017
54200.217345,15.523,0.03
54200.226817,15.529,0.03
54200.236375,15.576,0.069
54200.255809,15.568,0.033
54205.265515,15.385,0.02
54205.274901,15.35,0.018
54205.284297,15.342,0.018
54205.293718,15.331,0.02
54205.303117,15.304,0.02
54208.260223,15.277,0.018
54208.2694,15.25,0.018
54208.27857,15.25,0.018
54208.287716,15.232,0.018
54208.296879,15.259,0.02
54212.231609,15.248,0.02
54212.240613,15.249,0.02
54212.249647,15.231,0.02
54212.258798,15.25,0.02
54212.267968,15.261,0.02
54481.336094,15.201,0.017
54481.349131,15.146,0.015
54481.362218,15.217,0.015
54481.375114,15.168,0.015
54481.388017,15.284,0.015
54498.341117,15.286,0.015
54498.353665,15.293,0.013
54498.366292,15.225,0.013
54498.378836,15.188,0.013
54498.391608,15.192,0.013
54506.334187,15.226,0.013
54506.346288,15.267,0.013
54506.358384,15.263,0.013
54506.370483,15.3,0.015
54506.382594,15.313,0.015
54507.44956,15.547,0.028
54507.461481,15.576,0.033
54507.473435,15.552,0.031
54507.485293,15.571,0.03
54522.392278,15.173,0.018
54522.403959,15.141,0.018
54522.415621,15.182,0.018
54522.42726,15.151,0.018
54522.43892,15.155,0.02
54527.329395,15.211,0.011
54527.340788,15.222,0.013
54527.352164,15.238,0.013
54527.363699,15.23,0.013
54527.375079,15.232,0.013
54535.280395,15.3,0.011
54535.291483,15.36,0.013
54535.302582,15.373,0.013
54535.313665,15.411,0.013
54535.324719,15.432,0.013
54535.390005,15.533,0.026
54535.401134,15.564,0.026
54535.412135,15.564,0.028
54535.423137,15.526,0.028
54535.434291,15.482,0.03
54553.302797,15.246,0.024
54553.314703,15.229,0.017
54553.326579,15.268,0.017
54553.338654,15.29,0.017
54553.350583,15.307,0.018
54561.247057,15.339,0.013
54561.258506,15.357,0.015
54561.269975,15.397,0.015
54561.281449,15.432,0.017
54561.293012,15.45,0.024
54580.19388,15.259,0.017
54580.204506,15.232,0.017
54580.215121,15.25,0.018
54580.225727,15.242,0.018
54580.236404,15.265,0.02
54584.24779,15.354,0.018
54584.258453,15.394,0.02
54584.269029,15.42,0.02
54584.279601,15.465,0.02
54584.290225,15.479,0.024
54591.200182,15.464,0.022
54591.210454,15.492,0.022
54591.22073,15.534,0.024
54591.231015,15.523,0.024
54591.241302,15.559,0.028
54611.159903,15.267,0.017
54611.170287,15.318,0.017
54611.1802,15.333,0.018
54611.190095,15.366,0.018
54611.199976,15.45,0.02
54614.162899,15.396,0.02
54614.172867,15.412,0.02
54614.182836,15.441,0.02
54614.192816,15.443,0.022
54614.20279,15.495,0.024
