mjd,m,merr
52614.434868,15.295,0.03
52614.463909,15.3,0.038
52614.478541,15.41,0.033
52614.492959,15.429,0.025
52639.377359,15.502,0.022
52639.392133,15.544,0.024
52639.406859,15.57,0.024
52639.421787,15.575,0.024
52639.436843,15.564,0.024
52646.416906,15.513,0.025
52646.432606,15.477,0.025
52646.447718,15.504,0.025
52646.462711,15.468,0.026
52649.459756,14.97,0.015
52649.478309,15.012,0.015
52649.492929,15.069,0.017
52649.507177,15.103,0.017
52649.521502,15.167,0.018
52672.328032,15.537,0.026
52672.342751,15.588,0.031
52672.35745,15.501,0.023
52676.28742,15.148,0.018
52676.302795,15.185,0.018
52676.318319,15.223,0.02
52676.33396,15.287,0.02
52676.349486,15.323,0.022
52677.316775,15.379,0.022
52677.331221,15.398,0.026
52677.345662,15.461,0.037
52677.374678,15.437,0.057
52706.24793,14.9,0.015
52706.248534,14.872,0.013
52706.261197,14.966,0.015
52706.27478,14.99,0.016
52706.275382,14.982,0.015
52706.28895,15.054,0.016
52706.289551,15.048,0.015
52706.302061,15.152,0.018
52706.302663,15.111,0.016
52710.247061,15.499,0.028
52710.260718,15.515,0.028
52710.260835,15.463,0.025
52710.274413,15.485,0.026
52710.274528,15.467,0.025
52710.287664,15.523,0.026
52710.287779,15.496,0.025
52710.30091,15.502,0.028
52710.301025,15.472,0.025
52724.240931,15.33,0.018
52724.252538,15.341,0.018
52724.264184,15.38,0.018
52724.275781,15.394,0.02
52724.287396,15.404,0.02
52733.242496,15.599,0.028
52733.242737,15.56,0.025
52733.254628,15.548,0.026
52733.254869,15.56,0.025
52733.266782,15.528,0.026
52733.267023,15.532,0.025
52733.278873,15.53,0.026
52733.279111,15.568,0.025
52733.29092,15.545,0.035
52733.291164,15.528,0.033
52753.192153,15.166,0.018
52753.204236,15.21,0.018
52753.218199,15.2,0.018
52753.230243,15.244,0.02
52753.242266,15.282,0.022
52768.152798,14.751,0.028
52768.152907,14.894,0.028
52768.164757,14.801,0.03
52768.176653,14.98,0.033
52768.189016,14.92,0.035
52768.201217,14.901,0.035
52768.201327,15.148,0.038
52787.166372,15.388,0.022
52787.176926,15.391,0.024
52787.187521,15.434,0.024
52787.198229,15.447,0.024
52787.208987,15.436,0.024
52792.163509,15.38,0.035
52792.185288,15.475,0.036
52792.206956,15.476,0.04
52793.200625,15.38,0.035
52793.221234,15.475,0.036
52793.242119,15.476,0.04
52797.166172,15.496,0.07
52797.17606,15.42,0.068
52797.186003,15.179,0.055
52797.196044,14.84,0.043
52797.205999,14.737,0.041
52992.402757,15.064,0.015
52992.416264,15.126,0.015
52992.429455,15.179,0.015
52992.442765,15.249,0.015
52992.456472,15.277,0.015
53001.417876,15.43,0.013
53001.440239,15.442,0.013
53001.454646,15.448,0.013
53001.47209,15.431,0.013
53001.490943,15.439,0.013
53003.374678,15.41,0.015
53003.386685,15.407,0.015
53003.398914,15.431,0.017
53003.410965,15.424,0.026
53003.423009,15.458,0.043
53034.340379,15.387,0.02
53034.352744,15.425,0.022
53034.36538,15.454,0.02
53034.378031,15.416,0.02
53034.390294,15.463,0.02
53050.276987,15.563,0.02
53050.288585,15.595,0.018
53050.300237,15.597,0.018
53050.311945,15.608,0.022
53050.323542,15.675,0.044
53062.286612,15.147,0.043
53062.298042,15.2,0.028
53062.30966,15.168,0.061
53062.321259,15.243,0.131
53062.332837,15.279,0.048
53078.277323,15.035,0.015
53078.28797,15.055,0.013
53078.298814,15.145,0.015
53078.309529,15.171,0.017
53078.320294,15.241,0.017
53079.306762,15.382,0.017
53079.307475,15.421,0.017
53079.317493,15.391,0.018
53079.318207,15.423,0.017
53079.328298,15.424,0.018
53079.329012,15.469,0.018
53079.330175,15.476,0.02
53079.338985,15.478,0.018
53079.339717,15.501,0.018
53079.341425,15.527,0.023
53079.349753,15.47,0.02
53079.350519,15.507,0.02
53079.352604,15.554,0.023
53079.36405,15.565,0.025
53079.375792,15.616,0.025
53087.286008,15.424,0.013
53087.299252,15.448,0.015
53087.31071,15.482,0.015
53087.321756,15.493,0.015
53087.333782,15.492,0.015
53089.236306,15.501,0.016
53089.247286,15.501,0.016
53089.258259,15.488,0.015
53089.269201,15.496,0.016
53089.28006,15.471,0.015
53109.192689,14.7,0.011
53109.20339,14.776,0.011
53109.21408,14.867,0.013
53109.22487,14.932,0.013
53109.235579,14.993,0.015
53137.198451,15.528,0.028
53137.208035,15.563,0.03
53137.217558,15.57,0.03
53149.163894,15.296,0.018
53149.173083,15.326,0.02
53149.183492,15.366,0.02
53149.19248,15.401,0.022
53149.201408,15.428,0.024
53165.168548,15.328,0.044
53165.178532,15.336,0.03
53165.188513,15.351,0.026
53165.198491,15.357,0.037
53341.463729,15.253,0.041
53341.476262,15.319,0.045
53341.490054,15.315,0.041
53341.503062,15.433,0.046
53341.515596,15.463,0.046
53348.419834,15.058,0.018
53348.43414,15.127,0.02
53348.448369,15.167,0.02
53348.462587,15.222,0.023
53348.476884,15.267,0.033
53354.429651,15.25,0.018
53354.443921,15.096,0.016
53354.458343,14.971,0.013
53354.473192,14.97,0.013
53354.487608,14.949,0.013
53473.228694,15.178,0.018
53473.238979,15.212,0.02
53473.248795,15.247,0.02
53473.258871,15.233,0.02
53473.269994,15.299,0.02
53500.189941,15.496,0.024
53500.200492,15.505,0.024
53500.212013,15.474,0.024
53500.221932,15.535,0.026
53500.231945,15.502,0.026
53528.166902,15.221,0.03
53528.178697,15.241,0.03
53528.190271,15.288,0.033
53528.201043,15.327,0.035
53528.211672,15.353,0.037
53703.457936,15.025,0.015
53703.471052,15.003,0.015
53703.483722,14.984,0.015
53703.496468,14.98,0.015
53703.50939,14.971,0.015
53714.398977,15.281,0.022
53714.411929,15.32,0.022
53714.424793,15.351,0.02
53714.437573,15.39,0.02
53714.450315,15.443,0.02
53740.401399,15.552,0.024
53740.414555,15.507,0.022
53740.428319,15.542,0.022
53740.442124,15.604,0.022
53740.455626,15.586,0.024
53770.290311,15.444,0.022
53770.303306,15.465,0.022
53770.316375,15.513,0.02
53770.330539,15.542,0.022
53770.344255,15.534,0.022
53813.304636,15.115,0.024
53813.315644,15.134,0.026
53813.326649,15.176,0.028
53813.337661,15.178,0.028
53813.348671,15.229,0.028
53823.198714,15.373,0.02
53823.209665,15.342,0.02
53823.220485,15.398,0.02
53823.231306,15.404,0.02
53823.242131,15.428,0.02
53844.188162,14.604,0.013
53844.19841,14.685,0.013
53844.208698,14.765,0.015
53844.218967,14.837,0.017
53844.22941,14.871,0.017
53853.192742,15.259,0.026
53853.203306,15.299,0.028
53853.213799,15.314,0.026
53853.2244,15.325,0.028
53853.234873,15.376,0.03
53883.162116,15.118,0.048
53883.172469,15.147,0.051
53883.182873,15.227,0.054
53883.193762,15.167,0.054
53883.20572,15.208,0.056
53887.169619,15.429,0.052
53887.181487,15.474,0.055
53887.192723,15.505,0.061
53887.20407,15.413,0.059
53887.215412,15.477,0.059
54042.449067,15.523,0.076
54042.461132,15.421,0.061
54042.473744,15.465,0.048
54042.486305,15.413,0.045
54042.498547,15.513,0.046
54056.444378,15.366,0.03
54056.459062,15.431,0.028
54056.471787,15.481,0.03
54056.484868,15.48,0.028
54056.497465,15.49,0.026
54066.462906,15.514,0.03
54066.505995,15.107,0.018
54070.445576,15.288,0.018
54070.458474,15.343,0.02
54070.471501,15.368,0.02
54070.484377,15.364,0.02
54070.49727,15.389,0.02
54084.39574,14.903,0.021
54084.408882,14.915,0.023
54084.421748,14.955,0.025
54084.434797,14.968,0.021
54084.44793,15.038,0.028
54098.367009,15.499,0.026
54098.379075,15.427,0.022
54098.391032,15.222,0.018
54098.402975,14.865,0.013
54098.41501,14.647,0.011
54110.337046,15.269,0.058
54110.349608,15.291,0.035
54110.36219,15.307,0.036
54110.374839,15.334,0.035
54110.387813,15.359,0.036
54121.330695,15.483,0.022
54121.342873,15.49,0.022
54121.355062,15.464,0.022
54121.367256,15.427,0.022
54121.37951,15.375,0.02
54155.292767,15.116,0.021
54155.304722,15.136,0.021
54155.316881,15.156,0.02
54155.329718,15.257,0.021
54155.342247,15.271,0.021
54206.22222,15.388,0.023
54206.231551,15.379,0.023
54206.24088,15.308,0.021
54206.250251,15.288,0.02
54206.259931,15.152,0.018
54452.394832,15.463,0.017
54452.407968,15.449,0.017
54452.42132,15.477,0.017
54452.434606,15.474,0.017
54452.447743,15.445,0.015
54477.391542,15.524,0.018
54477.404432,15.265,0.015
54477.417394,14.889,0.009
54477.430453,14.677,0.009
54477.443313,14.696,0.007
54484.271007,15.437,0.033
54484.284131,15.457,0.031
54484.297045,15.463,0.03
54484.309934,15.474,0.03
54484.322841,15.47,0.028
54529.148242,15.071,0.025
54529.160899,15.056,0.025
54529.173829,15.143,0.026
54529.185124,15.296,0.026
54529.196439,15.28,0.026
54539.210257,15.673,0.02
54539.221148,15.649,0.018
54539.23204,15.625,0.018
54539.242847,15.623,0.018
54539.253873,15.599,0.017
54567.186048,15.26,0.015
54567.197123,15.286,0.017
54567.208196,15.313,0.017
54567.219532,15.352,0.017
54567.230886,15.4,0.018
54582.194747,15.378,0.02
54582.205304,15.379,0.02
54582.215879,15.396,0.022
54582.226337,15.427,0.022
54582.236884,15.411,0.022
54597.197696,15.23,0.043
54597.208331,15.255,0.043
54597.218859,15.315,0.046
54597.229595,15.358,0.048
54597.240204,15.384,0.048
54613.157193,15.379,0.02
54613.167129,15.364,0.02
54613.177037,15.398,0.022
54613.196832,15.425,0.024
54620.166397,15.114,0.018
54620.177463,15.145,0.018
54620.187592,15.168,0.02
54620.197708,15.227,0.02
54620.20783,15.221,0.02
