mjd,m,merr
52641.454311,15.072,0.015
52641.46965,15.132,0.017
52641.484678,15.177,0.017
52641.499824,15.183,0.017
52641.515307,15.204,0.017
52646.453753,15.177,0.018
52646.469232,15.073,0.018
52646.484103,14.971,0.017
52646.499135,14.899,0.015
52646.513956,14.857,0.013
52647.453138,14.829,0.015
52647.467656,14.832,0.015
52647.482179,14.85,0.015
52647.496956,14.868,0.016
52647.51162,14.831,0.033
52667.395315,15.077,0.015
52667.410598,15.106,0.017
52667.426018,15.164,0.017
52667.441332,15.198,0.018
52667.456687,15.199,0.018
52669.43058,15.06,0.015
52672.389132,15.163,0.018
52672.403977,15.133,0.017
52672.417973,15.021,0.017
52672.432365,14.918,0.017
52672.446244,14.909,0.018
52704.348381,15.122,0.02
52704.361574,15.154,0.02
52704.374464,15.15,0.02
52704.387459,15.181,0.021
52704.400376,15.201,0.021
52705.304598,15.172,0.017
52705.318518,15.201,0.017
52705.340739,15.18,0.017
52705.353783,15.169,0.017
52705.368175,15.127,0.017
52707.303487,14.868,0.015
52707.316546,14.906,0.015
52707.329589,14.916,0.015
52707.342884,14.966,0.016
52707.356131,14.982,0.018
52729.235825,14.862,0.013
52729.247365,14.859,0.013
52729.258839,14.834,0.013
52729.271004,14.827,0.013
52729.282487,14.841,0.013
52734.257194,15.085,0.015
52734.26955,15.118,0.02
52734.306113,15.183,0.083
52737.245415,14.892,0.015
52737.258359,14.917,0.015
52737.270028,14.962,0.015
52737.281847,14.986,0.015
52737.293697,15.042,0.017
52756.198102,14.928,0.016
52756.21037,14.982,0.018
52756.222478,15.007,0.018
52756.234657,15.052,0.02
52756.246902,15.107,0.021
52758.204222,15.021,0.016
52758.216135,14.915,0.016
52758.228081,14.89,0.015
52758.240113,14.849,0.015
52758.252182,14.813,0.015
52972.449657,15.179,0.017
52972.462576,15.179,0.015
52972.47542,15.186,0.015
52972.48817,15.168,0.015
52972.501041,15.105,0.015
52994.463567,15.159,0.013
52994.476096,15.079,0.012
52994.488638,15.029,0.008
52994.50121,14.949,0.008
52994.513789,14.885,0.008
52996.393079,14.829,0.01
52996.405903,14.84,0.01
52996.418912,14.847,0.01
52996.431678,14.89,0.01
52996.444461,14.919,0.01
53025.346821,14.935,0.012
53025.370313,14.853,0.018
53025.394344,14.799,0.013
53028.37836,15.003,0.008
53028.391228,14.908,0.007
53028.403648,14.868,0.007
53028.41585,14.833,0.007
53028.428085,14.816,0.008
53033.334825,14.823,0.013
53033.347123,14.855,0.013
53033.359259,14.877,0.013
53033.371731,14.902,0.015
53033.383991,15.01,0.018
53054.307635,15.05,0.013
53054.323094,14.938,0.011
53054.337273,14.839,0.011
53054.350436,14.803,0.011
53054.36298,14.849,0.011
53055.363898,14.945,0.026
53058.294885,14.947,0.01
53058.307807,14.869,0.01
53058.319947,14.861,0.008
53058.332473,14.818,0.008
53080.280811,14.946,0.013
53080.292334,14.892,0.013
53080.304346,14.857,0.011
53080.31569,14.822,0.011
53080.326974,14.79,0.011
53082.296829,15.151,0.012
53082.308456,15.184,0.012
53082.320182,15.198,0.012
53082.332161,15.193,0.012
53082.343628,15.217,0.012
53084.296388,14.797,0.008
53084.3078,14.822,0.008
53084.319374,14.846,0.008
53084.330604,14.868,0.008
53084.342668,14.889,0.008
53091.281936,14.902,0.01
53091.292001,14.848,0.008
53091.302668,14.843,0.008
53091.312641,14.854,0.008
53091.322782,14.836,0.008
53111.189128,14.856,0.015
53111.199905,14.867,0.015
53111.210651,14.912,0.015
53111.221393,14.913,0.015
53111.232218,14.941,0.017
53112.186391,15.083,0.035
53112.197161,15.058,0.02
53112.207892,15.091,0.017
53112.218641,15.1,0.017
53112.229318,15.151,0.017
53115.252336,15.111,0.013
53115.263302,15.163,0.013
53115.273949,15.141,0.013
53115.284839,15.199,0.013
53115.296136,15.221,0.015
53139.158568,15.154,0.018
53139.168248,15.147,0.018
53139.177844,15.074,0.018
53139.187368,15.055,0.017
53139.19688,14.939,0.017
53141.216358,15.146,0.015
53141.226405,15.148,0.015
53141.236009,15.152,0.015
53141.246267,15.188,0.016
53141.255634,15.18,0.016
53327.443411,15.224,0.035
53346.450552,15.156,0.024
53346.463887,15.105,0.022
53346.477564,15.001,0.02
53346.490213,14.918,0.018
53346.502355,14.88,0.017
53347.491781,14.885,0.016
53347.505671,14.92,0.016
53347.519546,14.966,0.016
53353.481804,15.126,0.02
53353.496306,15.036,0.018
53353.510554,14.947,0.016
53383.410376,15.011,0.017
53383.423703,14.931,0.015
53383.437023,14.9,0.015
53383.45036,14.852,0.015
53383.463886,14.828,0.013
53403.363787,14.913,0.015
53403.376846,14.942,0.015
53403.39046,14.975,0.016
53403.404591,15.05,0.016
53403.418123,15.084,0.018
53440.419693,15.201,0.022
53440.430782,15.183,0.022
53440.441269,15.229,0.024
53440.451752,15.186,0.026
53440.463409,15.208,0.03
53496.195349,14.946,0.018
53496.205628,14.994,0.02
53496.215861,15.026,0.02
53496.226146,15.028,0.022
53496.236411,15.088,0.024
53710.452081,14.864,0.018
53710.465498,14.892,0.018
53710.478031,14.895,0.018
53710.490673,14.95,0.018
53710.503322,15.003,0.02
53734.470589,15.077,0.017
53734.483691,14.975,0.015
53734.497062,14.903,0.015
53734.510253,14.874,0.013
53734.523238,14.862,0.013
53746.400552,14.904,0.022
53746.413015,14.894,0.02
53746.42557,14.844,0.02
53746.438258,14.855,0.02
53746.450724,14.841,0.018
53758.401551,14.907,0.015
53758.414118,14.934,0.015
53758.426675,14.965,0.017
53758.439397,15.01,0.017
53758.452414,15.05,0.018
53787.46431,15.098,0.02
53787.476328,15.16,0.043
53787.500578,15.181,0.026
53789.359537,15.186,0.05
53789.371417,15.197,0.035
53789.383291,15.211,0.018
53789.395154,15.194,0.018
53791.301194,14.848,0.012
53791.313355,14.855,0.012
53791.325762,14.816,0.012
53791.337713,14.853,0.012
53791.349587,14.871,0.012
53792.345547,15.086,0.017
53792.357313,15.114,0.02
53792.369091,15.188,0.024
53792.38087,15.187,0.022
53792.392644,15.184,0.02
53802.336298,14.867,0.022
53802.347847,14.882,0.018
53802.359293,14.885,0.018
53802.370978,14.926,0.02
53802.38245,14.961,0.018
53815.284396,15.235,0.028
53815.295546,15.218,0.031
53815.306722,15.246,0.022
53815.317904,15.243,0.024
53815.329101,15.222,0.026
53817.215491,14.995,0.013
53817.226917,14.949,0.012
53817.238417,14.893,0.012
53817.249834,14.846,0.012
53817.261564,14.824,0.012
53821.300779,14.931,0.017
53821.314801,14.873,0.033
53821.342611,15.038,0.046
53821.356996,15.103,0.022
53824.29869,14.785,0.017
53824.312906,14.789,0.024
53824.328612,14.863,0.017
53824.343826,14.905,0.018
53827.234,15.176,0.018
53827.244438,15.157,0.018
53827.255416,15.125,0.018
53827.266306,15.109,0.017
53827.277179,15.03,0.017
53828.225367,14.874,0.017
53828.23636,14.848,0.017
53828.29246,14.842,0.018
53828.306117,14.874,0.018
53828.322069,14.906,0.015
53828.337529,14.975,0.022
53831.231041,15.112,0.024
53831.241597,15.044,0.022
53831.251826,14.969,0.02
53831.261941,14.891,0.02
53831.27195,14.87,0.018
53846.18926,15.165,0.016
53846.199971,15.1,0.016
53846.210781,15.036,0.015
53846.221496,14.944,0.015
53846.232161,14.915,0.013
53846.245129,14.861,0.02
53846.25593,14.727,0.02
53846.26674,14.748,0.02
53846.277545,14.74,0.02
53846.288357,14.82,0.02
53850.194247,14.929,0.018
53850.204641,14.905,0.016
53850.215129,14.878,0.018
53850.22564,14.877,0.018
53850.236217,14.857,0.018
53851.242686,14.989,0.02
53851.254162,15.039,0.02
53851.264761,15.061,0.02
53851.275253,15.087,0.024
53851.285455,15.134,0.024
53854.259059,14.849,0.02
53857.275481,14.851,0.018
53857.313374,14.923,0.026
53879.160651,15.159,0.015
53879.171469,15.109,0.015
53879.182201,15.024,0.013
53879.192942,14.933,0.013
53879.20456,14.856,0.013
53884.15973,14.866,0.02
53884.171467,14.885,0.02
53884.183221,14.935,0.022
53884.195015,14.904,0.024
53884.206787,14.988,0.024
53885.156452,15.076,0.018
53885.167556,15.125,0.02
53885.178408,15.138,0.02
53885.189169,15.168,0.021
53885.20046,15.163,0.023
54060.445924,15.229,0.028
54060.460431,15.24,0.026
54060.472983,15.247,0.026
54060.487778,15.244,0.025
54060.500567,15.183,0.025
54064.452157,15.196,0.02
54064.465016,15.158,0.018
54064.477874,15.083,0.017
54064.490752,14.999,0.015
54064.503624,14.914,0.013
54082.455241,15.189,0.024
54082.468023,15.183,0.022
54082.480814,15.117,0.02
54082.493608,15.033,0.018
54082.506411,14.933,0.017
54085.468668,15.191,0.017
54085.481629,15.193,0.017
54085.494594,15.204,0.015
54085.507557,15.192,0.015
54085.520522,15.167,0.015
54091.355181,14.981,0.025
54091.368363,14.883,0.021
54091.380996,14.91,0.02
54091.392901,14.884,0.02
54091.405017,14.852,0.018
54153.329451,14.969,0.013
54153.341052,14.91,0.013
54153.352614,14.862,0.015
54153.364173,14.834,0.013
54153.375747,14.791,0.02
54155.299642,14.987,0.015
54155.311286,15.044,0.015
54155.323001,15.061,0.015
54155.334995,15.111,0.015
54155.347194,15.134,0.015
54156.272396,15.128,0.017
54156.28393,15.149,0.017
54156.295465,15.167,0.017
54156.307015,15.183,0.017
54156.318567,15.184,0.017
54174.268426,15.113,0.016
54174.279421,15.15,0.018
54174.290454,15.212,0.026
54174.301368,15.17,0.028
54174.312433,15.208,0.021
54174.316957,15.187,0.017
54174.327691,15.196,0.022
54174.338393,15.199,0.017
54174.349104,15.165,0.017
54174.359785,15.152,0.017
54177.325447,15.142,0.026
54180.277054,14.861,0.013
54180.28739,14.899,0.013
54180.297863,14.92,0.013
54180.308439,14.96,0.013
54180.318951,14.961,0.015
54180.333449,15.019,0.013
54180.344116,15.035,0.013
54180.354661,15.048,0.013
54180.365202,15.097,0.015
54200.218163,15.12,0.021
54200.227633,15.161,0.021
54200.256629,15.224,0.023
54205.266472,14.854,0.013
54205.27586,14.854,0.013
54205.285259,14.842,0.011
54205.294681,14.841,0.013
54205.304079,14.863,0.013
54208.261167,15.097,0.015
54208.27034,15.03,0.013
54208.279511,14.959,0.013
54208.28866,14.917,0.015
54208.29782,14.881,0.013
54212.268689,14.867,0.015
54212.277892,14.839,0.015
54212.286973,14.831,0.015
54212.29604,14.815,0.015
54212.305159,14.819,0.015
54481.337964,15.021,0.013
54481.350898,15.038,0.013
54481.376882,15.134,0.013
54481.389781,15.161,0.013
54498.342303,14.838,0.009
54498.354856,14.85,0.009
54498.367482,14.828,0.009
54498.380024,14.868,0.009
54498.392792,14.896,0.009
54506.335209,14.926,0.009
54506.347304,14.942,0.009
54506.359399,14.981,0.011
54506.371497,15.023,0.011
54506.383612,15.051,0.011
54507.45093,14.944,0.02
54507.462846,14.896,0.021
54507.474806,14.881,0.02
54507.487604,14.854,0.018
54507.499473,14.838,0.018
54522.393624,15.077,0.015
54522.405288,14.972,0.015
54522.416959,14.902,0.013
54522.428601,14.91,0.015
54522.440254,14.837,0.015
54527.330542,14.836,0.009
54527.341935,14.82,0.009
54527.353314,14.826,0.009
54527.364848,14.885,0.009
54527.376228,14.89,0.009
54534.387639,14.859,0.018
54534.398644,14.863,0.018
54535.281061,14.862,0.007
54535.29215,14.845,0.007
54535.30325,14.845,0.007
54535.314333,14.853,0.007
54535.325404,14.874,0.009
54553.303831,14.859,0.013
54553.315727,14.851,0.011
54553.327609,14.876,0.011
54553.339681,14.892,0.011
54553.351613,14.915,0.013
54561.248199,14.836,0.009
54561.259648,14.839,0.009
54561.271124,14.858,0.011
54561.282593,14.901,0.011
54561.294161,14.921,0.018
54568.240968,14.801,0.02
54568.251952,14.8,0.021
54568.262782,14.836,0.02
54568.273787,14.819,0.021
54568.284591,14.838,0.021
54580.194147,14.875,0.011
54580.204772,14.887,0.013
54580.215387,14.888,0.013
54580.225993,14.946,0.015
54580.236672,14.957,0.017
54584.248809,15.106,0.015
54584.259474,15.119,0.015
54584.270051,15.16,0.017
54584.280623,15.178,0.017
54584.291248,15.174,0.018
54591.201189,14.888,0.013
54591.221735,14.924,0.015
54591.232021,14.967,0.015
54591.242313,14.993,0.017
54611.160686,15.195,0.015
54611.171062,15.199,0.015
54611.180972,15.2,0.015
54611.190864,15.206,0.017
54611.200763,15.219,0.017
54614.16313,15.092,0.015
54614.173096,15.12,0.015
54614.183067,15.161,0.017
54614.193047,15.14,0.017
54614.203022,15.192,0.018
