mjd,m,merr
52643.425313,15.838,0.04
52643.441578,15.85,0.036
52643.457823,15.732,0.033
52643.474335,15.821,0.033
52649.458852,15.899,0.031
52649.477903,15.852,0.031
52649.492567,15.805,0.03
52649.506816,15.865,0.031
52649.520877,15.906,0.033
52666.384229,16.119,0.037
52666.3994,16.14,0.035
52666.414623,16.039,0.035
52666.429716,15.89,0.03
52666.445099,15.882,0.03
52670.353736,16.054,0.045
52670.400989,15.874,0.043
52670.419454,15.811,0.041
52676.287024,15.854,0.035
52676.302406,15.823,0.031
52676.31793,15.852,0.033
52676.333556,15.849,0.033
52676.349092,15.953,0.037
52701.304708,16.271,0.079
52701.318081,15.997,0.026
52701.318568,16.011,0.049
52701.344214,15.925,0.023
52701.344701,15.853,0.033
52701.357443,15.813,0.023
52701.357927,15.841,0.031
52706.300283,15.839,0.028
52706.313433,15.913,0.03
52706.326813,15.953,0.03
52706.340152,16.058,0.033
52706.353607,16.123,0.035
52724.242912,15.874,0.033
52724.254897,15.998,0.03
52724.255012,15.973,0.036
52724.266952,16.053,0.031
52724.267066,16.038,0.038
52724.280147,16.122,0.033
52724.280261,16.083,0.04
52724.292279,16.176,0.035
52724.292395,16.057,0.04
52729.233513,16.021,0.035
52729.245379,15.892,0.025
52729.245622,15.94,0.033
52729.258645,15.871,0.031
52729.27152,15.832,0.031
52729.287176,15.824,0.031
52732.244168,16.018,0.048
52732.256275,15.933,0.036
52732.268547,15.863,0.036
52732.280763,15.837,0.035
52732.292719,15.811,0.036
52753.198464,15.917,0.04
52753.211732,15.832,0.038
52753.224318,15.842,0.038
52753.237185,15.796,0.038
52753.249742,15.833,0.04
52761.199423,15.868,0.048
52761.211439,15.883,0.05
52761.223553,16.039,0.048
52761.235629,16.08,0.046
52761.247645,16.151,0.05
52768.166428,15.866,0.067
52768.178652,15.898,0.067
52768.190379,15.938,0.07
52768.202233,16.061,0.08
52792.163834,15.822,0.059
52792.185613,15.829,0.058
52792.207282,15.937,0.069
52793.200906,15.822,0.059
52793.221514,15.829,0.058
52793.242402,15.937,0.069
52962.45174,15.82,0.031
52962.464783,15.782,0.03
52962.477065,15.792,0.03
52962.489678,15.847,0.03
52962.502151,15.881,0.03
52974.456489,16.133,0.041
52974.468614,16.086,0.038
52974.479439,15.969,0.035
52974.491276,15.896,0.031
52974.504576,15.889,0.03
52992.474277,15.886,0.025
52992.487079,15.896,0.026
52992.500205,15.994,0.031
52992.514066,16.086,0.045
52992.526912,16.097,0.035
53000.43325,16.028,0.023
53000.447915,16.155,0.025
53000.462374,16.111,0.023
53000.477594,16.081,0.023
53000.490991,15.966,0.021
53002.452685,15.816,0.018
53002.466352,15.849,0.017
53002.479963,15.903,0.02
53002.493477,16.023,0.022
53002.50681,16.092,0.024
53034.336409,15.875,0.035
53034.348256,15.927,0.035
53034.360189,15.983,0.036
53034.372177,16.066,0.04
53034.384151,16.135,0.041
53051.281065,15.852,0.024
53051.292796,15.83,0.024
53051.304473,15.855,0.024
53051.316168,15.863,0.024
53051.327845,15.903,0.024
53062.295626,16.13,0.048
53062.307876,16.096,0.101
53062.332455,16.222,0.124
53062.34632,15.964,0.063
53078.314958,16.048,0.036
53078.325973,16.131,0.041
53078.336895,16.147,0.041
53078.347815,16.15,0.043
53087.283136,15.864,0.02
53087.293657,15.823,0.018
53087.304487,15.835,0.018
53087.315422,15.851,0.02
53087.325941,15.902,0.02
53109.189947,15.903,0.035
53109.200228,15.873,0.033
53109.210722,15.891,0.035
53109.221096,15.924,0.035
53109.231403,16.001,0.038
53118.250113,15.877,0.021
53137.201488,16.203,0.054
53137.211175,16.169,0.053
53137.221508,16.05,0.046
53137.231411,15.986,0.045
53137.240999,15.936,0.04
53148.162177,16.126,0.035
53148.171019,16.043,0.038
53148.179956,15.982,0.038
53148.189375,15.931,0.04
53148.19833,15.934,0.033
53165.16804,16.004,0.096
53165.178268,15.884,0.063
53165.188191,15.926,0.051
53165.213541,16.022,0.069
53165.223977,15.962,0.064
53348.420406,15.917,0.04
53348.434722,15.985,0.043
53348.448943,16.005,0.043
53348.463245,16.149,0.051
53348.477457,16.257,0.084
53354.430262,15.906,0.033
53354.444517,15.92,0.033
53354.458938,15.975,0.033
53354.473803,16.014,0.033
53354.48822,16.11,0.036
53357.457843,15.893,0.031
53357.472381,15.957,0.035
53357.486906,15.957,0.035
53357.501445,16.081,0.038
53357.516144,16.164,0.054
53384.390095,15.778,0.203
53404.375122,15.928,0.026
53404.388034,15.908,0.026
53404.401497,15.933,0.03
53404.414462,15.96,0.031
53404.427408,16.092,0.036
53501.19337,15.982,0.041
53501.205147,16.062,0.044
53501.215534,16.127,0.048
53501.225527,16.158,0.05
53501.235746,16.113,0.05
53529.158527,16.183,0.063
53529.168891,16.097,0.059
53529.179281,16.099,0.063
53529.189573,15.916,0.052
53529.200153,15.969,0.057
53713.463548,16.128,0.072
53713.50252,16.055,0.248
53713.515457,15.985,0.104
53739.412393,15.911,0.142
53739.425395,15.935,0.065
53739.438381,15.915,0.05
53739.451612,15.975,0.031
53739.465198,16.1,0.035
53770.290715,15.947,0.031
53770.303711,15.907,0.03
53770.31678,15.865,0.028
53770.330976,15.827,0.028
53770.344658,15.834,0.028
53813.305128,15.854,0.046
53813.316134,15.866,0.048
53813.32714,15.865,0.048
53813.338155,15.815,0.048
53813.349164,15.935,0.054
53844.236767,15.882,0.04
53844.247882,15.889,0.041
53844.258918,15.883,0.041
53844.269867,15.88,0.043
53844.28084,15.92,0.043
53853.193224,16.055,0.054
53853.203789,16.236,0.068
53853.214281,16.137,0.058
53853.224883,16.155,0.061
53853.235524,16.119,0.059
53883.162557,15.974,0.056
53883.172908,15.975,0.059
53883.183313,16.09,0.064
53883.194203,16.175,0.074
53883.206162,16.081,0.068
53887.170017,16.207,0.107
53887.181888,16.133,0.109
53887.193121,16.011,0.105
53887.204471,15.891,0.094
54042.461581,16.058,0.104
54042.474204,16.211,0.091
54042.486755,15.988,0.071
54042.498997,15.951,0.066
54056.445057,16.039,0.053
54056.459632,15.89,0.045
54056.472361,15.84,0.041
54056.485439,15.854,0.041
54056.498038,15.904,0.041
54066.44976,15.863,0.086
54066.46334,15.819,0.041
54066.478149,15.808,0.069
54066.506428,15.819,0.036
54068.452719,16.06,0.035
54068.465626,16.104,0.033
54068.478536,16.078,0.048
54068.491441,16.047,0.093
54068.504338,15.925,0.028
54084.396207,15.92,0.054
54084.409346,15.82,0.051
54084.422216,15.888,0.056
54084.435262,15.879,0.051
54084.448396,15.931,0.069
54098.367437,15.851,0.033
54098.379503,15.839,0.03
54098.39146,15.918,0.031
54098.403405,15.914,0.03
54098.415438,16.001,0.031
54110.350077,16.139,0.076
54110.36266,16.122,0.074
54110.375307,16.042,0.068
54110.388283,15.989,0.066
54121.331151,15.918,0.03
54121.343328,15.862,0.028
54121.355518,15.826,0.028
54121.367711,15.808,0.026
54121.379966,15.878,0.03
54154.281234,16.087,0.043
54154.29305,16.088,0.041
54154.30459,16.015,0.038
54154.316154,15.978,0.036
54154.327653,15.875,0.033
54169.272931,15.811,0.033
54169.283832,15.798,0.036
54169.294738,15.912,0.041
54169.305756,15.903,0.045
54169.3166,15.96,0.048
54205.221866,16.049,0.046
54205.231109,15.941,0.041
54205.240345,15.872,0.038
54205.24968,15.864,0.04
54205.25911,15.866,0.04
54452.39522,15.765,0.02
54452.408356,15.778,0.02
54452.421706,15.809,0.02
54452.434997,15.837,0.022
54452.44813,15.885,0.022
54476.395516,15.807,0.018
54476.408387,15.907,0.02
54476.421251,15.989,0.02
54476.434247,15.988,0.022
54476.447493,16.013,0.022
54484.28354,15.652,0.043
54484.30934,15.734,0.039
54533.277063,15.779,0.017
54533.288424,15.756,0.017
54533.29956,15.754,0.017
54533.311078,15.754,0.017
54533.322256,15.784,0.017
54539.211305,15.853,0.024
54539.222116,15.905,0.026
54539.233007,15.997,0.026
54539.243852,16.051,0.028
54539.254847,16.035,0.026
54567.186633,15.953,0.028
54567.1977,15.911,0.026
54567.208892,15.837,0.026
54567.220248,15.792,0.024
54567.231466,15.768,0.024
54581.200307,15.665,0.079
54587.200259,15.795,0.028
54587.210797,15.787,0.028
54587.221407,15.721,0.026
54587.231961,15.742,0.028
54587.242453,15.727,0.028
54594.212267,15.758,0.056
54594.221722,15.722,0.059
54594.231164,15.719,0.058
54594.240651,15.761,0.061
54595.19568,15.822,0.033
54595.205666,15.821,0.033
54595.215669,15.896,0.035
54595.22574,15.97,0.037
54595.235702,15.992,0.039
54612.164533,15.687,0.049
54612.173122,15.787,0.053
54612.181699,15.835,0.056
54612.190441,15.909,0.058
54619.160073,15.852,0.044
54619.170374,15.905,0.035
54619.180578,15.989,0.037
54619.190834,16.01,0.039
54619.201021,16.022,0.041
