mjd,m,merr
52614.435114,15.495,0.038
52614.464155,15.553,0.049
52614.478787,15.58,0.041
52614.493205,15.605,0.03
52620.452447,15.563,0.026
52620.467527,15.561,0.026
52620.482655,15.594,0.033
52620.497862,15.65,0.037
52620.513036,15.696,0.035
52639.378494,15.175,0.015
52639.39327,15.177,0.015
52639.407995,15.222,0.017
52639.42292,15.301,0.017
52639.437978,15.423,0.017
52646.402131,15.963,0.04
52646.417161,15.551,0.028
52646.43286,15.425,0.023
52646.447972,15.263,0.02
52646.462967,15.197,0.02
52647.457283,16.075,0.033
52647.472161,16.032,0.033
52647.486508,16.017,0.035
52647.501187,15.752,0.03
52649.437692,15.861,0.033
52649.452943,15.898,0.033
52649.468029,15.922,0.035
52649.483099,15.921,0.036
52649.498371,15.935,0.036
52672.328279,15.903,0.036
52672.342998,15.908,0.043
52672.357697,15.881,0.033
52672.372715,15.945,0.036
52672.387882,15.927,0.035
52676.286336,16.024,0.043
52676.301576,16.049,0.045
52676.31804,16.025,0.043
52676.334894,15.773,0.036
52676.350302,15.454,0.026
52677.317882,15.921,0.03
52677.346768,15.954,0.054
52706.30326,15.137,0.018
52706.316764,15.18,0.018
52706.330061,15.258,0.02
52706.343662,15.308,0.02
52706.357009,15.404,0.021
52710.248212,15.577,0.031
52710.261793,15.632,0.033
52710.275483,15.586,0.031
52710.288736,15.683,0.033
52710.30198,15.708,0.033
52724.242,15.273,0.017
52724.253619,15.154,0.015
52724.265255,15.158,0.015
52724.276851,15.215,0.015
52724.288473,15.272,0.017
52734.251305,15.738,0.03
52734.26376,15.76,0.03
52734.275907,15.812,0.038
52734.287778,15.79,0.059
52734.299704,15.815,0.106
52753.193387,15.494,0.022
52753.205462,15.52,0.022
52753.219431,15.557,0.024
52753.231472,15.554,0.024
52753.243499,15.61,0.026
52768.153785,15.803,0.078
52768.165427,15.931,0.084
52768.177222,15.951,0.084
52768.190137,15.82,0.078
52768.201886,15.746,0.074
52787.166699,15.888,0.031
52787.17725,15.903,0.035
52787.187842,15.904,0.033
52787.198557,15.943,0.033
52787.209324,15.926,0.033
52794.165911,15.88,0.045
52794.176302,15.856,0.045
52794.186877,15.925,0.049
52794.19773,15.88,0.048
52794.208124,15.811,0.046
52991.510247,15.463,0.017
52991.523965,15.5,0.02
53002.429914,15.596,0.013
53002.45306,15.646,0.013
53002.469528,15.705,0.015
53002.485878,15.712,0.015
53006.386725,15.85,0.03
53006.39889,15.872,0.028
53006.411634,15.901,0.026
53006.423866,15.917,0.028
53006.44122,15.908,0.028
53024.38139,15.844,0.039
53024.39423,15.879,0.017
53034.341636,15.896,0.03
53034.353912,15.562,0.022
53034.366548,15.427,0.018
53034.3792,15.22,0.017
53034.391461,15.172,0.015
53050.277301,15.521,0.017
53050.288899,15.535,0.017
53050.30055,15.532,0.015
53050.312259,15.565,0.018
53050.323855,15.576,0.041
53078.27762,15.886,0.026
53078.288267,15.924,0.026
53078.299111,15.957,0.026
53078.309826,15.9,0.026
53078.320591,15.924,0.028
53089.277055,16.015,0.022
53089.287435,15.973,0.022
53089.298049,15.829,0.02
53089.308429,15.516,0.015
53089.318915,15.389,0.026
53092.222746,15.589,0.022
53092.233022,15.611,0.022
53092.243488,15.623,0.022
53092.254078,15.682,0.024
53092.264485,15.621,0.024
53093.22264,15.436,0.018
53093.232976,15.464,0.02
53093.243402,15.501,0.018
53093.253657,15.508,0.022
53093.263911,15.521,0.018
53109.192965,15.838,0.026
53109.203665,15.864,0.028
53109.214355,15.863,0.028
53109.225145,15.864,0.028
53109.235854,15.878,0.028
53137.198705,15.468,0.024
53137.208289,15.305,0.02
53137.217812,15.218,0.02
53149.165539,15.533,0.025
53149.174097,15.433,0.023
53149.182962,15.349,0.021
53149.191649,15.177,0.02
53149.20018,15.275,0.02
53165.169324,15.748,0.065
53165.179309,15.683,0.041
53165.189289,15.752,0.035
53165.199267,15.742,0.046
53165.209285,15.856,0.054
53341.464794,15.789,0.078
53341.477331,15.712,0.078
53341.49112,15.835,0.078
53349.464993,15.371,0.026
53349.478573,15.415,0.028
53349.492237,15.447,0.03
53349.505925,15.475,0.03
53349.520031,15.514,0.031
53355.478791,15.457,0.021
53355.491952,15.508,0.03
53355.50568,15.5,0.021
53355.520362,15.559,0.025
53360.422519,15.539,0.033
53360.437683,15.536,0.035
53443.333772,15.908,0.03
53443.344464,15.921,0.028
53443.355114,15.868,0.044
53443.365776,15.93,0.052
53443.376424,15.907,0.048
53473.228997,15.898,0.031
53473.239278,15.85,0.031
53473.249096,15.85,0.031
53473.259173,15.915,0.033
53473.270295,15.873,0.031
53500.190843,15.375,0.02
53500.201466,15.44,0.022
53500.212914,15.435,0.022
53500.222831,15.48,0.022
53500.232858,15.508,0.024
53528.167998,15.891,0.048
53528.179634,15.813,0.046
53528.191206,15.873,0.052
53528.201999,15.889,0.052
53528.212609,15.884,0.055
53703.459242,15.974,0.031
53703.472358,15.885,0.028
53703.485029,15.895,0.028
53703.49777,15.882,0.028
53703.510698,15.954,0.03
53714.451511,16.007,0.03
53714.464304,15.861,0.028
53714.477173,15.525,0.018
53714.490099,15.347,0.017
53714.502955,15.177,0.013
53740.402256,15.898,0.028
53740.416354,15.938,0.028
53740.429177,15.893,0.028
53740.442984,15.932,0.028
53740.456614,15.925,0.028
53771.346026,15.734,0.07
53786.286384,15.68,0.02
53786.298279,15.464,0.018
53786.310272,15.27,0.018
53786.322182,15.139,0.015
53786.33407,15.148,0.015
53813.305734,15.906,0.044
53813.31674,15.94,0.048
53813.327742,15.924,0.048
53813.338762,15.907,0.05
53813.349775,15.92,0.05
53823.199686,15.944,0.031
53823.210598,15.933,0.031
53823.221422,15.988,0.031
53823.23224,16.029,0.033
53823.24307,16.031,0.033
53844.230498,15.803,0.037
53844.24073,15.912,0.057
53844.25104,15.826,0.037
53844.261257,15.886,0.041
53844.271489,15.867,0.041
53853.193794,16.019,0.049
53853.214855,15.603,0.033
53853.225457,15.466,0.03
53853.236098,15.342,0.026
53883.163111,15.37,0.028
53883.17343,15.243,0.026
53883.183836,15.192,0.026
53883.194725,15.299,0.026
53883.206675,15.306,0.028
53887.170427,15.68,0.063
53887.182298,15.737,0.068
53887.204885,15.68,0.072
53887.216226,15.708,0.074
54042.462123,15.882,0.066
54042.475024,15.915,0.049
54042.487297,15.941,0.046
54042.499619,15.995,0.046
54055.442275,15.865,0.045
54055.454712,15.873,0.045
54055.467266,15.857,0.04
54055.482703,15.905,0.04
54055.495718,15.888,0.038
54067.454315,15.945,0.033
54067.467207,15.92,0.035
54067.481072,15.894,0.035
54067.494245,15.884,0.031
54067.506865,15.905,0.031
54070.446592,15.5,0.018
54070.459494,15.536,0.018
54070.472517,15.583,0.018
54070.485395,15.6,0.018
54070.498286,15.615,0.02
54084.396784,16.024,0.058
54084.409925,16.061,0.059
54084.422796,15.956,0.054
54084.43584,15.983,0.051
54084.448976,15.92,0.063
54098.367951,15.864,0.033
54098.380017,15.869,0.028
54098.391974,15.921,0.028
54098.403919,15.885,0.026
54098.415951,15.878,0.026
54110.388856,16.039,0.069
54110.401631,15.896,0.058
54110.41433,15.903,0.059
54110.427131,16.0,0.068
54110.439798,15.957,0.064
54121.331694,15.88,0.02
54121.343871,15.914,0.022
54121.35606,15.874,0.02
54121.368253,15.884,0.02
54121.38051,15.927,0.022
54155.29413,15.467,0.028
54155.306087,15.503,0.028
54155.318459,15.517,0.028
54155.331244,15.529,0.028
54155.343729,15.587,0.026
54206.222935,15.914,0.035
54206.232266,15.91,0.035
54206.241595,15.893,0.035
54206.251247,15.911,0.035
54206.260649,15.96,0.036
54453.393883,15.158,0.011
54453.406906,15.182,0.011
54453.419924,15.221,0.011
54453.432952,15.285,0.011
54453.446,15.341,0.013
54477.405653,15.432,0.015
54477.418836,15.467,0.015
54477.431676,15.507,0.015
54477.444537,15.524,0.015
54529.150159,15.598,0.031
54529.163227,15.586,0.03
54529.175741,15.653,0.031
54529.187038,15.661,0.031
54529.198356,15.718,0.031
54539.212405,15.897,0.024
54539.223222,15.903,0.024
54539.234107,15.885,0.024
54539.245045,15.93,0.024
54539.255949,15.986,0.026
54568.188162,15.219,0.017
54568.199275,15.157,0.017
54568.210088,15.18,0.017
54568.22092,15.204,0.017
54568.231705,15.251,0.018
54582.195713,15.881,0.03
54582.206158,15.892,0.031
54582.216732,15.917,0.031
54582.227191,15.97,0.033
54582.237736,15.978,0.035
54613.157913,15.863,0.03
54613.167845,15.882,0.03
54613.177752,15.883,0.03
54613.197623,15.887,0.031
54620.167245,15.834,0.028
54620.178158,15.889,0.03
54620.188284,15.862,0.03
54620.198404,15.843,0.03
54620.208525,15.866,0.03
