mjd,m,merr
52602.416401,15.44,0.045
52602.431569,15.651,0.051
52602.445877,15.53,0.051
52621.43807,15.799,0.03
52621.452727,15.838,0.031
52621.467311,15.867,0.031
52621.48211,15.98,0.037
52621.496689,15.983,0.037
52636.378229,16.315,0.063
52636.392592,15.866,0.038
52636.407005,15.468,0.028
52636.421768,15.356,0.025
52636.43625,15.454,0.026
52653.38425,16.374,0.073
52653.399173,16.198,0.051
52653.429192,15.459,0.025
52684.355693,16.29,0.081
52684.386209,16.254,0.078
52684.401036,16.267,0.078
52684.415937,16.453,0.089
52693.316696,15.436,0.023
52693.330426,15.497,0.025
52693.344185,15.608,0.028
52693.358254,15.688,0.031
52721.240481,16.218,0.043
52721.25261,16.274,0.045
52721.264739,16.289,0.045
52721.27687,16.336,0.048
52750.190185,15.371,0.023
52750.201641,15.425,0.025
52750.22351,15.515,0.026
52750.234439,15.599,0.028
52772.156756,15.762,0.054
52772.168902,15.759,0.055
52772.180571,15.864,0.067
52772.1832,15.805,0.071
52772.192561,15.914,0.065
52772.204517,15.966,0.068
52772.207031,15.915,0.078
52781.164842,16.332,0.059
52781.175606,16.348,0.061
52781.186501,16.347,0.059
52781.197627,16.322,0.059
52781.208442,16.27,0.056
52801.164913,16.338,0.176
52801.174907,16.254,0.168
52801.184869,16.116,0.154
52801.194915,16.231,0.176
52948.463764,16.253,0.064
52948.501247,16.352,0.064
52978.470534,16.302,0.048
52978.486154,16.273,0.048
52978.499077,16.382,0.059
52988.364941,16.291,0.056
52988.37617,16.38,0.063
52988.387377,16.316,0.058
52988.399046,16.216,0.054
52988.410764,15.919,0.043
53008.412472,15.574,0.031
53008.425709,15.686,0.035
53008.439059,15.708,0.035
53008.453451,15.839,0.038
53008.467723,15.848,0.038
53038.360212,16.279,0.078
53038.374439,16.292,0.087
53038.405673,16.363,0.104
53045.32083,15.335,0.026
53045.331944,15.392,0.028
53045.343143,15.442,0.03
53045.354377,15.503,0.031
53045.365485,15.569,0.033
53096.258782,16.185,0.091
53108.248038,16.188,0.041
53108.259147,16.187,0.041
53108.270283,16.183,0.039
53108.28131,16.239,0.041
53108.292463,16.294,0.043
53125.198587,16.134,0.135
53125.218274,15.994,0.105
53125.228108,16.163,0.115
53125.237968,16.155,0.104
53134.197729,16.309,0.052
53134.2072,16.325,0.054
53134.2167,16.369,0.057
53134.226395,16.379,0.07
53134.236063,16.565,0.094
53155.170871,16.349,0.124
53155.179663,16.084,0.098
53155.188462,15.833,0.072
53155.197319,15.503,0.054
53155.20619,15.408,0.05
53330.446019,16.095,0.052
53330.458541,16.093,0.05
53330.471046,16.128,0.07
53330.483553,16.198,0.067
53330.496064,16.198,0.057
53339.384359,16.068,0.094
53339.396688,16.166,0.099
53339.421646,16.289,0.107
53339.433968,16.221,0.099
53356.449964,16.314,0.057
53356.46299,16.143,0.046
53356.475991,15.778,0.031
53356.489306,15.427,0.024
53356.502439,15.369,0.02
53358.398384,16.273,0.049
53358.413216,16.12,0.045
53358.427872,15.596,0.026
53358.442485,15.402,0.023
53358.457018,15.424,0.023
53362.449886,15.85,0.063
53362.463602,15.912,0.043
53362.478764,15.993,0.044
53362.494526,16.029,0.041
53390.341003,16.276,0.065
53390.353748,16.213,0.059
53390.366498,16.274,0.061
53390.379317,16.277,0.057
53390.392838,16.262,0.054
53429.276041,16.138,0.054
53429.28728,16.244,0.054
53429.298508,16.268,0.057
53429.310037,16.191,0.055
53429.321546,16.197,0.054
53461.276174,16.315,0.048
53461.289335,16.389,0.054
53461.299943,16.32,0.052
53461.31071,16.309,0.052
53461.321408,16.351,0.052
53489.197052,16.2,0.085
53489.209281,15.959,0.043
53489.219466,15.562,0.044
53489.229662,15.375,0.033
53489.239807,15.384,0.046
53535.170186,16.236,0.07
53535.180104,16.391,0.081
53535.190052,16.268,0.07
53535.199973,16.32,0.076
53535.209902,16.376,0.081
53687.442882,16.113,0.061
53687.455458,16.12,0.054
53687.467824,16.166,0.048
53687.480222,16.197,0.046
53687.492592,16.238,0.048
53725.401165,16.333,0.08
53725.414197,16.201,0.08
53725.429072,16.176,0.078
53725.442143,16.194,0.076
53725.455802,16.196,0.076
53755.341453,16.02,0.048
53755.354054,16.031,0.048
53755.367061,16.041,0.048
53755.380301,16.111,0.05
53755.39346,16.153,0.052
53775.35243,16.244,0.067
53775.365187,16.322,0.1
53775.378035,16.256,0.068
53775.3908,16.139,0.08
53775.392615,16.01,0.094
53775.403437,16.45,0.157
53775.40646,16.054,0.099
53807.3278,15.612,0.069
53807.339716,15.686,0.063
53807.351639,15.966,0.071
53858.207286,16.445,0.099
53858.217796,16.37,0.107
53858.22809,16.356,0.084
53858.238333,16.316,0.079
53906.172036,16.379,0.078
53906.181555,16.346,0.083
53906.191057,16.499,0.114
53906.200608,16.412,0.112
53906.210139,16.342,0.109
54050.433565,15.935,0.055
54050.445783,15.878,0.052
54050.458082,15.944,0.054
54050.470273,16.049,0.055
54050.482443,16.056,0.054
54079.364405,16.351,0.089
54079.376407,16.313,0.085
54079.388499,16.383,0.091
54079.40051,16.122,0.074
54079.412532,16.218,0.078
54108.331529,15.961,0.05
54108.344232,16.045,0.052
54108.356945,16.037,0.052
54108.369648,16.122,0.054
54108.382366,16.098,0.055
54126.337044,16.124,0.051
54139.324254,15.508,0.028
54139.335966,15.582,0.028
54139.347725,15.662,0.033
54139.359504,15.7,0.037
54139.37119,15.83,0.054
54167.276611,16.258,0.054
54167.2877,16.201,0.061
54167.2988,16.273,0.052
54167.3099,16.226,0.059
54464.382758,16.381,0.061
54464.395705,16.352,0.058
54464.408651,16.284,0.054
54464.421522,16.293,0.056
54464.434218,16.331,0.058
54484.331525,16.389,0.078
54484.343814,16.43,0.079
54484.356584,16.339,0.074
54484.36889,16.315,0.069
54484.381093,16.361,0.076
54495.344113,16.033,0.043
54495.356091,16.072,0.045
54495.368089,16.052,0.043
54495.380301,16.107,0.045
54495.392412,16.12,0.046
54523.27815,16.317,0.045
54523.28971,16.319,0.043
54523.301381,16.275,0.043
54523.313013,16.299,0.043
54523.324467,16.336,0.045
54540.272742,16.313,0.049
54540.283831,16.307,0.049
54540.294712,16.308,0.049
54540.305608,16.266,0.048
54540.316483,16.274,0.049
54554.24674,16.196,0.041
54554.258833,16.213,0.043
54554.270884,16.263,0.046
54554.282907,16.304,0.046
54554.295127,16.263,0.045
54555.18318,16.137,0.056
54555.194898,16.164,0.058
54555.206983,16.187,0.058
54555.218887,16.239,0.059
54555.230576,16.259,0.061
54587.200132,15.766,0.078
54587.210351,15.819,0.079
54587.220518,15.827,0.083
54587.230439,15.889,0.111
54587.240604,15.93,0.089
54620.165972,15.43,0.036
54620.176326,15.453,0.038
54620.187275,15.533,0.04
54620.197615,15.582,0.041
54620.208029,15.627,0.043
