mjd,m,merr
52602.455382,14.681,0.02
52602.500174,14.614,0.018
52602.515115,14.599,0.017
52635.375393,14.788,0.015
52635.403597,14.7,0.015
52635.431704,14.661,0.015
52654.380369,14.644,0.018
52654.409914,14.619,0.018
52654.43943,14.649,0.017
52662.389463,14.69,0.013
52662.404218,14.601,0.015
52662.418983,14.6,0.013
52662.433828,14.663,0.015
52692.347949,14.668,0.013
52692.384867,14.66,0.013
52692.401709,14.681,0.015
52692.423092,14.679,0.015
52720.255745,14.684,0.013
52720.272612,14.713,0.015
52720.29115,14.657,0.015
52720.304392,14.696,0.017
52720.322953,14.649,0.015
52743.270727,14.639,0.022
52749.189182,15.058,0.017
52749.200119,15.048,0.015
52778.182408,14.786,0.044
52778.193841,14.616,0.015
52778.205121,14.556,0.018
52778.216977,14.635,0.022
52780.171489,14.627,0.02
52802.18574,14.635,0.033
52807.168311,14.637,0.018
52807.1783,14.657,0.022
52959.474859,14.715,0.013
52979.42465,14.617,0.033
52979.449803,14.566,0.039
52984.391861,14.889,0.022
52984.404729,14.756,0.02
52984.417706,14.768,0.022
52984.430613,14.721,0.018
52984.443461,14.744,0.018
53009.347666,14.909,0.02
53009.36041,14.893,0.02
53009.373497,14.857,0.02
53009.386495,14.824,0.018
53009.40052,14.747,0.018
53017.334495,14.684,0.017
53017.346713,14.704,0.017
53017.358899,14.684,0.017
53017.371176,14.689,0.017
53017.383438,14.699,0.017
53044.419694,14.867,0.022
53074.27624,14.704,0.017
53074.287129,14.72,0.017
53074.298045,14.657,0.015
53074.30947,14.703,0.017
53074.320433,14.689,0.015
53104.24969,14.622,0.013
53104.260683,14.632,0.015
53104.271629,14.62,0.015
53104.282633,14.635,0.017
53104.293654,14.628,0.017
53133.217839,14.751,0.03
53133.227253,14.737,0.017
53133.236723,14.768,0.017
53156.207199,14.605,0.02
53156.216037,14.617,0.02
53156.224923,14.643,0.02
53156.233725,14.635,0.02
53156.242547,14.61,0.02
53162.182514,14.663,0.02
53162.192697,14.615,0.017
53162.202873,14.881,0.024
53192.169464,14.681,0.017
53192.179563,14.673,0.017
53192.189701,14.661,0.017
53192.199865,14.701,0.018
53192.210039,14.682,0.018
53339.40593,14.585,0.02
53339.420888,14.577,0.02
53339.433551,14.604,0.018
53339.446709,14.616,0.02
53339.46019,14.594,0.02
53399.359925,14.689,0.017
53399.372907,14.674,0.017
53399.387227,14.659,0.017
53399.401163,14.657,0.017
53399.416903,14.653,0.017
53428.338224,14.605,0.017
53428.350079,14.625,0.017
53428.388801,14.509,0.028
53459.246616,14.857,0.015
53459.257109,14.843,0.017
53459.267667,14.814,0.017
53459.278188,14.777,0.017
53459.288578,14.735,0.018
53482.243475,14.695,0.026
53482.25577,14.757,0.028
53482.267543,14.823,0.03
53482.2793,14.84,0.03
53482.290563,14.981,0.033
53487.224639,14.668,0.017
53487.234223,14.637,0.017
53533.17139,14.773,0.018
53533.181098,14.756,0.018
53533.190779,14.792,0.02
53533.20047,14.802,0.02
53533.210184,14.822,0.02
53561.181056,14.565,0.03
53561.203111,14.699,0.017
53561.214116,14.633,0.017
53666.449434,14.691,0.018
53753.34207,14.691,0.017
53753.355541,14.699,0.017
53753.368405,14.687,0.017
53753.394111,14.712,0.017
53777.409446,14.672,0.021
53777.426095,14.652,0.021
53777.441541,14.681,0.021
53777.45652,14.693,0.021
53777.471265,14.659,0.021
53832.23329,15.255,0.025
53832.244369,15.268,0.025
53832.255271,15.228,0.025
53832.266057,15.223,0.025
53832.276976,15.231,0.025
53872.219266,14.644,0.012
53872.231426,14.629,0.012
53872.243261,14.645,0.013
53872.254811,14.614,0.013
54048.433939,14.603,0.017
54048.446133,14.584,0.017
54048.458239,14.653,0.017
54048.470234,14.621,0.017
54048.48124,14.883,0.03
54048.482333,14.62,0.017
54077.371019,14.676,0.018
54077.384347,14.694,0.018
54077.397772,14.689,0.018
54077.411083,14.664,0.018
54077.424378,14.661,0.018
54166.278385,14.567,0.028
54166.301241,14.529,0.022
54217.223073,14.722,0.026
54217.231366,14.694,0.025
54217.23963,14.705,0.025
54217.247954,14.701,0.025
54217.256703,14.734,0.026
54454.421047,14.98,0.02
54454.434211,14.857,0.018
54454.44699,14.785,0.016
54454.460092,14.727,0.016
54462.389155,14.628,0.016
54462.401743,14.636,0.016
54462.414545,14.627,0.016
54462.427674,14.636,0.016
54462.44026,14.64,0.016
54521.30377,14.699,0.015
54521.315464,14.651,0.016
54521.32724,14.695,0.015
54521.338918,14.694,0.016
54552.256185,14.721,0.018
54552.268218,14.731,0.018
54552.280364,14.706,0.018
54552.292379,14.708,0.018
54552.304415,14.735,0.02
