mjd,m,merr
52619.462195,16.272,0.054
52619.477629,16.376,0.057
52619.493168,16.391,0.061
52619.508656,16.359,0.057
52619.52414,16.429,0.057
52644.47977,16.149,0.035
52644.494599,16.068,0.043
52644.509626,16.107,0.043
52644.524354,16.114,0.067
52648.33038,16.092,0.046
52648.344996,16.079,0.044
52648.359803,15.938,0.061
52648.374646,16.046,0.039
52648.38938,16.101,0.041
52666.390047,16.108,0.045
52671.391914,16.252,0.041
52671.407139,16.269,0.041
52671.422439,16.278,0.043
52671.437622,16.4,0.046
52671.452961,16.349,0.046
52674.391506,16.117,0.037
52674.405391,16.14,0.035
52674.41938,16.146,0.037
52674.433376,16.155,0.037
52674.447343,16.187,0.041
52698.328197,16.383,0.049
52698.341371,16.267,0.046
52698.35504,16.124,0.041
52698.368089,16.109,0.059
52704.308322,16.347,0.044
52704.321807,16.343,0.043
52704.335165,16.4,0.044
52704.348745,16.409,0.046
52704.362225,16.453,0.05
52725.309871,16.281,0.041
52725.321444,16.338,0.076
52725.333269,16.363,0.07
52725.345151,16.315,0.07
52725.356756,16.348,0.089
52728.23397,16.05,0.033
52728.245993,16.089,0.035
52728.258481,16.061,0.033
52728.270768,16.081,0.033
52728.283198,16.089,0.035
52754.202122,15.919,0.035
52754.214275,15.94,0.037
52754.226572,16.022,0.037
52754.238755,15.956,0.039
52754.250878,16.074,0.041
52760.201138,16.385,0.044
52760.213173,16.343,0.044
52760.225091,16.329,0.044
52760.237038,16.228,0.043
52760.248964,16.199,0.043
52767.201394,16.022,0.054
52767.213215,16.091,0.058
52767.225785,16.091,0.058
52767.237406,16.042,0.056
52767.249536,16.044,0.058
52789.167192,16.367,0.057
52789.177536,16.424,0.065
52789.187853,16.369,0.063
52789.198226,16.298,0.063
52789.208684,16.498,0.068
52794.166653,16.375,0.063
52794.176686,16.436,0.067
52794.186599,16.459,0.072
52794.196533,16.431,0.072
52794.206471,16.482,0.078
52967.44369,16.092,0.043
52967.456408,16.115,0.043
52967.469081,16.129,0.041
52967.481962,16.125,0.039
52967.49451,16.189,0.041
52973.456711,16.121,0.041
52973.469664,16.06,0.037
52973.48253,15.957,0.037
52973.495497,15.919,0.037
52973.508435,15.908,0.037
52993.395518,16.045,0.026
52993.408567,16.092,0.028
52993.421994,16.056,0.026
52993.435061,16.073,0.026
52993.448314,16.132,0.026
52996.40268,16.103,0.03
52996.41578,16.062,0.026
52996.429282,16.034,0.024
52996.442512,16.054,0.024
52996.455653,16.036,0.024
53001.405251,16.027,0.024
53001.418253,16.047,0.024
53001.431247,15.969,0.022
53001.444386,15.998,0.024
53001.457486,16.019,0.022
53027.336075,15.915,0.024
53027.348946,16.052,0.024
53027.361664,15.995,0.024
53027.37446,15.936,0.022
53027.387137,15.982,0.022
53033.337608,16.473,0.054
53033.34983,16.422,0.051
53033.36216,16.386,0.049
53033.374675,16.359,0.086
53033.386974,16.315,0.054
53052.329099,16.178,0.035
53052.341423,16.317,0.041
53052.353871,16.273,0.039
53052.365759,16.384,0.043
53052.377605,16.422,0.043
53060.303655,16.181,0.025
53060.304555,16.224,0.028
53060.315871,16.177,0.023
53060.316682,16.225,0.028
53060.340069,16.257,0.025
53060.340763,16.35,0.03
53061.270392,16.24,0.03
53061.27958,16.277,0.028
53061.28195,16.114,0.028
53061.291533,16.2,0.026
53061.293161,16.085,0.026
53061.303578,16.121,0.025
53061.304334,16.061,0.026
53061.315494,16.032,0.024
53061.315702,16.092,0.025
53061.327694,16.087,0.023
53079.275893,16.066,0.035
53079.287034,16.112,0.036
53079.298052,16.072,0.035
53079.308999,16.06,0.035
53079.32008,16.016,0.035
53080.277861,16.355,0.044
53080.289401,16.435,0.046
53080.301361,16.383,0.044
53080.312725,16.363,0.044
53080.324051,16.377,0.044
53084.283509,15.903,0.022
53084.294419,15.943,0.022
53084.305306,16.0,0.022
53084.316546,15.907,0.024
53084.329889,15.948,0.024
53086.224576,16.08,0.111
53086.224745,16.174,0.12
53086.236152,16.122,0.057
53086.236321,16.124,0.057
53086.247214,16.114,0.068
53086.247383,16.214,0.081
53086.258742,16.137,0.052
53086.258912,16.11,0.054
53086.270163,16.093,0.041
53086.270413,16.136,0.043
53086.299487,16.199,0.033
53086.311063,16.152,0.041
53086.322609,16.307,0.038
53086.33462,16.242,0.045
53086.346117,16.286,0.036
53087.228171,16.361,0.038
53087.239202,16.297,0.031
53087.250287,16.314,0.031
53087.261728,16.172,0.028
53087.272864,16.145,0.028
53110.193502,16.164,0.049
53110.204486,16.057,0.045
53110.21541,16.068,0.045
53110.226345,16.099,0.045
53110.237303,16.04,0.043
53115.250237,15.853,0.028
53115.261596,15.897,0.03
53115.27269,15.927,0.031
53115.28377,15.91,0.03
53115.294874,15.926,0.031
53117.258194,16.273,0.033
53117.268607,16.294,0.036
53117.279112,16.317,0.038
53117.289948,16.346,0.04
53117.30092,16.408,0.043
53138.200616,16.11,0.041
53138.210473,16.156,0.041
53138.220347,16.191,0.045
53138.230141,16.165,0.048
53138.23997,16.199,0.048
53143.228577,16.207,0.043
53143.237993,16.245,0.046
53143.247424,16.368,0.054
53143.256766,16.346,0.048
53143.266115,16.433,0.05
53147.164736,16.371,0.051
53147.173804,16.383,0.051
53147.182548,16.307,0.049
53147.191332,16.403,0.053
53147.200844,16.22,0.046
53166.167854,16.238,0.069
53166.178561,16.285,0.074
53166.188573,16.22,0.076
53166.198468,16.321,0.087
53166.208227,16.371,0.091
53348.451695,16.435,0.059
53348.46461,16.352,0.057
53348.477067,16.337,0.105
53348.489526,16.259,0.07
53348.503816,16.19,0.05
53354.395313,16.267,0.05
53354.40843,16.186,0.044
53354.421591,16.279,0.046
53354.434728,16.352,0.046
53354.447876,16.39,0.046
53377.405081,16.518,0.052
53377.418289,16.509,0.05
53377.431476,16.433,0.046
53377.445908,16.492,0.048
53377.459965,16.502,0.048
53382.499501,16.136,0.039
53382.513856,16.111,0.037
53382.529905,16.039,0.035
53404.369907,16.092,0.03
53404.382697,16.104,0.031
53404.395528,16.161,0.033
53404.408372,16.149,0.035
53404.421811,16.246,0.039
53410.475667,16.144,0.031
53410.488812,16.101,0.03
53410.50128,16.138,0.031
53410.513717,16.176,0.033
53415.357715,16.111,0.035
53415.370174,16.065,0.033
53415.382605,16.056,0.035
53415.395657,16.003,0.033
53415.408114,16.032,0.035
53433.35841,16.082,0.033
53433.369856,16.077,0.033
53433.381295,15.989,0.033
53433.393911,16.085,0.039
53433.405644,16.121,0.041
53441.281112,16.174,0.035
53441.292489,16.127,0.033
53441.303891,16.117,0.031
53441.315331,16.133,0.033
53441.326731,16.08,0.031
53465.282137,16.366,0.05
53465.293501,16.376,0.052
53465.305443,16.355,0.05
53465.316089,16.268,0.046
53465.327402,16.275,0.046
53471.262832,16.303,0.05
53471.273496,16.325,0.052
53471.283536,16.283,0.05
53471.293475,16.338,0.052
53471.30322,16.418,0.057
53493.2467,16.151,0.055
53493.256953,16.001,0.048
53493.26816,16.112,0.057
53493.278686,16.068,0.055
53493.288943,16.028,0.055
53502.192465,16.257,0.054
53502.203642,16.261,0.055
53502.214109,16.312,0.057
53502.225713,16.297,0.059
53502.238157,16.365,0.065
53523.167491,16.191,0.057
53523.178016,16.125,0.054
53523.188574,16.251,0.063
53523.199095,16.228,0.061
53523.209623,16.339,0.076
53526.208781,16.136,0.065
53709.445591,16.081,0.043
53709.459145,15.993,0.039
53709.471989,16.098,0.039
53709.484669,16.023,0.035
53709.497506,16.086,0.031
53712.462873,16.122,0.043
53712.476675,16.028,0.039
53712.489914,16.054,0.039
53712.503056,16.092,0.039
53712.516008,15.991,0.035
53733.397578,16.364,0.052
53733.410404,16.312,0.048
53733.423082,16.212,0.048
53733.435854,16.152,0.043
53733.448652,16.099,0.041
53738.409617,16.161,0.044
53738.422649,16.14,0.043
53738.435637,16.095,0.043
53738.448669,16.091,0.041
53738.461835,16.084,0.081
53747.456147,16.508,0.135
53769.38677,16.085,0.033
53769.400352,16.03,0.033
53769.413863,16.096,0.031
53769.427165,16.042,0.039
53769.440371,16.047,0.041
53788.467173,16.106,0.043
53788.479105,16.102,0.046
53788.491063,16.014,0.044
53788.503069,16.083,0.05
53788.515163,15.995,0.05
53789.350799,16.288,0.137
53789.363708,16.298,0.099
53789.376173,16.279,0.056
53789.388585,16.268,0.041
53789.401203,16.306,0.045
53791.360878,16.4,0.044
53791.372615,16.429,0.046
53791.384358,16.439,0.05
53791.396114,16.406,0.048
53791.407867,16.438,0.052
53794.343796,16.22,0.039
53794.355419,16.226,0.041
53794.367251,16.296,0.043
53794.378889,16.32,0.043
53794.390518,16.324,0.043
53818.280795,16.096,0.043
53818.291406,16.048,0.041
53818.302029,16.039,0.039
53818.312719,16.074,0.043
53818.323528,16.041,0.041
53823.261864,16.034,0.035
53823.272471,16.054,0.037
53823.28345,16.066,0.037
53823.294081,16.05,0.039
53823.306582,16.078,0.039
53824.22598,16.44,0.055
53824.238323,16.423,0.055
53824.251768,16.415,0.052
53824.255009,16.452,0.049
53824.262907,16.483,0.054
53824.273732,16.454,0.052
53824.279616,16.504,0.054
53824.291098,16.444,0.054
53824.302524,16.461,0.071
53825.279475,16.261,0.048
53825.290545,16.258,0.048
53825.302992,16.359,0.059
53825.313315,16.346,0.052
53825.325028,16.338,0.057
53829.264107,16.928,0.45
53829.275079,16.332,0.141
53845.193894,16.403,0.067
53845.204597,16.356,0.061
53845.215458,16.351,0.061
53845.226193,16.393,0.067
53845.236936,16.406,0.098
53848.241507,16.289,0.061
53848.251952,16.393,0.072
53848.262693,16.397,0.076
53848.284049,16.43,0.076
53849.248698,16.069,0.043
53849.259434,16.061,0.043
53849.270127,16.07,0.044
53849.28082,16.142,0.048
53849.291734,16.147,0.05
53851.193328,16.008,0.046
53851.203559,16.097,0.049
53851.21383,16.125,0.051
53851.224132,16.203,0.058
53851.234471,16.117,0.053
53852.253499,16.114,0.054
53852.263857,16.132,0.055
53852.27467,16.123,0.055
53852.285047,16.086,0.054
53852.296742,16.067,0.055
53855.201357,16.384,0.059
53855.212028,16.437,0.063
53855.22273,16.392,0.061
53855.23338,16.327,0.059
53855.244076,16.358,0.061
53858.195382,16.155,0.128
53858.205481,16.361,0.142
53858.215597,16.369,0.109
53858.225751,16.404,0.126
53858.23604,16.479,0.105
53880.157706,16.119,0.057
53880.16885,16.06,0.055
53880.180045,16.09,0.057
53880.191205,16.094,0.057
53880.202388,16.128,0.059
53881.1618,16.384,0.063
53881.171751,16.473,0.068
53881.181981,16.507,0.071
53881.194378,16.393,0.064
53881.204464,16.366,0.063
53883.167748,16.274,0.063
53883.180804,16.212,0.061
53883.193228,16.087,0.057
53883.204631,16.195,0.063
53883.216138,16.225,0.067
53885.159682,16.086,0.055
53885.171861,16.046,0.054
53885.183949,16.093,0.057
53885.196073,16.055,0.059
53885.208204,16.118,0.063
53886.159031,16.373,0.073
53886.191851,16.372,0.081
53886.201652,16.385,0.079
54058.44707,16.499,0.084
54058.460113,16.446,0.078
54058.472703,16.432,0.076
54058.485189,16.453,0.071
54058.497586,16.418,0.066
54061.441992,16.235,0.048
54061.454535,16.293,0.048
54061.46709,16.339,0.048
54061.47964,16.316,0.046
54061.492195,16.347,0.05
54064.443527,16.141,0.058
54064.458576,16.139,0.056
54064.472679,16.22,0.061
54064.485759,16.262,0.059
54064.498325,16.27,0.056
54066.457816,16.327,0.052
54067.456929,16.036,0.03
54067.47,16.072,0.031
54067.483082,16.078,0.03
54067.496335,16.123,0.031
54067.509415,16.143,0.03
54084.478923,16.402,0.048
54084.492651,16.359,0.054
54084.506384,16.424,0.054
54084.52011,16.329,0.05
54087.462574,16.337,0.044
54112.43431,16.152,0.058
54112.446967,16.131,0.058
54112.45991,16.084,0.086
54112.47246,16.064,0.053
54112.485173,16.046,0.053
54121.392478,16.179,0.043
54121.405219,16.181,0.045
54121.417729,16.248,0.049
54121.430296,16.346,0.058
54121.442803,16.366,0.056
54124.333544,16.053,0.028
54124.350574,16.068,0.026
54124.365011,16.066,0.026
54124.379551,16.063,0.026
54124.39468,16.088,0.026
54144.329559,16.237,0.045
54144.341483,16.264,0.048
54144.353404,16.274,0.051
54144.36538,16.286,0.068
54144.377634,16.369,0.054
54149.33625,16.35,0.049
54149.348263,16.383,0.051
54149.360683,16.382,0.049
54149.372748,16.473,0.068
54149.384787,16.399,0.051
54153.334062,16.172,0.043
54153.34597,16.15,0.041
54153.357704,16.087,0.041
54153.369459,16.088,0.048
54153.381386,16.014,0.054
54175.319064,16.351,0.039
54175.329836,16.323,0.039
54175.340481,16.436,0.043
54175.351211,16.399,0.043
54175.361897,16.414,0.044
54201.237786,16.208,0.063
54201.247159,16.315,0.066
54201.256391,16.28,0.064
54201.265649,16.315,0.068
54201.274934,16.328,0.069
54207.225118,16.096,0.039
54207.234265,16.104,0.039
54207.243502,16.089,0.037
54207.252651,16.059,0.035
54207.262192,16.066,0.033
54210.223565,16.271,0.044
54210.23249,16.24,0.044
54210.241376,16.22,0.043
54210.250295,16.19,0.043
54210.259207,16.133,0.041
54422.474782,16.268,0.035
54422.487442,16.297,0.037
54422.500091,16.324,0.035
54422.512704,16.349,0.039
54424.454513,16.397,0.043
54424.467177,16.364,0.039
54424.479789,16.425,0.041
54424.492555,16.372,0.039
54424.50534,16.324,0.037
54447.449624,16.308,0.031
54447.462727,16.185,0.028
54447.475782,16.121,0.026
54447.489556,16.147,0.041
54447.502601,16.063,0.024
54454.39522,16.078,0.037
54454.408515,15.992,0.031
54454.421679,16.031,0.03
54454.434959,16.051,0.026
54454.448386,16.056,0.026
54475.392004,16.098,0.026
54475.404929,16.171,0.037
54475.417932,16.072,0.031
54475.430779,16.063,0.024
54475.443616,16.079,0.024
54483.27563,16.281,0.093
54483.288666,16.247,0.078
54483.301895,16.429,0.078
54483.314875,16.399,0.068
54483.327907,16.436,0.068
54495.457671,16.383,0.043
54495.470319,16.414,0.043
54495.482924,16.414,0.044
54495.495535,16.4,0.046
54495.508137,16.452,0.05
54509.27772,16.378,0.035
54509.289789,16.449,0.035
54509.301778,16.431,0.031
54509.313992,16.388,0.03
54509.326002,16.282,0.028
54524.337904,16.048,0.022
54524.349562,16.1,0.024
54524.361094,16.082,0.026
54524.372649,16.075,0.026
54524.38413,16.109,0.026
54555.295122,16.061,0.022
54555.30693,16.083,0.024
54555.318748,16.091,0.024
54555.330682,16.136,0.026
54555.342746,16.158,0.028
54559.17906,16.166,0.03
54559.190622,16.192,0.03
54559.202192,16.236,0.03
54559.213757,16.297,0.031
54559.22548,16.326,0.033
54564.244189,16.432,0.033
54564.255506,16.444,0.035
54564.266816,16.469,0.035
54564.27813,16.431,0.035
54564.289519,16.431,0.035
54581.196706,16.112,0.035
54581.207383,16.106,0.035
54581.218045,16.128,0.035
54581.228724,16.112,0.035
54581.239445,16.067,0.033
54586.195282,16.123,0.081
54586.205469,15.993,0.039
54586.215662,16.042,0.046
54586.236165,16.022,0.035
54594.204343,16.052,0.035
54594.214749,16.081,0.035
54594.225086,16.07,0.037
54594.235427,16.016,0.037
54594.245748,16.068,0.039
54618.161595,16.405,0.046
54618.171793,16.422,0.05
54618.182004,16.4,0.05
54618.192243,16.389,0.048
54618.20242,16.415,0.05
