mjd,m,merr
52614.455368,14.996,0.037
52614.4708,14.993,0.033
52614.486162,14.944,0.018
52614.501368,14.955,0.017
52614.516528,14.975,0.015
52619.461541,14.919,0.017
52619.476971,14.993,0.018
52619.492513,14.951,0.017
52619.507997,14.943,0.017
52619.523423,15.058,0.018
52644.396891,14.966,0.013
52644.433727,14.95,0.013
52644.448747,14.942,0.013
52644.463667,14.969,0.013
52644.478573,14.945,0.013
52648.329749,14.968,0.018
52648.344363,14.946,0.017
52648.359173,14.963,0.018
52648.374017,14.973,0.017
52648.388654,14.948,0.015
52666.389923,15.045,0.018
52667.387175,14.999,0.013
52667.387303,14.993,0.015
52667.402461,14.998,0.013
52667.40259,14.996,0.015
52667.417914,14.996,0.013
52667.418043,14.989,0.015
52667.433385,14.984,0.015
52667.448651,15.012,0.015
52667.448779,15.001,0.015
52671.391263,14.952,0.015
52671.406491,14.962,0.015
52671.421789,15.084,0.015
52671.436974,15.242,0.018
52671.452313,15.392,0.022
52674.391266,14.96,0.015
52674.40515,14.948,0.013
52674.41914,14.948,0.015
52674.433136,14.944,0.015
52674.447103,14.962,0.015
52698.304116,15.026,0.013
52698.317621,15.01,0.013
52698.332415,14.997,0.013
52698.346932,15.001,0.013
52698.361192,15.004,0.015
52704.307562,15.232,0.017
52704.32101,15.098,0.015
52704.334392,15.017,0.015
52704.347975,14.999,0.015
52704.361448,15.015,0.015
52725.314792,14.954,0.023
52725.314907,14.981,0.02
52725.328256,14.996,0.033
52725.328373,14.98,0.028
52725.341279,15.038,0.035
52725.341396,14.985,0.03
52725.353937,15.003,0.031
52725.354051,14.974,0.026
52725.366772,14.969,0.03
52725.366888,15.017,0.023
52728.233253,14.977,0.015
52728.245272,14.964,0.013
52728.257762,14.958,0.013
52728.270038,14.958,0.013
52728.282471,14.965,0.013
52731.27821,14.938,0.115
52754.201899,14.966,0.015
52754.214051,14.961,0.015
52754.226349,14.98,0.015
52754.23853,14.965,0.015
52754.250654,14.983,0.017
52761.200426,14.96,0.022
52761.212442,14.954,0.031
52761.224558,14.984,0.02
52761.236634,14.96,0.02
52761.248668,14.97,0.018
52766.216174,14.956,0.041
52767.201158,14.965,0.023
52767.201267,14.983,0.021
52767.212979,14.958,0.021
52767.213088,14.988,0.021
52767.225549,14.964,0.023
52767.225658,14.982,0.021
52767.23717,14.951,0.023
52767.237279,14.969,0.021
52767.249316,14.949,0.023
52767.249425,14.964,0.021
52789.166547,14.978,0.017
52789.176887,14.994,0.017
52789.187215,14.986,0.017
52789.197569,14.992,0.018
52789.208038,14.983,0.018
52794.166198,15.003,0.018
52794.176235,15.001,0.018
52794.186149,15.008,0.02
52794.196077,15.006,0.02
52794.206014,15.009,0.022
52967.442973,14.963,0.017
52967.455683,14.969,0.017
52967.468363,14.999,0.017
52967.481163,15.002,0.015
52967.493761,14.98,0.015
52974.458925,15.516,0.024
52974.471606,15.39,0.02
52974.484318,15.197,0.018
52974.496987,15.046,0.015
52974.510302,14.982,0.013
52993.398949,14.997,0.013
52993.41137,15.001,0.013
52993.42374,15.007,0.013
52993.436202,15.011,0.012
52993.44859,14.997,0.012
52996.402244,14.976,0.011
52996.415406,14.964,0.011
52996.428853,14.953,0.011
52996.44214,14.987,0.011
52996.455281,14.967,0.011
53001.404881,14.916,0.011
53001.417882,14.954,0.011
53001.457114,14.901,0.009
53027.348579,14.909,0.009
53027.361296,14.895,0.009
53027.374093,14.878,0.009
53027.386768,14.875,0.009
53033.337415,14.977,0.015
53033.349639,14.972,0.015
53033.361968,14.974,0.015
53033.38678,15.017,0.018
53052.328765,15.089,0.015
53052.341088,15.029,0.015
53052.353536,14.923,0.013
53052.365425,14.955,0.013
53052.377271,14.957,0.013
53062.27814,14.993,0.044
53062.289656,14.951,0.033
53062.301086,14.974,0.026
53062.312701,14.975,0.035
53079.27568,14.964,0.015
53079.286821,14.964,0.015
53079.29784,14.979,0.015
53079.308784,14.967,0.015
53079.319867,14.977,0.015
53084.283175,14.875,0.009
53084.294084,14.923,0.009
53084.304972,15.046,0.009
53084.316212,15.049,0.011
53084.329555,15.268,0.013
53086.299099,14.934,0.012
53086.310674,14.941,0.013
53086.322219,14.936,0.012
53086.334231,14.955,0.015
53086.345728,14.944,0.013
53110.193226,15.002,0.018
53110.204216,15.0,0.018
53110.215138,14.993,0.018
53110.226073,14.979,0.018
53110.23703,14.977,0.018
53117.258033,14.985,0.012
53117.268446,14.956,0.012
53117.278951,14.972,0.012
53117.289787,14.977,0.012
53117.300759,14.977,0.012
53138.200362,14.933,0.015
53138.210219,14.967,0.016
53138.220093,14.987,0.016
53138.229887,14.97,0.016
53138.239716,14.967,0.016
53147.16444,14.951,0.013
53147.173521,14.951,0.015
53147.182265,14.942,0.015
53147.191053,14.95,0.015
53147.200548,14.94,0.015
53166.167683,15.021,0.025
53166.178403,14.989,0.025
53166.188415,14.991,0.026
53166.198311,14.993,0.028
53166.208068,14.986,0.026
53348.45159,15.306,0.022
53348.464505,15.179,0.022
53348.476963,15.073,0.033
53348.489421,15.023,0.024
53348.503711,15.033,0.02
53354.395205,15.017,0.017
53354.408322,14.99,0.017
53354.421483,15.01,0.017
53354.43462,15.003,0.015
53354.447768,15.012,0.015
53377.404971,15.39,0.02
53377.41818,15.576,0.024
53377.431367,15.547,0.022
53377.445799,15.377,0.02
53377.459856,15.219,0.017
53382.439805,14.993,0.017
53382.469273,14.952,0.015
53382.483963,14.983,0.015
53382.498629,14.969,0.015
53404.369152,14.984,0.011
53404.381934,14.987,0.013
53404.394782,14.982,0.013
53404.407623,14.989,0.013
53404.421045,14.992,0.015
53405.343424,14.976,0.013
53405.352733,14.927,0.015
53405.355523,14.993,0.013
53405.365739,14.932,0.015
53405.368341,14.968,0.013
53405.378834,14.942,0.013
53405.38469,14.976,0.013
53405.391801,14.969,0.015
53405.398074,14.992,0.013
53405.404623,14.934,0.015
53410.475403,15.003,0.013
53410.488548,14.994,0.013
53410.501013,15.002,0.013
53410.513453,14.996,0.013
53415.35697,14.996,0.015
53415.369429,14.971,0.015
53415.381857,15.016,0.015
53415.394912,15.019,0.015
53415.407367,15.007,0.015
53433.358166,14.976,0.013
53433.369612,14.984,0.013
53433.381051,14.94,0.015
53433.393667,14.934,0.015
53433.4054,14.943,0.017
53441.280861,14.977,0.013
53441.292238,14.961,0.013
53441.303641,14.982,0.013
53441.315079,14.97,0.013
53441.326481,14.981,0.013
53442.257917,15.183,0.015
53442.269227,15.319,0.017
53442.280529,15.458,0.02
53442.292373,15.596,0.022
53442.304297,15.495,0.02
53443.268896,15.015,0.013
53443.279747,15.017,0.013
53443.291229,15.005,0.013
53443.302082,15.007,0.013
53443.3135,15.012,0.013
53465.281933,15.036,0.018
53465.293298,15.014,0.018
53465.305239,15.033,0.018
53465.315885,15.01,0.017
53465.327198,15.045,0.017
53471.262629,15.218,0.02
53471.273293,15.348,0.022
53471.283332,15.511,0.026
53471.29327,15.595,0.028
53471.303017,15.579,0.028
53493.246493,14.983,0.02
53493.256745,14.965,0.02
53493.2679,14.978,0.02
53493.278478,14.991,0.022
53493.288734,15.008,0.022
53502.14944,14.947,0.017
53502.160224,14.973,0.017
53502.170783,14.969,0.017
53502.181621,14.973,0.017
53502.192053,14.99,0.018
53523.167274,15.284,0.028
53523.177799,15.411,0.028
53523.188355,15.572,0.033
53523.198877,15.621,0.035
53523.209405,15.546,0.041
53526.2086,15.108,0.028
53706.471891,15.018,0.017
53706.509889,15.017,0.017
53709.44479,15.339,0.024
53709.458281,15.179,0.02
53709.471188,15.056,0.017
53709.483868,15.019,0.015
53709.496706,14.998,0.013
53712.46244,15.537,0.028
53712.476243,15.622,0.03
53712.489482,15.455,0.024
53712.502623,15.275,0.02
53712.515576,15.117,0.018
53733.396778,14.995,0.017
53733.409603,14.994,0.017
53733.422281,14.998,0.017
53733.435054,15.014,0.017
53733.447851,15.004,0.017
53738.409475,15.621,0.03
53738.422507,15.648,0.03
53738.435495,15.466,0.026
53738.448527,15.273,0.02
53738.461693,15.157,0.055
53769.386616,14.94,0.013
53769.400198,14.951,0.013
53769.413708,14.954,0.013
53769.427011,14.974,0.017
53769.440217,14.984,0.017
53788.466902,15.018,0.017
53788.478833,15.009,0.018
53788.490794,15.028,0.018
53788.5028,15.044,0.02
53788.514892,15.041,0.022
53789.350507,15.01,0.045
53789.363417,15.02,0.035
53789.375883,15.024,0.021
53789.388295,15.02,0.015
53789.400912,15.023,0.015
53791.360615,15.021,0.015
53791.372355,15.009,0.015
53791.384098,15.008,0.015
53791.395853,15.001,0.015
53791.407606,14.994,0.015
53794.342997,14.998,0.015
53794.354626,15.0,0.015
53794.366456,15.001,0.015
53794.378092,15.007,0.015
53794.389723,14.993,0.015
53818.28006,14.997,0.017
53818.290671,14.995,0.017
53818.301293,14.975,0.017
53818.311983,14.996,0.017
53818.32279,15.001,0.017
53823.26114,14.974,0.015
53823.271741,14.979,0.015
53823.282723,14.983,0.015
53823.293355,14.977,0.015
53823.305855,14.98,0.017
53825.278768,14.987,0.017
53825.289839,14.984,0.017
53825.302285,14.99,0.018
53825.312606,15.001,0.017
53825.324321,14.998,0.018
53829.231448,15.457,0.063
53829.263357,15.383,0.141
53829.274323,15.181,0.052
53845.193484,14.994,0.02
53845.204186,14.999,0.02
53845.215048,15.047,0.02
53845.225783,15.141,0.022
53845.236526,15.266,0.035
53848.240736,14.972,0.02
53848.251176,14.99,0.024
53848.261921,14.983,0.022
53848.272793,15.057,0.028
53848.283273,15.155,0.026
53849.248478,14.985,0.017
53849.259213,15.002,0.018
53849.269904,14.984,0.018
53849.280598,14.988,0.018
53849.291511,15.02,0.018
53852.195707,14.975,0.02
53852.205983,14.991,0.021
53852.216173,14.985,0.021
53852.226344,14.994,0.021
53852.23653,15.008,0.021
53852.25283,14.964,0.02
53852.263201,14.997,0.02
53852.274013,14.995,0.02
53852.284387,15.005,0.022
53852.296063,14.997,0.022
53855.200717,15.437,0.028
53855.211387,15.306,0.024
53855.222085,15.174,0.022
53855.232738,15.082,0.02
53855.243432,15.011,0.02
53858.194707,15.082,0.052
53858.204807,15.155,0.055
53858.21492,15.237,0.033
53858.225075,15.362,0.059
53858.235362,15.462,0.039
53881.161615,15.342,0.026
53881.163794,15.3,0.028
53881.171567,15.227,0.023
53881.174956,15.19,0.026
53881.181796,15.092,0.021
53881.186021,15.078,0.022
53881.194192,15.02,0.02
53881.197188,15.029,0.022
53881.204277,15.007,0.02
53881.20834,15.015,0.024
53883.16711,15.009,0.022
53883.180159,14.995,0.022
53883.192588,15.014,0.024
53883.203987,14.992,0.022
53883.215492,14.988,0.022
53886.158848,15.022,0.023
53886.168844,15.004,0.023
53886.17887,15.02,0.023
53886.191386,15.017,0.025
53886.201186,14.989,0.023
53887.166023,14.939,0.031
53887.17616,15.004,0.036
54054.421094,15.282,0.031
54054.432627,15.108,0.026
54054.444201,15.009,0.024
54054.455697,15.018,0.022
54054.467471,15.028,0.02
54058.472417,15.0,0.021
54058.4973,15.001,0.02
54061.441197,14.989,0.017
54061.453738,14.994,0.017
54061.466295,14.971,0.015
54061.478847,14.997,0.015
54061.491399,14.99,0.015
54067.456632,14.983,0.013
54067.469703,14.969,0.013
54067.482785,14.972,0.013
54067.496038,14.959,0.013
54067.509118,14.972,0.011
54083.492594,15.023,0.033
54084.478059,14.939,0.015
54084.491787,14.967,0.017
54084.505519,14.952,0.017
54084.519248,14.959,0.017
54087.461768,14.985,0.015
54121.39168,15.031,0.015
54121.40443,15.041,0.015
54121.416944,15.027,0.016
54121.429509,15.038,0.016
54121.441934,15.035,0.016
54124.332671,14.984,0.013
54124.349702,14.992,0.011
54124.364141,15.0,0.011
54124.378681,14.999,0.011
54124.393809,15.005,0.011
54144.329281,15.031,0.016
54144.341204,15.052,0.016
54144.353124,15.061,0.018
54144.365073,15.057,0.018
54144.377352,15.037,0.016
54149.335481,14.997,0.016
54149.347493,14.986,0.015
54149.359914,15.002,0.015
54149.371983,14.995,0.016
54149.384018,14.991,0.015
54153.33365,15.039,0.016
54153.345555,15.035,0.016
54153.35729,15.046,0.018
54153.369045,15.042,0.021
54153.380972,15.046,0.02
54175.274112,14.981,0.013
54175.284758,14.989,0.013
54175.295403,14.979,0.013
54175.306059,14.984,0.013
54175.316877,14.977,0.013
54207.22446,14.997,0.017
54207.233606,14.995,0.017
54207.242846,15.015,0.015
54207.251991,14.999,0.015
54207.261532,15.011,0.015
54208.213086,15.011,0.018
54208.221845,15.003,0.018
54208.230554,15.002,0.018
54208.239382,15.009,0.018
54208.248115,15.001,0.018
54210.222913,15.034,0.017
54210.231843,15.02,0.017
54210.24073,15.03,0.017
54210.249645,15.03,0.017
54210.258558,15.021,0.017
54424.47871,14.961,0.011
54424.491458,15.007,0.013
54424.504221,15.093,0.013
54447.449223,15.422,0.015
54447.462329,15.219,0.015
54447.475383,15.061,0.011
54447.489156,15.02,0.02
54447.502202,14.959,0.011
54450.492855,15.533,0.015
54450.506014,15.327,0.013
54454.394077,14.959,0.015
54454.40737,14.939,0.013
54454.420537,14.983,0.013
54454.433813,14.966,0.011
54454.447241,14.993,0.011
54475.391679,15.004,0.011
54475.404607,15.016,0.02
54475.417611,15.0,0.013
54475.430457,15.005,0.011
54475.443296,15.007,0.011
54483.274816,15.16,0.033
54483.287849,15.368,0.035
54483.301082,15.499,0.035
54483.314062,15.414,0.031
54495.457257,14.989,0.013
54495.46991,15.1,0.015
54495.482514,15.253,0.017
54495.495125,15.363,0.018
54495.507726,15.558,0.024
54509.277547,15.198,0.013
54509.289615,15.069,0.011
54509.301604,15.056,0.011
54509.313819,14.981,0.009
54509.325829,14.965,0.009
54524.337532,14.997,0.009
54524.349012,14.99,0.009
54524.36072,14.981,0.011
54524.372275,14.977,0.011
54524.383759,14.997,0.011
54532.277663,14.936,0.009
54532.289017,14.957,0.009
54532.300263,14.975,0.009
54532.311989,14.97,0.009
54532.323899,14.977,0.009
54555.2948,14.96,0.009
54555.306608,14.954,0.009
54555.318428,14.959,0.009
54555.33036,14.96,0.009
54555.342425,14.97,0.011
54559.13249,14.982,0.011
54559.144056,15.002,0.011
54559.15554,15.002,0.011
54559.166992,14.997,0.011
54559.17849,14.989,0.011
54581.196452,14.981,0.015
54581.207129,14.973,0.015
54581.217791,14.986,0.013
54581.228472,14.997,0.015
54581.239191,15.004,0.015
54586.205209,14.986,0.024
54586.2154,14.974,0.015
54586.235904,15.012,0.015
54594.204073,14.983,0.015
54594.214483,14.99,0.015
54594.224819,14.99,0.015
54594.235161,14.99,0.015
54594.245481,14.976,0.015
54618.161372,14.982,0.013
54618.171571,14.974,0.015
54618.181782,15.005,0.015
54618.192021,15.003,0.015
54618.202201,15.003,0.015
