mjd,m,merr
52639.46927,15.038,0.016
52639.484065,15.108,0.016
52639.499004,15.171,0.018
52639.515099,15.245,0.02
52643.410921,15.107,0.018
52643.426973,15.051,0.016
52643.443265,14.961,0.015
52643.459554,14.909,0.013
52643.476007,14.866,0.013
52649.46103,15.081,0.018
52649.479012,15.038,0.017
52649.493634,14.994,0.017
52649.507921,14.987,0.017
52649.522223,14.997,0.017
52666.384879,14.942,0.015
52666.400122,14.79,0.013
52666.415271,14.723,0.013
52666.430366,14.703,0.013
52666.44575,14.757,0.013
52670.407953,15.239,0.018
52670.421628,15.255,0.021
52670.421954,15.258,0.018
52670.435891,15.205,0.018
52670.436276,15.237,0.02
52670.449801,15.13,0.017
52670.450899,15.151,0.018
52670.465492,15.044,0.018
52670.480106,14.875,0.015
52676.288199,15.134,0.018
52676.303571,15.036,0.018
52676.319156,14.918,0.017
52676.334734,14.815,0.015
52676.35026,14.746,0.015
52698.303835,15.067,0.015
52698.31734,15.051,0.015
52698.332047,15.067,0.015
52698.346517,15.048,0.015
52698.360909,15.055,0.017
52701.306744,15.123,0.041
52701.320003,14.864,0.045
52701.346132,14.819,0.013
52701.359362,14.827,0.013
52703.327669,16.23,0.107
52703.34585,15.652,0.045
52724.244531,15.353,0.021
52724.256575,15.438,0.023
52724.268625,15.487,0.023
52724.26874,15.243,0.018
52724.281942,15.247,0.018
52724.293962,15.539,0.025
52729.234716,15.355,0.021
52729.234831,15.205,0.018
52729.246826,15.335,0.021
52729.246942,15.195,0.018
52729.259848,15.329,0.021
52729.259963,15.183,0.018
52729.272839,15.16,0.018
52729.288382,15.288,0.02
52729.288498,15.12,0.018
52732.245362,15.454,0.033
52732.245476,15.05,0.02
52732.257497,15.366,0.025
52732.257612,15.067,0.016
52732.269742,15.372,0.026
52732.269856,15.049,0.016
52732.281957,15.388,0.026
52732.282071,15.036,0.016
52732.293916,15.334,0.026
52732.294029,14.994,0.016
52754.228945,15.48,0.028
52754.24146,15.483,0.028
52754.253798,15.512,0.03
52761.200667,15.005,0.022
52761.212673,15.079,0.035
52761.224789,15.105,0.022
52761.236874,15.177,0.024
52761.248893,15.207,0.022
52768.15486,14.921,0.028
52768.167784,14.899,0.028
52768.179892,14.938,0.03
52768.191627,14.955,0.03
52768.204006,15.07,0.033
52789.165855,15.208,0.028
52789.197631,15.218,0.026
52789.208279,15.229,0.028
52791.1664,15.087,0.045
52962.452672,15.093,0.02
52962.46568,15.188,0.02
52962.477963,15.189,0.02
52962.490679,15.209,0.02
52962.503461,15.23,0.02
52974.458656,15.135,0.018
52974.471336,15.154,0.018
52974.484049,15.146,0.018
52974.496717,15.09,0.017
52974.509632,15.055,0.017
52977.442757,15.107,0.018
52977.475984,15.106,0.016
52992.475031,15.199,0.013
52992.52767,15.118,0.015
53000.433866,14.972,0.008
53000.448532,14.842,0.007
53000.462991,14.731,0.007
53000.478212,14.704,0.007
53000.491611,14.723,0.007
53002.467201,15.015,0.011
53002.480672,14.918,0.009
53002.4942,14.807,0.009
53002.507681,14.73,0.009
53034.337029,15.114,0.018
53034.348874,15.132,0.018
53034.360804,15.171,0.018
53034.372799,15.226,0.018
53034.384771,15.222,0.018
53051.328851,15.191,0.015
53051.341048,15.223,0.017
53051.352682,15.218,0.017
53051.364391,15.216,0.017
53051.376009,15.191,0.017
53053.356439,15.142,0.015
53053.391372,15.186,0.02
53054.36485,14.87,0.011
53054.37956,14.819,0.011
53054.391553,14.787,0.009
53054.404217,14.803,0.011
53054.416149,14.804,0.011
53062.34872,15.045,0.026
53062.36087,15.062,0.028
53062.374021,15.116,0.018
53062.386314,15.117,0.016
53062.398333,15.12,0.023
53078.315767,15.12,0.016
53078.326786,15.161,0.016
53078.337707,15.17,0.018
53078.348627,15.215,0.018
53087.28427,14.747,0.009
53087.294791,14.788,0.009
53087.305622,14.815,0.009
53087.316558,14.87,0.009
53087.327213,14.897,0.011
53090.228753,14.873,0.012
53090.239431,14.907,0.012
53090.250183,14.957,0.013
53090.261066,14.991,0.015
53090.27239,15.05,0.013
53109.19063,15.07,0.016
53109.200911,15.042,0.016
53109.2114,15.059,0.016
53109.221778,15.092,0.016
53109.232089,15.073,0.016
53137.211848,15.115,0.02
53137.232084,15.199,0.021
53148.162401,14.971,0.013
53148.171313,14.984,0.017
53148.180338,14.979,0.017
53148.189298,14.992,0.017
53148.198212,14.978,0.015
53165.168551,15.294,0.048
53165.178795,15.274,0.033
53165.188703,15.3,0.031
53165.214648,15.323,0.036
53165.224486,15.259,0.033
53348.42166,15.19,0.021
53348.436,15.143,0.02
53348.45021,15.141,0.02
53348.464514,15.138,0.023
53348.478737,15.143,0.026
53354.431596,14.983,0.015
53354.446034,15.009,0.015
53354.460251,15.037,0.015
53354.475151,15.062,0.015
53354.489519,15.056,0.015
53357.458353,15.041,0.016
53357.487449,14.92,0.015
53357.516691,14.943,0.025
53404.376137,14.821,0.01
53404.389046,14.793,0.01
53404.40251,14.844,0.012
53501.19397,14.955,0.018
53501.205745,15.029,0.018
53501.216135,15.037,0.018
53501.226128,15.094,0.02
53501.236372,15.123,0.022
53529.159049,15.147,0.026
53529.169444,15.166,0.026
53529.179793,15.108,0.028
53529.190083,15.155,0.026
53529.200664,15.174,0.028
53713.464831,14.753,0.026
53713.477713,14.842,0.059
53713.516744,14.882,0.044
53739.41369,15.08,0.061
53739.426693,15.039,0.028
53739.439677,15.121,0.03
53739.452909,15.079,0.017
53739.466499,15.128,0.017
53770.347071,14.991,0.015
53770.361748,15.033,0.017
53770.375227,15.042,0.017
53770.388213,15.065,0.017
53770.401138,15.083,0.017
53788.298459,14.804,0.016
53788.311084,14.85,0.012
53788.32383,14.907,0.013
53788.336494,14.968,0.012
53788.349345,15.03,0.013
53813.313435,14.977,0.02
53813.324889,15.0,0.02
53813.336347,15.02,0.021
53813.347768,14.997,0.021
53813.359275,15.071,0.023
53844.237358,14.862,0.02
53844.248477,14.863,0.02
53844.259516,14.844,0.02
53844.270464,14.871,0.02
53844.281439,14.903,0.02
53852.195518,15.043,0.02
53852.205794,15.071,0.021
53881.163603,15.042,0.02
53881.174763,14.976,0.02
53881.185826,14.882,0.018
53881.196993,14.82,0.018
53881.208144,14.772,0.018
53886.158548,14.915,0.02
53886.168563,14.905,0.02
53886.178589,14.871,0.02
53886.191655,14.87,0.02
53886.201456,14.835,0.02
53887.16584,15.097,0.035
53887.175979,15.152,0.04
53887.186387,15.137,0.041
53887.196779,15.224,0.046
53887.207178,15.191,0.045
54057.448066,14.974,0.021
54057.462098,14.964,0.02
54057.475984,14.942,0.018
54057.489124,14.968,0.018
54057.502462,14.97,0.018
54068.453307,14.889,0.013
54068.466214,14.895,0.013
54068.479124,14.952,0.015
54068.492027,15.059,0.048
54068.504926,15.078,0.026
54083.45298,15.229,0.064
54083.465994,15.301,0.043
54083.492357,15.322,0.04
54083.505453,15.447,0.063
54154.281912,15.161,0.02
54154.305268,15.056,0.016
54154.328335,14.814,0.013
54169.273588,14.824,0.015
54169.284491,14.846,0.015
54169.295519,14.878,0.016
54169.306415,14.927,0.018
54169.317261,14.955,0.02
54205.222577,15.312,0.023
54205.231838,15.311,0.023
54205.241061,15.283,0.021
54205.250584,15.277,0.021
54205.259831,15.217,0.021
54208.213311,15.049,0.02
54208.222071,15.007,0.02
54208.230821,14.923,0.018
54208.239609,14.838,0.016
54450.493246,15.083,0.013
54476.41002,14.997,0.011
54476.422885,14.96,0.011
54476.435881,14.917,0.011
54476.449126,14.912,0.011
54509.278214,15.09,0.013
54509.290283,15.105,0.013
54509.302275,15.159,0.011
54509.314489,15.134,0.011
54509.326499,15.118,0.011
54532.278032,15.184,0.013
54532.300634,15.159,0.013
54532.312619,15.146,0.011
54532.32427,15.115,0.011
54581.190866,15.241,0.046
54581.220339,15.321,0.049
54587.201511,14.765,0.013
54587.212032,14.759,0.013
54587.222642,14.802,0.013
54587.233191,14.824,0.015
54587.243661,14.856,0.015
54594.203174,14.822,0.028
54594.212825,14.82,0.026
54594.222281,14.848,0.026
54594.231724,14.844,0.028
54594.241212,14.864,0.028
54595.206837,15.121,0.018
54595.21684,15.143,0.02
54595.226921,15.136,0.02
54595.236875,15.123,0.02
54612.173646,14.797,0.023
54612.18222,14.735,0.021
54612.191015,14.741,0.021
54612.199585,14.753,0.023
54619.161114,14.943,0.018
54619.171417,14.823,0.017
54619.181619,14.778,0.015
54619.191873,14.746,0.015
54619.202063,14.75,0.015
