mjd,m,merr
52639.468892,16.521,0.056
52639.483685,16.443,0.053
52639.498623,16.521,0.058
52639.51472,16.56,0.059
52643.409952,16.73,0.074
52643.426006,16.812,0.079
52643.44229,16.83,0.073
52643.458508,16.879,0.073
52643.475052,16.766,0.064
52649.46103,16.895,0.072
52649.479012,16.913,0.076
52649.493634,16.641,0.057
52649.507921,16.454,0.052
52649.522223,16.408,0.05
52666.384879,16.287,0.041
52666.400122,16.279,0.037
52666.415271,16.288,0.041
52666.430366,16.312,0.041
52666.44575,16.368,0.043
52668.38635,16.57,0.194
52669.384451,15.906,0.04
52669.430864,16.267,0.056
52669.447578,16.194,0.056
52670.354355,16.761,0.071
52670.370203,16.672,0.073
52670.385946,16.721,0.073
52670.401608,16.767,0.081
52670.420073,16.862,0.087
52676.288199,16.766,0.072
52676.303571,16.647,0.065
52676.319156,16.71,0.067
52676.334734,16.708,0.07
52676.35026,16.708,0.068
52698.303835,16.484,0.043
52698.31734,16.49,0.043
52698.332047,16.463,0.043
52698.346517,16.54,0.046
52698.360909,16.541,0.05
52703.304834,16.57,0.116
52703.305552,16.694,0.15
52703.326837,16.418,0.129
52703.34222,16.683,0.092
52703.345735,16.698,0.112
52703.360533,16.768,0.211
52703.374947,16.843,0.139
52703.375665,16.667,0.16
52724.243987,16.613,0.061
52724.255972,16.626,0.048
52724.256088,16.761,0.071
52724.268024,16.589,0.046
52724.268139,16.662,0.063
52724.281225,16.649,0.051
52724.28134,16.699,0.066
52724.293359,16.591,0.049
52724.293474,16.699,0.066
52730.241473,16.688,0.066
52730.254138,16.662,0.064
52730.266134,16.697,0.068
52730.278119,16.689,0.066
52730.290386,16.631,0.066
52754.216169,16.526,0.063
52754.228833,16.624,0.073
52754.241348,16.536,0.068
52754.253687,16.554,0.071
52754.266285,16.601,0.074
52761.200667,16.39,0.067
52761.212673,16.494,0.117
52761.224789,16.264,0.055
52761.236874,16.319,0.065
52761.248893,16.259,0.054
52768.15486,16.704,0.139
52768.167784,16.867,0.157
52768.179892,16.839,0.152
52768.191627,16.657,0.135
52768.204006,16.737,0.148
52789.165641,16.885,0.112
52789.176242,16.734,0.094
52789.186793,16.845,0.111
52789.197414,16.718,0.091
52789.208062,16.731,0.097
52791.166182,16.839,0.193
52962.452672,16.314,0.05
52962.46568,16.302,0.048
52962.477963,16.397,0.05
52962.490679,16.42,0.048
52962.503461,16.467,0.05
52974.458656,16.411,0.044
52974.471336,16.426,0.044
52974.484049,16.452,0.044
52974.496717,16.483,0.044
52974.509632,16.465,0.043
52992.475031,16.299,0.035
52992.487836,16.393,0.04
52992.500959,16.388,0.04
52992.51482,16.526,0.068
52992.52767,16.452,0.045
53000.433866,16.54,0.035
53000.448532,16.568,0.033
53000.462991,16.574,0.035
53000.478212,16.603,0.036
53000.491611,16.642,0.036
53001.460648,16.296,0.026
53002.453394,16.679,0.035
53002.467201,16.732,0.035
53002.480672,16.762,0.039
53002.4942,16.805,0.039
53002.507681,16.799,0.041
53034.337029,16.81,0.079
53034.348874,16.986,0.091
53034.360804,16.824,0.078
53034.372799,16.734,0.069
53034.384771,16.701,0.068
53051.328851,16.329,0.033
53051.341048,16.374,0.037
53051.352682,16.39,0.037
53051.364391,16.424,0.041
53051.376009,16.458,0.043
53053.344806,16.641,0.052
53053.356439,16.629,0.048
53053.368108,16.671,0.057
53053.379755,16.637,0.087
53053.391372,16.698,0.065
53054.36485,16.413,0.035
53054.37956,16.52,0.039
53054.391553,16.514,0.039
53054.404217,16.54,0.043
53054.416149,16.533,0.043
53062.34872,16.639,0.099
53062.36087,16.765,0.15
53062.374021,16.706,0.076
53062.386314,16.748,0.073
53062.398333,16.665,0.084
53078.315767,16.3,0.045
53078.326786,16.335,0.048
53078.337707,16.355,0.049
53078.348627,16.339,0.049
53087.28427,16.321,0.028
53087.294791,16.302,0.028
53087.305622,16.294,0.028
53087.316558,16.348,0.03
53087.327213,16.3,0.028
53090.228753,16.752,0.063
53090.239431,16.597,0.051
53090.250183,16.486,0.048
53090.261066,16.404,0.049
53092.223087,16.476,0.046
53092.233363,16.459,0.046
53092.243829,16.47,0.044
53092.254419,16.502,0.048
53092.264824,16.509,0.048
53109.19063,16.692,0.069
53109.200911,16.747,0.073
53109.2114,16.743,0.073
53109.221778,16.803,0.076
53109.232089,16.763,0.073
53137.202177,16.292,0.058
53137.211848,16.348,0.061
53137.222178,16.46,0.063
53137.232084,16.416,0.063
53137.241671,16.51,0.068
53148.162401,16.569,0.05
53148.171313,16.619,0.061
53148.180338,16.601,0.061
53148.189298,16.582,0.065
53148.198212,16.628,0.057
53165.168551,16.693,0.196
53165.178795,16.603,0.107
53165.188703,16.642,0.102
53165.214648,16.828,0.15
53165.224486,16.83,0.137
53348.42166,16.869,0.096
53348.436,16.656,0.074
53348.45021,16.398,0.058
53348.464514,16.345,0.066
53348.478737,16.169,0.068
53354.431596,16.693,0.066
53354.446034,16.458,0.051
53354.460251,16.348,0.046
53354.475151,16.231,0.04
53354.489519,16.149,0.036
53357.458353,16.36,0.049
53357.472911,16.236,0.043
53357.487449,16.212,0.041
53357.501956,16.196,0.041
53357.516691,16.168,0.058
53404.376137,16.256,0.035
53404.389046,16.265,0.036
53404.40251,16.264,0.04
53404.415478,16.317,0.043
53404.428421,16.342,0.046
53501.19397,16.501,0.063
53501.205745,16.571,0.067
53501.216135,16.539,0.065
53501.226128,16.614,0.074
53501.236372,16.598,0.074
53529.159049,16.828,0.109
53529.169444,16.699,0.1
53529.179793,16.623,0.098
53529.190083,16.475,0.083
53529.200664,16.452,0.081
53713.464831,16.811,0.137
53713.516744,16.772,0.207
53739.426693,16.349,0.072
53739.439677,16.283,0.074
53739.452909,16.328,0.041
53739.466499,16.373,0.043
53770.347071,16.689,0.055
53770.361748,16.727,0.061
53770.375227,16.679,0.055
53770.388213,16.706,0.063
53770.401138,16.685,0.061
53788.298459,16.69,0.086
53788.311084,16.687,0.053
53788.32383,16.661,0.053
53788.336494,16.704,0.051
53788.349345,16.694,0.049
53813.313435,16.351,0.064
53813.324889,16.333,0.066
53813.336347,16.421,0.069
53813.347768,16.422,0.073
53813.359275,16.437,0.074
53844.237358,16.724,0.078
53844.248477,16.647,0.073
53844.259516,16.731,0.083
53844.270464,16.692,0.079
53844.281439,16.76,0.083
53852.195518,16.823,0.099
53852.205794,16.798,0.097
53852.215983,16.802,0.101
53852.226154,16.64,0.089
53852.236339,16.492,0.078
53881.161331,16.333,0.059
53881.163603,16.378,0.065
53881.171282,16.358,0.059
53881.174763,16.296,0.061
53881.181512,16.393,0.061
53881.185826,16.337,0.063
53881.193906,16.459,0.066
53881.196993,16.423,0.068
53881.20399,16.443,0.066
53881.208144,16.423,0.074
53886.158548,16.597,0.092
53886.168563,16.595,0.092
53886.178589,16.628,0.096
53886.190923,16.619,0.102
53886.191565,16.684,0.104
53886.200722,16.656,0.104
53886.201366,16.641,0.104
53887.16584,16.322,0.106
53887.175979,16.374,0.12
53887.196779,16.51,0.147
53887.207178,16.505,0.152
54057.448066,16.712,0.099
54057.462098,16.773,0.101
54057.475984,16.739,0.091
54057.489124,16.759,0.087
54057.502462,16.748,0.087
54068.453307,16.338,0.046
54068.466214,16.344,0.043
54068.479124,16.31,0.068
54068.504926,16.32,0.063
54083.465994,16.312,0.104
54083.492357,16.259,0.091
54083.505453,16.423,0.153
54154.281912,16.397,0.054
54154.293728,16.37,0.049
54154.305268,16.324,0.048
54154.316832,16.327,0.046
54154.328335,16.27,0.046
54169.273588,16.555,0.058
54169.284491,16.47,0.059
54169.295519,16.45,0.064
54169.306415,16.339,0.061
54169.317261,16.308,0.063
54205.222577,16.782,0.083
54205.231838,16.786,0.083
54205.241061,16.707,0.076
54205.250584,16.752,0.081
54205.259831,16.808,0.086
54208.213311,16.786,0.078
54208.222071,16.792,0.081
54208.230821,16.814,0.086
54208.239609,16.837,0.083
54208.248341,16.801,0.079
54450.453736,16.473,0.033
54450.466913,16.507,0.033
54450.480061,16.474,0.03
54450.493246,16.548,0.031
54450.506406,16.557,0.031
54476.397149,16.613,0.033
54476.41002,16.688,0.035
54476.422885,16.668,0.035
54476.435881,16.695,0.037
54476.449126,16.734,0.039
54484.299881,16.641,0.089
54484.312776,16.715,0.089
54484.325684,16.751,0.089
54509.278214,16.372,0.033
54509.290283,16.42,0.031
54509.302275,16.451,0.033
54509.314489,16.445,0.031
54509.326499,16.498,0.033
54532.278032,16.628,0.035
54532.289386,16.665,0.035
54532.300634,16.692,0.037
54532.312619,16.686,0.037
54532.32427,16.7,0.039
54581.200866,16.433,0.091
54587.201511,16.438,0.044
54587.212032,16.315,0.037
54587.222642,16.256,0.035
54587.233191,16.246,0.037
54587.243661,16.239,0.037
54594.203174,16.704,0.132
54594.222281,16.611,0.112
54594.231724,16.752,0.137
54594.241212,16.513,0.109
54595.196852,16.481,0.055
54595.206837,16.528,0.059
54595.21684,16.494,0.057
54595.226921,16.645,0.067
54595.236875,16.523,0.059
54612.165058,16.686,0.106
54612.18222,16.771,0.107
54619.161114,16.424,0.054
54619.171417,16.366,0.048
54619.181619,16.429,0.046
54619.191873,16.413,0.048
54619.202063,16.432,0.05
