mjd,m,merr
52639.468892,15.498,0.025
52639.483685,15.432,0.023
52639.498623,15.403,0.023
52639.51472,15.425,0.023
52643.409952,15.514,0.026
52643.426006,15.556,0.028
52643.44229,15.614,0.026
52643.458508,15.635,0.026
52643.475052,15.687,0.026
52649.46103,15.759,0.03
52649.479012,15.774,0.03
52649.493634,15.75,0.03
52649.507921,15.727,0.03
52649.522223,15.683,0.028
52666.384879,15.434,0.02
52666.400122,15.447,0.02
52666.415271,15.507,0.022
52666.430366,15.551,0.022
52666.44575,15.579,0.022
52669.384451,15.748,0.028
52669.39978,15.636,0.025
52669.415977,15.567,0.025
52669.430864,15.54,0.025
52669.447578,15.473,0.023
52670.354355,15.734,0.03
52670.370203,15.748,0.033
52670.385946,15.754,0.033
52670.401608,15.74,0.035
52670.420073,15.755,0.035
52676.288199,15.755,0.03
52676.303571,15.751,0.031
52676.319156,15.77,0.031
52676.334734,15.734,0.031
52676.35026,15.703,0.03
52698.303835,15.725,0.024
52698.31734,15.682,0.022
52698.332047,15.604,0.022
52698.346517,15.517,0.02
52698.360909,15.483,0.02
52703.305552,15.216,0.038
52703.305667,15.462,0.058
52703.327669,15.444,0.053
52703.34585,15.475,0.035
52703.361367,15.484,0.114
52703.375665,15.271,0.045
52724.243987,15.352,0.021
52724.256088,15.384,0.021
52724.268139,15.383,0.021
52724.268625,15.495,0.023
52724.28134,15.413,0.023
52724.281827,15.572,0.025
52724.293474,15.457,0.023
52729.234716,15.75,0.028
52729.246826,15.772,0.03
52729.259848,15.759,0.028
52729.272724,15.797,0.03
52729.288382,15.783,0.031
52730.241473,15.542,0.025
52730.254138,15.569,0.025
52730.266134,15.597,0.026
52730.278119,15.585,0.026
52730.290386,15.624,0.028
52732.245362,15.437,0.028
52732.257497,15.471,0.023
52732.269742,15.46,0.025
52732.281957,15.53,0.026
52732.293916,15.533,0.026
52754.216169,15.417,0.025
52754.228833,15.399,0.026
52754.241348,15.463,0.026
52754.253687,15.416,0.026
52754.266285,15.501,0.028
52761.200667,15.461,0.031
52761.212673,15.462,0.05
52761.224789,15.545,0.03
52761.236874,15.559,0.033
52761.248893,15.554,0.031
52768.15486,15.427,0.043
52768.167784,15.469,0.044
52768.179892,15.456,0.044
52768.191627,15.542,0.048
52768.204006,15.548,0.05
52789.165855,15.685,0.038
52789.176458,15.694,0.038
52789.18701,15.797,0.043
52789.197631,15.862,0.043
52789.208279,15.781,0.041
52791.1664,15.464,0.058
52962.452672,15.751,0.033
52962.46568,15.805,0.033
52962.477963,15.767,0.031
52962.490679,15.73,0.028
52962.503461,15.743,0.028
52974.458656,15.392,0.02
52974.471336,15.42,0.02
52974.484049,15.43,0.02
52974.496717,15.433,0.02
52974.509632,15.442,0.02
52992.475031,15.733,0.021
52992.487836,15.629,0.021
52992.500959,15.583,0.02
52992.52767,15.537,0.021
53000.433866,15.821,0.018
53000.448532,15.823,0.018
53000.462991,15.826,0.018
53000.478212,15.821,0.018
53000.491611,15.764,0.018
53001.460648,15.78,0.018
53001.473947,15.8,0.018
53001.487066,15.777,0.018
53001.500472,15.807,0.018
53001.514444,15.828,0.018
53002.453394,15.627,0.015
53002.467201,15.679,0.015
53002.480672,15.682,0.017
53002.4942,15.728,0.017
53002.507681,15.722,0.017
53034.337029,15.587,0.028
53034.348874,15.542,0.026
53034.360804,15.549,0.026
53034.372799,15.515,0.025
53034.384771,15.503,0.025
53051.328851,15.762,0.022
53051.341048,15.789,0.024
53051.352682,15.783,0.024
53051.364391,15.788,0.024
53051.376009,15.739,0.024
53053.344806,15.654,0.024
53053.356439,15.701,0.022
53053.368108,15.711,0.028
53053.379755,15.725,0.041
53053.391372,15.751,0.031
53054.36485,15.61,0.018
53054.37956,15.636,0.02
53054.391553,15.676,0.02
53054.404217,15.716,0.022
53054.416149,15.748,0.022
53055.366033,15.453,0.033
53055.378186,15.512,0.021
53055.390289,15.541,0.084
53062.34872,15.481,0.035
53062.36087,15.503,0.048
53062.374021,15.55,0.028
53062.386314,15.593,0.026
53062.398333,15.667,0.036
53078.315767,15.461,0.021
53078.326786,15.444,0.023
53078.337707,15.444,0.023
53078.348627,15.435,0.023
53078.35961,15.392,0.068
53087.28427,15.618,0.017
53087.294791,15.599,0.017
53087.305622,15.535,0.017
53087.316558,15.51,0.015
53087.327213,15.492,0.015
53089.226722,15.568,0.018
53089.237715,15.59,0.018
53089.24861,15.623,0.018
53089.259582,15.641,0.018
53090.228753,15.535,0.023
53090.239431,15.609,0.021
53090.250183,15.608,0.023
53090.261066,15.641,0.028
53090.27239,15.664,0.023
53092.223087,15.496,0.02
53092.233363,15.474,0.02
53092.243829,15.443,0.018
53092.254419,15.432,0.018
53092.264824,15.399,0.018
53109.19063,15.826,0.033
53109.200911,15.851,0.033
53109.2114,15.807,0.031
53109.221778,15.788,0.031
53109.232089,15.753,0.031
53137.202177,15.398,0.026
53137.211848,15.441,0.026
53137.222178,15.434,0.026
53137.232084,15.378,0.025
53137.241671,15.424,0.026
53148.162401,15.676,0.024
53148.171313,15.678,0.028
53148.180338,15.691,0.03
53148.189298,15.724,0.031
53148.198212,15.72,0.028
53165.168551,15.477,0.061
53165.178795,15.476,0.04
53165.188703,15.516,0.038
53165.214648,15.634,0.051
53165.224486,15.657,0.048
53348.42166,15.44,0.028
53348.436,15.403,0.026
53348.45021,15.388,0.025
53348.464514,15.448,0.03
53348.478737,15.458,0.036
53354.431596,15.538,0.025
53354.446034,15.605,0.025
53354.460251,15.639,0.025
53354.475151,15.663,0.025
53354.489519,15.729,0.026
53357.458353,15.46,0.023
53357.472911,15.454,0.023
53357.487449,15.445,0.021
53357.501956,15.443,0.021
53357.516691,15.419,0.035
53384.406072,15.499,0.196
53404.376137,15.741,0.012
53404.389046,15.698,0.012
53501.19397,15.599,0.03
53501.205745,15.629,0.03
53501.216135,15.66,0.031
53501.226128,15.702,0.033
53501.236372,15.738,0.035
53529.159049,15.747,0.043
53529.169444,15.794,0.046
53529.179793,15.792,0.048
53529.190083,15.703,0.043
53529.200664,15.792,0.046
53713.464831,15.666,0.055
53713.516744,15.841,0.1
53739.41369,15.522,0.089
53739.426693,15.5,0.037
53739.439677,15.512,0.039
53739.452909,15.464,0.02
53739.466499,15.449,0.02
53770.347071,15.76,0.028
53770.361748,15.779,0.028
53770.375227,15.763,0.028
53770.388213,15.764,0.03
53770.401138,15.723,0.028
53788.298459,15.418,0.03
53788.311084,15.463,0.02
53788.32383,15.479,0.02
53788.336494,15.529,0.02
53788.349345,15.54,0.02
53813.313435,15.573,0.033
53813.324889,15.531,0.031
53813.336347,15.459,0.03
53813.347768,15.445,0.031
53813.359275,15.473,0.033
53844.237358,15.784,0.031
53844.248477,15.762,0.031
53844.259516,15.819,0.035
53844.270464,15.811,0.035
53844.281439,15.772,0.033
53852.195518,15.676,0.036
53852.205794,15.753,0.038
53852.215983,15.77,0.041
53852.226154,15.737,0.04
53852.236339,15.752,0.041
53881.161331,15.753,0.036
53881.163603,15.804,0.043
53881.171282,15.785,0.038
53881.174763,15.779,0.041
53881.181512,15.765,0.038
53881.185826,15.774,0.043
53881.193906,15.802,0.04
53881.196993,15.748,0.041
53881.20399,15.798,0.04
53881.208144,15.808,0.046
53886.158548,15.579,0.038
53886.168563,15.533,0.036
53886.178589,15.564,0.038
53886.191565,15.501,0.036
53886.201366,15.401,0.035
53887.16584,15.754,0.064
53887.175979,15.698,0.068
53887.186387,15.679,0.066
53887.207178,15.571,0.066
54057.448066,15.547,0.036
54057.462098,15.601,0.036
54057.475984,15.645,0.035
54057.489124,15.741,0.036
54057.502462,15.713,0.036
54068.453307,15.558,0.024
54068.466214,15.532,0.022
54068.479124,15.472,0.03
54068.504926,15.419,0.028
54083.465994,15.493,0.051
54083.492357,15.386,0.043
54154.281912,15.475,0.025
54154.305268,15.506,0.025
54154.328335,15.562,0.025
54169.273588,15.495,0.021
54169.284491,15.507,0.025
54169.295519,15.536,0.026
54169.306415,15.573,0.03
54169.317261,15.617,0.033
54205.222577,15.617,0.031
54205.231838,15.603,0.03
54205.241061,15.685,0.031
54205.250584,15.671,0.031
54205.259831,15.688,0.033
54208.213311,15.519,0.026
54208.222071,15.503,0.026
54208.230821,15.501,0.028
54208.239609,15.458,0.026
54208.248341,15.461,0.025
54450.453736,15.456,0.015
54450.466913,15.415,0.013
54450.480061,15.404,0.013
54450.493246,15.423,0.013
54450.506406,15.44,0.013
54476.397149,15.642,0.017
54476.41002,15.677,0.017
54476.422885,15.703,0.017
54476.435881,15.737,0.018
54476.449126,15.749,0.017
54484.273849,15.19,0.033
54484.299881,15.25,0.028
54484.312776,15.253,0.028
54484.325684,15.263,0.026
54509.278214,15.713,0.018
54509.290283,15.682,0.017
54509.302275,15.641,0.017
54509.314489,15.555,0.015
54509.326499,15.518,0.015
54532.278032,15.728,0.017
54532.289386,15.676,0.015
54532.300634,15.646,0.015
54532.312619,15.593,0.015
54532.32427,15.531,0.015
54587.201511,15.568,0.022
54587.212032,15.618,0.024
54587.222642,15.639,0.024
54587.233191,15.702,0.026
54587.243661,15.698,0.026
54595.196852,15.533,0.024
54595.206837,15.572,0.026
54595.21684,15.618,0.028
54595.226921,15.602,0.028
54595.236875,15.663,0.028
54612.165058,15.571,0.043
54612.18222,15.492,0.038
54619.161114,15.47,0.026
54619.171417,15.438,0.024
54619.181619,15.437,0.022
54619.191873,15.443,0.024
54619.202063,15.452,0.024
