mjd,m,merr
52618.452395,16.918,0.177
52618.49785,17.804,0.467
52618.51288,17.182,0.254
52639.444963,16.93,0.074
52639.459751,16.953,0.074
52639.489762,16.946,0.074
52639.504556,16.947,0.074
52650.393596,16.685,0.069
52650.408401,16.7,0.069
52650.427133,16.856,0.078
52665.398822,17.044,0.078
52665.413187,16.986,0.074
52665.442055,17.025,0.081
52677.409646,16.815,0.078
52677.424029,16.793,0.089
52706.308554,17.054,0.086
52706.309155,17.027,0.087
52706.321904,17.036,0.084
52706.322505,17.186,0.101
52706.336099,17.062,0.091
52706.349222,16.957,0.086
52706.362627,17.073,0.096
52711.250993,16.981,0.096
52711.26462,16.906,0.089
52711.291597,17.049,0.098
52711.305088,17.02,0.096
52724.335882,16.744,0.057
52724.3482,16.811,0.065
52739.242067,16.789,0.078
52739.253574,16.772,0.074
52739.264981,16.8,0.078
52739.276379,16.907,0.083
52739.287863,16.913,0.085
52753.223009,16.997,0.085
52753.23504,17.029,0.089
52769.242742,17.091,0.194
52769.254989,17.188,0.218
52787.169784,16.67,0.063
52787.191062,16.599,0.061
52811.171972,16.88,0.116
52811.172606,17.045,0.152
52811.18199,17.06,0.13
52811.182621,16.755,0.12
52811.191964,17.01,0.122
52811.192595,16.85,0.122
52811.202038,16.777,0.106
52811.20267,16.721,0.127
52811.212966,17.044,0.157
52991.500763,17.035,0.067
52991.513934,16.947,0.065
53024.384972,16.659,0.037
53024.397955,16.665,0.043
53034.345061,16.718,0.065
53034.369964,16.685,0.057
53034.38264,16.761,0.061
53034.394948,16.722,0.057
53050.32774,16.681,0.094
53050.339429,16.706,0.146
53050.351111,16.655,0.174
53050.362721,16.563,0.135
53050.374333,16.559,0.111
53078.281213,17.036,0.07
53078.292015,17.0,0.068
53078.302764,17.037,0.07
53078.313404,17.021,0.07
53078.324169,16.904,0.067
53090.304569,16.954,0.059
53090.314918,16.989,0.061
53093.281732,16.858,0.059
53109.240898,17.025,0.076
53109.252017,16.995,0.076
53109.263092,17.021,0.076
53109.274203,16.912,0.072
53109.285287,16.82,0.065
53121.238327,16.971,0.069
53137.20178,16.754,0.074
53137.21136,16.809,0.074
53137.220884,16.901,0.083
53150.224287,16.617,0.157
53165.172251,16.649,0.087
53165.182237,16.574,0.078
53165.192217,16.668,0.137
53165.202194,16.546,0.081
53165.212214,16.605,0.078
53177.172528,16.994,0.087
53177.182661,16.946,0.087
53349.467744,16.705,0.089
53349.479734,16.722,0.091
53349.491981,16.801,0.093
53349.504412,16.696,0.089
53349.518063,16.728,0.083
53385.490782,17.019,0.081
53385.503791,16.98,0.08
53385.516878,17.002,0.081
53385.52982,16.915,0.072
53385.543292,17.031,0.089
53437.407255,16.867,0.068
53437.418553,16.926,0.072
53437.429879,17.014,0.078
53437.441171,17.019,0.083
53437.45789,16.973,0.083
53443.379617,16.67,0.109
53443.390259,16.695,0.059
53443.411524,17.429,0.647
53443.422147,16.771,0.183
53473.295316,16.793,0.074
53473.306436,16.82,0.078
53473.318325,16.803,0.076
53473.328917,16.792,0.081
53500.194643,16.737,0.065
53500.205268,16.692,0.063
53500.216721,16.655,0.063
53500.226748,16.627,0.065
53500.23666,16.678,0.065
53528.171842,16.931,0.115
53528.1835,17.047,0.124
53528.194672,16.839,0.115
53528.205121,16.997,0.131
53528.215726,16.95,0.124
53539.171578,16.791,0.191
53539.19062,16.9,0.213
53539.200143,16.894,0.211
53539.209651,17.14,0.274
53702.443806,16.942,0.096
53702.45648,17.035,0.1
53702.469168,16.948,0.085
53702.494675,16.907,0.078
53714.455789,16.998,0.08
53714.468562,16.986,0.076
53714.481538,16.961,0.07
53714.494275,17.037,0.072
53714.507182,16.983,0.065
53740.406593,16.915,0.074
53740.420785,16.909,0.07
53740.43446,16.998,0.076
53740.447441,16.926,0.067
53771.3514,16.969,0.124
53771.364328,16.901,0.161
53786.349685,17.043,0.139
53786.361622,17.027,0.141
53786.37356,17.077,0.098
53786.385604,17.138,0.257
53812.299725,17.033,0.112
53812.311361,17.023,0.114
53843.268802,17.06,0.102
53843.280178,17.218,0.13
53843.291818,17.111,0.117
53854.258362,17.045,0.116
53854.268484,17.05,0.178
53882.164428,16.634,0.078
53882.175285,16.691,0.081
53882.186339,16.617,0.074
53882.197205,16.728,0.084
53882.208308,16.791,0.089
53886.176409,16.729,0.093
53886.18707,16.851,0.107
53886.197817,16.927,0.117
53886.208603,16.874,0.109
53886.219503,16.874,0.109
53903.172003,16.703,0.111
53903.192256,16.751,0.122
53903.202532,16.799,0.122
53903.212741,16.859,0.124
54085.409209,17.117,0.145
54085.448025,17.153,0.163
54123.331364,16.746,0.067
54123.343852,16.769,0.068
54123.368277,16.843,0.065
54123.380561,16.799,0.063
54156.269454,16.94,0.101
54156.280544,16.907,0.097
54156.315318,16.921,0.087
54206.264275,17.015,0.084
54529.219251,17.069,0.092
54582.239739,16.961,0.127
54582.250451,17.147,0.142
54582.260601,17.007,0.132
54589.211708,16.669,0.052
54589.22205,16.739,0.055
54589.232408,16.756,0.054
54589.242775,16.751,0.052
54613.162177,17.105,0.13
54613.172487,17.073,0.124
54613.182689,16.947,0.111
54613.192984,16.991,0.116
54613.20322,16.921,0.106
54621.163985,16.671,0.054
54621.174146,16.648,0.055
54621.184285,16.725,0.059
54621.204883,16.673,0.055
