mjd,m,merr
52640.460197,15.403,0.021
52640.475086,15.393,0.021
52640.489956,15.362,0.02
52640.504853,15.304,0.018
52640.519709,15.218,0.018
52644.484189,15.288,0.018
52644.49889,15.27,0.022
52644.513893,15.313,0.02
52644.528641,15.263,0.037
52648.394476,15.172,0.02
52648.40953,15.201,0.02
52648.424207,15.167,0.018
52648.43926,15.19,0.018
52648.454587,15.193,0.018
52667.39299,15.336,0.021
52667.407729,15.327,0.021
52667.422766,15.354,0.021
52667.43761,15.35,0.023
52671.39631,15.254,0.018
52671.411674,15.221,0.018
52671.426849,15.241,0.018
52671.442022,15.254,0.018
52671.457367,15.241,0.018
52674.395788,15.268,0.018
52674.409666,15.273,0.017
52674.423666,15.281,0.018
52674.437654,15.292,0.018
52674.451606,15.29,0.018
52704.312407,15.271,0.018
52704.325795,15.275,0.018
52704.339314,15.3,0.018
52704.352808,15.299,0.018
52704.366251,15.305,0.018
52707.313254,15.301,0.018
52707.327038,15.308,0.018
52707.340289,15.307,0.018
52707.353963,15.325,0.018
52707.367299,15.349,0.018
52708.303266,15.176,0.017
52708.316608,15.2,0.017
52708.343135,15.232,0.017
52708.35636,15.23,0.017
52709.306047,15.006,0.017
52709.319322,14.995,0.017
52709.333027,15.021,0.017
52709.346642,15.02,0.017
52709.359996,15.049,0.017
52710.303117,15.314,0.022
52710.316631,15.303,0.022
52710.329829,15.337,0.022
52710.34309,15.311,0.022
52710.356345,15.318,0.022
52728.288026,15.206,0.017
52728.30072,15.203,0.017
52728.313475,15.208,0.017
52728.325852,15.218,0.017
52728.339801,15.222,0.017
52731.320084,15.277,0.018
52731.332057,15.295,0.043
52738.240286,15.145,0.017
52738.25172,15.167,0.017
52738.263651,15.164,0.017
52738.275077,15.154,0.017
52738.286688,15.181,0.017
52755.203567,15.074,0.02
52755.215467,15.096,0.02
52755.227426,15.1,0.02
52755.239427,15.128,0.02
52755.251337,15.107,0.02
52760.20424,15.298,0.017
52760.216169,15.336,0.018
52760.228097,15.335,0.018
52760.240037,15.331,0.02
52760.25196,15.378,0.022
52789.170281,15.023,0.017
52789.18061,14.999,0.017
52789.190929,15.001,0.017
52789.201309,15.016,0.017
52789.211769,15.038,0.018
52794.169768,15.267,0.022
52794.179801,15.308,0.024
52794.189744,15.311,0.024
52794.199673,15.271,0.024
52794.209601,15.313,0.024
52967.447425,15.302,0.028
52967.46016,15.285,0.026
52967.472742,15.27,0.024
52967.485531,15.281,0.024
52967.498243,15.282,0.022
52973.43568,15.36,0.035
52973.447837,15.329,0.03
52973.460178,15.329,0.028
52973.472066,15.312,0.028
52973.483159,15.281,0.026
52987.507529,15.216,0.031
52995.466555,15.095,0.013
52995.480085,15.075,0.013
52995.494063,15.097,0.013
52995.507417,15.126,0.011
53000.421472,15.233,0.015
53000.434638,15.351,0.015
53000.447938,15.285,0.013
53000.461158,15.261,0.013
53000.474754,15.265,0.013
53026.416495,14.885,0.011
53026.43053,14.955,0.017
53026.44334,14.941,0.018
53026.45635,14.922,0.013
53026.470803,15.032,0.039
53033.339772,15.418,0.022
53033.351988,15.39,0.02
53033.364104,15.385,0.02
53033.388926,15.32,0.022
53053.351108,15.267,0.017
53053.362726,15.213,0.017
53053.374396,15.181,0.022
53053.386042,15.136,0.02
53053.398248,15.079,0.015
53058.340976,15.109,0.011
53058.353516,15.173,0.011
53058.378029,15.186,0.011
53058.396168,15.202,0.011
53079.311639,14.962,0.013
53079.322503,14.976,0.013
53079.333181,14.966,0.013
53079.34393,14.997,0.013
53079.354959,15.009,0.015
53083.335335,15.159,0.013
53083.346021,15.063,0.011
53083.357053,15.059,0.011
53083.368228,14.968,0.011
53083.379041,14.956,0.011
53086.341798,14.915,0.011
53086.352602,14.91,0.013
53086.363346,14.912,0.011
53086.374341,14.927,0.013
53086.385294,14.953,0.015
53092.328497,15.046,0.013
53092.338993,15.029,0.013
53092.349171,15.037,0.013
53092.359352,15.068,0.013
53092.369532,15.079,0.013
53110.240256,15.349,0.022
53110.251348,15.358,0.022
53110.262488,15.371,0.02
53110.273566,15.374,0.02
53110.284633,15.393,0.022
53114.251048,15.151,0.013
53114.26249,15.14,0.013
53114.284694,15.157,0.013
53114.296004,15.254,0.013
53117.298736,15.343,0.015
53117.309263,15.321,0.017
53117.31992,15.396,0.017
53117.330594,15.359,0.017
53117.341119,15.315,0.018
53138.203493,15.192,0.017
53138.21322,15.166,0.017
53138.223106,15.189,0.017
53138.232826,15.19,0.018
53138.242551,15.21,0.018
53142.210557,15.036,0.03
53142.220087,15.041,0.011
53142.229662,15.061,0.013
53142.23925,15.112,0.035
53142.248778,15.081,0.015
53146.208842,14.996,0.011
53146.217991,14.977,0.011
53146.227168,14.965,0.011
53146.236212,14.974,0.011
53146.245293,14.944,0.011
53166.180827,15.047,0.018
53166.190179,14.992,0.018
53166.199535,14.978,0.018
53166.208912,14.964,0.018
53166.218275,14.957,0.018
53171.170005,15.169,0.018
53171.18021,15.239,0.018
53171.19052,15.261,0.02
53171.200724,15.258,0.02
53171.211047,15.245,0.02
53346.456879,15.066,0.025
53346.469108,15.017,0.023
53346.481307,15.024,0.023
53346.493602,14.947,0.021
53348.455684,15.147,0.022
53348.468621,15.152,0.024
53348.481072,15.165,0.022
53348.494899,15.153,0.046
53348.508088,15.195,0.02
53351.494895,15.293,0.028
53351.50929,15.304,0.028
53351.523563,15.288,0.026
53354.451946,15.236,0.02
53354.464889,15.241,0.018
53354.47765,15.224,0.018
53354.491798,15.25,0.018
53354.504623,15.271,0.02
53377.409311,15.332,0.02
53377.422475,15.33,0.02
53377.435686,15.321,0.02
53377.450446,15.34,0.02
53377.464153,15.351,0.018
53382.50381,15.141,0.017
53382.518185,15.082,0.017
53382.534145,15.115,0.017
53404.426781,15.244,0.018
53404.439063,15.27,0.018
53404.451378,15.286,0.02
53404.46486,15.333,0.02
53404.477759,15.311,0.022
53433.362001,15.098,0.015
53433.37345,15.033,0.015
53433.384898,14.956,0.015
53433.397578,14.985,0.015
53433.409232,14.965,0.015
53438.346695,15.204,0.017
53438.358865,15.216,0.017
53438.370433,15.21,0.017
53438.382027,15.244,0.018
53438.393618,15.237,0.018
53440.298695,15.384,0.02
53440.31299,15.417,0.02
53440.325554,15.384,0.02
53440.338664,15.341,0.018
53440.352722,15.307,0.018
53441.276381,15.16,0.017
53441.287873,15.204,0.017
53441.299256,15.246,0.017
53441.310656,15.169,0.017
53441.322099,15.202,0.017
53441.333082,15.206,0.017
53441.34527,15.209,0.017
53441.356834,15.252,0.017
53441.367855,15.197,0.018
53441.378874,15.251,0.018
53442.259172,14.974,0.013
53442.270482,14.999,0.013
53442.281784,14.997,0.013
53442.305546,15.046,0.015
53445.290026,15.058,0.015
53445.302374,15.063,0.015
53445.313712,15.091,0.015
53445.324885,15.051,0.015
53445.336091,15.048,0.015
53447.303257,15.257,0.02
53447.314048,15.298,0.018
53447.325404,15.355,0.024
53447.336171,15.306,0.02
53447.346964,15.349,0.02
53465.28576,15.14,0.018
53465.29712,15.147,0.018
53465.309063,15.159,0.018
53465.319741,15.154,0.018
53465.331031,15.177,0.018
53468.28453,15.214,0.028
53468.294529,15.183,0.035
53478.223396,15.006,0.035
53478.234666,15.074,0.033
53478.254998,15.1,0.035
53493.293133,15.021,0.022
53493.303121,14.977,0.02
53493.31344,14.924,0.02
53493.32417,14.949,0.02
53493.334251,14.935,0.02
53496.19996,15.122,0.02
53496.210191,15.061,0.02
53496.220508,15.024,0.02
53496.230696,15.023,0.02
53496.240974,14.985,0.02
53503.230021,15.243,0.02
53503.238639,15.191,0.018
53503.247538,15.117,0.018
53503.256562,15.081,0.017
53503.265726,15.062,0.017
53526.190825,14.946,0.026
53526.211824,14.96,0.028
53527.168133,15.338,0.026
53527.178422,15.351,0.026
53527.188305,15.371,0.028
53527.198086,15.334,0.026
53527.207855,15.317,0.028
53709.449723,14.911,0.018
53709.463138,14.933,0.018
53709.475982,14.957,0.017
53709.488668,14.995,0.017
53709.501837,14.998,0.015
53733.452895,15.186,0.02
53733.465539,15.049,0.018
53733.478164,15.037,0.02
53746.405673,14.949,0.024
53746.418134,14.912,0.022
53746.430788,14.901,0.022
53746.44338,14.905,0.02
53746.455848,14.895,0.02
53790.347778,15.37,0.021
53790.359628,15.39,0.021
53790.37144,15.378,0.021
53790.383257,15.345,0.021
53790.395313,15.268,0.02
53791.364789,15.267,0.018
53791.376531,15.273,0.018
53791.388279,15.271,0.02
53791.400032,15.289,0.02
53791.411789,15.285,0.02
53794.347756,15.29,0.018
53794.359418,15.314,0.018
53794.371211,15.296,0.018
53794.382841,15.341,0.018
53794.394461,15.343,0.018
53817.266922,15.325,0.02
53817.278184,15.32,0.021
53817.312101,15.367,0.021
53818.328346,15.234,0.02
53818.339969,15.277,0.02
53818.352277,15.257,0.02
53818.377028,15.275,0.02
53823.313258,15.082,0.017
53823.325727,15.048,0.017
53823.351746,14.971,0.017
53823.366791,14.938,0.017
53825.283,15.136,0.018
53825.29478,15.138,0.022
53825.306497,15.163,0.022
53825.316835,15.154,0.018
53825.328548,15.174,0.02
53829.335636,14.959,0.03
53845.274601,15.167,0.026
53848.244897,15.2,0.024
53848.255348,15.266,0.026
53848.266093,15.24,0.028
53848.276981,15.24,0.026
53848.28746,15.254,0.026
53849.252035,14.972,0.017
53849.262768,15.02,0.017
53849.273466,15.058,0.018
53849.284169,15.005,0.018
53849.295083,15.019,0.018
53850.197885,15.345,0.025
53850.208274,15.375,0.026
53850.218789,15.386,0.028
53850.229287,15.363,0.026
53850.239964,15.41,0.028
53852.256646,15.049,0.02
53852.267076,15.1,0.022
53852.277822,15.102,0.022
53852.288854,15.109,0.022
53852.300606,15.106,0.024
53855.247745,15.119,0.02
53855.258866,15.165,0.022
53855.270511,15.208,0.022
53855.281314,15.223,0.022
53855.292044,15.207,0.024
53858.208842,15.113,0.052
53858.218962,15.136,0.041
53858.229112,15.143,0.041
53858.239404,15.194,0.031
53880.168615,15.414,0.028
53880.179783,15.403,0.026
53880.19047,15.457,0.028
53880.201287,15.406,0.028
53880.21235,15.423,0.028
53883.170946,15.344,0.03
53883.184015,15.259,0.028
53883.196455,15.218,0.026
53883.207851,15.123,0.024
53883.219359,15.014,0.022
53884.164261,15.27,0.026
53884.165032,15.296,0.025
53884.175822,15.311,0.025
53884.176016,15.293,0.026
53884.186994,15.297,0.026
53884.187773,15.306,0.028
53884.197724,15.325,0.026
53884.199572,15.342,0.03
53884.208606,15.297,0.026
53884.211351,15.322,0.03
53901.176784,15.251,0.054
53901.186709,15.273,0.043
53901.196713,15.29,0.043
53901.206728,15.339,0.046
54084.483281,15.19,0.022
54084.497012,15.142,0.024
54084.510745,15.185,0.03
54084.524472,15.298,0.024
54121.396533,15.277,0.021
54121.409264,15.282,0.023
54121.421707,15.328,0.025
54121.434232,15.293,0.025
54121.446759,15.298,0.023
54124.399042,15.258,0.015
54124.416653,15.301,0.015
54124.429517,15.297,0.017
54124.443367,15.287,0.017
54124.456453,15.317,0.017
54149.340204,14.953,0.016
54149.352114,14.987,0.016
54149.364637,14.995,0.016
54149.376706,14.997,0.016
54149.38862,15.052,0.018
54155.352783,15.145,0.015
54155.364609,15.163,0.015
54155.376444,15.175,0.015
54155.400239,15.197,0.015
54174.273454,15.299,0.021
54174.284315,15.324,0.021
54174.295381,15.292,0.023
54174.306434,15.317,0.025
54174.317546,15.325,0.021
54175.322657,15.157,0.015
54175.333408,15.169,0.015
54175.344035,15.176,0.015
54175.354763,15.207,0.017
54180.281567,15.402,0.021
54180.291977,15.411,0.021
54180.302376,15.427,0.021
54180.313112,15.404,0.021
54180.323467,15.374,0.021
54200.221906,15.389,0.028
54200.231468,15.384,0.028
54200.241012,15.365,0.031
54207.265592,15.359,0.018
54207.274741,15.351,0.018
54207.283942,15.409,0.039
54210.26265,15.39,0.018
54210.27166,15.379,0.018
54210.280668,15.365,0.018
54210.289647,15.31,0.018
54440.47596,15.386,0.015
54454.402612,15.233,0.022
54454.415779,15.25,0.02
54454.429061,15.333,0.017
54454.442482,15.275,0.017
54454.45573,15.313,0.017
54474.400191,15.321,0.022
54474.413195,15.294,0.018
54474.426204,15.244,0.013
54474.439229,15.232,0.015
54474.452222,15.388,0.037
54483.336322,15.281,0.031
54483.349534,15.174,0.03
54483.362448,15.202,0.026
54483.375733,15.081,0.024
54483.388891,15.145,0.022
54507.457248,15.271,0.025
54507.469185,15.157,0.023
54507.481131,15.049,0.021
54507.493942,15.008,0.02
54507.505928,14.979,0.018
54508.355194,15.137,0.013
54508.367385,15.142,0.013
54508.379573,15.179,0.013
54508.391929,15.19,0.013
54508.404284,15.189,0.013
54523.39772,14.846,0.011
54523.409526,14.823,0.011
54523.421413,14.814,0.011
54523.433242,14.892,0.013
54523.445082,14.858,0.013
54535.442385,15.302,0.025
54535.453382,15.345,0.026
54535.464268,15.351,0.026
54535.475157,15.322,0.028
54535.486248,15.318,0.03
54537.276105,15.328,0.022
54537.287156,15.346,0.022
54537.298207,15.348,0.013
54537.309314,15.379,0.018
54537.320277,15.377,0.018
54554.305611,15.328,0.013
54554.317763,15.326,0.013
54554.329729,15.348,0.013
54554.341812,15.379,0.013
54554.353751,15.4,0.015
54558.18298,15.1,0.02
54558.194551,15.11,0.02
54558.206124,15.131,0.022
54558.217671,15.139,0.05
54558.229274,15.182,0.018
54564.248062,15.257,0.013
54564.259375,15.251,0.015
54564.27069,15.278,0.015
54564.282003,15.305,0.015
54564.293383,15.293,0.015
54580.198849,15.43,0.018
54580.209458,15.433,0.018
54580.22007,15.463,0.02
54580.230733,15.406,0.022
54580.241354,15.417,0.022
54585.244739,15.166,0.028
54585.255011,15.177,0.017
54585.265284,15.181,0.018
54585.275598,15.198,0.015
54585.285893,15.218,0.015
54590.198053,15.461,0.041
54590.207861,15.417,0.045
54590.217528,15.458,0.048
54590.227491,15.41,0.043
54590.237147,15.35,0.04
54592.241357,15.113,0.015
54592.252061,15.119,0.015
54592.262535,15.123,0.015
54592.272967,15.139,0.017
54592.283382,15.163,0.017
54611.165462,15.297,0.017
54611.17556,15.31,0.015
54611.185521,15.315,0.017
54611.195425,15.318,0.017
54611.205239,15.305,0.017
54615.17945,15.14,0.017
54615.190027,15.164,0.017
54615.210964,15.189,0.018
