mjd,m,merr
52612.458847,16.469,0.061
52612.474026,16.441,0.057
52612.489172,16.36,0.05
52612.504495,16.179,0.043
52612.519688,16.13,0.041
52620.463039,16.395,0.055
52620.47818,16.306,0.054
52620.49338,16.322,0.061
52620.508566,16.301,0.068
52620.523648,16.286,0.057
52623.438961,16.039,0.054
52623.453797,16.085,0.058
52623.469405,16.086,0.069
52623.48499,16.07,0.078
52623.499775,16.049,0.056
52650.360326,16.373,0.05
52650.374626,16.312,0.043
52650.388731,16.307,0.041
52650.402886,16.348,0.041
52650.416913,16.363,0.044
52652.405426,16.366,0.049
52652.420521,16.364,0.046
52652.435597,16.376,0.048
52652.451123,16.415,0.049
52652.466077,16.376,0.048
52664.358717,16.012,0.045
52664.374995,15.951,0.073
52680.336526,16.288,0.049
52680.360779,16.404,0.051
52680.379053,16.385,0.046
52680.395564,16.348,0.046
52680.413549,16.408,0.051
52681.283951,15.991,0.066
52681.298926,16.018,0.059
52681.313861,16.01,0.048
52681.328608,16.011,0.041
52681.343366,16.055,0.041
52696.342136,16.141,0.04
52696.342748,16.054,0.04
52696.356082,16.114,0.04
52696.356697,16.062,0.04
52696.370386,16.149,0.048
52696.397526,16.128,0.043
52712.28819,16.316,0.067
52712.301414,16.42,0.07
52723.255161,16.326,0.058
52723.267265,16.254,0.045
52752.19289,16.181,0.049
52752.203531,16.265,0.053
52752.21417,16.221,0.051
52752.225135,16.215,0.051
52752.235759,16.237,0.049
52770.20664,16.048,0.07
52770.21852,16.016,0.07
52770.230841,15.961,0.068
52770.242803,15.898,0.067
52770.255137,15.938,0.07
52782.187901,16.296,0.061
52782.198718,16.246,0.083
52782.209932,16.291,0.116
52800.189878,15.832,0.158
52800.200143,15.925,0.12
52800.210381,15.857,0.109
52810.172636,16.411,0.076
52810.182485,16.416,0.076
52812.174083,16.287,0.066
52812.192135,16.272,0.071
52812.202864,16.327,0.074
52812.21307,16.344,0.078
52812.223272,16.454,0.089
52976.456606,16.114,0.035
52976.470001,16.175,0.037
52976.483214,16.19,0.037
52976.496632,16.211,0.035
52976.509826,16.266,0.037
52990.457365,16.094,0.051
52990.469946,16.037,0.036
52990.482563,16.051,0.038
52990.495152,16.009,0.035
52990.507701,16.066,0.035
53023.338695,16.223,0.031
53023.351442,16.209,0.031
53023.363505,16.172,0.03
53023.375564,16.201,0.033
53023.388794,16.237,0.035
53035.353493,15.999,0.038
53035.366515,15.986,0.036
53035.379156,15.957,0.033
53035.392284,15.993,0.033
53035.405867,15.968,0.03
53037.349102,15.914,0.033
53037.36171,15.966,0.035
53037.374248,15.928,0.033
53037.389699,15.919,0.031
53037.40393,15.981,0.035
53049.331906,16.291,0.033
53049.34377,16.295,0.033
53049.355633,16.336,0.035
53049.367496,16.343,0.035
53049.37936,16.321,0.037
53065.282087,15.965,0.031
53065.293318,16.008,0.031
53065.30456,16.013,0.031
53065.315915,16.01,0.033
53065.327201,16.021,0.033
53093.231263,16.044,0.031
53093.241773,16.029,0.033
53093.252027,16.159,0.039
53093.262282,16.154,0.031
53093.272585,16.127,0.03
53107.235774,16.43,0.046
53107.246126,16.369,0.045
53107.256522,16.271,0.041
53107.267004,16.268,0.041
53122.196137,16.272,0.059
53122.206478,16.398,0.066
53122.216756,16.194,0.053
53122.227087,16.154,0.041
53122.237386,16.105,0.04
53136.196964,16.257,0.053
53136.207266,16.228,0.049
53136.216001,16.243,0.053
53136.224712,16.263,0.053
53136.23358,16.286,0.056
53153.168038,16.507,0.083
53153.176507,16.54,0.083
53153.185408,16.517,0.081
53153.194036,16.515,0.081
53153.202507,16.544,0.086
53154.202052,16.281,0.097
53154.21254,16.225,0.096
53154.220801,16.232,0.097
53154.229227,16.136,0.096
53154.237567,16.114,0.096
53164.180998,16.293,0.054
53164.190593,16.348,0.058
53164.209778,16.38,0.063
53178.173028,16.138,0.041
53178.182445,16.168,0.041
53178.192387,16.103,0.041
53178.201926,16.144,0.043
53178.211325,16.139,0.043
53319.464752,16.021,0.052
53319.476626,15.991,0.048
53319.488502,16.044,0.048
53319.500364,16.018,0.046
53319.512225,16.044,0.046
53331.454131,16.4,0.078
53331.466512,16.429,0.078
53331.478891,16.45,0.076
53331.491262,16.425,0.072
53331.503634,16.362,0.067
53341.465992,16.905,0.189
53341.478058,17.011,0.209
53341.490126,16.9,0.183
53341.502715,17.01,0.203
53341.514787,17.075,0.209
53349.467198,16.168,0.055
53349.479189,16.068,0.052
53349.491435,16.156,0.055
53349.503867,16.221,0.059
53349.517516,16.208,0.052
53359.412309,16.112,0.045
53359.428436,16.009,0.036
53359.44458,16.004,0.035
53359.460661,15.987,0.035
53359.476977,15.932,0.031
53389.491386,15.982,0.035
53389.507367,16.025,0.035
53389.523352,16.059,0.037
53401.377046,16.849,0.117
53401.390081,16.767,0.107
53422.337871,16.061,0.091
53422.349875,16.195,0.093
53422.361861,16.281,0.078
53422.373903,16.08,0.078
53450.274393,16.386,0.072
53450.285885,16.334,0.07
53450.296975,16.218,0.065
53450.307664,16.266,0.068
53450.31959,16.316,0.07
53474.24589,16.358,0.054
53474.256937,16.299,0.048
53474.2687,16.21,0.044
53474.279062,16.118,0.041
53474.289204,16.062,0.039
53521.16252,16.298,0.059
53521.172716,16.128,0.061
53521.183165,16.101,0.1
53521.193358,16.029,0.05
53521.203597,16.04,0.074
53538.191023,16.121,0.096
53538.210167,16.183,0.113
53550.271598,16.226,0.096
53550.28178,16.151,0.117
53550.29189,16.049,0.131
53701.467292,16.095,0.061
53701.479854,16.158,0.065
53701.492315,16.185,0.076
53701.504806,16.17,0.059
53728.404606,16.451,0.057
53728.417885,16.41,0.055
53728.431309,16.409,0.063
53728.444378,16.297,0.055
53728.457549,16.2,0.044
53742.41511,16.183,0.033
53742.427839,16.202,0.035
53742.44095,16.223,0.033
53742.4537,16.253,0.033
53742.466516,16.21,0.031
53772.350094,16.205,0.046
53772.362881,16.217,0.046
53772.375666,16.291,0.048
53772.388649,16.292,0.05
53772.401693,16.269,0.048
53786.359082,15.923,0.063
53786.372203,16.23,0.049
53786.398621,16.537,0.228
53812.310514,16.154,0.061
53824.318101,16.041,0.051
53824.329683,16.049,0.038
53824.341268,16.001,0.033
53824.353391,15.944,0.054
53824.365469,15.925,0.064
53843.251424,16.452,0.065
53843.26265,16.414,0.067
53843.27385,16.462,0.074
53843.285048,16.371,0.074
53843.296878,16.374,0.08
53855.195928,16.201,0.051
53855.206577,16.217,0.053
53855.217108,16.243,0.054
53855.227703,16.217,0.053
53855.238296,16.239,0.054
53878.233366,16.063,0.064
53878.244112,16.141,0.068
53878.25486,16.134,0.066
53878.265671,16.107,0.066
53878.276612,16.158,0.071
53892.178517,16.334,0.15
53892.209186,16.231,0.142
53903.172214,15.932,0.051
53903.205319,15.827,0.046
53903.215569,15.83,0.045
53903.225144,15.806,0.045
54054.462314,16.397,0.081
54054.475051,16.287,0.064
54054.487544,16.29,0.063
54054.500627,16.304,0.061
54054.514121,16.531,0.076
54068.458832,16.04,0.043
54068.486388,15.958,0.041
54086.369955,16.13,0.071
54086.383476,16.194,0.069
54086.396786,16.263,0.071
54086.410704,16.286,0.068
54086.424329,16.268,0.063
54109.375277,16.615,0.221
54109.38715,16.289,0.12
54109.410861,16.273,0.241
54169.274868,16.257,0.035
54169.285762,16.236,0.039
54169.296765,16.255,0.043
54169.307673,16.3,0.043
54169.318617,16.261,0.044
54186.273682,16.326,0.066
54186.283886,16.286,0.063
54186.294153,16.215,0.069
54186.304355,16.284,0.068
54186.314543,16.271,0.073
54200.229606,15.918,0.026
54200.268786,15.992,0.03
54209.21765,16.04,0.102
54209.227145,16.113,0.084
54209.235963,16.177,0.073
54209.245484,16.19,0.059
54217.207961,16.186,0.093
54217.216692,15.921,0.063
54217.225338,16.001,0.068
54217.233995,15.88,0.061
54217.242654,15.922,0.061
54218.236142,16.453,0.162
54218.254229,16.491,0.158
54218.263055,16.208,0.125
54509.327292,16.4,0.053
54509.33935,16.377,0.053
54509.351372,16.337,0.049
54509.363401,16.126,0.043
54509.37605,16.039,0.04
54536.271882,16.309,0.051
54536.282763,16.239,0.048
54536.293874,16.316,0.049
54536.304786,16.309,0.053
54536.315658,16.266,0.051
54543.280777,16.641,0.196
54543.291652,16.69,0.203
54543.302564,16.817,0.214
54543.314798,16.767,0.196
54543.325727,16.597,0.165
54561.197732,15.936,0.053
54561.209109,16.004,0.053
54561.220543,16.015,0.045
54561.231908,15.993,0.046
54583.197892,16.257,0.071
54583.208376,16.215,0.074
54614.168283,15.985,0.051
54614.178489,16.012,0.053
54614.189121,15.984,0.054
54614.200349,16.061,0.054
54614.211435,16.042,0.056
