mjd,m,merr
52620.44445,14.996,0.018
52620.459372,15.229,0.021
52620.474016,15.419,0.03
52620.488578,15.423,0.03
52620.503263,15.06,0.043
52623.450455,15.089,0.02
52623.466123,14.972,0.02
52623.481967,14.952,0.026
52623.497751,14.904,0.018
52623.513756,14.934,0.018
52637.393295,14.992,0.07
52651.287999,15.497,0.035
52651.303174,15.392,0.028
52651.318351,15.076,0.021
52651.333513,14.946,0.018
52651.349646,14.883,0.016
52652.385099,15.094,0.017
52652.400155,15.425,0.02
52652.415479,15.443,0.018
52652.430764,15.218,0.015
52652.445928,14.981,0.013
52664.349054,15.009,0.015
52664.364331,14.902,0.017
52664.379555,14.868,0.028
52664.394905,14.917,0.102
52664.410177,14.829,0.07
52681.284091,15.188,0.028
52681.30136,14.985,0.02
52681.31989,14.881,0.015
52681.338282,14.878,0.013
52695.31379,14.924,0.015
52695.313909,14.921,0.016
52695.327585,14.873,0.015
52695.327704,14.859,0.016
52695.341369,14.831,0.02
52695.341487,14.877,0.021
52695.355166,14.865,0.02
52695.355285,14.87,0.021
52695.369117,14.929,0.068
52712.248001,15.106,0.056
52712.276024,14.857,0.025
52712.289559,14.896,0.021
52712.302856,14.88,0.021
52722.244007,14.856,0.015
52722.256133,14.886,0.015
52722.268601,14.955,0.015
52722.280921,15.119,0.016
52722.293068,15.341,0.02
52751.246556,14.915,0.016
52751.257308,14.963,0.016
52751.268073,15.057,0.018
52751.278809,15.201,0.021
52751.290202,15.462,0.026
52771.159286,14.971,0.037
52771.171159,15.169,0.046
52771.195215,15.382,0.055
52771.207177,15.244,0.048
52782.166216,15.013,0.028
52782.187499,14.855,0.015
52782.198295,14.869,0.018
52782.208936,14.907,0.033
52800.180039,15.289,0.063
52800.200149,15.206,0.052
52800.210189,15.087,0.044
52810.173675,14.92,0.017
52810.183673,14.896,0.017
52812.174684,14.883,0.017
52812.184916,14.929,0.018
52812.195274,14.971,0.018
52812.205459,15.085,0.02
52812.215814,15.253,0.024
52976.402097,15.287,0.016
52976.424232,14.961,0.013
52976.435318,14.905,0.012
52977.442942,14.877,0.013
52977.454062,14.854,0.013
52977.465141,14.941,0.015
52977.487546,15.122,0.016
52990.403066,15.296,0.018
52990.416355,15.062,0.015
52990.430361,14.898,0.013
52990.443415,14.845,0.017
52990.456629,14.828,0.013
53023.345075,14.954,0.011
53023.384436,14.838,0.009
53023.397203,14.866,0.009
53046.3494,14.851,0.015
53046.361336,14.843,0.015
53046.373317,14.901,0.015
53046.385459,14.962,0.015
53046.397504,15.097,0.018
53065.28525,14.931,0.013
53065.309251,15.265,0.016
53065.321232,15.462,0.018
53065.333053,15.443,0.018
53107.243517,14.946,0.011
53107.25479,14.88,0.011
53107.265984,14.833,0.011
53107.277194,14.864,0.011
53107.288465,14.892,0.011
53127.209896,15.122,0.044
53127.229741,15.447,0.059
53127.239724,15.484,0.061
53136.199726,15.433,0.022
53136.209082,15.431,0.022
53136.218388,15.247,0.018
53136.227688,15.093,0.017
53136.237009,14.99,0.017
53154.206012,14.818,0.02
53154.214919,14.811,0.02
53154.223758,14.863,0.022
53154.232592,14.915,0.024
53154.241408,14.95,0.026
53164.172757,14.9,0.015
53164.182963,14.969,0.015
53164.193176,15.09,0.018
53164.203391,15.283,0.018
53164.213631,15.439,0.022
53330.463839,15.259,0.026
53330.477427,15.464,0.03
53330.49173,15.358,0.026
53330.506622,15.061,0.02
53340.459635,15.003,0.03
53340.487688,14.854,0.023
53340.505498,14.81,0.023
53340.517949,14.919,0.021
53356.474931,14.873,0.013
53356.528807,15.435,0.02
53358.407281,14.83,0.015
53358.420303,14.799,0.015
53358.433371,14.837,0.015
53358.446454,14.888,0.015
53358.460317,14.988,0.015
53360.425297,15.081,0.022
53360.43844,15.338,0.039
53386.416059,14.84,0.013
53386.429202,14.811,0.011
53386.442259,14.811,0.011
53386.455409,14.873,0.013
53386.472157,14.973,0.013
53390.399734,15.03,0.018
53390.41291,15.273,0.028
53390.428704,15.319,0.024
53390.441794,15.122,0.017
53390.454959,14.941,0.013
53430.308207,15.013,0.017
53430.319914,15.148,0.018
53430.332257,15.417,0.024
53430.343946,15.437,0.024
53430.360617,15.201,0.02
53441.339101,14.819,0.011
53441.351826,14.824,0.011
53441.373881,14.954,0.013
53441.385444,15.101,0.015
53479.231131,15.454,0.048
53479.240779,15.244,0.039
53479.252609,15.08,0.033
53479.26356,14.967,0.031
53479.273069,14.935,0.03
53491.198429,14.789,0.017
53491.219717,14.812,0.017
53491.230662,14.905,0.015
53491.241247,14.966,0.018
53537.172694,14.824,0.033
53537.192858,15.072,0.044
53537.202924,15.269,0.044
53552.172131,14.989,0.024
53552.18232,15.096,0.026
53552.192504,15.35,0.031
53552.202907,15.495,0.037
53552.213564,15.485,0.037
53684.444604,15.243,0.031
53684.457207,15.07,0.022
53684.469691,14.923,0.018
53684.482406,14.851,0.02
53684.494851,14.816,0.018
53700.451365,14.86,0.017
53700.464341,14.818,0.015
53700.477098,14.829,0.015
53700.490053,14.879,0.015
53700.502808,14.944,0.015
53727.457761,15.0,0.018
53727.496452,14.847,0.033
53757.327999,14.804,0.015
53757.340802,14.818,0.015
53757.353453,14.878,0.017
53757.366296,14.925,0.017
53757.379121,15.088,0.018
53773.355939,15.362,0.022
53773.368691,15.399,0.024
53773.381891,15.239,0.018
53773.394785,15.028,0.015
53773.407555,14.937,0.013
53825.237385,14.86,0.012
53825.259826,14.807,0.012
53825.2823,14.847,0.012
53842.244378,14.88,0.021
53842.255957,15.02,0.025
53842.267531,15.233,0.031
53842.279206,15.368,0.036
53842.290829,15.267,0.035
53848.237068,14.803,0.017
53848.247805,14.84,0.017
53848.258254,14.898,0.018
53848.269128,14.966,0.02
53848.27989,15.106,0.022
53877.250092,14.885,0.038
53877.260721,14.933,0.028
53904.169717,15.075,0.022
53904.179652,15.229,0.026
53904.189622,15.393,0.03
53904.19974,15.453,0.031
53904.209835,15.253,0.028
54052.456742,14.821,0.018
54052.469201,14.863,0.018
54052.481457,14.89,0.018
54052.493716,14.958,0.02
54052.506042,15.129,0.024
54071.450815,15.231,0.03
54071.463796,15.027,0.023
54071.476705,14.918,0.018
54071.489603,14.858,0.016
54071.502346,14.834,0.016
54098.376873,14.887,0.016
54098.38908,14.834,0.015
54098.401225,14.818,0.015
54098.413556,14.872,0.015
54098.425842,14.935,0.015
54109.419616,14.978,0.037
54124.336336,14.935,0.015
54124.348832,15.024,0.016
54124.36154,15.248,0.02
54124.374,15.381,0.021
54124.386414,15.281,0.02
54140.337194,15.346,0.025
54140.349378,15.345,0.023
54140.361749,15.122,0.018
54140.373767,14.985,0.016
54140.385933,14.875,0.015
54187.27683,15.387,0.035
54187.287478,15.142,0.03
54187.298083,15.04,0.025
54187.3089,14.93,0.023
54198.228371,14.93,0.026
54198.238009,14.901,0.024
54198.247624,14.888,0.028
54198.257237,14.848,0.013
54198.266874,14.804,0.013
54210.221709,15.251,0.02
54210.23075,15.396,0.021
54210.239469,15.455,0.023
54210.248165,15.393,0.021
54210.257107,15.193,0.02
54218.235075,15.256,0.043
54218.243654,15.078,0.035
54218.252254,15.012,0.033
54218.260855,14.948,0.03
54481.387672,15.22,0.026
54481.400196,15.489,0.031
54481.412296,15.456,0.038
54481.436646,15.064,0.023
54498.331001,15.031,0.021
54498.343434,15.248,0.025
54498.355257,15.372,0.026
54498.367083,15.282,0.025
54498.378953,15.095,0.021
54526.282445,14.862,0.016
54526.293781,14.838,0.016
54526.305091,14.802,0.016
54526.316522,14.872,0.016
54526.327688,14.9,0.018
54537.269072,15.025,0.023
54537.280016,15.282,0.035
54537.291039,15.36,0.041
54537.302101,15.386,0.038
54537.313118,15.219,0.033
54559.243712,14.967,0.021
54559.255939,15.059,0.023
54559.267807,15.301,0.026
54559.279246,15.509,0.031
54559.290642,15.457,0.031
54569.239848,15.32,0.03
54569.250938,15.128,0.025
54569.261862,14.977,0.023
54569.272803,14.899,0.021
54569.283715,14.833,0.021
54584.198283,15.216,0.028
54584.208284,15.443,0.031
54584.218285,15.427,0.033
54584.228488,15.383,0.031
54584.238611,15.175,0.026
54599.207947,15.27,0.076
54615.200597,15.037,0.038
54615.211194,15.01,0.035
