mjd,m,merr
52644.483684,14.874,0.011
52644.498393,14.953,0.017
52644.513393,14.995,0.015
52644.528137,15.053,0.028
52648.393979,15.393,0.022
52648.409032,15.416,0.022
52648.423711,15.422,0.022
52648.43876,15.414,0.02
52648.45408,15.402,0.02
52666.394327,14.469,0.012
52666.409267,14.587,0.012
52666.423916,14.665,0.013
52666.438555,14.771,0.013
52666.453391,14.84,0.015
52671.39579,15.415,0.018
52671.411156,15.417,0.018
52671.426328,15.398,0.018
52671.441504,15.432,0.018
52671.45685,15.502,0.02
52674.395193,14.803,0.011
52674.423056,14.959,0.013
52674.437043,15.025,0.013
52674.451011,15.046,0.013
52698.33223,15.12,0.012
52698.332344,15.152,0.018
52698.345272,15.169,0.013
52698.345387,15.175,0.018
52698.358998,15.246,0.013
52698.359112,15.208,0.02
52698.372155,15.176,0.054
52725.313579,14.499,0.009
52725.325159,14.601,0.015
52725.337104,14.672,0.02
52725.348884,14.733,0.018
52725.360544,14.793,0.015
52738.244443,15.412,0.025
52738.256584,15.411,0.025
52738.268413,15.434,0.025
52738.280073,15.424,0.025
52738.291942,15.379,0.023
52755.203746,14.756,0.011
52755.221128,14.415,0.009
52755.234265,14.47,0.009
52755.246299,14.547,0.009
52755.258431,14.617,0.011
52761.203966,15.406,0.028
52761.216004,15.46,0.043
52761.228088,15.454,0.03
52761.240166,15.534,0.026
52761.252186,15.49,0.02
52764.205938,14.958,0.016
52764.217892,14.996,0.018
52764.229837,15.044,0.018
52764.242062,15.072,0.018
52764.254029,15.104,0.02
52789.168802,15.423,0.031
52789.17941,15.404,0.03
52789.189956,15.418,0.03
52789.200653,15.4,0.028
52789.211312,15.412,0.03
52791.169453,15.489,0.078
52794.169417,15.065,0.018
52794.179449,15.107,0.02
52794.189392,15.151,0.02
52794.199327,15.155,0.022
52794.209254,15.18,0.02
52797.189561,15.372,0.054
52973.460158,15.416,0.022
52973.473095,15.423,0.022
52973.4861,15.417,0.022
52973.498929,15.371,0.02
52973.511868,15.402,0.02
52987.467782,15.499,0.068
52993.452582,15.32,0.013
52993.465891,15.335,0.013
52993.479266,15.378,0.013
52993.492513,15.386,0.013
52993.50615,15.397,0.013
52996.40639,15.409,0.017
52996.419553,15.411,0.015
52996.433045,15.446,0.015
52996.446201,15.492,0.015
52996.459279,15.486,0.015
53001.463483,15.42,0.013
53001.476786,15.364,0.011
53001.489924,15.382,0.011
53001.504056,15.382,0.011
53001.517356,15.355,0.011
53033.341331,15.424,0.021
53033.353663,15.421,0.021
53033.365874,15.437,0.021
53033.378402,15.469,0.023
53033.390698,15.52,0.03
53053.351448,15.41,0.017
53053.363066,15.411,0.017
53053.374736,15.403,0.022
53053.386382,15.423,0.02
53053.398588,15.412,0.017
53054.365697,15.414,0.015
53054.380406,15.414,0.017
53054.392398,15.42,0.015
53054.405064,15.433,0.017
53054.416997,15.472,0.017
53055.364771,15.52,0.052
53060.30565,15.28,0.011
53060.329891,15.339,0.011
53060.34186,15.368,0.011
53060.35511,15.374,0.013
53079.311945,14.661,0.009
53079.322808,14.72,0.009
53079.333487,14.774,0.011
53079.344236,14.831,0.011
53079.355265,14.915,0.011
53084.334748,15.417,0.013
53084.345288,15.448,0.013
53084.356168,15.48,0.013
53084.366802,15.472,0.013
53084.377556,15.358,0.013
53086.349914,14.788,0.01
53086.361502,14.867,0.01
53086.372463,14.9,0.012
53086.383521,14.959,0.012
53086.394471,15.013,0.012
53089.274219,15.225,0.013
53089.284732,15.251,0.013
53089.295329,15.267,0.013
53089.305722,15.307,0.017
53089.316215,15.346,0.015
53090.283583,15.379,0.018
53090.294508,15.386,0.018
53090.305441,15.421,0.018
53090.31624,15.39,0.016
53090.327006,15.404,0.035
53091.243207,15.492,0.035
53110.239878,14.975,0.015
53110.250971,15.005,0.015
53110.262034,15.044,0.015
53110.27319,15.103,0.017
53110.284257,15.141,0.017
53138.203145,14.427,0.009
53138.212871,14.511,0.009
53138.222756,14.579,0.009
53138.232478,14.628,0.011
53138.242203,14.699,0.011
53148.201006,15.219,0.017
53148.209956,15.256,0.017
53148.218907,15.262,0.018
53148.227863,15.311,0.022
53148.236847,15.298,0.02
53166.180479,15.498,0.026
53166.189831,15.526,0.028
53166.199186,15.488,0.028
53166.208563,15.445,0.026
53166.217927,15.323,0.024
53175.171773,14.629,0.009
53175.181691,14.658,0.009
53175.201718,14.781,0.011
53175.211643,14.856,0.011
53346.444608,15.14,0.026
53346.457159,15.212,0.025
53346.469388,15.245,0.026
53346.481587,15.259,0.025
53346.493882,15.307,0.026
53348.455266,15.386,0.024
53348.468202,15.363,0.026
53348.480654,15.398,0.026
53348.494479,15.431,0.035
53348.507669,15.39,0.022
53351.49448,14.792,0.018
53351.508838,14.895,0.018
53351.523149,14.951,0.02
53354.451514,15.332,0.018
53354.464457,15.355,0.018
53354.477218,15.368,0.018
53354.491365,15.415,0.018
53354.504191,15.398,0.018
53377.408873,15.418,0.02
53377.422038,15.433,0.02
53377.435249,15.404,0.018
53377.450009,15.41,0.018
53377.463716,15.399,0.018
53384.424674,15.412,0.475
53404.38112,15.039,0.013
53404.394515,15.074,0.013
53404.407497,15.127,0.015
53404.42045,15.151,0.016
53404.433392,15.175,0.016
53410.480012,15.097,0.013
53410.492466,15.134,0.013
53410.504926,15.179,0.013
53410.517337,15.192,0.013
53438.422999,14.577,0.009
53438.434969,14.643,0.011
53438.446778,14.741,0.011
53438.458639,14.813,0.013
53465.285366,15.364,0.02
53465.296725,15.377,0.02
53465.308669,15.393,0.02
53465.319347,15.398,0.02
53465.330638,15.434,0.02
53468.284135,15.352,0.031
53468.293688,14.998,0.028
53493.292731,15.23,0.024
53493.302717,15.27,0.026
53493.313038,15.285,0.026
53493.323768,15.331,0.028
53493.33385,15.365,0.028
53502.194839,15.295,0.02
53502.206007,15.307,0.022
53502.216477,15.359,0.022
53502.228088,15.393,0.024
53502.240534,15.386,0.024
53522.167436,14.831,0.013
53522.177658,14.885,0.015
53522.187907,14.917,0.015
53522.19823,14.975,0.017
53522.208803,15.01,0.017
53526.190478,15.297,0.044
53526.211476,15.412,0.031
53737.471567,15.418,0.018
53737.484818,15.42,0.018
53737.498142,15.395,0.018
53737.51142,15.396,0.017
53737.524743,15.408,0.018
53789.355,15.397,0.054
53789.36776,15.461,0.058
53789.380167,15.43,0.02
53789.392776,15.42,0.018
53789.405361,15.421,0.021
53799.290514,15.427,0.018
53799.302485,15.455,0.018
53799.314317,15.488,0.018
53799.326103,15.522,0.02
53799.337878,15.487,0.02
53818.286948,15.273,0.018
53818.298008,15.31,0.018
53818.309109,15.31,0.018
53818.320253,15.34,0.02
53818.331315,15.367,0.02
53845.272912,14.77,0.018
53845.283764,14.827,0.018
53851.237875,15.484,0.028
53851.248067,15.478,0.028
53851.258394,15.218,0.021
53851.26878,14.827,0.016
53851.279129,14.571,0.015
53880.160479,15.407,0.028
53880.171633,15.416,0.03
53880.182835,15.418,0.03
53880.193997,15.423,0.03
53880.205186,15.463,0.03
53881.16456,15.483,0.028
53881.174532,15.453,0.026
53881.184782,15.286,0.023
53881.197157,14.849,0.016
53881.207249,14.529,0.013
53885.162612,15.24,0.024
53885.174804,15.294,0.026
53885.186892,15.303,0.028
53885.199022,15.355,0.028
53885.211152,15.401,0.03
53886.161883,15.369,0.028
53886.171801,15.409,0.03
53886.18468,15.444,0.03
53886.194514,15.384,0.03
53886.20432,15.456,0.031
53901.178157,15.396,0.049
53901.197914,15.459,0.041
53901.208037,15.442,0.046
54064.447431,15.473,0.035
54064.462982,15.523,0.035
54064.476509,15.469,0.033
54064.489576,15.317,0.026
54064.502159,14.848,0.016
54112.438036,15.352,0.03
54112.450666,15.341,0.028
54112.463552,15.376,0.048
54112.476195,15.43,0.03
54112.48899,15.411,0.03
54152.340875,15.409,0.015
54152.352836,15.473,0.015
54152.365211,15.498,0.015
54152.377204,15.464,0.015
54152.392104,15.302,0.013
54173.270539,15.437,0.021
54173.281574,15.413,0.021
54173.292318,15.428,0.021
54173.302987,15.458,0.023
54173.313664,15.405,0.021
54185.274822,15.037,0.021
54185.285153,15.079,0.026
54185.29539,15.119,0.038
54185.305643,15.122,0.078
54201.240947,15.239,0.025
54201.250278,15.254,0.025
54201.259522,15.293,0.025
54201.268764,15.314,0.026
54201.278063,15.326,0.026
54450.457784,15.142,0.011
54450.470952,15.19,0.011
54450.484106,15.243,0.011
54450.497295,15.277,0.011
54450.510454,15.291,0.011
54454.401828,15.398,0.02
54454.414991,15.424,0.018
54454.428274,15.464,0.017
54454.441694,15.508,0.015
54454.454943,15.503,0.015
54475.395876,15.372,0.022
54475.408773,15.416,0.02
54475.421761,15.408,0.015
54475.434614,15.402,0.015
54475.447451,15.403,0.013
54483.335076,15.398,0.028
54483.348293,15.321,0.026
54483.361205,15.298,0.024
54483.374495,15.32,0.024
54483.387653,15.323,0.024
54495.462618,15.411,0.017
54495.47525,15.395,0.017
54495.487848,15.407,0.017
54495.500461,15.397,0.018
54495.513059,15.397,0.018
54509.331869,15.05,0.009
54509.356135,15.12,0.011
54509.368175,15.151,0.011
54509.380248,15.186,0.011
54524.389334,15.3,0.013
54524.41311,15.363,0.015
54524.424799,15.424,0.017
54524.436658,15.423,0.017
54532.328078,15.321,0.011
54532.339549,15.322,0.011
54532.350948,15.362,0.013
54532.362229,15.38,0.013
54532.37349,15.387,0.013
54538.305763,14.966,0.009
54538.316875,15.04,0.009
54538.327966,15.053,0.009
54538.33898,15.084,0.009
54538.350126,15.098,0.009
54555.298988,15.413,0.011
54555.310805,15.413,0.013
54555.322749,15.439,0.013
54555.334751,15.437,0.013
54555.346609,15.414,0.013
54559.183195,15.504,0.017
54559.194762,15.479,0.015
54559.206327,15.338,0.013
54559.218031,14.935,0.009
54559.229617,14.548,0.007
54580.204774,15.42,0.031
54580.215022,15.49,0.033
54580.225314,15.488,0.035
54580.236193,15.454,0.035
54580.247114,15.407,0.035
54586.239116,15.417,0.033
54586.249458,15.416,0.02
54586.259881,15.407,0.018
54586.270208,15.435,0.018
54586.280619,15.422,0.02
54591.194485,15.109,0.033
54591.204075,15.174,0.035
54591.213832,15.161,0.036
54591.224049,15.181,0.036
54591.233794,15.226,0.038
54594.207396,15.417,0.02
54594.217726,15.418,0.02
54594.228071,15.433,0.02
54594.2384,15.453,0.022
54594.248726,15.508,0.022
54611.164243,14.509,0.02
54611.172542,14.539,0.02
54611.180778,14.59,0.021
54611.188991,14.682,0.021
54611.197241,14.699,0.021
54618.164249,14.435,0.009
54618.174436,14.478,0.009
54618.184668,14.519,0.009
54618.194884,14.603,0.009
54618.205067,14.663,0.009
