mjd,m,merr
52614.440808,14.452,0.021
52614.455431,14.457,0.025
52614.470013,14.472,0.021
52614.484467,14.467,0.013
52614.498907,14.471,0.012
52639.473963,14.522,0.01
52639.488871,14.551,0.01
52639.503686,14.545,0.01
52639.519787,14.556,0.012
52646.407644,14.496,0.012
52646.423395,14.493,0.012
52646.438365,14.476,0.012
52646.453479,14.509,0.012
52646.468464,14.464,0.012
52649.467928,14.505,0.009
52649.484074,14.5,0.009
52649.49876,14.521,0.009
52649.512908,14.521,0.011
52649.527298,14.495,0.009
52666.389361,14.498,0.011
52666.404558,14.502,0.009
52666.419675,14.512,0.009
52666.43495,14.535,0.009
52666.449923,14.697,0.011
52672.395018,14.499,0.01
52672.411004,14.527,0.012
52672.433336,14.512,0.012
52672.453671,14.522,0.025
52676.293648,14.498,0.011
52676.309074,14.505,0.011
52676.324661,14.501,0.011
52676.340277,14.518,0.011
52676.356028,14.506,0.011
52698.308286,14.52,0.009
52698.322239,14.509,0.009
52698.336678,14.523,0.009
52698.351556,14.508,0.009
52698.36571,14.516,0.009
52700.356995,14.525,0.012
52700.37248,14.523,0.012
52700.404177,14.518,0.012
52700.419602,14.526,0.012
52701.374764,14.5,0.012
52701.392946,14.493,0.012
52701.409783,14.491,0.012
52701.422933,14.487,0.012
52701.43599,14.495,0.012
52710.307577,14.52,0.012
52710.322165,14.511,0.012
52710.3357,14.512,0.012
52710.349042,14.514,0.012
52710.362136,14.5,0.012
52724.249549,14.496,0.012
52724.2616,14.51,0.012
52724.274214,14.502,0.012
52724.286849,14.502,0.012
52724.298997,14.5,0.01
52733.248104,14.506,0.012
52733.260073,14.528,0.012
52733.272134,14.509,0.012
52733.284331,14.515,0.012
52733.296321,14.525,0.02
52754.219491,14.527,0.012
52754.232146,14.5,0.012
52754.244662,14.512,0.013
52754.257259,14.588,0.013
52754.2696,14.727,0.015
52768.205915,14.482,0.02
52768.217625,14.523,0.02
52768.229321,14.515,0.02
52768.241889,14.524,0.021
52768.253691,14.514,0.021
52792.179184,14.919,0.023
52792.190102,14.772,0.02
52792.201057,14.634,0.018
52792.211958,14.534,0.016
52793.214919,14.919,0.023
52793.225233,14.772,0.02
52793.235774,14.634,0.018
52793.246097,14.534,0.016
52974.462853,14.491,0.011
52974.475533,14.503,0.009
52974.488245,14.485,0.009
52974.501102,14.496,0.009
52974.514334,14.607,0.009
52992.478955,14.576,0.008
52992.49175,14.551,0.008
52992.505511,14.579,0.008
52992.518739,14.56,0.012
52992.531945,14.584,0.008
53001.423958,14.512,0.007
53003.379998,14.494,0.007
53003.392164,14.479,0.007
53003.404316,14.501,0.009
53003.416279,14.502,0.015
53003.428449,14.545,0.022
53034.340402,14.858,0.015
53034.352242,14.89,0.015
53034.364166,14.77,0.013
53034.376185,14.59,0.012
53034.388133,14.531,0.01
53051.333036,14.52,0.009
53051.34527,14.516,0.007
53051.356864,14.499,0.009
53051.368593,14.5,0.009
53051.380226,14.515,0.009
53062.339631,14.758,0.035
53062.352681,14.887,0.061
53062.364875,14.792,0.018
53062.377144,14.641,0.011
53062.388578,14.602,0.011
53078.319599,14.548,0.01
53078.330622,14.547,0.01
53078.341546,14.542,0.01
53078.352508,14.534,0.012
53087.292946,14.55,0.007
53087.304404,14.549,0.007
53087.315733,14.542,0.007
53087.326783,14.538,0.007
53087.338828,14.544,0.007
53089.28691,14.532,0.007
53089.297997,14.536,0.007
53089.30916,14.542,0.007
53089.32028,14.539,0.025
53109.236125,14.518,0.012
53109.250579,14.536,0.012
53109.26249,14.523,0.012
53109.273215,14.515,0.012
53109.292012,14.505,0.012
53119.243266,14.527,0.007
53119.253891,14.532,0.007
53119.264385,14.521,0.007
53119.274901,14.517,0.007
53119.285476,14.582,0.009
53137.20539,14.534,0.012
53137.215052,14.555,0.013
53137.225402,14.542,0.012
53137.235312,14.552,0.012
53137.244897,14.548,0.012
53149.205425,14.71,0.011
53149.214403,14.834,0.013
53149.223459,14.874,0.013
53149.232435,14.8,0.013
53149.241514,14.681,0.011
53165.172103,14.518,0.018
53165.181994,14.511,0.018
53165.191922,14.531,0.02
53165.217853,14.531,0.015
53165.227669,14.519,0.015
53348.483724,14.547,0.013
53348.497609,14.548,0.012
53348.511535,14.522,0.012
53348.525914,14.544,0.012
53501.197345,14.497,0.011
53501.209055,14.487,0.011
53501.219445,14.494,0.011
53501.22944,14.49,0.011
53501.239776,14.494,0.011
53529.16179,14.484,0.013
53529.172211,14.481,0.013
53529.18252,14.472,0.015
53529.192918,14.478,0.013
53529.203387,14.46,0.013
53540.181514,14.468,0.031
53540.201032,14.471,0.031
53713.468644,14.466,0.02
53713.481506,14.49,0.028
53713.520447,14.508,0.031
53739.41744,14.517,0.054
53739.430487,14.483,0.015
53739.443516,14.53,0.011
53739.456738,14.501,0.011
53739.470341,14.516,0.009
53770.352374,14.491,0.009
53770.367066,14.48,0.009
53770.380367,14.49,0.009
53770.393357,14.482,0.009
53770.406275,14.492,0.009
53788.366209,14.52,0.01
53788.378885,14.51,0.021
53788.391505,14.564,0.021
53788.404164,14.522,0.02
53813.317462,14.736,0.016
53813.328917,14.587,0.015
53813.340411,14.514,0.013
53813.351799,14.507,0.013
53813.363686,14.51,0.013
53820.333788,14.554,0.036
53844.240954,14.533,0.01
53844.252076,14.534,0.01
53844.263014,14.538,0.01
53844.273966,14.545,0.01
53844.284945,14.538,0.01
53852.19874,14.639,0.015
53852.209005,14.8,0.016
53852.2192,14.907,0.018
53852.229371,14.91,0.018
53852.239551,14.774,0.016
53881.166872,14.761,0.015
53881.178045,14.859,0.017
53881.189112,14.838,0.017
53881.200285,14.675,0.015
53887.168862,14.532,0.018
53887.179028,14.528,0.018
53887.189424,14.521,0.02
53887.199807,14.496,0.02
53887.210197,14.5,0.02
53902.170284,14.459,0.018
54057.452659,14.475,0.015
54057.467186,14.477,0.015
54057.480455,14.484,0.015
54057.493424,14.499,0.015
54057.506527,14.502,0.013
54068.457105,14.48,0.009
54068.470015,14.468,0.009
54068.482925,14.493,0.028
54083.457175,14.523,0.025
54083.470411,14.481,0.023
54083.483615,14.525,0.035
54154.332656,14.492,0.01
54154.344177,14.503,0.01
54154.355593,14.514,0.012
54154.367012,14.5,0.01
54154.378559,14.511,0.01
54169.2775,14.57,0.01
54169.288409,14.68,0.012
54169.299434,14.839,0.013
54169.310352,14.926,0.016
54169.321187,14.832,0.016
54205.226129,14.532,0.012
54205.235396,14.52,0.012
54205.244615,14.515,0.012
54205.25415,14.511,0.012
54205.263617,14.514,0.012
54208.216607,14.734,0.015
54208.225289,14.855,0.016
54208.234165,14.896,0.016
54208.242825,14.853,0.015
54208.25157,14.738,0.013
54452.455217,14.53,0.007
54452.468384,14.508,0.007
54452.481518,14.518,0.007
54452.494681,14.55,0.007
54452.507832,14.557,0.007
54477.397778,14.707,0.009
54477.41073,14.575,0.009
54477.423791,14.527,0.007
54477.436633,14.566,0.009
54477.449496,14.554,0.007
54484.333665,14.539,0.017
54484.346806,14.524,0.015
54484.359938,14.535,0.015
54484.372859,14.517,0.013
54484.386128,14.525,0.013
54539.217691,14.47,0.007
54539.228499,14.495,0.007
54539.239389,14.464,0.007
54539.250415,14.481,0.007
54539.26123,14.479,0.007
54567.236156,14.495,0.007
54567.247357,14.503,0.007
54567.258615,14.502,0.009
54567.269842,14.49,0.007
54567.281041,14.504,0.009
54594.216165,14.51,0.021
54594.225627,14.533,0.021
54594.235073,14.502,0.021
54594.244554,14.5,0.021
54597.202394,14.438,0.015
54597.212987,14.457,0.015
54597.22371,14.455,0.015
54597.234277,14.45,0.015
54597.24488,14.459,0.017
54612.202895,14.845,0.025
54612.211461,14.709,0.021
54612.220944,14.6,0.021
54612.229502,14.538,0.02
54612.238017,14.526,0.02
54620.171021,14.471,0.009
54620.181238,14.466,0.009
54620.19136,14.474,0.009
54620.201484,14.467,0.009
54620.211601,14.469,0.009
