mjd,m,merr
52639.473709,14.999,0.016
52639.488616,15.026,0.016
52639.503434,15.02,0.016
52639.519531,15.03,0.016
52649.458628,15.151,0.018
52649.504229,15.209,0.02
52666.38975,15.139,0.017
52666.404984,15.164,0.015
52666.420063,15.162,0.017
52666.435339,15.169,0.015
52666.450293,15.228,0.017
52676.29202,15.244,0.025
52676.30849,15.293,0.025
52676.323828,15.265,0.025
52676.340574,15.265,0.025
52676.355982,15.286,0.025
52706.305282,15.189,0.015
52706.318638,15.181,0.015
52706.331923,15.151,0.015
52706.345166,15.114,0.015
52706.358644,15.065,0.013
52711.246253,14.957,0.018
52711.259362,14.959,0.018
52711.272454,14.962,0.018
52711.285508,14.953,0.018
52711.298629,14.963,0.018
52724.249908,15.305,0.018
52724.261959,15.333,0.018
52724.274573,15.339,0.018
52724.287208,15.363,0.02
52724.299356,15.385,0.02
52734.255911,15.04,0.015
52734.268444,14.911,0.021
52734.280397,14.833,0.023
52734.304201,14.748,0.03
52753.202861,15.124,0.018
52753.216136,15.113,0.018
52753.22872,15.123,0.018
52753.241571,15.175,0.02
52753.254241,15.139,0.02
52794.16943,15.217,0.023
52794.179835,15.235,0.025
52794.190501,15.239,0.025
52794.201278,15.284,0.025
52794.211714,15.261,0.026
52797.170397,15.278,0.041
52797.180283,15.342,0.043
52797.190237,15.264,0.043
52797.20026,15.313,0.043
52797.210226,15.317,0.046
52811.171161,15.175,0.026
52811.181078,15.174,0.026
52811.191001,15.178,0.026
52811.200901,15.169,0.026
52811.210795,15.23,0.028
52974.46154,15.067,0.016
52974.4733,15.098,0.015
52974.485148,15.111,0.016
52974.496141,15.093,0.015
52974.509193,15.125,0.015
53002.419447,14.816,0.007
53002.438595,14.803,0.007
53002.45761,14.861,0.007
53002.474112,14.855,0.007
53002.490466,14.91,0.008
53006.391576,15.345,0.02
53006.403786,15.323,0.018
53006.416473,15.342,0.018
53006.428704,15.343,0.018
53006.446056,15.35,0.018
53034.389468,15.241,0.018
53034.401263,15.228,0.018
53034.413126,15.234,0.018
53034.425064,15.18,0.018
53034.437077,15.225,0.018
53051.332923,15.238,0.015
53051.345157,15.233,0.015
53051.356752,15.268,0.015
53051.368481,15.265,0.015
53051.380077,15.28,0.017
53078.319504,15.316,0.018
53078.330526,15.223,0.018
53078.341451,15.116,0.016
53078.352412,15.088,0.016
53089.280964,15.215,0.011
53089.29156,15.193,0.011
53089.301952,15.174,0.011
53089.312445,15.16,0.011
53089.322864,15.082,0.018
53109.236292,15.391,0.021
53109.250747,15.379,0.021
53109.262659,15.406,0.021
53109.273383,15.4,0.021
53109.292178,15.433,0.021
53119.243888,14.992,0.012
53119.254387,15.004,0.012
53119.265108,15.057,0.012
53119.275583,15.039,0.012
53119.289723,15.091,0.013
53120.195973,15.345,0.025
53120.216305,15.384,0.025
53120.226326,15.38,0.018
53137.205303,15.298,0.021
53137.214965,15.308,0.021
53137.225314,15.337,0.021
53137.235225,15.309,0.02
53137.24481,15.341,0.021
53149.203125,15.192,0.018
53149.211717,15.191,0.018
53149.220269,15.208,0.018
53149.229023,15.212,0.018
53149.23785,15.196,0.018
53165.172016,15.36,0.035
53165.181907,15.401,0.035
53165.191835,15.39,0.046
53165.217766,15.376,0.03
53165.227583,15.408,0.03
53349.469581,15.351,0.03
53349.483109,15.379,0.03
53349.496857,15.284,0.026
53349.510459,15.133,0.023
53355.482914,15.365,0.02
53355.496078,15.372,0.021
53355.509808,15.42,0.021
53449.266599,14.887,0.017
53449.277035,14.888,0.024
53449.287482,14.831,0.018
53449.298454,14.86,0.018
53449.308954,14.85,0.017
53501.198078,15.23,0.02
53501.209778,15.228,0.018
53501.220151,15.231,0.02
53501.23015,15.262,0.02
53501.240484,15.271,0.02
53529.162228,15.221,0.024
53529.172636,15.245,0.024
53529.182944,15.273,0.026
53529.193481,15.271,0.024
53529.203814,15.312,0.024
53540.191393,15.28,0.061
53540.201197,15.33,0.061
53540.210895,15.34,0.061
53713.468929,15.217,0.039
53713.481845,15.364,0.061
53739.430779,15.084,0.022
53739.443804,15.167,0.017
53739.457026,15.182,0.017
53739.470629,15.234,0.015
53770.352663,15.097,0.015
53770.367353,15.118,0.015
53770.380653,15.094,0.015
53770.393645,15.104,0.015
53770.406565,15.114,0.015
53787.403438,15.005,0.025
53787.416351,15.052,0.015
53813.310973,15.4,0.03
53813.321972,15.369,0.03
53813.332985,15.346,0.03
53813.343998,15.289,0.028
53813.355017,15.197,0.026
53817.331217,15.187,0.018
53817.342075,15.161,0.018
53817.352933,15.172,0.018
53817.363799,15.183,0.018
53844.241415,15.344,0.018
53844.252538,15.355,0.018
53844.263474,15.379,0.018
53844.274427,15.354,0.018
53844.285407,15.4,0.018
53853.240064,15.331,0.026
53853.250446,15.346,0.026
53853.26073,15.36,0.026
53853.271049,15.35,0.028
53853.28149,15.368,0.026
53887.174386,15.128,0.031
53887.186269,15.224,0.033
53887.197502,15.216,0.035
53887.208862,15.175,0.035
53887.220208,15.183,0.035
53902.218346,14.803,0.021
54066.483213,15.111,0.038
54068.457534,15.229,0.018
54068.470446,15.256,0.018
54068.483355,15.253,0.017
54084.454369,15.441,0.036
54084.467203,15.45,0.031
54084.480132,15.431,0.028
54084.492977,15.384,0.031
54084.505893,15.266,0.031
54098.372521,15.283,0.022
54098.384536,15.285,0.02
54098.396493,15.319,0.018
54098.408441,15.299,0.018
54098.420469,15.33,0.018
54110.393887,15.362,0.048
54110.406609,15.282,0.04
54110.419321,15.336,0.043
54110.43209,15.385,0.043
54110.445048,15.365,0.045
54121.385319,15.258,0.015
54121.397539,15.277,0.017
54121.40974,15.267,0.017
54121.421935,15.302,0.017
54121.434127,15.285,0.018
54154.333196,15.38,0.02
54154.344714,15.379,0.02
54154.356131,15.389,0.02
54154.367594,15.362,0.02
54154.379099,15.336,0.02
54169.278021,15.178,0.015
54169.28893,15.183,0.016
54169.299955,15.224,0.018
54169.310873,15.235,0.02
54169.321709,15.237,0.021
54205.226004,15.298,0.021
54205.235272,15.334,0.021
54205.244491,15.339,0.021
54205.254026,15.331,0.021
54205.263492,15.331,0.021
54453.399476,15.341,0.015
54453.41249,15.342,0.015
54453.425509,15.334,0.013
54453.438526,15.352,0.013
54453.451573,15.354,0.013
54478.415541,15.496,0.041
54478.428652,15.384,0.026
54478.45462,15.165,0.022
54505.395992,15.025,0.009
54505.408501,15.02,0.009
54505.420979,15.042,0.009
54505.433488,15.067,0.009
54505.446017,15.061,0.009
54568.236544,15.283,0.018
54568.247644,15.277,0.018
54568.258621,15.292,0.018
54568.269802,15.295,0.018
54568.280944,15.305,0.017
54594.206966,15.125,0.036
54594.216608,15.247,0.033
54594.22607,15.28,0.035
54594.235515,15.279,0.036
54594.244997,15.305,0.036
54597.20264,15.055,0.026
54597.213233,15.122,0.026
54597.223957,15.109,0.028
54597.234519,15.149,0.028
54597.245123,15.117,0.028
54612.20331,15.041,0.028
54612.211875,15.077,0.028
54612.221358,15.047,0.028
54612.229916,15.034,0.028
54612.238433,15.04,0.03
54620.171218,15.081,0.015
54620.181433,15.056,0.015
54620.191556,15.023,0.015
54620.20168,15.017,0.015
54620.211798,15.019,0.015
