mjd,m,merr
52639.445203,15.227,0.018
52639.45999,15.228,0.017
52639.475347,15.095,0.015
52639.490001,15.008,0.015
52639.504795,14.984,0.013
52650.393842,15.128,0.018
52650.40865,15.164,0.018
52650.427376,15.368,0.02
52650.442099,15.39,0.02
52650.456729,15.273,0.02
52665.384272,15.134,0.015
52665.398574,15.079,0.015
52665.412939,15.076,0.013
52665.42725,15.084,0.015
52665.441804,15.096,0.015
52677.380561,15.193,0.048
52677.395104,15.1,0.03
52677.409398,15.097,0.017
52677.423779,15.153,0.024
52677.438103,15.324,0.024
52706.308795,15.145,0.016
52706.30891,15.143,0.016
52706.322145,15.117,0.016
52706.32226,15.119,0.015
52706.335736,15.095,0.016
52706.335853,15.109,0.015
52706.348862,15.132,0.016
52706.348977,15.133,0.016
52706.362264,15.181,0.016
52706.362379,15.177,0.016
52711.245774,15.154,0.023
52711.251796,15.134,0.02
52711.258883,15.183,0.025
52711.265423,15.288,0.02
52711.271975,15.314,0.025
52711.279069,15.325,0.022
52711.285029,15.412,0.026
52711.292424,15.397,0.022
52711.298151,15.36,0.025
52711.305891,15.231,0.02
52712.306187,15.117,0.022
52712.319786,15.087,0.028
52712.332772,14.994,0.026
52712.345731,15.03,0.022
52712.35866,15.102,0.024
52724.293877,15.089,0.013
52724.305427,15.083,0.013
52724.323535,15.099,0.013
52724.335644,15.123,0.015
52724.347961,15.211,0.017
52739.242768,15.161,0.021
52739.242882,15.185,0.02
52739.25426,15.227,0.023
52739.254374,15.299,0.021
52739.265951,15.306,0.023
52739.266064,15.34,0.023
52739.277855,15.254,0.023
52739.277969,15.306,0.023
52739.289347,15.165,0.021
52739.289461,15.172,0.021
52753.197195,15.327,0.018
52753.210283,15.263,0.018
52753.223234,15.198,0.017
52753.235265,15.091,0.015
52753.247325,15.086,0.015
52769.207365,15.276,0.041
52769.219122,15.218,0.039
52769.242515,15.099,0.033
52769.254711,15.053,0.033
52787.212631,15.081,0.015
52787.223337,15.076,0.015
52787.234094,15.079,0.015
52787.244684,15.092,0.017
52787.255258,15.168,0.017
52794.169148,15.216,0.023
52794.179556,15.196,0.023
52794.190222,15.137,0.021
52794.201001,15.133,0.021
52794.211393,15.181,0.023
52811.170801,15.087,0.022
52811.180717,15.083,0.022
52811.190643,15.091,0.024
52811.200541,15.146,0.024
52811.210436,15.202,0.026
52966.406037,15.327,0.026
52966.414789,15.367,0.025
52966.423079,15.379,0.025
52966.431549,15.253,0.02
52966.440557,15.197,0.02
52992.51538,14.991,0.02
53003.381861,15.03,0.01
53003.39403,15.086,0.012
53003.406272,15.154,0.015
53003.418307,15.323,0.028
53003.430607,15.514,0.053
53006.390969,15.285,0.018
53006.40312,15.18,0.017
53006.415865,15.134,0.015
53006.428096,15.108,0.015
53006.445449,15.095,0.015
53034.345273,15.248,0.02
53034.357594,15.187,0.017
53034.370175,15.161,0.015
53034.382851,15.093,0.015
53034.395159,15.039,0.015
53050.327951,15.233,0.026
53050.33964,15.361,0.043
53050.351322,15.464,0.059
53050.362932,15.41,0.044
53050.374544,15.313,0.031
53078.281414,15.076,0.013
53078.292215,15.141,0.017
53078.302964,15.114,0.015
53078.313604,15.165,0.015
53078.324369,15.315,0.017
53092.297866,15.096,0.013
53109.240711,15.298,0.017
53109.251832,15.341,0.018
53109.262909,15.257,0.017
53109.274016,15.188,0.017
53109.285103,15.141,0.015
53121.207501,15.227,0.015
53121.228108,15.324,0.015
53121.238613,15.212,0.015
53137.201951,15.205,0.018
53137.211531,15.266,0.018
53137.221055,15.333,0.022
53150.2335,15.064,0.035
53165.172079,15.086,0.022
53165.182065,15.141,0.02
53165.192045,15.193,0.033
53165.202022,15.31,0.026
53165.212042,15.377,0.024
53341.468353,15.153,0.036
53341.480897,15.152,0.035
53349.469189,15.406,0.03
53349.482717,15.352,0.026
53349.496466,15.233,0.025
53349.510048,15.205,0.023
53355.482537,15.21,0.016
53355.495701,15.146,0.016
53355.509431,15.083,0.015
53360.42689,15.144,0.023
53385.490487,15.211,0.017
53385.503532,15.31,0.018
53385.516619,15.289,0.018
53385.52956,15.205,0.017
53385.543034,15.079,0.017
53437.407482,15.122,0.015
53437.418779,15.133,0.017
53437.430109,15.322,0.018
53437.441397,15.316,0.018
53437.458116,15.209,0.018
53449.266124,15.267,0.022
53449.276558,15.341,0.037
53449.287006,15.379,0.028
53449.297977,15.363,0.031
53449.308476,15.295,0.022
53473.28438,15.126,0.017
53473.295114,15.115,0.017
53473.306235,15.096,0.017
53473.318123,15.154,0.017
53473.328717,15.174,0.018
53500.194441,15.054,0.015
53500.205066,15.097,0.017
53500.216521,15.134,0.017
53500.226548,15.15,0.018
53500.236459,15.252,0.02
53528.171985,15.141,0.022
53528.18364,15.159,0.024
53528.194812,15.192,0.026
53528.205261,15.333,0.028
53528.215867,15.435,0.031
53539.171414,15.17,0.039
53539.180932,15.138,0.041
53539.190456,15.235,0.044
53539.199979,15.273,0.046
53539.209488,15.389,0.055
53703.46337,15.239,0.018
53703.476114,15.149,0.017
53703.488797,15.044,0.015
53703.501552,15.033,0.015
53703.514468,15.056,0.015
53714.455397,15.297,0.018
53714.46819,15.188,0.017
53714.481246,15.133,0.015
53714.493981,15.083,0.013
53714.50689,15.08,0.013
53740.406302,15.111,0.015
53740.420494,15.105,0.015
53740.43417,15.148,0.015
53740.447149,15.22,0.015
53740.460635,15.275,0.017
53770.353342,15.105,0.015
53770.36778,15.204,0.017
53770.381085,15.327,0.017
53770.394074,15.39,0.018
53770.406992,15.317,0.018
53787.402999,15.175,0.021
53787.415912,15.153,0.016
53788.339322,15.238,0.015
53788.351304,15.279,0.015
53788.363484,15.27,0.017
53788.387625,15.115,0.017
53789.339013,15.324,0.054
53789.348719,15.269,0.045
53789.350887,15.233,0.046
53789.361625,15.204,0.041
53789.362754,15.21,0.039
53789.374074,15.156,0.02
53789.374637,15.134,0.02
53789.386495,15.117,0.015
53789.386506,15.124,0.015
53789.399111,15.122,0.013
53813.310364,15.164,0.024
53813.321363,15.14,0.024
53813.332374,15.103,0.022
53813.343385,15.103,0.022
53813.354401,15.125,0.024
53823.247056,15.114,0.013
53823.258171,15.135,0.013
53823.269156,15.182,0.015
53823.280196,15.267,0.015
53823.290984,15.339,0.016
53844.233689,15.14,0.02
53844.243907,15.119,0.018
53844.254207,15.084,0.018
53844.264427,15.111,0.018
53844.274655,15.136,0.02
53853.239676,15.386,0.026
53853.250056,15.265,0.025
53853.260339,15.221,0.023
53853.270657,15.132,0.021
53853.281099,15.121,0.021
53887.173901,15.165,0.031
53887.185785,15.241,0.037
53887.197017,15.364,0.041
53887.208377,15.388,0.041
53887.219719,15.342,0.037
53902.170853,15.155,0.028
53902.19405,15.154,0.028
54056.452104,15.301,0.026
54056.464759,15.194,0.023
54056.477765,15.176,0.021
54056.490437,15.116,0.02
54056.50314,15.12,0.02
54066.482634,15.207,0.035
54070.450974,15.196,0.017
54070.464009,15.262,0.017
54070.476889,15.386,0.018
54070.489775,15.396,0.018
54070.50266,15.262,0.017
54084.453791,15.127,0.025
54084.46663,15.091,0.021
54084.479555,15.099,0.02
54084.4924,15.126,0.023
54084.505316,15.167,0.026
54098.371991,15.179,0.018
54098.384006,15.129,0.015
54098.395964,15.088,0.013
54098.407911,15.089,0.013
54098.419939,15.126,0.015
54110.393295,15.127,0.033
54110.406019,15.169,0.031
54110.418742,15.255,0.035
54110.431517,15.321,0.038
54110.444205,15.351,0.04
54121.335939,15.193,0.015
54121.348117,15.127,0.013
54121.360304,15.081,0.013
54121.372574,15.053,0.013
54121.384756,15.095,0.013
54155.29831,15.181,0.021
54155.310045,15.156,0.02
54155.322484,15.11,0.018
54155.335218,15.11,0.016
54155.347769,15.107,0.016
54206.226304,15.391,0.02
54206.235619,15.368,0.02
54206.244952,15.3,0.018
54206.254652,15.209,0.016
54206.264036,15.194,0.016
54529.205678,15.11,0.021
54529.218961,15.075,0.02
54529.230571,15.104,0.02
54529.242082,15.113,0.02
54529.253161,15.149,0.021
54568.235932,15.199,0.017
54568.247034,15.273,0.017
54568.258009,15.352,0.018
54568.269189,15.342,0.017
54568.280331,15.26,0.017
54582.241427,15.093,0.015
54582.251792,15.067,0.015
54582.262205,15.074,0.015
54582.272537,15.115,0.015
54582.282884,15.131,0.015
54589.20158,15.115,0.015
54589.21194,15.115,0.013
54589.222279,15.09,0.013
54589.23264,15.097,0.013
54589.243006,15.117,0.013
54613.160981,15.092,0.015
54613.170962,15.089,0.015
54613.180821,15.113,0.015
54613.190841,15.131,0.015
54613.200709,15.189,0.017
54621.164181,15.29,0.017
54621.174343,15.341,0.017
54621.184484,15.297,0.017
54621.194852,15.199,0.015
54621.205116,15.154,0.015
