mjd,m,merr
52639.445839,15.867,0.028
52639.460626,15.838,0.026
52639.475981,15.887,0.028
52639.490638,15.913,0.028
52639.505568,15.971,0.03
52650.394965,16.36,0.051
52650.41108,16.35,0.049
52650.443208,16.323,0.048
52650.458785,16.335,0.046
52665.384877,16.352,0.044
52665.399179,16.164,0.037
52665.413546,16.04,0.031
52665.427856,15.976,0.031
52665.442412,15.892,0.03
52677.381166,16.061,0.043
52677.395709,16.177,0.059
52677.410002,16.123,0.037
52677.424386,16.141,0.057
52677.438709,16.146,0.12
52706.322861,16.123,0.036
52706.336455,16.109,0.035
52706.349578,16.126,0.036
52706.362984,16.157,0.036
52711.251919,16.289,0.052
52711.265547,16.346,0.052
52711.279192,16.323,0.05
52711.29255,16.404,0.054
52711.306017,16.32,0.052
52711.377649,16.31,0.052
52711.391804,16.352,0.054
52711.406271,16.405,0.055
52711.420615,16.391,0.052
52711.435088,16.417,0.05
52712.306187,16.207,0.057
52712.319786,16.217,0.072
52712.345731,16.209,0.061
52724.294464,16.331,0.039
52724.306017,16.384,0.041
52724.32412,16.409,0.039
52724.336233,16.361,0.039
52724.348553,16.33,0.041
52739.243239,16.449,0.064
52739.254728,16.491,0.063
52739.278327,16.127,0.048
52753.197784,16.361,0.046
52753.210839,16.311,0.044
52753.223807,16.34,0.044
52753.23583,16.354,0.046
52753.247965,16.41,0.05
52787.212739,15.897,0.03
52787.223534,15.903,0.03
52787.234208,15.945,0.031
52787.244797,15.981,0.033
52787.255366,15.995,0.037
52811.171426,16.439,0.078
52811.181343,16.473,0.08
52811.191283,16.413,0.076
52811.201166,16.429,0.078
52811.211061,16.419,0.078
52966.415163,16.201,0.056
52966.423451,16.15,0.049
52966.440932,16.174,0.045
52992.462495,16.222,0.031
52992.475725,16.141,0.03
52992.489354,16.189,0.031
52992.502875,16.208,0.031
52992.516111,16.318,0.054
53003.382249,16.46,0.035
53003.394418,16.462,0.036
53003.40666,16.471,0.048
53003.418696,16.534,0.091
53003.430997,16.587,0.152
53006.392181,16.353,0.046
53006.40439,16.218,0.037
53006.417077,16.105,0.033
53006.429307,16.067,0.031
53006.446659,15.914,0.028
53034.345831,16.126,0.037
53034.358127,16.133,0.033
53034.370725,16.108,0.031
53034.383401,16.166,0.035
53034.395692,16.21,0.035
53050.328898,16.16,0.055
53050.340585,16.197,0.072
53050.352268,16.256,0.102
53050.363879,16.135,0.093
53050.375489,16.223,0.072
53078.28231,16.345,0.039
53078.293113,16.361,0.039
53078.303861,16.309,0.037
53078.3146,16.375,0.041
53078.325263,16.396,0.041
53092.278088,16.08,0.031
53092.288132,16.149,0.031
53092.298578,16.134,0.031
53092.308592,16.157,0.031
53092.318782,16.167,0.031
53093.27458,15.883,0.03
53093.285154,15.92,0.026
53093.295438,15.816,0.026
53093.305724,15.784,0.024
53093.31605,15.79,0.022
53094.282209,16.09,0.035
53094.292568,16.171,0.037
53094.303185,16.164,0.037
53094.313726,16.201,0.035
53094.324241,16.202,0.037
53095.273552,16.173,0.048
53095.283968,16.164,0.048
53095.294393,16.1,0.046
53095.304679,16.25,0.054
53095.315046,16.212,0.052
53109.241544,16.118,0.035
53109.252663,16.049,0.033
53109.263802,15.982,0.031
53109.274847,15.926,0.03
53109.285931,15.881,0.028
53121.19715,16.049,0.03
53121.207641,16.096,0.031
53121.217823,16.075,0.031
53121.228248,16.093,0.031
53121.238753,16.13,0.033
53137.20272,16.104,0.041
53137.212299,16.098,0.041
53137.221887,16.12,0.043
53150.233634,16.467,0.172
53165.172856,16.36,0.065
53165.182841,16.368,0.074
53165.192821,16.292,0.118
53165.202798,16.356,0.065
53165.212818,16.341,0.057
53177.172908,16.533,0.058
53177.183041,16.485,0.054
53177.192768,16.382,0.053
53437.407822,16.073,0.033
53437.419133,16.063,0.033
53437.430448,16.099,0.035
53437.441735,16.16,0.037
53437.458455,16.118,0.039
53449.266958,16.18,0.052
53449.277394,16.112,0.081
53449.287842,16.209,0.054
53449.298813,16.181,0.061
53449.309314,16.253,0.054
53473.384104,15.993,0.041
53473.396071,16.04,0.044
53473.415782,16.113,0.052
53473.425396,16.135,0.054
53500.194937,16.299,0.043
53500.205561,16.309,0.044
53500.217031,16.384,0.046
53500.227042,16.271,0.044
53500.236954,16.327,0.048
53528.172213,16.478,0.076
53528.183854,16.506,0.078
53528.195025,16.566,0.087
53528.205602,16.579,0.083
53528.216078,16.46,0.076
53539.172136,16.316,0.109
53539.181657,16.199,0.102
53539.191182,16.219,0.107
53539.2007,16.364,0.126
53539.210216,16.279,0.122
53714.456222,15.886,0.03
53714.468995,15.831,0.028
53714.481972,15.84,0.026
53714.494708,15.943,0.028
53714.507614,15.896,0.026
53740.407026,16.283,0.043
53740.421217,16.109,0.033
53740.434892,16.037,0.031
53740.448452,15.941,0.028
53740.461359,15.882,0.028
53770.353474,16.316,0.043
53770.367929,16.408,0.043
53770.381217,16.43,0.044
53770.394207,16.423,0.044
53770.407124,16.418,0.046
53787.40315,16.367,0.068
53813.310726,16.105,0.055
53813.321725,16.199,0.061
53813.332737,16.212,0.061
53813.343751,16.219,0.063
53813.354768,16.276,0.068
53823.247452,15.98,0.03
53823.258568,16.007,0.03
53823.269553,16.018,0.03
53823.280593,16.072,0.031
53823.291382,16.049,0.031
53844.234016,16.38,0.059
53844.244238,16.337,0.054
53844.254535,16.379,0.059
53844.26476,16.377,0.059
53844.274988,16.378,0.059
53853.239768,16.496,0.076
53853.250149,16.691,0.087
53853.260433,16.528,0.074
53853.270751,16.535,0.079
53853.281191,16.459,0.073
53887.174174,16.184,0.08
53887.186056,16.114,0.08
53887.19729,16.166,0.087
53887.208648,16.22,0.089
53887.219991,16.169,0.085
53902.171104,16.349,0.087
53902.194299,16.212,0.071
53915.170601,16.358,0.096
53915.180306,16.368,0.102
53915.190169,16.38,0.102
53915.201609,16.502,0.122
54056.464909,16.406,0.071
54056.477925,16.407,0.069
54056.503284,16.503,0.068
54066.455418,16.323,0.079
54066.51175,16.45,0.056
54070.451408,16.298,0.039
54070.464445,16.27,0.037
54070.477321,16.241,0.035
54070.49021,16.218,0.035
54070.503095,16.263,0.037
54084.454135,15.914,0.056
54084.46697,15.877,0.045
54084.479899,16.008,0.048
54084.492743,15.981,0.053
54084.505659,16.014,0.059
54098.372304,16.343,0.052
54098.384319,16.395,0.046
54098.396275,16.261,0.037
54098.408223,16.319,0.039
54098.420251,16.328,0.039
54110.393651,16.225,0.097
54110.406373,16.125,0.081
54110.419084,15.962,0.073
54110.431854,15.922,0.069
54110.444544,16.081,0.081
54121.385087,16.346,0.035
54121.397306,16.327,0.035
54121.409506,16.354,0.037
54121.421702,16.33,0.039
54121.433894,16.404,0.043
54155.310812,16.084,0.045
54155.323366,15.958,0.04
54155.335989,15.867,0.035
54155.348537,15.903,0.033
54206.226902,16.056,0.038
54206.236218,16.0,0.038
54206.24555,16.03,0.036
54568.23714,16.403,0.046
54568.248238,16.402,0.044
54568.259282,16.4,0.044
54568.270396,16.435,0.046
54568.281587,16.384,0.043
54574.269039,16.415,0.124
54574.279634,16.334,0.113
54582.241791,16.242,0.041
54582.252154,16.274,0.041
54582.262571,16.253,0.041
54582.272909,16.283,0.041
54582.283261,16.257,0.041
54589.201936,16.031,0.031
54589.212299,16.053,0.03
54589.222636,16.063,0.03
54589.233,16.061,0.03
54589.243364,16.069,0.028
54613.161288,16.355,0.043
54613.17127,16.361,0.043
54613.181129,16.366,0.043
54613.191148,16.322,0.041
54613.201086,16.345,0.063
54621.164473,16.056,0.031
54621.174659,16.085,0.033
54621.184776,16.11,0.033
54621.195145,16.132,0.035
54621.20541,16.146,0.037
