mjd,m,merr
52612.459889,16.909,0.094
52612.475068,16.883,0.085
52612.490213,16.914,0.081
52612.505541,16.93,0.087
52612.520726,16.944,0.087
52620.464439,16.717,0.078
52620.479581,16.824,0.126
52620.494785,16.667,0.085
52620.509967,16.746,0.1
52620.525052,16.72,0.093
52650.361871,16.859,0.076
52650.376053,16.705,0.065
52650.390161,16.649,0.059
52650.404313,16.574,0.054
52650.418408,16.529,0.052
52652.406588,16.729,0.076
52652.421679,16.651,0.064
52652.436758,16.827,0.078
52652.45228,16.743,0.073
52652.467236,16.889,0.086
52664.360732,16.949,0.122
52664.376956,16.98,0.198
52680.337924,17.001,0.104
52680.362176,16.957,0.089
52680.380998,17.215,0.109
52680.39696,17.085,0.097
52680.415163,16.92,0.087
52681.285095,16.935,0.152
52681.300068,16.948,0.144
52696.341215,16.816,0.063
52696.353851,16.819,0.063
52696.366276,16.813,0.063
52696.391707,16.842,0.065
52712.28964,16.886,0.113
52712.302863,16.926,0.115
52723.335814,16.9,0.102
52752.234798,16.919,0.083
52752.245064,17.044,0.091
52752.255318,16.922,0.081
52752.265686,16.979,0.085
52752.275985,16.983,0.087
52770.206961,16.821,0.155
52770.207551,16.692,0.126
52770.218619,16.867,0.157
52770.21944,16.742,0.131
52770.230257,16.906,0.163
52770.23174,16.764,0.133
52770.241865,16.952,0.178
52770.243721,16.572,0.117
52770.253331,16.958,0.175
52770.256052,16.781,0.142
52787.167605,16.787,0.081
52787.17854,16.79,0.081
52787.189905,16.726,0.083
52787.201065,16.83,0.084
52787.211879,16.778,0.081
52800.201064,16.683,0.223
52810.173545,17.393,0.168
52810.183395,17.229,0.15
52812.193041,16.755,0.104
52812.20377,16.697,0.101
52812.213977,16.695,0.104
52812.22418,16.708,0.104
52977.453732,17.079,0.107
52977.466022,16.898,0.091
52977.478191,17.087,0.105
52977.490611,16.906,0.091
52977.502927,16.986,0.096
52990.458415,16.89,0.119
52990.470999,17.002,0.087
52990.496201,16.927,0.079
52990.509293,17.038,0.084
53035.40674,16.697,0.08
53035.419082,16.717,0.065
53035.431429,16.724,0.057
53035.444469,16.761,0.068
53035.456815,16.706,0.061
53037.350103,16.77,0.073
53037.36271,16.849,0.074
53037.375372,16.923,0.079
53037.390697,16.972,0.081
53037.404932,17.005,0.083
53038.449139,16.539,0.093
53038.461702,16.42,0.107
53038.474302,16.578,0.096
53049.332782,16.824,0.057
53049.344646,16.908,0.063
53049.356509,16.849,0.061
53049.368371,16.877,0.063
53049.380235,16.876,0.065
53065.283146,16.989,0.083
53065.294378,17.07,0.085
53065.305618,17.042,0.081
53065.316973,17.078,0.087
53065.32826,16.871,0.068
53093.232312,16.85,0.061
53093.24274,16.877,0.067
53093.252994,16.784,0.081
53093.263249,16.853,0.059
53093.273552,16.848,0.059
53107.236512,17.026,0.076
53107.257262,17.106,0.081
53107.267745,17.104,0.086
53107.278241,17.152,0.086
53122.196877,17.036,0.111
53122.207217,17.102,0.101
53122.217496,17.02,0.134
53122.227844,16.982,0.083
53122.238144,17.043,0.086
53136.197901,16.763,0.081
53136.216941,16.681,0.076
53136.225666,16.644,0.076
53153.203379,16.641,0.089
53153.212793,16.668,0.089
53153.222976,16.622,0.089
53153.231929,16.759,0.101
53153.240523,16.718,0.097
53154.20298,16.794,0.165
53154.213469,16.767,0.172
53154.221743,16.817,0.183
53154.230155,16.748,0.17
53154.238496,16.546,0.15
53164.172426,17.033,0.104
53164.181907,17.067,0.104
53164.191548,17.012,0.102
53164.201142,17.044,0.111
53164.210706,17.035,0.112
53178.173619,17.158,0.097
53178.183034,17.052,0.087
53178.192975,17.024,0.087
53178.202515,16.891,0.083
53178.211932,16.98,0.089
53319.465831,16.917,0.128
53319.477707,16.861,0.117
53319.489582,16.798,0.107
53319.501444,16.833,0.104
53319.513305,16.763,0.098
53331.455402,17.02,0.142
53331.467782,16.904,0.12
53331.480161,17.041,0.135
53331.492531,17.052,0.131
53331.504906,16.919,0.118
53341.467239,16.777,0.148
53341.479307,16.754,0.146
53349.468203,16.647,0.087
53349.480193,16.646,0.093
53349.492439,16.659,0.091
53349.504872,16.646,0.093
53349.518523,16.647,0.083
53389.492596,16.645,0.065
53389.508579,16.684,0.065
53389.524563,16.668,0.068
53474.247495,16.714,0.072
53474.257971,16.768,0.076
53474.269494,16.743,0.074
53474.279855,16.791,0.076
53474.289996,16.747,0.072
53521.163295,16.533,0.074
53521.173491,16.65,0.141
53521.183947,16.635,0.161
53521.194135,16.664,0.087
53521.204377,16.666,0.141
53538.17262,16.755,0.176
53538.182386,16.656,0.163
53538.191934,16.773,0.174
53538.201483,16.626,0.157
53538.211119,16.763,0.179
53550.17357,16.904,0.104
53550.193334,16.812,0.109
53550.203221,16.854,0.109
53550.213111,16.794,0.113
53701.468614,16.958,0.139
53701.481176,16.96,0.133
53701.506127,17.005,0.131
53728.405742,16.948,0.094
53728.419238,16.956,0.096
53728.432428,16.973,0.115
53728.445496,16.965,0.113
53728.458669,16.863,0.085
53742.416157,16.483,0.048
53742.428995,16.414,0.044
53742.442,16.464,0.044
53742.454749,16.469,0.043
53742.467566,16.5,0.043
53772.351924,16.976,0.098
53772.364681,17.134,0.104
53772.377472,17.069,0.098
53772.390498,16.918,0.087
53772.403494,17.074,0.1
53786.373321,16.649,0.071
53807.328355,16.891,0.181
53824.319409,17.01,0.119
53824.331005,17.159,0.102
53824.342632,17.047,0.083
53824.354693,17.151,0.114
53824.366778,17.131,0.221
53843.252603,17.085,0.113
53843.263829,17.095,0.122
53843.27503,17.064,0.131
53843.286236,16.958,0.126
53843.298068,16.952,0.133
53855.239356,16.636,0.074
53855.249511,16.548,0.071
53855.259759,16.528,0.068
53855.269926,16.474,0.066
53855.280039,16.654,0.074
53878.234378,17.32,0.198
53878.245129,17.116,0.155
53878.255878,17.136,0.152
53878.266842,17.017,0.144
53878.278545,16.925,0.134
53903.173041,16.977,0.127
53903.194344,17.143,0.147
53903.205998,17.041,0.132
53903.216282,17.181,0.158
53903.225823,16.973,0.132
54054.463353,17.048,0.152
54054.476088,17.117,0.144
54054.488579,17.178,0.142
54054.501662,17.122,0.13
54054.515159,17.263,0.15
54068.459888,16.802,0.084
54068.487438,16.919,0.089
54086.371342,16.775,0.125
54086.384869,17.289,0.181
54086.398795,16.988,0.129
54086.41209,17.153,0.142
54086.425707,17.13,0.134
54109.376192,17.042,0.328
54109.399927,16.902,0.261
54169.275833,16.689,0.052
54169.286731,16.662,0.055
54169.29773,16.651,0.061
54169.308638,16.58,0.055
54169.319584,16.561,0.059
54186.27447,16.769,0.099
54186.284674,16.759,0.097
54186.294946,16.707,0.091
54186.305148,16.815,0.106
54186.315335,16.774,0.106
54201.238061,16.687,0.063
54201.247862,16.743,0.065
54201.257283,16.676,0.059
54201.26679,16.569,0.054
54201.277109,16.634,0.055
54209.218482,16.914,0.165
54209.227981,17.131,0.254
54209.236802,17.216,0.19
54209.246399,16.967,0.18
54217.208799,16.78,0.157
54217.217527,16.82,0.128
54217.226176,16.975,0.144
54217.234834,16.916,0.148
54217.243492,16.805,0.126
54218.236993,16.867,0.252
54218.245961,16.854,0.233
54218.255081,16.951,0.249
54218.263906,16.677,0.201
54496.464058,17.161,0.063
54496.476949,17.125,0.061
54496.502719,16.963,0.054
54496.51559,16.866,0.048
54508.355311,17.069,0.078
54508.367986,17.023,0.073
54508.380181,17.127,0.079
54508.392184,17.03,0.073
54508.4043,17.013,0.071
54561.187517,17.021,0.284
54561.198879,16.952,0.152
54561.21026,16.844,0.106
54561.221691,16.915,0.102
54561.233822,16.894,0.102
54583.270903,16.813,0.134
54583.281223,16.941,0.135
54614.169281,17.137,0.183
54614.17949,17.06,0.177
54614.190126,17.302,0.234
54614.201719,17.283,0.228
54614.212436,17.152,0.193
