mjd,m,merr
52641.459877,15.104,0.017
52641.475265,15.114,0.017
52641.49048,15.138,0.018
52641.505669,15.149,0.018
52641.520774,15.193,0.018
52643.44606,14.9,0.015
52643.460121,14.924,0.015
52643.47402,15.0,0.015
52643.488314,15.036,0.015
52643.502472,15.061,0.015
52647.462934,15.382,0.026
52647.47774,15.265,0.022
52647.492586,15.078,0.018
52647.506825,15.022,0.017
52667.401391,15.187,0.018
52667.416844,15.188,0.018
52667.432184,15.198,0.018
52667.447579,15.246,0.02
52667.462844,15.266,0.022
52673.373448,15.04,0.017
52673.38866,14.912,0.015
52673.403905,14.786,0.013
52673.419291,14.732,0.013
52673.434643,14.764,0.013
52703.317097,15.344,0.026
52703.330424,15.416,0.057
52703.344497,15.447,0.024
52703.357715,15.436,0.039
52703.37099,15.466,0.044
52708.315743,15.226,0.02
52708.315858,15.259,0.02
52708.328788,15.047,0.018
52708.328902,15.029,0.018
52708.341848,14.966,0.018
52708.341963,14.954,0.016
52708.354918,14.85,0.016
52708.355033,14.849,0.015
52708.368053,14.766,0.015
52708.368168,14.772,0.015
52710.303545,15.371,0.024
52710.317062,15.412,0.024
52710.330251,15.441,0.024
52710.343508,15.44,0.024
52710.356774,15.465,0.024
52730.293092,15.158,0.018
52730.304661,15.187,0.018
52730.316287,15.195,0.018
52730.327845,15.224,0.02
52730.339403,15.178,0.02
52737.250849,15.13,0.018
52737.263715,15.133,0.018
52737.275412,15.13,0.018
52737.28725,15.163,0.018
52737.299077,15.159,0.018
52756.197835,15.197,0.018
52756.209668,15.208,0.018
52756.221533,15.221,0.018
52756.233374,15.242,0.02
52756.245214,15.247,0.02
52758.209171,15.113,0.015
52758.221027,15.116,0.015
52758.23292,15.109,0.015
52758.244922,15.141,0.017
52758.256777,15.169,0.017
52788.174915,14.879,0.024
52788.185193,14.899,0.02
52793.225489,15.127,0.026
52793.235492,15.142,0.026
52793.245437,15.176,0.03
52966.470401,14.821,0.018
52966.482817,14.838,0.018
52966.495396,14.842,0.018
52966.508053,14.886,0.017
52972.454966,15.324,0.024
52972.467888,15.333,0.022
52972.480662,15.31,0.022
52972.493417,15.296,0.022
52972.506291,15.311,0.02
52986.459351,15.361,0.031
52986.472312,15.369,0.031
52986.485534,15.339,0.03
52986.498486,15.365,0.03
52986.511599,15.395,0.03
52997.481585,15.205,0.039
53028.40305,15.293,0.015
53028.41544,15.296,0.015
53028.427829,15.309,0.015
53028.440347,15.286,0.015
53028.452738,15.313,0.017
53032.393543,15.167,0.017
53032.405835,15.184,0.017
53032.418023,15.189,0.017
53032.430218,15.2,0.017
53032.442585,15.211,0.017
53054.369867,15.405,0.018
53054.384384,15.456,0.018
53054.396383,15.461,0.018
53054.409047,15.453,0.018
53054.422686,15.429,0.02
53061.332068,15.335,0.015
53061.343132,15.326,0.015
53061.354198,15.357,0.015
53061.365315,15.364,0.015
53061.376486,15.395,0.017
53080.285735,15.459,0.02
53080.297265,15.439,0.02
53080.309208,15.403,0.02
53080.320558,15.312,0.018
53080.33184,15.15,0.017
53082.341067,15.355,0.015
53082.352488,15.397,0.017
53082.363603,15.441,0.017
53082.380666,15.422,0.018
53082.392059,15.407,0.018
53083.277611,14.924,0.009
53083.288671,14.918,0.011
53083.299559,14.919,0.011
53083.310394,14.975,0.011
53083.32117,15.019,0.011
53091.329404,15.315,0.013
53091.340004,15.313,0.015
53091.35037,15.298,0.015
53091.360913,15.307,0.015
53091.371203,15.316,0.017
53116.311267,15.186,0.015
53116.322491,15.187,0.015
53116.334099,15.197,0.015
53116.346184,15.204,0.015
53116.357379,15.219,0.017
53139.201097,14.888,0.017
53139.210407,14.906,0.017
53139.21971,14.936,0.017
53139.22901,14.913,0.017
53139.238473,14.93,0.017
53141.214093,14.803,0.013
53141.224276,14.759,0.011
53141.233958,14.752,0.013
53141.244177,14.765,0.013
53141.253851,14.77,0.013
53144.21128,15.141,0.025
53144.220224,15.129,0.025
53144.229459,15.14,0.03
53144.238328,15.055,0.036
53169.171377,14.96,0.017
53169.181501,14.835,0.017
53169.191596,14.737,0.017
53169.201694,14.759,0.017
53169.211801,14.744,0.017
53170.169101,15.17,0.017
53170.179317,15.182,0.018
53170.189438,15.165,0.018
53170.199548,15.181,0.018
53170.209659,15.165,0.02
53346.455826,15.284,0.033
53346.469167,15.296,0.031
53346.482842,15.305,0.031
53346.495496,15.264,0.028
53346.507639,15.319,0.028
53353.462216,15.192,0.028
53353.475628,15.214,0.026
53353.488468,15.25,0.024
53353.50131,15.255,0.024
53353.514734,15.234,0.024
53376.487522,15.185,0.018
53376.501329,15.185,0.018
53376.514399,15.209,0.018
53376.5316,15.219,0.018
53381.427961,15.26,0.033
53403.411722,15.022,0.018
53403.4275,14.886,0.017
53403.441059,14.76,0.017
53403.455176,14.753,0.017
53403.468136,14.747,0.017
53432.363041,15.2,0.061
53432.3745,15.164,0.022
53432.385864,15.173,0.02
53432.397552,15.19,0.022
53440.424906,15.422,0.026
53440.435401,15.377,0.026
53440.445896,15.317,0.026
53440.457577,15.141,0.022
53440.468659,14.99,0.022
53464.337305,14.786,0.015
53464.347359,14.803,0.015
53464.357467,14.828,0.018
53464.368108,14.879,0.017
53464.378194,14.898,0.015
53467.223796,15.057,0.017
53467.233798,15.018,0.017
53467.244331,15.082,0.017
53467.254136,15.092,0.017
53467.264764,15.09,0.017
53469.233628,14.805,0.013
53469.243548,14.83,0.015
53469.25353,14.857,0.013
53469.264793,14.867,0.013
53469.274756,14.88,0.015
53495.249357,15.104,0.041
53495.259463,15.144,0.039
53495.269533,15.132,0.044
53495.279607,15.136,0.048
53495.289652,15.116,0.054
53496.193136,15.336,0.028
53496.203437,15.335,0.028
53496.213652,15.318,0.028
53496.22397,15.301,0.028
53496.234223,15.334,0.028
53504.186589,14.764,0.017
53504.196363,14.802,0.017
53504.205299,14.821,0.017
53504.214657,14.858,0.018
53504.224234,14.866,0.017
53525.167029,14.803,0.018
53525.17721,14.759,0.018
53525.187392,14.865,0.018
53525.197588,14.858,0.02
53525.207746,14.89,0.02
53530.165631,15.011,0.022
53530.175724,15.068,0.022
53530.185559,15.077,0.022
53530.195413,15.095,0.024
53530.205306,15.097,0.024
53732.479439,15.265,0.031
53732.492994,15.276,0.033
53732.505887,15.309,0.031
53732.518667,15.289,0.031
53732.531388,15.312,0.03
53735.523096,15.366,0.065
53759.411904,14.773,0.015
53759.424676,14.813,0.022
53759.437265,14.943,0.026
53759.449885,14.937,0.028
53759.462476,14.996,0.05
53762.416445,15.164,0.02
53762.429187,15.158,0.026
53762.441828,15.235,0.048
53762.454568,15.211,0.044
53762.46737,15.196,0.02
53790.345751,15.115,0.018
53790.357453,15.125,0.018
53790.369146,15.143,0.02
53790.380841,15.172,0.02
53790.392551,15.182,0.022
53793.398671,15.282,0.048
53793.410529,15.322,0.052
53793.434241,15.349,0.068
53793.446102,15.324,0.022
53797.311948,15.049,0.031
53797.322493,15.125,0.015
53797.323519,15.106,0.015
53797.334852,15.147,0.015
53797.335091,15.126,0.015
53797.346731,15.144,0.017
53797.347309,15.162,0.016
53799.340069,14.936,0.017
53799.351499,14.951,0.017
53799.362931,14.95,0.017
53799.374371,15.02,0.02
53799.385817,15.057,0.028
53815.289747,14.945,0.022
53815.300918,14.865,0.02
53815.312106,14.792,0.017
53815.323292,14.715,0.017
53815.334485,14.719,0.017
53819.343118,15.37,0.024
53819.371721,15.407,0.03
53819.398223,15.441,0.031
53826.340424,15.409,0.028
53826.352105,15.411,0.031
53827.348853,15.04,0.018
53827.3614,15.062,0.024
53827.373128,15.069,0.022
53827.385736,15.088,0.035
53827.399771,15.09,0.024
53832.274424,15.08,0.02
53832.284468,15.092,0.022
53832.296017,15.114,0.022
53832.305938,15.143,0.022
53832.31588,15.134,0.022
53833.230295,15.298,0.035
53833.259865,15.283,0.035
53833.269747,15.321,0.033
53846.236674,15.047,0.02
53846.247247,15.064,0.02
53846.257845,15.108,0.02
53846.268541,15.108,0.021
53846.279119,15.156,0.021
53846.295035,15.107,0.026
53846.306058,15.102,0.026
53846.317075,15.166,0.028
53846.328095,15.178,0.028
53846.339103,15.132,0.026
53850.324688,14.789,0.017
53850.335946,14.818,0.017
53850.34762,14.845,0.017
53850.360478,14.869,0.018
53850.371711,14.992,0.022
53853.247526,15.064,0.02
53853.258627,15.088,0.02
53853.268979,15.102,0.022
53853.279705,15.117,0.022
53853.290129,15.099,0.022
53856.28036,15.339,0.026
53856.293127,15.359,0.026
53856.304654,15.336,0.026
53856.314801,15.337,0.028
53856.324971,15.329,0.028
53879.212041,15.196,0.02
53879.225741,15.202,0.02
53879.238132,15.191,0.02
53879.250604,15.222,0.021
53879.262526,15.239,0.021
53882.173689,15.279,0.024
53882.186661,15.308,0.024
53882.197883,15.302,0.024
53882.209759,15.292,0.024
53882.220919,15.332,0.024
53885.162227,15.497,0.026
53885.173406,15.442,0.025
53885.184201,15.33,0.023
53885.195274,15.192,0.021
53885.206251,15.083,0.02
54086.429983,15.322,0.024
54086.442933,15.339,0.024
54086.45578,15.37,0.024
54086.468751,15.311,0.024
54086.481607,15.39,0.024
54113.407027,15.074,0.018
54113.420762,15.115,0.02
54113.42286,15.18,0.03
54113.43368,15.107,0.022
54113.435575,15.198,0.028
54113.446214,15.122,0.02
54113.448463,15.213,0.031
54115.468507,15.083,0.021
54115.481254,15.077,0.023
54115.494084,15.126,0.025
54115.507938,15.144,0.026
54115.520695,15.162,0.025
54123.398882,15.346,0.025
54123.411191,15.339,0.025
54123.423603,15.346,0.026
54123.436642,15.368,0.026
54123.449149,15.343,0.025
54144.3653,15.287,0.031
54144.376387,15.301,0.02
54144.388047,15.317,0.02
54144.399123,15.322,0.02
54144.411468,15.31,0.02
54147.340232,15.487,0.028
54147.352541,15.478,0.026
54147.365305,15.497,0.028
54147.377732,15.514,0.028
54147.389674,15.43,0.026
54148.343121,15.092,0.018
54148.354699,15.08,0.02
54148.366279,15.133,0.02
54148.378228,15.114,0.02
54148.389928,15.155,0.021
54154.333732,15.396,0.02
54154.346073,15.42,0.02
54154.357681,15.481,0.022
54154.36932,15.463,0.02
54154.380931,15.431,0.02
54156.324272,15.302,0.02
54156.335879,15.296,0.02
54156.347395,15.299,0.02
54156.358921,15.339,0.02
54156.370448,15.327,0.02
54173.31863,14.92,0.011
54173.329363,14.857,0.011
54173.34009,14.761,0.009
54173.35141,14.751,0.009
54173.362457,14.726,0.009
54175.276736,15.393,0.023
54175.288049,15.441,0.023
54175.298884,15.423,0.023
54175.309735,15.456,0.025
54175.320613,15.479,0.025
54176.324653,15.041,0.015
54176.335545,15.096,0.015
54176.346492,15.115,0.015
54176.357425,15.127,0.015
54176.368296,15.142,0.015
54179.342212,15.324,0.02
54179.353012,15.312,0.018
54179.364037,15.308,0.02
54179.375116,15.316,0.02
54179.386234,15.296,0.02
54186.344103,14.92,0.011
54186.355874,14.857,0.011
54186.367193,14.761,0.009
54186.37896,14.751,0.011
54186.390588,14.726,0.009
54198.238195,15.383,0.066
54198.257763,15.314,0.028
54198.2673,15.324,0.03
54206.26779,14.815,0.011
54206.27729,14.83,0.013
54206.286434,14.858,0.013
54206.29558,14.873,0.013
54206.304721,14.909,0.013
54209.263703,15.194,0.044
54209.272773,15.179,0.03
54209.281844,15.217,0.031
54209.290903,15.213,0.05
54209.299962,15.185,0.054
54439.466662,15.279,0.017
54439.479527,15.266,0.017
54439.492406,15.265,0.017
54439.50527,15.242,0.017
54506.460483,15.201,0.023
54506.47238,15.205,0.023
54506.484239,15.235,0.023
54506.496139,15.22,0.023
54506.507996,15.271,0.025
54507.337485,15.28,0.018
54507.349579,15.285,0.015
54507.361675,15.298,0.015
54507.373727,15.298,0.015
54507.385787,15.31,0.015
54522.447534,15.043,0.017
54522.459247,15.025,0.018
54522.470956,15.068,0.018
54522.482765,15.025,0.018
54522.494522,15.086,0.02
54529.330974,14.81,0.009
54529.342289,14.805,0.009
54529.353581,14.828,0.009
54529.364881,14.86,0.011
54529.376192,14.902,0.011
54534.395979,15.164,0.026
54536.321696,14.813,0.009
54536.332814,14.828,0.009
54536.343937,14.856,0.009
54536.355225,14.87,0.009
54536.366341,14.887,0.009
54553.357926,15.204,0.018
54553.370005,15.233,0.018
54553.382107,15.247,0.018
54562.301999,15.029,0.011
54562.313514,15.044,0.011
54562.325027,15.03,0.011
54562.336593,15.079,0.011
54562.348115,15.094,0.011
54568.247799,15.381,0.031
54568.258607,15.373,0.031
54568.269571,15.422,0.031
54568.280441,15.422,0.031
54568.291243,15.488,0.033
54584.254143,15.322,0.018
54584.264806,15.295,0.018
54584.275381,15.282,0.018
54584.285972,15.319,0.018
54584.2966,15.318,0.018
54591.247823,15.293,0.022
54591.25797,15.316,0.022
54591.268145,15.285,0.022
54591.278309,15.313,0.024
54591.288462,15.315,0.024
54614.168205,15.184,0.017
54614.178161,15.183,0.018
54614.188133,15.184,0.018
54614.198139,15.193,0.018
54614.208095,15.18,0.018
54622.168608,15.496,0.048
54622.178981,15.454,0.033
54622.189214,15.445,0.031
54622.199442,15.416,0.028
