mjd,m,merr
52620.44483,15.136,0.02
52620.459738,15.152,0.021
52620.474379,15.165,0.026
52620.488943,15.121,0.028
52620.503632,15.114,0.036
52623.451104,14.766,0.017
52623.466775,14.753,0.017
52623.482617,14.73,0.02
52623.49852,14.755,0.015
52623.514413,14.815,0.017
52637.422405,14.937,0.281
52650.41775,14.812,0.011
52652.40116,14.711,0.011
52652.452548,14.86,0.009
52652.467592,14.885,0.011
52652.482823,14.936,0.013
52652.501004,14.997,0.013
52652.516076,15.065,0.013
52664.380199,15.034,0.03
52681.285212,14.757,0.017
52681.302612,14.739,0.017
52681.321276,14.715,0.013
52695.314273,15.04,0.016
52695.328067,15.055,0.016
52695.341851,15.066,0.023
52695.355647,15.083,0.025
52695.369599,15.148,0.087
52712.277003,14.741,0.02
52712.29052,14.718,0.018
52712.303844,14.82,0.02
52722.244967,15.104,0.016
52722.257092,15.122,0.016
52722.26956,15.146,0.016
52722.281879,15.121,0.016
52722.294031,15.105,0.016
52751.247511,15.03,0.018
52751.258281,14.93,0.016
52751.269024,14.84,0.015
52751.279764,14.731,0.013
52751.291154,14.734,0.013
52771.219425,15.027,0.035
52771.232498,14.799,0.026
52771.24419,14.74,0.026
52771.255629,14.76,0.028
52782.188548,15.111,0.021
52782.199364,15.049,0.026
52800.200792,14.743,0.031
52800.210834,14.78,0.033
52810.174312,15.112,0.02
52810.184311,15.114,0.02
52810.214183,15.115,0.03
52812.175056,15.005,0.018
52812.185286,15.067,0.02
52812.195643,15.103,0.02
52812.205829,15.083,0.02
52812.216184,15.139,0.022
52976.470542,15.011,0.013
52976.483655,15.007,0.013
52976.497073,15.014,0.013
52976.510267,15.045,0.013
52990.403669,15.108,0.017
52990.416961,15.027,0.017
52990.430964,15.094,0.015
52990.444018,15.059,0.022
52990.457232,14.957,0.015
53023.345739,15.084,0.011
53023.3592,15.04,0.011
53023.372191,15.07,0.011
53023.385064,15.095,0.011
53023.39783,15.081,0.011
53035.354061,14.69,0.012
53035.392854,14.779,0.012
53035.406439,14.813,0.018
53046.349876,14.752,0.013
53046.361812,14.726,0.013
53046.373794,14.769,0.015
53046.385936,14.809,0.015
53046.397981,14.8,0.015
53065.286179,15.11,0.015
53065.298256,15.139,0.015
53065.310178,15.141,0.015
53065.333979,15.098,0.013
53107.288897,15.058,0.013
53109.128728,14.784,0.013
53109.139253,14.78,0.013
53109.14965,14.832,0.013
53109.160101,14.841,0.013
53109.170556,14.9,0.015
53111.182129,14.789,0.015
53111.193551,14.868,0.015
53111.204458,14.869,0.015
53112.184592,15.126,0.025
53112.195831,15.224,0.025
53112.217316,14.999,0.013
53112.22869,14.899,0.012
53122.199006,14.909,0.015
53122.219923,15.024,0.02
53122.230405,15.01,0.015
53122.24089,15.042,0.015
53136.200399,15.1,0.017
53136.237684,14.863,0.015
53153.207101,15.1,0.02
53153.216053,15.132,0.02
53153.224796,15.153,0.022
53153.233662,15.169,0.022
53153.242441,15.109,0.022
53154.206392,14.734,0.018
53154.224137,14.736,0.02
53154.232971,14.691,0.02
53154.241787,14.744,0.02
53178.183731,14.829,0.013
53178.193811,14.75,0.013
53330.464864,14.853,0.02
53330.478441,14.917,0.02
53330.492762,14.968,0.021
53330.507943,15.094,0.021
53331.454813,15.108,0.022
53331.479573,14.91,0.018
53331.491943,14.777,0.017
53331.504317,14.757,0.017
53341.466663,14.899,0.03
53341.490797,15.003,0.031
53341.503387,15.051,0.031
53341.515459,15.134,0.033
53356.476011,14.872,0.013
53356.503053,14.969,0.013
53356.516464,15.006,0.013
53356.529889,15.016,0.013
53358.461828,14.798,0.013
53358.487099,14.847,0.013
53358.512367,14.906,0.013
53360.426313,14.77,0.015
53360.439455,14.772,0.026
53360.452595,14.755,0.033
53386.430367,14.802,0.013
53386.473321,14.683,0.011
53401.390655,15.172,0.023
53422.338332,14.883,0.037
53422.350335,14.69,0.028
53422.362319,14.673,0.02
53422.374362,14.673,0.028
53441.374756,14.976,0.013
53450.274743,15.145,0.024
53450.286233,15.128,0.024
53450.297326,15.123,0.024
53450.308016,15.091,0.024
53450.319939,15.079,0.024
53479.231537,15.077,0.035
53479.241621,15.082,0.035
53479.253015,15.061,0.035
53479.263966,14.991,0.033
53479.273474,14.906,0.03
53537.203554,14.79,0.031
53551.181355,15.041,0.02
53551.191374,15.049,0.02
53551.201531,15.054,0.02
53684.445599,14.79,0.022
53684.458192,14.804,0.02
53684.470921,14.835,0.018
53684.495836,14.942,0.022
53700.45238,15.112,0.02
53700.478117,15.092,0.02
53700.491071,15.104,0.018
53700.50383,15.122,0.017
53728.405251,14.779,0.013
53728.418746,14.82,0.015
53728.431937,14.858,0.017
53728.445005,14.899,0.017
53728.458179,14.934,0.015
53772.350774,14.738,0.013
53772.36356,14.792,0.011
53772.376347,14.842,0.013
53772.38937,14.845,0.013
53772.402372,14.881,0.013
53825.238059,14.755,0.01
53825.2492,14.732,0.01
53825.260396,14.69,0.01
53825.271609,14.71,0.01
53825.282878,14.749,0.012
53842.245314,15.199,0.023
53842.256892,15.133,0.023
53842.268469,15.043,0.021
53842.291786,14.841,0.02
53855.196317,15.093,0.018
53855.206985,15.161,0.02
53855.217501,15.151,0.02
53855.228094,15.156,0.02
53855.238687,15.146,0.02
53878.233753,14.811,0.021
53878.2445,14.891,0.021
53878.255249,14.902,0.021
53878.266065,14.913,0.021
53878.277816,14.948,0.023
53892.168722,14.988,0.041
53892.178776,15.063,0.044
53892.18894,15.076,0.044
53892.199101,15.088,0.046
53892.209443,15.065,0.048
53903.17261,14.931,0.023
53903.205657,15.02,0.023
53903.215924,15.064,0.025
53903.225484,15.08,0.026
54053.453275,14.863,0.018
54053.467675,14.792,0.02
54053.480423,14.846,0.021
54070.455905,15.039,0.018
54070.469318,14.982,0.016
54070.482316,14.846,0.016
54070.495316,14.735,0.015
54070.508377,14.65,0.013
54086.370588,15.075,0.026
54086.38411,15.025,0.023
54086.397905,14.871,0.02
54086.411333,14.737,0.016
54086.424957,14.718,0.016
54109.387609,14.981,0.038
54140.33806,14.99,0.015
54140.350155,15.033,0.015
54140.362528,15.04,0.015
54140.374543,15.096,0.016
54140.386727,15.161,0.016
54187.277442,15.124,0.026
54187.288028,15.089,0.025
54187.29864,15.107,0.025
54187.309503,15.07,0.025
54200.239875,15.115,0.041
54200.269327,15.108,0.039
54210.222335,14.754,0.013
54210.231375,14.728,0.012
54210.240094,14.705,0.012
54210.248794,14.716,0.012
54210.257732,14.752,0.013
54218.235886,15.163,0.037
54218.244463,15.159,0.037
54218.253063,15.089,0.035
54218.261668,15.107,0.037
54481.413154,14.994,0.028
54509.327784,14.718,0.016
54509.339853,14.743,0.016
54509.351864,14.773,0.016
54509.363892,14.801,0.016
54509.37654,14.839,0.016
54527.310397,14.875,0.025
54527.321838,14.883,0.018
54527.333049,14.924,0.018
54536.272481,14.81,0.018
54536.283442,14.865,0.018
54536.294474,14.903,0.018
54536.305385,14.942,0.018
54536.316264,14.972,0.018
54560.24877,14.721,0.02
54560.260646,14.765,0.021
54560.272421,14.786,0.02
54560.295496,14.823,0.021
54615.190831,14.884,0.021
