mjd,m,merr
52640.461609,14.827,0.013
52640.476499,14.811,0.013
52640.491413,14.808,0.013
52640.506258,14.813,0.013
52640.521117,14.832,0.013
52644.484818,15.077,0.015
52644.499621,15.092,0.017
52644.514559,15.07,0.018
52644.529276,15.134,0.026
52648.395227,15.121,0.017
52648.410282,15.131,0.018
52648.424961,15.119,0.017
52648.440114,15.112,0.017
52648.455423,15.117,0.017
52667.393615,15.193,0.018
52667.408357,15.188,0.018
52667.423396,15.21,0.02
52667.438235,15.186,0.02
52667.453075,15.149,0.02
52671.396947,14.878,0.013
52671.412311,14.914,0.013
52671.427492,14.942,0.013
52671.442666,14.92,0.013
52671.458009,14.946,0.013
52674.396366,15.164,0.017
52674.410292,15.088,0.013
52674.424245,15.043,0.013
52674.438236,15.023,0.013
52674.452187,14.997,0.013
52704.313213,15.077,0.015
52704.326588,15.085,0.015
52704.340116,15.067,0.015
52704.353617,15.115,0.015
52704.367056,15.114,0.015
52707.314863,14.941,0.013
52707.328624,14.934,0.013
52707.342323,14.968,0.013
52707.355566,14.975,0.013
52707.368962,14.992,0.013
52725.3149,15.219,0.017
52725.326691,15.217,0.024
52725.338484,15.216,0.028
52725.350205,15.24,0.03
52725.361901,15.225,0.022
52728.289225,15.109,0.015
52728.301987,15.089,0.015
52728.314766,15.15,0.015
52728.327187,15.101,0.015
52728.341054,15.142,0.015
52731.309424,15.014,0.041
52731.321398,14.996,0.015
52731.33337,15.016,0.03
52731.345398,15.016,0.018
52738.241683,14.977,0.015
52738.253123,15.007,0.015
52738.265045,15.027,0.015
52738.276574,15.018,0.015
52738.288092,14.997,0.013
52755.204079,14.967,0.013
52755.221462,15.0,0.015
52755.234599,15.021,0.015
52755.246633,15.034,0.015
52755.258766,15.033,0.015
52761.204997,15.168,0.024
52761.217035,15.188,0.03
52761.229113,15.167,0.02
52761.241198,15.199,0.018
52761.253218,15.199,0.017
52764.206957,15.136,0.02
52764.218911,15.13,0.02
52764.23095,15.129,0.02
52764.243079,15.156,0.018
52764.255048,15.137,0.018
52789.169815,14.882,0.02
52789.180388,14.902,0.02
52789.201644,14.944,0.018
52789.212296,14.955,0.02
52794.170302,14.86,0.015
52794.180338,14.847,0.015
52794.19028,14.871,0.015
52794.200213,14.888,0.017
52794.210142,14.922,0.017
52813.173845,15.011,0.028
52813.183671,14.985,0.026
52813.193582,15.029,0.028
52813.203421,14.995,0.03
52816.168756,14.885,0.025
52816.179097,14.917,0.023
52816.189192,14.835,0.025
52967.448136,14.955,0.018
52967.460871,14.949,0.017
52967.473453,14.999,0.017
52967.486244,15.021,0.017
52967.498956,15.041,0.017
52973.46151,15.227,0.02
52973.474371,15.226,0.02
52973.487342,15.248,0.018
52973.500165,15.199,0.018
52973.513102,15.189,0.017
52996.407498,14.979,0.011
52996.420661,15.025,0.011
52996.434153,15.013,0.011
52996.44731,15.055,0.011
52996.460469,15.048,0.011
53001.464405,15.017,0.009
53001.477709,15.024,0.009
53001.490847,15.047,0.009
53001.504978,15.045,0.009
53001.518279,15.05,0.009
53027.34078,15.05,0.011
53027.353695,15.064,0.011
53027.366472,15.1,0.009
53027.379162,15.104,0.009
53027.391723,15.138,0.009
53033.342377,15.149,0.016
53033.354708,15.064,0.016
53033.367014,14.936,0.015
53033.391745,14.894,0.016
53053.351785,15.143,0.013
53053.363403,15.16,0.015
53053.375072,15.178,0.02
53053.386719,15.17,0.018
53053.398925,15.203,0.015
53060.306677,15.169,0.011
53060.318803,15.182,0.011
53060.330919,15.214,0.011
53060.342888,15.222,0.011
53060.356137,15.209,0.011
53079.312245,15.137,0.013
53079.32311,15.092,0.013
53079.33379,15.034,0.013
53079.344538,14.974,0.013
53079.355566,14.96,0.013
53080.335034,15.131,0.015
53080.346198,15.128,0.016
53080.357447,15.156,0.016
53080.36866,15.163,0.016
53080.379916,15.176,0.016
53081.284208,14.849,0.012
53081.296491,14.83,0.012
53081.309473,14.802,0.012
53081.321524,14.819,0.012
53081.333609,14.854,0.012
53084.335579,15.167,0.011
53084.34612,15.133,0.011
53084.356998,15.071,0.009
53084.367633,15.011,0.009
53084.378386,14.98,0.009
53110.240734,14.953,0.015
53110.251825,14.936,0.015
53110.262965,14.927,0.013
53110.274043,14.907,0.013
53110.28511,14.948,0.013
53115.254248,15.051,0.011
53115.26548,15.016,0.011
53115.276558,15.008,0.011
53115.28764,14.959,0.011
53115.298743,15.01,0.011
53117.261575,14.95,0.01
53117.272044,14.937,0.01
53117.282845,14.965,0.012
53117.293931,14.971,0.012
53117.304317,14.978,0.012
53138.203942,15.107,0.015
53138.213715,15.102,0.015
53138.223554,15.091,0.015
53138.233274,15.116,0.015
53138.243,15.132,0.017
53143.231909,15.115,0.015
53143.241351,15.108,0.015
53143.250758,15.095,0.015
53143.2601,15.121,0.013
53143.269447,15.115,0.013
53147.205089,15.161,0.016
53147.213872,15.182,0.016
53147.22269,15.172,0.016
53147.231853,15.15,0.016
53147.240932,15.17,0.016
53166.181268,15.185,0.02
53166.190619,15.154,0.02
53166.199975,15.13,0.02
53166.209353,15.06,0.018
53166.218716,15.004,0.018
53172.172212,15.077,0.015
53172.183166,15.085,0.015
53172.193595,15.079,0.017
53172.203892,15.121,0.022
53172.21414,15.102,0.015
53174.171243,15.091,0.016
53174.181042,15.077,0.016
53174.193032,15.127,0.018
53174.202838,15.107,0.018
53174.213042,15.126,0.018
53348.45632,15.001,0.024
53348.469259,15.062,0.018
53348.48171,15.065,0.018
53348.495535,15.113,0.048
53348.508724,15.09,0.017
53351.495633,14.887,0.02
53351.510062,14.931,0.02
53351.524317,14.936,0.018
53354.452601,15.248,0.018
53354.465545,15.229,0.017
53354.478305,15.169,0.017
53354.492453,15.09,0.015
53354.505279,15.077,0.015
53377.409975,15.036,0.015
53377.42314,15.02,0.015
53377.437583,15.032,0.013
53377.451111,15.05,0.013
53377.464817,15.078,0.013
53382.504688,15.102,0.015
53382.519054,15.1,0.015
53382.534999,15.106,0.015
53404.428266,14.95,0.013
53404.440565,14.98,0.013
53404.452863,14.974,0.013
53404.466343,14.974,0.015
53404.479244,14.966,0.015
53433.36332,14.868,0.011
53433.374765,14.908,0.011
53433.386219,14.952,0.013
53433.39889,14.947,0.013
53433.410549,14.956,0.015
53438.347686,14.848,0.011
53438.359858,14.857,0.011
53438.371424,14.885,0.011
53438.383021,14.885,0.013
53438.394613,14.921,0.013
53441.334072,15.227,0.015
53441.34626,15.213,0.015
53441.357825,15.23,0.015
53441.368846,15.201,0.015
53441.379865,15.135,0.015
53445.291017,14.909,0.011
53445.303367,14.91,0.011
53445.314705,14.94,0.011
53445.325927,14.913,0.011
53445.337086,14.953,0.011
53465.286366,15.202,0.018
53465.297723,15.183,0.017
53465.309675,15.119,0.017
53465.32035,15.08,0.015
53465.331634,15.086,0.015
53468.285031,15.186,0.028
53468.295032,15.192,0.033
53493.29365,15.058,0.02
53493.303641,15.057,0.02
53493.313953,15.04,0.02
53493.324683,15.044,0.02
53493.334769,15.073,0.022
53503.230719,14.909,0.013
53503.239342,14.904,0.015
53503.248238,14.934,0.015
53503.257261,14.934,0.015
53503.266491,14.943,0.015
53522.168194,14.951,0.015
53522.178416,14.967,0.015
53522.188664,14.977,0.017
53522.198989,14.995,0.017
53522.209561,15.003,0.017
53526.191292,15.08,0.031
53526.21227,15.134,0.026
53709.450523,15.169,0.02
53709.463954,15.23,0.02
53709.476775,15.207,0.018
53709.48946,15.199,0.017
53709.502648,15.184,0.015
53733.453686,15.134,0.018
53733.46633,15.136,0.018
53733.478957,15.204,0.018
53737.472449,14.902,0.013
53737.485703,14.914,0.013
53737.499031,14.951,0.013
53737.512321,14.948,0.013
53737.525627,14.984,0.013
53790.348495,14.887,0.013
53790.360343,14.889,0.013
53790.372159,14.887,0.013
53790.383973,14.906,0.013
53790.396032,14.9,0.013
53791.366205,15.123,0.015
53791.377943,15.133,0.015
53791.389696,15.133,0.015
53791.401444,15.174,0.017
53791.413205,15.167,0.017
53794.34853,15.094,0.015
53794.360367,15.121,0.015
53794.371988,15.103,0.015
53794.38362,15.133,0.015
53794.39524,15.114,0.015
53799.291797,15.011,0.013
53799.303767,15.01,0.013
53799.315607,15.021,0.013
53799.327378,15.027,0.013
53799.339153,15.035,0.013
53818.28735,15.067,0.015
53818.298406,15.088,0.015
53818.309506,15.111,0.015
53818.320653,15.074,0.015
53818.329923,15.15,0.017
53818.331712,15.096,0.016
53818.341542,15.138,0.017
53818.353875,15.159,0.017
53818.365513,15.139,0.018
53818.378602,15.162,0.018
53823.314555,15.08,0.017
53823.327134,15.101,0.017
53823.339942,15.109,0.017
53823.353072,15.116,0.017
53823.368099,15.142,0.018
53825.283692,15.165,0.018
53825.295467,15.194,0.02
53825.307182,15.219,0.022
53825.317524,15.193,0.018
53825.329235,15.19,0.02
53826.278057,14.859,0.028
53826.289909,14.866,0.013
53826.314351,14.886,0.013
53826.325839,14.906,0.017
53829.33639,14.929,0.024
53845.27533,15.075,0.026
53848.245737,14.924,0.018
53848.25619,14.906,0.018
53848.266929,14.908,0.02
53848.277818,14.917,0.018
53848.288305,14.898,0.018
53849.253237,15.147,0.018
53849.263975,15.1,0.018
53849.274673,15.116,0.018
53849.285372,15.143,0.018
53849.296286,15.126,0.02
53851.238635,15.171,0.021
53851.248829,15.189,0.021
53851.259152,15.239,0.023
53851.269546,15.216,0.023
53851.279893,15.186,0.025
53852.25729,15.074,0.02
53852.268112,15.099,0.02
53852.278469,15.083,0.02
53852.289505,15.087,0.02
53852.301253,15.099,0.022
53855.248374,14.944,0.017
53855.259486,14.973,0.017
53855.271128,14.946,0.017
53855.282027,14.996,0.018
53855.292674,14.984,0.018
53858.241675,15.124,0.031
53858.265921,15.084,0.033
53858.276953,15.018,0.028
53858.287586,14.985,0.02
53880.161251,15.196,0.024
53880.172408,15.216,0.024
53880.183607,15.221,0.024
53880.194771,15.263,0.026
53880.205962,15.243,0.026
53881.208087,15.012,0.02
53881.218117,15.04,0.02
53881.228211,15.055,0.02
53881.23833,15.01,0.021
53881.248353,15.094,0.021
53883.171565,15.097,0.022
53883.184636,15.096,0.022
53883.197076,15.164,0.024
53883.208472,15.133,0.022
53883.219981,15.189,0.024
53885.163425,15.193,0.024
53885.175619,15.182,0.024
53885.18771,15.21,0.024
53885.199843,15.225,0.026
53885.21197,15.236,0.026
53886.16271,15.031,0.02
53886.172627,15.021,0.02
53886.185506,14.957,0.02
53886.195342,14.931,0.02
53886.205148,14.967,0.021
54084.484145,14.923,0.015
54084.497876,14.973,0.017
54084.511608,14.959,0.018
54084.525334,14.991,0.017
54112.439176,15.213,0.026
54112.451805,15.188,0.025
54112.46469,15.198,0.033
54112.477333,15.223,0.025
54112.490178,15.227,0.026
54121.397311,15.199,0.018
54121.410046,15.208,0.02
54121.422492,15.212,0.021
54121.43502,15.249,0.023
54121.44754,15.225,0.021
54124.399906,15.15,0.011
54124.417516,15.188,0.013
54124.430378,15.206,0.013
54124.444228,15.188,0.013
54124.457314,15.173,0.011
54149.340966,14.893,0.015
54149.352872,14.948,0.015
54149.365399,14.965,0.015
54149.377464,14.99,0.015
54149.389381,15.003,0.016
54152.341877,15.048,0.011
54152.353838,15.022,0.011
54152.366228,15.018,0.011
54152.378206,14.982,0.011
54152.393099,14.938,0.011
54175.323415,15.088,0.013
54175.334171,15.118,0.013
54175.344793,15.113,0.013
54175.355519,15.113,0.013
54175.366207,15.133,0.013
54185.275719,14.938,0.021
54185.28605,14.946,0.023
54185.306541,15.028,0.035
54201.241983,15.098,0.021
54201.251251,15.082,0.021
54201.260496,15.108,0.021
54201.269737,15.093,0.023
54201.279045,15.108,0.023
54210.263311,15.116,0.017
54210.27233,15.074,0.017
54210.281329,15.056,0.017
54210.290311,15.051,0.017
54210.299345,15.006,0.017
54447.455025,15.162,0.011
54447.468108,15.15,0.011
54447.481887,15.167,0.013
54447.494936,15.181,0.026
54447.507991,15.178,0.011
54450.458797,15.016,0.009
54450.471959,15.031,0.009
54450.485114,15.027,0.009
54450.498304,15.06,0.009
54450.511462,15.081,0.009
54454.456859,15.216,0.013
54454.469942,15.246,0.013
54454.483275,15.245,0.013
54454.496316,15.24,0.013
54454.509339,15.215,0.013
54475.397006,14.975,0.015
54475.409903,14.932,0.011
54475.422887,14.926,0.009
54475.435739,14.887,0.009
54475.448578,14.868,0.009
54483.35032,15.12,0.022
54483.363234,15.097,0.018
54483.376738,15.106,0.018
54483.389671,15.092,0.018
54495.464071,15.235,0.015
54495.476695,15.225,0.015
54495.489301,15.198,0.015
54495.501902,15.159,0.015
54495.514501,15.131,0.015
54509.33339,15.209,0.011
54509.345603,15.193,0.011
54509.357652,15.186,0.011
54509.369692,15.137,0.009
54509.381768,15.09,0.009
54524.390633,15.189,0.011
54524.40246,15.184,0.013
54524.414411,15.197,0.013
54524.426099,15.216,0.013
54524.437954,15.222,0.015
54530.329231,14.966,0.028
54530.340484,14.97,0.013
54530.351735,14.971,0.011
54530.362998,14.988,0.009
54530.374272,14.998,0.011
54532.329035,15.044,0.009
54532.340499,15.07,0.009
54532.351896,15.082,0.009
54532.363176,15.08,0.009
54532.37444,15.102,0.009
54538.307221,15.179,0.011
54538.318332,15.163,0.011
54538.329424,15.108,0.011
54538.340435,15.064,0.009
54538.35158,15.024,0.009
54555.300111,15.227,0.011
54555.311929,15.186,0.011
54555.323869,15.16,0.011
54555.335877,15.121,0.011
54555.347733,15.062,0.011
54558.184703,15.043,0.017
54558.196277,15.115,0.02
54558.207844,15.091,0.015
54558.219391,15.11,0.026
54558.231026,15.097,0.015
54586.239893,14.922,0.013
54586.250226,14.914,0.013
54586.260653,14.873,0.011
54586.270981,14.854,0.011
54586.281392,14.856,0.013
54594.208304,15.124,0.015
54594.218638,15.139,0.015
54594.22898,15.118,0.015
54594.239309,15.155,0.017
54594.249631,15.146,0.015
54618.165018,15.197,0.017
54618.175206,15.176,0.015
54618.18544,15.196,0.017
54618.195654,15.213,0.017
54618.205838,15.216,0.017
