mjd,m,merr
52641.460645,16.407,0.046
52641.47603,16.386,0.044
52641.491248,16.325,0.044
52641.506437,16.376,0.044
52641.521544,16.358,0.044
52643.446779,16.261,0.043
52643.460828,16.24,0.041
52643.474729,16.15,0.035
52643.489023,16.074,0.031
52643.503321,16.099,0.033
52647.463412,16.038,0.041
52647.478255,16.027,0.041
52647.493067,16.12,0.043
52647.507305,16.15,0.044
52647.521722,16.035,0.163
52667.463676,16.341,0.048
52667.478952,16.295,0.052
52667.494203,16.255,0.052
52667.509334,16.382,0.057
52667.524801,16.359,0.055
52670.403733,16.189,0.046
52670.417647,16.091,0.044
52670.43167,16.124,0.041
52670.445576,16.173,0.041
52670.459494,16.214,0.044
52673.373964,16.084,0.035
52673.389176,16.068,0.033
52673.404422,16.066,0.033
52673.419808,16.074,0.033
52673.435217,16.101,0.033
52703.31785,16.085,0.089
52703.331176,16.003,0.117
52703.345251,16.122,0.041
52703.35846,16.08,0.07
52703.371746,16.085,0.07
52707.310426,16.2,0.045
52707.323475,16.188,0.043
52707.336768,16.246,0.045
52707.349963,16.219,0.045
52707.363538,16.288,0.048
52729.225016,16.341,0.048
52729.236575,16.308,0.044
52729.248114,16.264,0.043
52729.259602,16.275,0.043
52729.271764,16.271,0.043
52730.293776,16.334,0.041
52730.305345,16.314,0.039
52730.316972,16.343,0.041
52730.328534,16.342,0.041
52730.340084,16.344,0.043
52737.251539,16.269,0.046
52737.264406,16.27,0.046
52737.276125,16.298,0.046
52737.28796,16.28,0.044
52737.299803,16.269,0.043
52756.202672,16.225,0.051
52756.214712,16.228,0.051
52756.2512,16.227,0.053
52758.209838,16.307,0.041
52758.2217,16.283,0.039
52758.233658,16.28,0.041
52758.245592,16.279,0.041
52758.257445,16.308,0.043
52764.140222,16.396,0.031
52764.152681,16.342,0.03
52764.165659,16.302,0.03
52764.178666,16.212,0.028
52764.191178,16.202,0.028
52788.175551,16.263,0.057
52788.185831,16.289,0.063
52788.196185,16.208,0.179
52788.206881,16.051,0.194
52793.225845,16.312,0.07
52793.235854,16.39,0.074
52793.24586,16.336,0.07
52966.471117,16.073,0.048
52966.483534,16.102,0.048
52966.496113,16.126,0.046
52966.50877,16.282,0.05
52987.507998,16.448,0.085
52995.467655,16.236,0.03
52995.481185,16.17,0.028
52995.495238,16.14,0.028
52995.508536,16.092,0.026
52995.522479,16.084,0.026
53000.422376,16.224,0.033
53000.435542,16.304,0.031
53000.448865,16.309,0.03
53000.462062,16.242,0.03
53000.475658,16.356,0.031
53026.417401,16.19,0.037
53026.431437,16.226,0.059
53026.444374,16.22,0.055
53026.457427,16.269,0.059
53026.471709,16.309,0.07
53033.340598,16.314,0.046
53033.352813,16.388,0.05
53033.364931,16.303,0.044
53033.377355,16.339,0.078
53033.389752,16.377,0.063
53054.370529,16.295,0.035
53054.385045,16.362,0.037
53054.39706,16.355,0.037
53054.409709,16.319,0.037
53054.423347,16.334,0.039
53058.341828,16.293,0.028
53058.354368,16.317,0.028
53058.366731,16.198,0.026
53058.378881,16.128,0.026
53058.397143,16.106,0.026
53080.286252,16.231,0.037
53080.297682,16.262,0.039
53080.309639,16.352,0.041
53080.320971,16.304,0.039
53080.332256,16.289,0.039
53083.336182,16.072,0.028
53083.346867,16.006,0.026
53083.357899,16.103,0.03
53083.369075,16.034,0.028
53083.379887,16.079,0.031
53086.342645,16.141,0.033
53086.353448,16.041,0.035
53086.364229,16.048,0.035
53086.375187,15.964,0.03
53086.38614,15.975,0.033
53092.329326,16.146,0.035
53092.339821,16.131,0.033
53092.35,16.137,0.035
53092.360181,16.147,0.033
53092.370362,16.213,0.035
53114.263354,16.23,0.033
53114.296869,16.208,0.031
53117.299747,16.327,0.037
53117.310275,16.282,0.037
53117.320932,16.301,0.037
53117.331611,16.34,0.041
53117.342131,16.32,0.041
53139.201643,16.04,0.039
53139.210952,16.042,0.039
53139.220254,16.098,0.041
53139.229554,16.102,0.044
53139.23902,16.095,0.043
53142.211311,16.301,0.065
53142.22084,16.318,0.037
53142.230415,16.299,0.037
53142.240004,16.38,0.102
53142.249532,16.275,0.041
53146.209578,15.95,0.028
53146.218728,15.975,0.03
53146.227905,16.025,0.03
53146.236949,16.108,0.031
53146.24603,16.036,0.031
53169.171722,16.214,0.048
53169.181845,16.192,0.05
53169.19194,16.215,0.052
53169.202039,16.234,0.054
53169.212147,16.261,0.054
53171.170849,16.272,0.044
53171.181054,16.287,0.048
53171.191364,16.319,0.052
53171.201593,16.306,0.052
53171.211891,16.321,0.054
53174.171441,16.101,0.035
53174.18151,16.124,0.037
53174.19203,16.149,0.037
53174.202265,16.177,0.039
53174.212566,16.14,0.039
53346.456209,16.179,0.068
53346.469549,16.178,0.063
53346.483225,16.246,0.065
53346.495879,16.252,0.063
53346.508022,16.241,0.059
53353.462727,16.118,0.055
53353.476139,16.179,0.055
53353.488979,16.199,0.05
53353.501821,16.209,0.05
53353.515246,16.276,0.052
53376.488138,16.251,0.043
53376.501944,16.306,0.043
53376.515517,16.237,0.039
53376.532216,16.29,0.041
53381.428729,16.165,0.059
53381.441582,16.051,0.113
53403.412458,16.368,0.067
53403.428806,16.195,0.048
53403.441796,16.158,0.046
53403.455913,16.184,0.048
53403.468871,16.078,0.044
53432.363767,16.022,0.111
53432.375221,16.331,0.057
53432.386585,16.218,0.048
53432.398273,16.249,0.05
53438.343868,16.405,0.044
53438.355408,16.303,0.043
53438.367607,16.26,0.041
53438.37919,16.176,0.039
53438.390791,16.209,0.039
53440.425404,16.127,0.044
53440.435901,16.08,0.044
53440.446398,16.176,0.05
53440.458077,16.163,0.052
53440.469161,16.146,0.054
53464.33772,16.377,0.05
53464.347789,16.389,0.055
53464.357882,16.385,0.054
53464.368514,16.339,0.05
53464.37862,16.395,0.052
53467.2242,16.153,0.043
53467.2342,16.22,0.043
53467.244731,16.25,0.044
53467.254585,16.219,0.043
53467.265484,16.245,0.044
53478.224481,16.471,0.135
53478.235325,16.304,0.105
53478.245479,16.397,0.115
53478.255536,16.566,0.13
53478.265683,16.519,0.128
53495.24989,16.257,0.1
53495.259995,16.212,0.096
53495.270065,16.152,0.102
53495.280141,16.186,0.105
53495.290188,16.222,0.141
53496.200362,16.139,0.05
53496.210591,16.213,0.055
53496.220909,16.142,0.054
53496.231097,16.12,0.054
53496.241378,16.146,0.054
53525.167475,16.263,0.061
53525.177658,16.198,0.059
53525.187843,16.337,0.067
53525.198034,16.363,0.07
53525.208194,16.335,0.068
53527.168482,16.324,0.061
53527.17877,16.327,0.061
53527.188651,16.402,0.067
53527.198433,16.454,0.07
53527.208219,16.435,0.074
53732.480276,16.438,0.081
53732.493855,16.389,0.076
53732.506682,16.39,0.074
53732.519475,16.375,0.072
53732.532196,16.379,0.067
53735.471941,16.233,0.061
53735.485343,16.183,0.163
53735.523906,16.338,0.142
53746.4065,16.391,0.081
53746.418964,16.343,0.078
53746.431596,16.456,0.085
53746.44419,16.338,0.072
53746.45666,16.402,0.074
53759.412709,16.084,0.043
53759.425479,16.136,0.061
53759.438067,16.098,0.078
53759.450689,16.085,0.076
53762.417248,16.263,0.05
53762.430003,16.181,0.039
53762.442629,16.053,0.074
53762.455397,16.071,0.059
53762.468271,16.155,0.039
53790.393278,16.165,0.044
53790.40513,16.127,0.043
53790.416977,16.127,0.044
53790.428827,16.133,0.063
53790.440848,16.093,0.044
53791.356207,16.333,0.043
53791.368097,16.235,0.04
53791.379886,16.248,0.041
53791.391508,16.381,0.048
53791.403394,16.333,0.045
53793.399454,16.27,0.074
53793.411309,16.318,0.12
53793.435026,16.361,0.192
53793.446884,16.407,0.05
53797.324288,16.339,0.041
53797.335865,16.382,0.043
53797.347499,16.359,0.052
53799.340831,16.137,0.033
53799.35226,16.111,0.033
53799.363692,16.073,0.031
53799.375134,16.064,0.031
53799.386579,16.056,0.037
53815.290214,16.041,0.057
53815.301387,16.067,0.052
53815.312573,16.08,0.046
53815.323756,16.117,0.052
53815.334953,16.082,0.05
53817.267612,16.145,0.04
53817.278889,16.163,0.041
53817.290153,16.193,0.043
53817.301475,16.199,0.045
53817.312797,16.207,0.045
53819.343881,16.264,0.046
53819.357964,16.262,0.048
53819.373762,16.308,0.057
53819.386499,16.297,0.065
53819.398984,16.277,0.055
53820.347428,16.016,0.128
53826.341289,16.25,0.05
53827.362148,16.132,0.055
53827.373875,16.164,0.059
53827.387258,16.172,0.07
53827.400518,16.145,0.055
53832.275184,16.343,0.063
53832.285225,16.431,0.068
53832.29678,16.319,0.063
53832.306698,16.317,0.061
53832.316644,16.221,0.057
53846.23729,16.301,0.056
53846.247865,16.358,0.059
53846.258463,16.413,0.063
53846.269159,16.345,0.059
53846.279738,16.295,0.056
53848.246135,16.077,0.054
53848.256588,16.012,0.05
53848.267328,16.048,0.052
53848.278217,16.079,0.054
53848.288703,16.095,0.055
53850.241416,16.123,0.066
53850.25183,16.119,0.051
53850.262107,16.095,0.049
53850.27238,16.114,0.051
53850.28284,16.179,0.054
53850.325567,16.146,0.046
53850.336826,16.183,0.048
53850.348666,16.2,0.05
53850.361265,16.215,0.054
53850.372483,16.291,0.061
53853.248284,16.4,0.061
53853.259384,16.338,0.059
53853.27009,16.225,0.054
53853.280451,16.211,0.054
53853.290869,16.183,0.054
53856.282321,16.339,0.057
53856.293853,16.322,0.055
53856.305384,16.31,0.055
53856.315532,16.359,0.061
53856.325703,16.36,0.063
53880.213963,16.132,0.051
53880.225036,16.174,0.053
53880.236296,16.17,0.054
53880.24759,16.191,0.056
53880.258589,16.199,0.056
53882.221688,16.244,0.052
53882.232911,16.263,0.063
53882.244139,16.267,0.055
53882.255373,16.306,0.057
53882.266612,16.229,0.054
53884.164994,16.293,0.061
53884.165886,16.275,0.058
53884.176744,16.205,0.057
53884.176827,16.275,0.059
53884.187844,16.276,0.061
53884.188507,16.309,0.068
53884.198578,16.266,0.061
53884.200305,16.34,0.072
53884.209461,16.258,0.061
53884.212082,16.298,0.067
53901.187555,16.293,0.098
53901.197558,16.217,0.091
54086.430773,16.46,0.068
54086.443722,16.397,0.063
54086.456571,16.448,0.065
54086.469542,16.349,0.057
54086.482397,16.255,0.054
54113.396557,16.189,0.058
54113.410763,16.21,0.063
54113.43643,16.237,0.074
54113.449305,16.286,0.079
54115.469295,16.328,0.066
54115.482047,16.266,0.066
54115.494879,16.316,0.069
54115.508739,16.354,0.079
54115.521491,16.278,0.066
54123.399652,16.057,0.045
54123.412076,16.095,0.046
54123.424371,16.057,0.045
54123.437413,16.068,0.045
54123.449922,16.031,0.043
54144.366014,16.054,0.035
54144.377106,16.058,0.03
54144.388765,16.068,0.031
54144.399845,16.06,0.031
54144.412187,16.019,0.03
54148.390669,16.172,0.051
54148.402374,16.206,0.053
54148.413948,16.233,0.053
54148.425657,16.269,0.054
54148.437546,16.205,0.053
54154.334567,16.352,0.035
54154.346921,16.356,0.037
54154.35853,16.332,0.035
54154.370165,16.385,0.037
54154.381781,16.404,0.037
54155.353378,16.24,0.037
54155.365204,16.249,0.035
54155.377038,16.26,0.037
54155.388988,16.284,0.039
54155.400834,16.312,0.039
54156.32486,16.358,0.043
54156.336467,16.383,0.043
54156.347985,16.401,0.043
54156.359509,16.294,0.037
54156.371037,16.241,0.035
54173.319375,16.343,0.041
54173.330117,16.329,0.041
54173.340842,16.353,0.041
54173.352481,16.347,0.041
54173.363208,16.38,0.041
54174.274132,16.051,0.04
54174.284993,16.06,0.04
54174.296059,16.079,0.043
54174.30711,16.089,0.048
54174.318225,16.103,0.043
54176.325422,16.177,0.037
54176.336319,16.23,0.037
54176.34728,16.266,0.037
54176.358195,16.215,0.035
54176.369066,16.256,0.037
54179.342981,16.032,0.033
54179.353784,16.057,0.033
54179.36484,16.056,0.035
54179.375921,16.075,0.035
54179.387101,16.105,0.037
54180.282228,16.361,0.049
54180.292686,16.32,0.046
54180.303041,16.313,0.045
54180.313773,16.265,0.045
54180.324131,16.323,0.048
54186.344882,16.385,0.041
54186.356655,16.363,0.043
54186.367982,16.393,0.043
54186.379775,16.4,0.043
54186.39137,16.423,0.043
54200.223134,16.263,0.063
54200.261615,16.065,0.056
54206.268523,16.277,0.037
54206.27802,16.257,0.039
54206.287165,16.257,0.039
54206.296311,16.29,0.041
54206.305449,16.31,0.041
54209.264421,15.951,0.154
54209.273499,16.062,0.061
54209.282576,16.151,0.065
54209.291632,16.04,0.107
54209.300692,16.074,0.117
54440.477395,16.083,0.03
54440.503221,16.083,0.142
54448.453647,16.301,0.035
54448.466788,16.262,0.033
54448.479895,16.228,0.031
54448.49299,16.206,0.03
54448.506082,16.273,0.044
54474.401207,16.145,0.039
54474.414206,16.181,0.041
54474.427221,16.225,0.031
54474.440243,16.196,0.03
54474.453238,16.18,0.063
54507.459383,16.309,0.053
54507.471244,16.224,0.046
54507.483189,16.271,0.049
54507.495992,16.275,0.046
54507.507975,16.282,0.046
54508.356954,16.419,0.033
54508.369157,16.416,0.035
54508.381335,16.283,0.031
54508.393693,16.26,0.031
54508.406049,16.214,0.028
54523.398889,16.203,0.035
54523.410696,16.196,0.037
54523.422581,16.197,0.037
54523.434409,16.234,0.039
54523.446269,16.158,0.037
54530.337196,16.284,0.043
54530.348443,16.197,0.043
54530.359709,16.244,0.03
54530.370982,16.213,0.03
54530.382254,16.276,0.031
54535.444443,16.293,0.049
54535.455444,16.363,0.054
54535.46635,16.318,0.054
54535.477223,16.351,0.066
54535.488316,16.407,0.069
54537.277458,16.196,0.05
54537.288476,16.155,0.044
54537.299528,16.204,0.028
54537.310641,16.189,0.059
54537.321599,16.14,0.093
54554.306659,16.126,0.022
54554.330774,16.141,0.022
54554.342856,16.128,0.024
54554.354798,16.114,0.026
54563.297619,16.156,0.026
54563.309321,16.162,0.024
54563.320749,16.215,0.026
54563.332187,16.211,0.024
54563.343634,16.238,0.033
54580.242008,16.124,0.041
54580.252643,16.138,0.044
54580.263237,16.105,0.046
54580.27384,16.068,0.043
54580.28443,16.044,0.044
54585.245844,16.375,0.068
54585.256118,16.38,0.054
54585.266396,16.373,0.054
54585.276714,16.34,0.039
54585.28701,16.261,0.037
54590.19858,16.29,0.078
54590.20835,16.236,0.078
54590.218015,16.332,0.097
54590.227978,16.329,0.086
54590.23765,16.438,0.094
54592.242492,16.385,0.046
54592.253188,16.345,0.044
54592.263662,16.34,0.044
54592.274088,16.348,0.046
54592.284509,16.237,0.043
54611.166131,16.361,0.039
54611.176103,16.293,0.037
54611.186066,16.34,0.037
54611.195974,16.361,0.039
54611.205788,16.352,0.039
54615.170114,16.212,0.039
54615.180587,16.215,0.039
54615.191046,16.227,0.039
54615.201506,16.159,0.037
54615.211973,16.162,0.037
