mjd,m,merr
52618.499137,16.406,0.089
52618.51417,16.38,0.078
52650.395459,16.633,0.063
52650.411625,16.763,0.071
52650.429011,16.594,0.059
52650.443771,16.407,0.049
52650.459281,16.23,0.043
52665.409767,16.573,0.063
52665.45528,16.575,0.061
52677.421749,16.598,0.073
52696.342019,16.122,0.033
52696.354625,16.117,0.033
52696.367052,16.183,0.035
52696.392477,16.191,0.035
52711.25247,16.419,0.059
52711.266097,16.487,0.063
52711.279741,16.428,0.059
52711.293212,16.491,0.063
52723.336405,16.056,0.041
52739.243357,16.169,0.044
52739.254872,16.169,0.044
52739.266278,16.167,0.044
52739.277676,16.172,0.044
52739.289161,16.274,0.048
52752.235467,16.294,0.046
52752.245731,16.291,0.046
52752.255987,16.31,0.046
52752.266354,16.329,0.048
52752.276653,16.347,0.05
52770.220003,16.521,0.117
52770.244291,16.302,0.102
52787.213168,16.613,0.057
52787.223958,16.657,0.059
52787.234637,16.588,0.057
52787.245223,16.605,0.059
52787.255796,16.578,0.061
52811.173334,16.579,0.097
52811.183256,16.547,0.094
52811.193226,16.672,0.104
52811.203301,16.508,0.091
52811.213613,16.697,0.109
52977.466628,16.528,0.061
52977.478797,16.596,0.063
52977.503533,16.641,0.065
52991.515224,16.538,0.048
52991.528963,16.562,0.059
53006.388522,15.971,0.041
53006.400843,15.984,0.038
53024.386305,16.552,0.124
53024.39921,16.544,0.054
53035.407401,16.408,0.048
53035.419744,16.398,0.046
53035.43211,16.452,0.043
53035.445142,16.517,0.07
53035.457477,16.43,0.043
53050.328688,16.619,0.098
53050.340374,16.538,0.109
53050.363667,16.247,0.104
53050.375278,16.169,0.074
53065.284601,16.384,0.046
53065.295834,16.387,0.044
53065.307181,16.386,0.044
53065.318428,16.466,0.048
53065.329715,16.473,0.05
53078.282109,16.466,0.043
53078.29291,16.448,0.043
53078.303659,16.449,0.043
53078.314398,16.487,0.046
53078.325062,16.468,0.046
53093.272843,15.982,0.026
53093.28273,15.978,0.026
53093.292652,15.974,0.026
53093.303811,16.007,0.026
53093.313774,16.012,0.026
53109.241915,16.224,0.037
53109.253033,16.233,0.039
53109.264172,16.289,0.041
53109.275217,16.277,0.041
53109.286301,16.289,0.041
53121.200256,16.537,0.046
53121.210778,16.457,0.043
53121.221182,16.434,0.043
53121.231593,16.518,0.046
53121.241995,16.508,0.044
53137.202548,16.546,0.061
53137.221716,16.596,0.065
53150.230827,16.059,0.083
53165.1732,16.373,0.072
53165.183185,16.363,0.076
53165.193167,16.434,0.107
53165.203144,16.46,0.067
53165.213164,16.45,0.065
53177.174009,16.612,0.067
53177.183958,16.575,0.063
53319.467305,16.24,0.07
53319.479181,16.241,0.067
53319.491057,16.262,0.067
53319.50292,16.301,0.065
53341.469806,16.64,0.139
53341.48235,16.571,0.127
53341.496135,16.447,0.114
53341.509149,16.592,0.125
53341.521685,16.741,0.144
53349.468566,16.241,0.061
53349.480557,16.213,0.061
53349.492802,16.268,0.063
53349.505235,16.336,0.065
53349.518887,16.32,0.061
53443.380723,16.244,0.078
53443.391367,16.215,0.044
53443.402006,16.21,0.081
53443.412628,16.378,0.205
53443.423252,16.245,0.113
53473.384507,16.312,0.057
53473.396471,16.314,0.059
53473.406306,16.326,0.061
53473.416182,16.373,0.067
53473.425797,16.339,0.068
53498.224513,16.669,0.135
53498.235141,16.486,0.076
53499.208847,16.246,0.044
53499.219408,16.317,0.046
53499.230236,16.3,0.046
53499.240801,16.36,0.048
53499.251736,16.35,0.048
53528.172647,16.465,0.078
53528.18429,16.526,0.081
53528.195461,16.434,0.08
53528.216534,16.41,0.08
53539.172457,16.245,0.107
53539.181977,16.429,0.13
53539.191506,16.394,0.131
53539.201024,16.182,0.109
53550.173942,16.026,0.048
53550.193708,16.033,0.055
53550.203594,16.068,0.057
53550.213483,16.068,0.059
53702.44511,16.317,0.055
53702.457786,16.323,0.054
53702.470557,16.403,0.055
53702.483136,16.343,0.052
53702.496079,16.365,0.052
53741.453337,16.486,0.039
53741.466133,16.542,0.041
53771.353201,16.459,0.167
53786.339021,16.17,0.037
53786.350961,16.275,0.07
53786.362897,16.276,0.055
53786.374935,16.354,0.081
53812.301117,16.404,0.068
53812.312762,16.481,0.071
53843.258369,16.093,0.04
53843.269731,16.21,0.048
53843.281339,16.27,0.053
53843.292746,16.314,0.058
53843.304132,16.385,0.064
53854.239138,16.55,0.061
53854.249249,16.662,0.069
53854.259203,16.611,0.069
53882.16541,16.389,0.031
53882.176271,16.347,0.03
53882.187321,16.331,0.03
53882.198186,16.558,0.036
53882.209294,16.443,0.031
53886.177241,16.152,0.055
53886.1879,16.171,0.057
53886.198652,16.222,0.063
53886.209442,16.225,0.061
53886.220344,16.258,0.063
53903.172984,16.131,0.068
53903.183051,16.062,0.067
53903.193254,16.165,0.07
53903.2035,16.239,0.074
54055.447285,16.481,0.091
54055.459828,16.386,0.081
54055.472862,16.441,0.079
54055.487856,16.435,0.068
54055.500758,16.459,0.068
54067.459457,16.683,0.066
54067.472324,16.618,0.068
54067.486184,16.541,0.063
54067.499331,16.322,0.046
54067.51195,16.206,0.04
54085.462336,16.475,0.071
54085.475261,16.447,0.064
54085.488172,16.483,0.061
54085.501171,16.584,0.066
54085.514372,16.592,0.066
54123.332629,15.972,0.035
54123.345117,16.005,0.035
54123.35733,16.052,0.037
54123.369541,16.069,0.035
54123.381828,16.082,0.033
54156.31701,16.297,0.049
54156.328014,16.285,0.048
54156.339104,16.321,0.049
54156.361232,16.373,0.048
54207.227961,16.57,0.064
54207.237514,16.585,0.066
54207.247327,16.522,0.056
54207.258034,16.333,0.049
54207.27147,16.204,0.041
54216.220358,16.161,0.067
54216.229007,16.198,0.068
54216.237656,16.212,0.07
54216.246311,16.223,0.068
54216.254962,16.176,0.067
54529.208179,16.174,0.049
54529.221474,16.247,0.051
54529.23315,16.267,0.049
54529.244577,16.245,0.048
54529.255655,16.325,0.051
54543.27659,16.079,0.05
54543.287486,16.064,0.048
54543.298437,16.08,0.048
54543.309321,16.101,0.046
54543.320187,16.171,0.052
54573.261428,16.206,0.091
54573.272162,16.157,0.087
54573.282901,16.162,0.087
54613.203986,16.194,0.059
54613.225113,16.292,0.064
54613.235369,16.219,0.064
54613.245779,16.272,0.066
