mjd,m,merr
52641.461119,15.171,0.018
52641.476408,15.187,0.018
52641.491628,15.129,0.018
52641.506815,15.099,0.017
52641.521925,14.996,0.017
52643.446411,14.821,0.013
52643.460474,14.85,0.013
52643.474372,14.874,0.013
52643.488668,14.954,0.013
52643.502913,14.983,0.015
52647.463861,14.843,0.017
52647.478613,14.853,0.017
52647.493426,14.861,0.015
52647.507665,14.86,0.017
52647.52208,14.962,0.035
52667.401518,15.093,0.017
52667.416971,15.119,0.017
52667.432311,15.147,0.018
52667.447706,15.201,0.02
52667.463067,15.163,0.02
52673.373575,15.128,0.018
52673.388787,15.071,0.017
52673.404033,14.959,0.015
52673.419418,14.818,0.013
52673.43477,14.789,0.013
52703.31747,15.113,0.028
52703.330796,15.147,0.041
52703.344868,15.167,0.018
52703.358088,15.176,0.03
52703.37136,15.19,0.031
52708.316455,14.809,0.015
52708.316572,14.815,0.015
52708.329499,14.84,0.016
52708.329614,14.857,0.015
52708.342557,14.9,0.016
52708.342673,14.902,0.016
52708.35563,14.928,0.016
52708.355745,14.931,0.016
52708.368768,14.988,0.018
52708.368883,14.991,0.016
52727.369948,14.955,0.07
52730.293438,14.896,0.013
52730.305004,14.876,0.013
52730.316629,14.934,0.015
52730.328189,14.964,0.015
52730.339745,14.986,0.015
52737.251194,14.844,0.015
52737.264062,14.873,0.015
52737.275779,14.895,0.015
52737.287596,14.955,0.015
52737.299457,14.993,0.017
52756.19861,15.114,0.018
52756.210444,15.047,0.017
52756.222309,14.947,0.015
52756.234152,14.906,0.015
52756.245991,14.819,0.015
52758.209502,14.87,0.013
52758.221358,14.937,0.015
52758.233254,14.952,0.015
52758.245255,15.008,0.015
52758.257109,15.063,0.017
52788.175234,14.803,0.018
52788.185512,14.802,0.022
52788.21692,14.908,0.039
52793.226109,14.963,0.022
52793.236119,14.917,0.022
52793.246125,14.844,0.02
52966.470759,14.936,0.02
52966.483174,14.917,0.02
52966.495754,14.999,0.018
52966.508412,15.037,0.018
52972.455109,15.118,0.02
52972.468031,15.136,0.018
52972.480805,15.074,0.018
52972.49356,14.957,0.017
52972.506434,14.94,0.017
52986.460468,14.904,0.02
52986.473498,14.854,0.018
52986.486651,14.83,0.018
52986.499603,14.817,0.017
52986.512715,14.818,0.017
52997.481769,14.844,0.028
53028.403228,14.955,0.011
53028.415618,15.009,0.011
53028.428007,15.085,0.011
53028.440526,15.13,0.015
53028.452916,15.152,0.015
53032.394621,14.996,0.013
53032.406913,15.034,0.015
53032.419101,15.045,0.015
53032.431296,15.091,0.015
53032.443663,15.11,0.017
53054.370859,14.959,0.013
53054.385377,15.018,0.013
53054.397392,15.066,0.013
53054.410044,15.07,0.013
53054.423678,15.103,0.015
53061.332237,14.954,0.011
53061.343301,14.943,0.011
53061.354367,14.971,0.011
53061.365484,15.022,0.011
53061.376656,15.064,0.013
53080.285854,14.822,0.011
53080.297368,14.813,0.013
53080.309311,14.802,0.013
53080.320661,14.82,0.011
53080.331943,14.819,0.011
53082.34124,15.089,0.013
53082.352661,15.145,0.013
53082.363776,15.143,0.013
53082.380838,15.07,0.013
53082.392232,15.034,0.013
53091.329576,14.864,0.009
53091.340177,14.885,0.009
53091.350543,14.882,0.011
53091.361086,14.928,0.011
53091.371375,14.973,0.011
53096.269952,15.101,0.035
53096.280344,15.145,0.037
53096.301105,15.05,0.041
53096.311414,15.044,0.039
53113.325119,14.973,0.055
53116.31144,14.949,0.011
53116.334272,15.043,0.013
53116.346357,15.093,0.015
53116.357552,15.138,0.015
53139.201915,15.065,0.018
53139.211224,15.033,0.018
53139.220526,14.943,0.017
53139.229826,14.862,0.017
53139.239292,14.804,0.017
53141.214244,14.893,0.013
53141.224427,14.894,0.013
53141.234109,14.915,0.015
53141.244328,14.957,0.015
53141.254002,15.0,0.015
53144.211417,15.14,0.026
53144.22036,15.177,0.026
53144.229596,15.18,0.033
53144.238464,15.209,0.04
53144.247254,15.155,0.056
53169.171463,15.172,0.022
53169.181587,15.181,0.024
53169.191682,15.189,0.024
53169.20178,15.155,0.022
53169.211887,15.156,0.024
53170.169239,14.91,0.015
53170.179455,14.949,0.015
53170.189576,14.973,0.015
53170.199686,15.021,0.017
53170.209797,15.046,0.017
53346.456497,14.862,0.024
53346.469836,14.843,0.022
53346.483512,14.847,0.022
53346.496166,14.906,0.02
53346.508309,14.895,0.02
53353.463034,14.854,0.02
53353.476446,14.885,0.018
53353.489286,14.932,0.018
53353.502128,14.966,0.018
53353.515552,15.001,0.018
53376.488508,14.784,0.013
53376.502314,14.79,0.013
53376.515903,14.819,0.013
53376.532586,14.843,0.013
53381.428344,15.198,0.031
53381.441199,15.334,0.054
53403.412088,15.163,0.022
53403.427868,15.176,0.022
53403.441426,15.185,0.022
53403.455543,15.104,0.022
53403.468502,15.048,0.022
53432.374859,15.178,0.024
53432.386223,15.17,0.02
53432.39791,15.144,0.02
53440.425029,15.177,0.02
53440.435524,15.146,0.022
53440.446022,15.133,0.022
53440.4577,15.1,0.022
53440.468783,15.024,0.022
53464.337827,14.949,0.017
53464.347896,14.893,0.015
53464.357989,14.878,0.018
53464.368621,14.837,0.015
53464.378728,14.811,0.015
53465.278758,15.029,0.017
53465.289891,15.059,0.017
53465.300822,15.102,0.018
53465.312789,15.116,0.018
53465.323659,15.142,0.018
53466.214159,14.836,0.015
53466.223637,14.803,0.015
53466.232967,14.786,0.015
53466.242336,14.821,0.015
53466.251689,14.809,0.015
53467.223045,15.124,0.018
53467.224305,15.159,0.018
53467.233047,15.092,0.018
53467.234307,15.137,0.018
53467.243579,15.007,0.017
53467.244835,15.114,0.018
53467.253387,14.999,0.017
53467.254691,15.047,0.017
53467.263954,14.922,0.015
53467.265589,14.971,0.017
53469.233938,14.868,0.015
53469.243858,14.894,0.015
53469.253874,14.923,0.015
53469.265502,14.949,0.015
53469.27507,14.993,0.015
53495.250205,14.896,0.033
53495.260312,14.958,0.033
53495.27038,14.984,0.043
53495.280458,15.064,0.046
53495.290503,15.081,0.055
53504.187482,15.218,0.024
53504.197268,15.201,0.024
53504.206198,15.186,0.024
53504.215568,15.201,0.024
53504.225151,15.151,0.024
53525.16774,15.017,0.02
53525.177922,14.874,0.02
53525.188107,14.879,0.018
53525.198299,14.832,0.02
53525.208461,14.852,0.02
53530.16587,15.087,0.024
53530.175963,15.132,0.024
53530.185795,15.172,0.026
53530.195707,15.158,0.026
53530.205541,15.155,0.028
53732.479832,15.101,0.026
53732.493387,15.138,0.03
53732.506279,15.129,0.028
53732.519058,15.193,0.028
53732.531779,15.186,0.026
53735.47153,15.132,0.031
53735.523495,15.246,0.054
53759.412301,15.044,0.02
53759.425073,14.972,0.026
53759.437663,14.918,0.026
53759.450282,14.966,0.033
53759.462875,14.911,0.054
53762.416841,14.833,0.017
53762.429597,14.85,0.017
53762.442223,14.905,0.028
53762.454961,14.962,0.046
53762.467866,14.983,0.018
53790.34614,15.014,0.018
53790.357846,15.057,0.018
53790.369537,15.075,0.018
53790.381234,15.099,0.018
53790.392942,15.145,0.02
53793.399068,15.238,0.044
53793.410924,15.176,0.054
53793.434639,15.013,0.067
53793.446499,15.027,0.017
53797.298694,15.054,0.026
53797.323648,15.0,0.013
53797.323908,15.062,0.015
53797.335485,15.088,0.015
53797.336012,15.016,0.015
53797.347119,15.152,0.017
53797.348465,15.096,0.016
53799.340454,15.049,0.017
53799.351884,14.963,0.015
53799.363314,14.878,0.015
53799.374755,14.831,0.015
53799.386202,14.798,0.017
53815.290823,15.044,0.03
53815.301994,15.094,0.028
53815.313179,15.112,0.022
53815.324363,15.16,0.024
53815.335559,15.169,0.026
53819.3435,15.115,0.018
53819.372106,15.16,0.022
53819.386124,15.159,0.026
53819.398609,15.127,0.022
53820.360541,15.144,0.061
53826.340919,15.161,0.022
53827.349234,15.055,0.02
53827.361778,15.11,0.026
53827.373506,15.166,0.026
53827.386888,15.206,0.037
53827.40015,15.202,0.028
53832.27595,15.128,0.022
53832.285992,15.073,0.022
53832.297546,14.986,0.02
53832.307468,14.922,0.02
53832.317411,14.829,0.018
53833.230974,15.003,0.026
53833.260543,15.058,0.028
53833.270424,15.086,0.026
53846.236981,15.154,0.018
53846.247555,15.092,0.016
53846.258152,14.837,0.016
53846.268849,14.754,0.016
53846.279428,14.894,0.013
53846.295206,14.829,0.02
53846.30623,14.812,0.02
53846.317245,14.772,0.02
53846.328266,14.814,0.02
53846.339274,14.823,0.02
53850.32508,14.822,0.017
53850.336334,14.827,0.017
53850.348286,14.891,0.018
53850.360867,14.918,0.018
53850.372102,14.962,0.022
53853.247903,14.903,0.018
53853.259005,14.863,0.018
53853.269358,14.814,0.017
53853.280077,14.826,0.017
53853.290507,14.817,0.017
53856.280732,15.003,0.02
53856.293495,15.031,0.02
53856.305024,15.078,0.02
53856.315172,15.13,0.022
53856.325344,15.116,0.024
53879.212306,14.915,0.016
53879.226006,14.786,0.015
53879.238397,14.723,0.013
53879.250871,14.701,0.013
53879.262792,14.836,0.013
53882.222057,14.828,0.017
53882.233279,14.851,0.017
53882.244507,14.802,0.017
53882.255742,14.861,0.018
53882.26698,14.87,0.018
53885.162514,14.806,0.015
53885.173671,14.836,0.015
53885.184466,14.856,0.016
53885.195538,14.886,0.016
53885.206515,14.926,0.018
54086.430377,14.816,0.017
54086.443327,14.809,0.017
54086.456175,14.765,0.015
54086.469146,14.876,0.017
54086.482001,14.867,0.015
54113.396165,15.225,0.068
54113.407396,15.153,0.02
54113.410373,15.18,0.026
54113.421132,15.134,0.022
54113.423263,15.118,0.035
54113.434055,15.095,0.022
54113.436041,15.123,0.028
54113.446583,15.039,0.02
54113.448913,15.078,0.026
54115.468901,15.047,0.023
54115.481649,15.093,0.026
54115.494481,15.125,0.026
54115.508341,15.162,0.028
54115.521092,15.181,0.028
54123.399269,14.887,0.015
54123.411699,14.861,0.015
54123.423993,14.852,0.015
54123.437033,14.796,0.015
54123.449541,14.812,0.013
54144.365657,14.85,0.024
54144.376747,14.924,0.015
54144.388405,14.972,0.015
54144.399484,15.018,0.017
54144.411824,15.067,0.017
54147.340999,14.878,0.015
54147.353304,14.917,0.015
54147.366068,14.968,0.016
54147.378493,15.021,0.016
54147.390438,15.041,0.016
54148.343492,14.86,0.016
54148.355073,14.833,0.016
54148.366652,14.834,0.016
54148.378602,14.834,0.016
54148.390301,14.852,0.016
54154.334145,14.969,0.013
54154.346492,15.03,0.015
54154.3581,15.02,0.015
54154.369736,15.085,0.015
54154.381351,15.106,0.015
54156.324408,15.076,0.017
54156.336014,14.984,0.015
54156.347531,14.921,0.013
54156.359056,14.804,0.013
54156.370584,14.802,0.013
54173.319003,14.964,0.013
54173.329736,14.96,0.013
54173.340461,15.018,0.013
54173.35178,15.038,0.013
54173.362825,15.091,0.013
54175.27716,15.165,0.02
54175.288471,15.143,0.018
54175.299306,15.216,0.02
54175.310157,15.194,0.02
54175.321036,15.206,0.02
54176.325031,15.023,0.015
54176.335926,15.097,0.015
54176.346887,15.098,0.015
54176.357801,15.142,0.015
54176.368673,15.167,0.017
54177.326582,14.772,0.044
54179.34259,15.169,0.017
54179.353391,15.123,0.017
54179.364415,15.075,0.017
54179.375494,15.033,0.015
54179.386611,14.951,0.015
54186.344488,14.964,0.013
54186.356259,14.961,0.013
54186.367577,15.018,0.013
54186.379376,15.038,0.013
54186.390973,15.092,0.013
54198.238959,14.947,0.028
54198.248595,14.968,0.03
54198.258528,14.94,0.021
54198.268066,14.972,0.021
54206.268148,14.837,0.011
54206.277647,14.829,0.013
54206.286792,14.853,0.013
54206.295937,14.843,0.013
54206.305077,14.89,0.013
54209.264056,14.996,0.048
54209.273128,15.027,0.033
54209.282199,15.103,0.028
54209.291261,15.174,0.048
54209.300318,15.111,0.057
54506.461011,14.837,0.018
54506.472906,14.858,0.018
54506.484766,14.888,0.018
54506.496666,14.87,0.02
54506.508525,14.992,0.02
54507.338017,15.058,0.015
54507.350111,15.082,0.013
54507.362208,15.122,0.013
54507.374258,15.156,0.013
54507.386321,15.15,0.013
54522.447862,14.996,0.017
54522.459577,14.892,0.017
54522.471285,14.803,0.015
54522.483095,14.758,0.017
54522.494851,14.745,0.017
54529.331754,15.124,0.013
54529.343067,15.145,0.013
54529.354361,15.151,0.013
54529.365659,15.138,0.013
54529.376973,15.193,0.013
54536.322231,15.165,0.013
54536.333348,15.173,0.013
54536.344469,15.165,0.013
54536.355758,15.175,0.013
54536.366874,15.138,0.013
54553.358218,14.831,0.013
54553.370297,14.87,0.013
54553.382399,14.918,0.015
54562.302834,15.137,0.013
54562.314351,15.198,0.013
54562.325862,15.194,0.011
54562.337432,15.144,0.013
54562.348951,15.093,0.011
54568.291947,14.868,0.021
54568.302904,14.774,0.021
54568.314062,14.796,0.021
54568.325087,14.77,0.021
54568.336068,14.808,0.02
54584.254643,15.064,0.015
54584.265302,15.074,0.015
54584.275879,15.136,0.017
54584.286472,15.164,0.017
54584.297097,15.136,0.017
54591.248311,15.198,0.02
54591.258455,15.208,0.02
54591.268632,15.198,0.02
54591.278795,15.198,0.02
54591.288944,15.213,0.022
54614.168663,14.792,0.013
54614.178621,14.836,0.013
54614.188593,14.813,0.013
54614.198597,14.877,0.015
54614.208551,14.861,0.013
54622.167319,15.032,0.051
54622.177665,14.858,0.04
54622.187778,14.82,0.03
54622.197834,14.864,0.031
54622.207891,14.797,0.03
