mjd,m,merr
52640.461734,16.901,0.073
52640.476622,16.96,0.076
52640.491536,16.388,0.045
52640.506382,16.268,0.038
52640.52124,16.081,0.033
52644.484818,16.171,0.039
52644.499621,16.238,0.054
52644.514559,16.249,0.059
52644.529276,16.292,0.074
52648.395227,16.135,0.046
52648.410282,16.131,0.046
52648.424961,16.194,0.046
52648.440114,16.318,0.052
52648.455423,16.315,0.048
52667.3945,16.785,0.069
52667.40928,16.851,0.074
52667.424281,16.916,0.079
52667.439117,16.876,0.083
52667.453953,16.892,0.084
52671.396947,16.808,0.068
52671.412311,16.428,0.05
52671.427492,16.251,0.043
52671.442666,16.071,0.037
52671.458009,16.108,0.037
52674.396366,16.477,0.054
52674.410292,16.507,0.052
52674.424245,16.578,0.057
52674.438236,16.587,0.059
52674.452187,16.655,0.063
52703.311044,16.697,0.167
52703.333042,16.921,0.252
52703.351223,16.864,0.091
52703.36684,16.968,0.19
52703.381609,16.787,0.127
52704.313213,16.708,0.061
52704.326588,16.741,0.065
52704.340116,16.759,0.068
52704.353617,16.805,0.072
52704.367056,16.809,0.074
52707.314863,16.827,0.067
52707.328624,16.892,0.07
52707.342323,16.973,0.076
52707.355566,16.965,0.076
52707.368962,16.94,0.074
52725.3149,16.879,0.076
52725.326691,16.844,0.105
52725.338484,16.958,0.131
52725.350205,17.098,0.176
52725.361901,16.972,0.109
52728.289225,16.262,0.043
52728.301987,16.295,0.043
52728.314766,16.367,0.044
52728.327187,16.438,0.05
52728.341054,16.456,0.05
52730.295916,16.815,0.076
52730.307915,16.814,0.074
52730.319938,16.81,0.073
52730.331963,16.796,0.083
52730.34461,16.78,0.099
52731.309424,16.925,0.252
52731.321398,16.736,0.068
52731.33337,16.875,0.17
52731.345398,16.801,0.091
52738.241683,16.899,0.078
52738.253123,16.859,0.076
52738.265045,16.953,0.081
52738.276574,16.94,0.08
52738.288092,16.975,0.08
52755.204079,16.296,0.044
52755.221462,16.146,0.039
52755.234599,16.16,0.041
52755.246633,16.191,0.043
52755.258766,16.212,0.044
52761.204997,16.854,0.122
52761.217035,16.871,0.135
52761.229113,16.805,0.085
52761.241198,16.802,0.085
52761.253218,16.823,0.07
52764.207067,16.206,0.048
52764.21902,16.114,0.043
52764.231059,16.058,0.043
52764.243188,16.138,0.043
52764.255158,16.211,0.046
52794.170302,16.603,0.067
52794.180338,16.549,0.07
52794.19028,16.658,0.076
52794.200213,16.668,0.08
52794.210142,16.647,0.08
52967.448136,16.668,0.093
52967.473453,16.715,0.085
52967.498956,16.758,0.085
52973.46151,16.48,0.065
52973.474371,16.34,0.061
52973.487342,16.347,0.059
52973.500165,16.415,0.057
52973.513102,16.542,0.063
52996.44731,16.119,0.03
53001.464405,16.615,0.043
53001.477709,16.367,0.031
53001.490847,16.175,0.028
53001.504978,16.071,0.026
53001.518279,16.112,0.026
53027.34078,16.413,0.037
53027.353695,16.205,0.03
53027.366472,16.11,0.026
53027.379162,16.15,0.026
53027.391723,16.147,0.026
53033.342377,16.77,0.076
53033.354708,16.87,0.086
53033.391745,16.737,0.091
53053.351785,16.438,0.043
53053.363403,16.499,0.048
53053.375072,16.515,0.07
53053.386719,16.583,0.067
53053.398925,16.558,0.052
53060.306677,16.797,0.044
53060.318803,16.809,0.044
53060.330919,16.847,0.046
53060.342888,16.825,0.044
53060.356137,16.788,0.046
53079.312245,16.644,0.054
53079.32311,16.627,0.054
53079.33379,16.607,0.055
53079.344538,16.684,0.059
53079.355566,16.737,0.063
53080.335034,16.494,0.049
53080.346198,16.52,0.051
53080.357447,16.606,0.054
53080.36866,16.58,0.053
53080.379916,16.582,0.054
53084.335579,16.591,0.039
53084.34612,16.621,0.039
53084.356998,16.648,0.039
53084.367633,16.664,0.041
53084.378386,16.659,0.041
53110.240734,16.69,0.07
53110.251825,16.716,0.074
53110.262965,16.684,0.068
53110.274043,16.731,0.07
53110.28511,16.754,0.07
53115.254248,16.538,0.044
53115.26548,16.576,0.046
53115.276558,16.67,0.05
53115.28764,16.624,0.048
53115.298743,16.646,0.048
53117.261575,16.958,0.061
53117.282845,16.774,0.053
53117.293931,16.493,0.041
53138.203942,16.4,0.046
53138.213715,16.425,0.05
53138.223554,16.415,0.046
53138.233274,16.447,0.052
53138.243,16.382,0.052
53143.231909,16.234,0.041
53143.241351,16.233,0.039
53143.250758,16.309,0.041
53143.2601,16.345,0.043
53143.269447,16.349,0.043
53147.205089,16.357,0.046
53166.181268,16.843,0.091
53166.190619,16.973,0.107
53166.199975,16.88,0.096
53166.209353,16.732,0.083
53166.218716,16.411,0.065
53172.172212,16.818,0.068
53172.183166,16.87,0.074
53172.193595,16.815,0.078
53172.203892,16.803,0.083
53172.21414,16.783,0.076
53174.171243,16.252,0.048
53174.193032,16.329,0.053
53346.444882,17.207,0.193
53346.457433,16.837,0.127
53346.469663,17.133,0.163
53346.481862,16.786,0.112
53348.469259,16.282,0.059
53348.48171,16.328,0.061
53348.495535,16.379,0.167
53348.508724,16.45,0.061
53351.495633,16.85,0.117
53351.510062,16.856,0.111
53351.524317,16.934,0.116
53354.452601,16.753,0.076
53354.465545,16.821,0.078
53354.478305,16.75,0.072
53354.492453,16.784,0.07
53354.505279,16.794,0.072
53377.409975,16.721,0.07
53377.42314,16.804,0.076
53377.437583,16.742,0.067
53377.451111,16.747,0.067
53377.464817,16.799,0.068
53382.504688,16.853,0.076
53382.519054,16.961,0.081
53382.534999,16.884,0.078
53404.440565,16.842,0.074
53433.36332,16.235,0.039
53433.374765,16.28,0.041
53433.386219,16.324,0.044
53433.39889,16.347,0.048
53433.410549,16.406,0.052
53438.347686,16.494,0.05
53438.359858,16.405,0.046
53438.371424,16.221,0.041
53438.383021,16.118,0.037
53438.394613,16.119,0.039
53441.334072,16.503,0.048
53441.34626,16.533,0.05
53441.357825,16.549,0.052
53441.368846,16.578,0.055
53441.379865,16.668,0.061
53445.291017,16.609,0.054
53445.303367,16.552,0.052
53445.314705,16.578,0.052
53465.286366,17.002,0.091
53465.297723,16.983,0.091
53465.309675,17.002,0.093
53465.32035,16.802,0.078
53465.331634,16.73,0.07
53468.285031,16.422,0.087
53468.295032,16.524,0.122
53493.29365,16.718,0.098
53493.303641,16.823,0.104
53493.313953,16.733,0.1
53493.324683,16.685,0.094
53493.334769,16.766,0.102
53503.230719,16.607,0.061
53503.239342,16.612,0.065
53503.248238,16.671,0.07
53503.257261,16.681,0.067
53503.266491,16.639,0.065
53522.168194,16.135,0.043
53522.178416,16.107,0.044
53522.188664,16.183,0.05
53522.198989,16.22,0.05
53522.209561,16.27,0.054
53526.191292,16.434,0.096
53709.450523,16.26,0.063
53709.463954,16.329,0.061
53709.476775,16.315,0.055
53709.48946,16.469,0.057
53709.502648,16.465,0.054
53733.453686,16.851,0.091
53733.46633,17.018,0.102
53733.478957,16.95,0.1
53737.472449,16.765,0.07
53737.485703,16.438,0.052
53737.499031,16.284,0.044
53737.512321,16.136,0.037
53737.525627,16.158,0.039
53790.348495,16.26,0.046
53790.396032,16.188,0.045
53791.366205,16.81,0.068
53791.377943,16.881,0.072
53791.389696,16.883,0.074
53791.401444,16.91,0.08
53791.413205,16.945,0.083
53794.34853,16.245,0.041
53794.360367,16.295,0.043
53794.371988,16.348,0.044
53794.38362,16.413,0.048
53794.39524,16.412,0.048
53818.28735,16.819,0.078
53818.298406,16.761,0.073
53818.309506,16.794,0.073
53818.320653,16.799,0.076
53818.329923,16.793,0.078
53818.331712,16.799,0.074
53818.341542,16.84,0.081
53818.353875,16.814,0.08
53818.365513,16.87,0.085
53818.378602,16.938,0.089
53823.314555,16.849,0.078
53823.327134,16.876,0.083
53823.339942,16.896,0.085
53823.353072,16.851,0.083
53823.368099,16.855,0.083
53825.283692,16.292,0.052
53825.295467,16.356,0.063
53825.307182,16.425,0.063
53825.317524,16.403,0.057
53825.329235,16.48,0.065
53826.278057,17.006,0.268
53826.289909,16.921,0.08
53826.314351,16.493,0.054
53826.325839,16.413,0.059
53829.33639,16.551,0.105
53845.264098,16.833,0.195
53848.245737,16.475,0.072
53848.25619,16.469,0.074
53848.266929,16.211,0.061
53848.277818,16.124,0.057
53848.288305,16.089,0.057
53849.253237,16.816,0.081
53849.263975,16.783,0.08
53849.274673,16.827,0.085
53849.285372,16.804,0.083
53849.296286,16.816,0.089
53851.248829,16.473,0.071
53851.269546,16.534,0.074
53851.279893,16.648,0.092
53852.25729,16.234,0.059
53852.268112,16.275,0.061
53852.278469,16.236,0.059
53852.289505,16.301,0.065
53852.301253,16.315,0.065
53855.248374,16.703,0.081
53855.259486,16.658,0.08
53855.271128,16.75,0.087
53855.282027,16.686,0.083
53855.292674,16.787,0.091
53858.241675,16.938,0.176
53858.265921,16.842,0.179
53858.276953,16.822,0.161
53858.287586,16.805,0.109
53880.161251,16.849,0.105
53880.172408,16.774,0.102
53880.183607,16.81,0.104
53880.194771,16.751,0.098
53880.205962,16.85,0.109
53881.208087,16.761,0.094
53881.23833,16.707,0.096
53881.248353,16.783,0.109
53883.171565,16.203,0.061
53883.184636,16.226,0.063
53883.197076,16.29,0.067
53883.208472,16.4,0.072
53883.219981,16.411,0.076
53885.163425,16.864,0.111
53885.175619,16.842,0.109
53885.18771,16.751,0.102
53885.199843,16.792,0.107
53885.21197,16.892,0.118
53886.172627,16.606,0.087
53886.185506,16.629,0.094
53886.195342,16.739,0.106
53886.205148,16.624,0.101
54084.484145,16.325,0.054
54084.497876,16.33,0.061
54084.511608,16.456,0.074
54084.525334,16.501,0.068
54112.439176,16.725,0.099
54112.451805,16.791,0.102
54112.46469,16.775,0.14
54112.477333,16.853,0.101
54112.490178,16.919,0.107
54121.397311,16.823,0.063
54121.410046,16.751,0.068
54121.422492,16.81,0.076
54121.43502,16.934,0.091
54121.44754,16.86,0.078
54124.399906,16.248,0.033
54124.417516,16.344,0.037
54124.430378,16.325,0.037
54124.444228,16.386,0.039
54149.340966,16.643,0.068
54149.365399,16.717,0.073
54149.377464,16.671,0.069
54149.389381,16.846,0.092
54152.341877,16.772,0.054
54152.353838,16.896,0.061
54152.378206,16.883,0.059
54173.270937,16.078,0.041
54173.281972,16.077,0.043
54173.292715,16.125,0.041
54173.303384,16.142,0.041
54173.314061,16.204,0.043
54175.323415,16.808,0.061
54175.334171,16.853,0.065
54175.344793,16.908,0.068
54175.355519,16.792,0.063
54175.366207,16.811,0.065
54185.275719,16.524,0.078
54185.28605,16.472,0.084
54185.296287,16.588,0.127
54185.306541,16.739,0.155
54201.241983,16.955,0.083
54201.251251,16.727,0.066
54201.260496,16.768,0.068
54201.269737,16.787,0.071
54201.279045,16.952,0.081
54210.263311,16.88,0.074
54210.27233,16.876,0.076
54210.281329,16.946,0.081
54210.290311,16.875,0.08
54210.299345,16.954,0.089
54447.455025,16.789,0.052
54447.468108,16.81,0.057
54447.481887,16.861,0.072
54447.507991,16.826,0.052
54450.458797,16.285,0.033
54450.471959,16.115,0.028
54450.485114,16.087,0.026
54450.498304,16.127,0.026
54450.511462,16.183,0.026
54454.456859,16.081,0.03
54454.469942,16.108,0.03
54454.496316,16.178,0.031
54454.509339,16.22,0.033
54475.397006,16.652,0.072
54475.409903,16.649,0.057
54475.422887,16.644,0.048
54475.435739,16.71,0.05
54475.448578,16.658,0.043
54483.35032,17.087,0.139
54483.376738,16.932,0.117
54495.464071,16.175,0.037
54495.476695,16.159,0.037
54495.489301,16.249,0.039
54495.501902,16.309,0.043
54495.514501,16.369,0.046
54509.33339,16.848,0.044
54509.345603,16.866,0.048
54509.357652,16.826,0.044
54509.369692,16.781,0.041
54509.381768,16.848,0.044
54524.390633,16.802,0.052
54524.40246,16.78,0.052
54524.414411,16.824,0.057
54524.426099,16.872,0.061
54524.437954,16.78,0.059
54532.329035,16.864,0.046
54532.340499,16.836,0.046
54532.351896,16.816,0.044
54532.363176,16.8,0.044
54532.37444,16.903,0.05
54538.307221,16.457,0.035
54538.318332,16.495,0.035
54538.329424,16.537,0.037
54538.340435,16.564,0.037
54538.35158,16.587,0.037
54555.300111,16.707,0.041
54555.311929,16.7,0.043
54555.323869,16.756,0.044
54555.335877,16.78,0.044
54555.347733,16.782,0.048
54558.184703,16.757,0.08
54558.196277,16.793,0.1
54558.207844,16.769,0.072
54558.219391,16.778,0.122
54558.231026,16.854,0.078
54580.24796,16.677,0.104
54580.258376,16.764,0.109
54580.26866,16.86,0.124
54580.278903,16.816,0.116
54580.289242,17.078,0.157
54586.239893,16.738,0.065
54586.250226,16.727,0.063
54586.260653,16.822,0.067
54586.270981,16.729,0.061
54586.281392,16.783,0.067
54594.208304,16.913,0.074
54594.218638,16.79,0.067
54594.22898,16.838,0.07
54594.239309,16.88,0.078
54594.249631,16.838,0.074
54611.197553,16.814,0.089
54611.205859,16.755,0.089
54611.214185,16.733,0.087
54611.222411,16.686,0.084
54611.230646,16.772,0.097
54618.165018,16.52,0.054
54618.175206,16.573,0.054
54618.18544,16.63,0.055
54618.195654,16.661,0.057
54618.205838,16.592,0.054
