mjd,m,merr
52641.46291,15.548,0.024
52641.478196,15.488,0.022
52641.493411,15.465,0.02
52641.508602,15.458,0.02
52641.523716,15.394,0.02
52644.48645,15.38,0.02
52644.501257,15.367,0.026
52644.516192,15.441,0.028
52644.530916,15.476,0.031
52648.396858,15.386,0.024
52648.411911,15.395,0.024
52648.426588,15.322,0.022
52648.441743,15.342,0.022
52648.457101,15.349,0.02
52667.464575,15.531,0.024
52667.479852,15.471,0.024
52667.495103,15.401,0.024
52667.510235,15.396,0.024
52667.525702,15.407,0.024
52671.398633,15.687,0.026
52671.413995,15.621,0.024
52671.429178,15.576,0.024
52671.444452,15.488,0.022
52671.459784,15.45,0.022
52674.398269,15.363,0.018
52674.412262,15.393,0.02
52674.42622,15.349,0.018
52674.440135,15.386,0.022
52674.454072,15.353,0.02
52704.370125,15.407,0.022
52704.383358,15.359,0.02
52704.39668,15.329,0.02
52704.409902,15.338,0.02
52704.422979,15.382,0.022
52707.315773,15.377,0.018
52707.329536,15.406,0.018
52707.343229,15.454,0.02
52707.356479,15.523,0.022
52707.369873,15.5,0.022
52728.290291,15.411,0.02
52728.302822,15.46,0.02
52728.315603,15.461,0.02
52728.328036,15.498,0.022
52728.341899,15.528,0.022
52731.310253,15.635,0.061
52731.322225,15.675,0.028
52731.334216,15.636,0.048
52731.346228,15.655,0.035
52738.242514,15.588,0.026
52738.253956,15.55,0.024
52738.265874,15.491,0.022
52738.277406,15.435,0.022
52738.288924,15.443,0.02
52739.238454,15.638,0.03
52739.249962,15.657,0.03
52739.261374,15.612,0.03
52739.272764,15.635,0.028
52739.284249,15.639,0.03
52755.205142,15.721,0.031
52755.217039,15.647,0.031
52755.228998,15.626,0.03
52755.241009,15.575,0.03
52755.252918,15.521,0.028
52760.20591,15.66,0.024
52760.217839,15.654,0.024
52760.229766,15.651,0.024
52760.241707,15.666,0.028
52760.253631,15.622,0.026
52764.141735,15.625,0.017
52764.154341,15.611,0.017
52764.167171,15.614,0.017
52764.180386,15.625,0.017
52764.19269,15.663,0.017
52789.17187,15.636,0.028
52789.182202,15.583,0.028
52789.19252,15.539,0.028
52789.202912,15.501,0.026
52789.213372,15.442,0.024
52794.171481,15.69,0.03
52794.181484,15.655,0.031
52794.191428,15.674,0.031
52794.201366,15.677,0.033
52794.211327,15.652,0.033
52816.168553,15.621,0.039
52816.178348,15.611,0.039
52816.188984,15.627,0.043
52816.198856,15.562,0.044
52816.20869,15.63,0.055
52967.449553,15.339,0.031
52967.462287,15.324,0.03
52967.475056,15.375,0.028
52967.487661,15.39,0.028
52967.500372,15.414,0.028
52987.470206,15.403,0.05
52987.509053,15.561,0.035
52995.4693,15.699,0.018
52995.482757,15.694,0.018
52995.496703,15.66,0.018
52995.510001,15.662,0.018
52995.523943,15.59,0.017
53000.478417,15.609,0.017
53000.491298,15.619,0.017
53000.504143,15.643,0.015
53000.517283,15.667,0.015
53000.530199,15.661,0.015
53026.418856,15.427,0.017
53026.432889,15.493,0.018
53026.445906,15.559,0.063
53026.460426,15.588,0.024
53026.47325,15.626,0.041
53033.392944,15.658,0.035
53033.405249,15.68,0.026
53033.417761,15.688,0.026
53033.429813,15.69,0.026
53033.441912,15.668,0.026
53054.371522,15.678,0.02
53054.386039,15.653,0.02
53054.398053,15.689,0.02
53054.410705,15.664,0.022
53054.42434,15.57,0.02
53058.344152,15.682,0.017
53058.356501,15.663,0.017
53058.368845,15.691,0.017
53058.380246,15.668,0.017
53058.398507,15.632,0.017
53080.287462,15.492,0.02
53080.299427,15.532,0.02
53080.310779,15.558,0.02
53080.32211,15.587,0.022
53080.333395,15.601,0.022
53083.337536,15.667,0.018
53083.34822,15.563,0.017
53083.359346,15.511,0.017
53083.370429,15.434,0.017
53083.381272,15.455,0.017
53086.344,15.316,0.017
53086.354804,15.295,0.017
53086.365585,15.392,0.018
53086.376541,15.346,0.017
53086.387495,15.363,0.02
53092.330487,15.664,0.022
53092.340983,15.656,0.022
53092.351161,15.665,0.02
53092.361342,15.626,0.02
53092.371522,15.604,0.02
53114.25343,15.397,0.017
53114.264738,15.469,0.017
53114.275872,15.446,0.015
53114.287077,15.587,0.017
53114.298252,15.613,0.018
53117.301096,15.603,0.018
53117.311712,15.581,0.018
53117.322276,15.526,0.018
53117.332956,15.455,0.018
53117.343477,15.414,0.018
53139.202461,15.514,0.024
53139.211769,15.559,0.026
53139.22107,15.518,0.026
53139.230371,15.652,0.03
53139.239836,15.621,0.028
53142.212517,15.658,0.024
53142.222047,15.599,0.018
53142.231666,15.624,0.018
53142.24121,15.611,0.035
53142.250739,15.564,0.02
53146.210757,15.663,0.018
53146.219907,15.51,0.018
53146.229083,15.491,0.018
53146.238154,15.495,0.018
53146.247208,15.391,0.017
53169.172668,15.451,0.026
53169.182792,15.508,0.028
53169.192887,15.507,0.028
53169.202984,15.514,0.028
53169.213093,15.533,0.028
53171.171972,15.457,0.02
53171.182176,15.416,0.022
53171.192487,15.406,0.022
53171.202715,15.423,0.022
53171.213014,15.384,0.022
53174.172415,15.375,0.018
53174.182484,15.381,0.018
53174.193004,15.415,0.018
53174.203239,15.431,0.02
53174.213541,15.462,0.02
53348.457791,15.668,0.037
53348.470729,15.637,0.037
53348.48318,15.611,0.031
53348.497007,15.587,0.046
53348.510197,15.47,0.035
53351.497534,15.363,0.03
53351.512,15.396,0.031
53351.526272,15.415,0.031
53354.454117,15.501,0.026
53354.467063,15.525,0.026
53354.480271,15.559,0.026
53354.493971,15.564,0.026
53354.506988,15.6,0.026
53377.411511,15.466,0.024
53377.424676,15.447,0.022
53377.43912,15.412,0.022
53377.452649,15.387,0.02
53377.466355,15.341,0.018
53382.506364,15.429,0.02
53382.520745,15.382,0.02
53382.5367,15.358,0.02
53404.429126,15.673,0.026
53404.441435,15.664,0.026
53404.453722,15.657,0.026
53404.467202,15.577,0.026
53404.480103,15.52,0.026
53433.36415,15.573,0.022
53433.375597,15.51,0.02
53433.38705,15.444,0.02
53433.399719,15.419,0.022
53433.411379,15.416,0.022
53447.305064,15.573,0.024
53447.315859,15.594,0.024
53447.327211,15.593,0.03
53447.337979,15.566,0.03
53447.34877,15.66,0.026
53465.287761,15.361,0.022
53465.299114,15.396,0.022
53465.311059,15.445,0.024
53465.32174,15.45,0.024
53465.333021,15.484,0.024
53468.227897,15.54,0.043
53468.237729,15.564,0.037
53468.247415,15.599,0.033
53468.258797,15.618,0.05
53468.268369,15.614,0.044
53473.224141,15.349,0.022
53473.234348,15.346,0.022
53473.24424,15.392,0.022
53473.254295,15.413,0.024
53473.265423,15.44,0.024
53478.22556,15.298,0.041
53478.236468,15.319,0.039
53478.246568,15.268,0.037
53478.25666,15.257,0.035
53478.266763,15.271,0.037
53479.225488,15.637,0.065
53479.235646,15.551,0.055
53479.246399,15.49,0.052
53479.258217,15.442,0.055
53493.294979,15.68,0.037
53493.305267,15.668,0.039
53493.315395,15.581,0.035
53493.325994,15.598,0.035
53493.336081,15.52,0.033
53496.201294,15.605,0.031
53496.211505,15.525,0.03
53496.221825,15.466,0.03
53496.232009,15.446,0.03
53496.242292,15.409,0.028
53501.136637,15.613,0.031
53501.147273,15.627,0.031
53501.158409,15.63,0.03
53501.169962,15.7,0.033
53501.180663,15.7,0.033
53503.232098,15.422,0.022
53503.240733,15.44,0.024
53503.249619,15.475,0.024
53503.258643,15.489,0.026
53503.26788,15.498,0.026
53526.213414,15.399,0.035
53527.169101,15.687,0.035
53527.179389,15.649,0.033
53527.189283,15.632,0.033
53527.199051,15.661,0.035
53527.208849,15.678,0.037
53733.455257,15.697,0.031
53733.467903,15.674,0.031
53733.480638,15.693,0.044
53733.506195,15.706,0.043
53746.460628,15.582,0.037
53746.473047,15.66,0.039
53746.485741,15.68,0.035
53746.498198,15.675,0.033
53746.510714,15.662,0.03
53791.357617,15.427,0.02
53791.367119,15.406,0.02
53791.369399,15.399,0.02
53791.378861,15.418,0.022
53791.381187,15.371,0.018
53791.390614,15.361,0.02
53791.39281,15.35,0.02
53791.402365,15.351,0.02
53791.404694,15.34,0.018
53791.414124,15.358,0.02
53794.396981,15.462,0.02
53794.408594,15.535,0.022
53794.420224,15.514,0.022
53794.431851,15.548,0.022
53794.443479,15.571,0.022
53817.269026,15.663,0.025
53817.280291,15.673,0.025
53817.291559,15.65,0.025
53817.30289,15.659,0.025
53817.3142,15.63,0.025
53818.33078,15.656,0.03
53818.342394,15.67,0.03
53818.354792,15.676,0.03
53818.366364,15.68,0.03
53818.379541,15.674,0.03
53823.315486,15.501,0.024
53823.328232,15.568,0.026
53823.341119,15.556,0.026
53823.357046,15.637,0.028
53823.370083,15.624,0.028
53825.285087,15.534,0.026
53825.297567,15.489,0.031
53825.308582,15.456,0.026
53825.318926,15.421,0.024
53825.330631,15.432,0.033
53829.324624,15.324,0.048
53829.33793,15.306,0.118
53845.254351,15.358,0.053
53845.276826,15.34,0.035
53845.288109,15.454,0.03
53848.257497,15.569,0.035
53848.268367,15.635,0.037
53848.27913,15.596,0.035
53848.289613,15.612,0.037
53849.254017,15.337,0.022
53849.264756,15.399,0.024
53849.275452,15.377,0.024
53849.286151,15.417,0.026
53849.297073,15.433,0.026
53850.242392,15.435,0.03
53850.252785,15.397,0.026
53850.263063,15.385,0.026
53850.273404,15.367,0.026
53850.2838,15.334,0.025
53852.258587,15.615,0.033
53852.269403,15.637,0.035
53852.27977,15.664,0.035
53852.290809,15.672,0.037
53852.302562,15.671,0.037
53855.249642,15.641,0.031
53855.260748,15.625,0.033
53855.27239,15.571,0.031
53855.283292,15.495,0.03
53855.293979,15.499,0.03
53858.242458,15.434,0.057
53858.266706,15.212,0.046
53858.277737,15.312,0.039
53858.288367,15.316,0.03
53880.214792,15.477,0.028
53880.225976,15.505,0.028
53880.237129,15.427,0.028
53880.248419,15.443,0.028
53880.259424,15.445,0.028
53883.221549,15.372,0.03
53883.232956,15.314,0.03
53883.2444,15.403,0.031
53883.255907,15.425,0.031
53883.267336,15.398,0.037
53884.166125,15.649,0.035
53884.177874,15.541,0.031
53884.189642,15.512,0.033
53884.20144,15.523,0.033
53884.210492,15.38,0.026
53884.213218,15.395,0.03
53884.235943,15.413,0.03
53884.248681,15.347,0.028
53884.260931,15.343,0.03
53901.188378,15.419,0.048
53901.198381,15.42,0.046
53901.20843,15.392,0.067
54084.485882,15.583,0.033
54084.499613,15.655,0.041
54084.513349,15.587,0.037
54084.527073,15.732,0.043
54121.398889,15.573,0.025
54121.411629,15.608,0.026
54121.424196,15.694,0.03
54121.436597,15.715,0.031
54121.44912,15.728,0.031
54124.402347,15.732,0.022
54124.419259,15.676,0.02
54124.43212,15.622,0.02
54124.445967,15.495,0.018
54124.459054,15.487,0.018
54149.342496,15.643,0.03
54149.35447,15.593,0.026
54149.366933,15.544,0.026
54149.37909,15.446,0.025
54149.390911,15.367,0.023
54155.354413,15.548,0.02
54155.366237,15.571,0.02
54155.378073,15.6,0.02
54155.39002,15.62,0.022
54155.401868,15.655,0.022
54174.275489,15.574,0.026
54174.286353,15.52,0.025
54174.297424,15.494,0.026
54174.308472,15.405,0.025
54174.31959,15.425,0.025
54175.324918,15.694,0.024
54175.335669,15.684,0.024
54175.346287,15.632,0.022
54175.357009,15.617,0.022
54175.367688,15.575,0.022
54180.283559,15.585,0.025
54180.294018,15.567,0.023
54180.304595,15.608,0.025
54180.315108,15.609,0.025
54180.325468,15.643,0.025
54200.281673,15.655,0.381
54200.291148,15.553,0.035
54200.300617,15.505,0.033
54207.267465,15.341,0.018
54207.276616,15.347,0.018
54207.285806,15.335,0.022
54207.294943,15.324,0.059
54210.264383,15.552,0.026
54210.273403,15.604,0.026
54210.282394,15.605,0.028
54210.291382,15.622,0.028
54210.300409,15.673,0.03
54447.456463,15.583,0.018
54447.469535,15.48,0.018
54447.483314,15.428,0.02
54447.496365,15.422,0.017
54447.509419,15.401,0.015
54454.459373,15.412,0.017
54454.472602,15.421,0.017
54454.48578,15.444,0.017
54454.498815,15.461,0.017
54454.511841,15.505,0.018
54474.402822,15.565,0.018
54474.415825,15.59,0.024
54474.428838,15.635,0.022
54474.441858,15.666,0.018
54474.454845,15.699,0.035
54483.340385,15.296,0.033
54483.353613,15.294,0.03
54483.366517,15.376,0.03
54483.380033,15.364,0.028
54483.392945,15.392,0.028
54495.466165,15.696,0.024
54495.478779,15.673,0.024
54495.49139,15.647,0.024
54495.503989,15.607,0.024
54495.516586,15.537,0.022
54508.35812,15.521,0.017
54508.370319,15.534,0.017
54508.382657,15.576,0.017
54508.394859,15.582,0.018
54508.40721,15.643,0.018
54509.391066,15.353,0.013
54509.403168,15.4,0.013
54509.415262,15.425,0.015
54509.42734,15.47,0.015
54509.439416,15.5,0.015
54524.392509,15.659,0.018
54524.404506,15.641,0.02
54524.416274,15.618,0.02
54524.427985,15.525,0.018
54524.439831,15.474,0.018
54535.445993,15.452,0.026
54535.45701,15.493,0.028
54535.467897,15.523,0.028
54535.478776,15.57,0.031
54535.489862,15.646,0.035
54537.323706,15.644,0.063
54537.334691,15.668,0.028
54537.345763,15.673,0.041
54537.356712,15.7,0.03
54537.367691,15.703,0.026
54555.301734,15.426,0.015
54555.313546,15.469,0.015
54555.325489,15.476,0.015
54555.337496,15.528,0.017
54555.349358,15.539,0.017
54558.185723,15.426,0.022
54558.197299,15.45,0.022
54558.208862,15.476,0.024
54558.22041,15.498,0.05
54558.232047,15.525,0.024
54564.294949,15.367,0.015
54564.306362,15.376,0.015
54564.317725,15.405,0.015
54564.329061,15.425,0.015
54564.340387,15.468,0.017
54580.243309,15.448,0.024
54580.253942,15.447,0.024
54580.264535,15.537,0.028
54580.27514,15.521,0.028
54580.285734,15.535,0.028
54585.246673,15.328,0.03
54585.25694,15.334,0.026
54585.267229,15.349,0.02
54585.277536,15.384,0.017
54585.28783,15.377,0.017
54592.243337,15.601,0.022
54592.254032,15.623,0.024
54592.264503,15.673,0.024
54592.274932,15.655,0.024
54592.285344,15.653,0.024
54611.206696,15.415,0.018
54611.216577,15.388,0.018
54611.226441,15.395,0.018
54611.236455,15.378,0.018
54611.246279,15.384,0.018
54615.170876,15.4,0.02
54615.181341,15.389,0.02
54615.191802,15.371,0.02
54615.202262,15.355,0.02
54615.212731,15.383,0.02
