mjd,m,merr
52612.461064,16.2,0.044
52612.476242,16.207,0.043
52612.49139,16.036,0.035
52612.506713,15.955,0.035
52612.5219,15.885,0.031
52620.465716,15.872,0.033
52620.480853,15.828,0.041
52620.511233,15.921,0.055
52620.526324,16.114,0.039
52622.44332,15.984,0.043
52622.458124,16.218,0.051
52622.472731,16.171,0.046
52622.487687,16.042,0.041
52622.50259,15.976,0.038
52638.497032,16.119,0.043
52638.512067,15.942,0.035
52650.363374,15.876,0.031
52650.377476,16.005,0.033
52650.391606,16.171,0.035
52650.405737,16.125,0.035
52650.419835,15.95,0.031
52665.39554,16.281,0.048
52665.410275,16.066,0.038
52665.425778,15.955,0.035
52665.441086,15.85,0.033
52665.455789,15.81,0.03
52677.407125,15.998,0.038
52677.422266,16.168,0.064
52677.437155,16.174,0.076
52677.452131,16.092,0.041
52677.46762,15.943,0.04
52680.416863,15.966,0.033
52680.431742,15.877,0.031
52680.446642,15.854,0.03
52680.461387,15.918,0.033
52680.476123,15.972,0.038
52696.341607,15.88,0.026
52696.354243,15.883,0.026
52696.366671,15.957,0.028
52696.392098,16.212,0.035
52712.251262,15.953,0.076
52712.264399,16.004,0.074
52712.277696,16.139,0.054
52712.290929,16.272,0.059
52712.304184,16.11,0.052
52723.325226,16.118,0.13
52723.336888,16.021,0.043
52752.235132,15.935,0.033
52752.245399,15.984,0.033
52752.255654,16.099,0.037
52752.266022,16.217,0.043
52752.27632,16.208,0.043
52770.20846,16.213,0.076
52770.220345,16.16,0.074
52770.232643,15.979,0.065
52770.24463,15.896,0.059
52770.256958,15.898,0.061
52787.168376,15.878,0.03
52787.190897,15.817,0.041
52787.201837,15.827,0.028
52787.202056,15.804,0.036
52787.212896,15.828,0.026
52787.213114,15.812,0.036
52810.174177,15.958,0.036
52810.174356,15.943,0.048
52810.184026,16.076,0.038
52810.184204,16.068,0.056
52810.213729,16.125,0.054
52810.213908,16.075,0.069
52812.175619,15.798,0.03
52812.175798,15.811,0.041
52812.193674,15.826,0.033
52812.204401,15.889,0.035
52812.20458,15.846,0.046
52812.214609,15.925,0.038
52812.214788,15.951,0.051
52812.224812,16.026,0.043
52977.454035,15.959,0.037
52977.466325,15.93,0.035
52977.478494,15.867,0.031
52977.490914,15.898,0.031
52977.50323,15.887,0.031
52991.489204,15.854,0.025
52991.501747,15.937,0.026
52991.514327,16.075,0.031
52991.526873,16.205,0.038
53024.380544,15.863,0.073
53024.410005,15.877,0.096
53024.423584,15.876,0.049
53024.439532,16.061,0.053
53035.40707,15.845,0.037
53035.419413,15.811,0.028
53035.43178,15.889,0.024
53035.44481,15.925,0.044
53035.457145,16.053,0.03
53049.33377,16.008,0.026
53049.345636,15.909,0.024
53049.357498,15.864,0.022
53049.36936,15.804,0.022
53049.381224,15.778,0.022
53065.284204,15.827,0.026
53065.295437,15.873,0.026
53065.306676,15.946,0.028
53065.318031,16.084,0.033
53065.329318,16.174,0.035
53093.275943,16.143,0.028
53093.286517,15.995,0.028
53093.296801,15.925,0.022
53093.307096,15.884,0.02
53093.317414,15.87,0.02
53107.247708,16.145,0.036
53107.258102,16.003,0.031
53107.268588,15.929,0.031
53107.279092,15.851,0.028
53112.239633,16.176,0.039
53112.250335,16.085,0.031
53112.261038,15.996,0.028
53112.271806,15.978,0.028
53112.282585,15.864,0.035
53117.188877,15.865,0.018
53117.190747,15.891,0.021
53117.199643,15.916,0.02
53117.201744,15.934,0.021
53117.210485,15.998,0.02
53117.212364,16.045,0.023
53117.221354,16.161,0.024
53117.223332,16.179,0.026
53117.2322,16.208,0.024
53117.240752,16.188,0.026
53122.19762,15.854,0.035
53122.207961,15.993,0.036
53122.218237,16.088,0.056
53122.228584,16.158,0.04
53122.238885,16.196,0.04
53136.198855,16.207,0.051
53136.209143,16.16,0.048
53136.217879,16.007,0.043
53136.226603,15.981,0.041
53136.235456,15.899,0.04
53153.2042,15.899,0.043
53153.213612,15.919,0.045
53153.223799,16.021,0.049
53153.232875,16.161,0.059
53153.241346,16.221,0.063
53154.20391,15.821,0.063
53154.214442,15.863,0.064
53154.222671,15.894,0.071
53154.231051,15.878,0.071
53164.173336,15.89,0.04
53164.18282,15.808,0.036
53164.192493,15.781,0.038
53164.202083,15.768,0.035
53164.211649,15.82,0.038
53178.174211,15.829,0.028
53178.183642,15.83,0.03
53178.193573,15.836,0.03
53178.203111,15.918,0.033
53178.212528,15.981,0.035
53319.467012,16.204,0.059
53319.478888,16.011,0.05
53319.490763,15.893,0.044
53319.502626,15.879,0.041
53331.456675,15.987,0.048
53331.469055,16.047,0.052
53331.481432,16.17,0.054
53331.506178,16.23,0.055
53341.468488,16.065,0.072
53341.480556,16.113,0.072
53341.492629,16.284,0.08
53341.517288,16.024,0.061
53349.469209,15.983,0.048
53349.481199,15.876,0.044
53349.493444,15.839,0.041
53349.505874,15.828,0.039
53349.519528,15.9,0.039
53471.259467,15.865,0.031
53471.270137,15.923,0.033
53471.280171,15.996,0.035
53471.29011,16.119,0.039
53471.299828,16.246,0.043
53474.295451,15.829,0.03
53474.309204,15.799,0.028
53474.32265,15.831,0.03
53474.332655,15.895,0.031
53474.342983,15.932,0.033
53498.213392,16.273,0.148
53498.224915,16.036,0.08
53498.235544,16.003,0.048
53498.24603,15.871,0.039
53499.209248,15.974,0.033
53499.219844,16.06,0.037
53499.230639,16.185,0.041
53499.241202,16.227,0.043
53499.252145,16.114,0.039
53521.205253,15.807,0.055
53521.215591,15.814,0.044
53521.225896,15.849,0.05
53521.236218,15.839,0.083
53521.246539,15.839,0.059
53538.173524,15.945,0.083
53538.183293,16.087,0.093
53538.192837,16.167,0.098
53538.20239,16.249,0.113
53538.212025,16.103,0.102
53550.174324,15.831,0.037
53550.19409,15.848,0.043
53550.20398,15.943,0.044
53550.213867,15.913,0.046
53701.457071,16.366,0.105
53701.469844,16.185,0.061
53701.482379,16.042,0.054
53701.494843,16.012,0.08
53701.50733,15.895,0.044
53741.41539,16.0,0.028
53741.428194,16.195,0.031
53741.441052,16.167,0.03
53741.453778,16.059,0.026
53741.466575,15.943,0.024
53786.361152,15.907,0.063
53786.374271,15.865,0.043
53786.413805,16.429,0.094
53812.313079,16.095,0.057
53824.320715,15.899,0.045
53824.34394,16.192,0.04
53824.356,16.066,0.046
53824.368086,15.902,0.071
53843.253676,15.84,0.037
53843.26491,15.839,0.039
53843.276107,15.836,0.043
53843.287312,15.947,0.048
53843.29915,16.099,0.059
53854.239603,15.834,0.043
53854.249715,15.806,0.041
53854.259669,15.762,0.041
53882.209656,15.741,0.036
53882.220152,15.822,0.038
53882.230797,15.814,0.038
53882.24151,15.855,0.041
53882.252038,16.03,0.053
53886.177681,15.775,0.039
53886.188344,15.788,0.041
53886.199093,15.855,0.043
53886.209889,15.867,0.043
53886.220789,15.893,0.044
53903.173316,16.07,0.059
53903.183401,15.992,0.059
53903.193592,15.98,0.055
53903.203833,15.843,0.048
53903.214058,15.85,0.048
54054.464239,15.981,0.058
54054.47697,16.022,0.056
54054.489988,16.151,0.059
54054.502548,16.254,0.063
54054.516181,16.236,0.061
54068.461289,16.104,0.051
54068.48834,16.042,0.043
54085.462821,15.806,0.045
54085.475746,15.899,0.046
54085.488651,15.974,0.045
54085.501653,16.15,0.051
54085.51485,16.222,0.054
54123.382288,15.791,0.028
54123.394599,15.845,0.028
54123.406939,15.885,0.03
54123.419465,15.998,0.033
54123.431986,16.189,0.039
54186.275397,15.94,0.049
54186.285601,15.891,0.048
54186.295874,15.844,0.046
54186.306076,15.82,0.045
54186.316267,15.853,0.048
54201.238425,16.07,0.033
54201.248227,15.983,0.03
54201.257647,15.868,0.026
54201.267436,15.824,0.026
54201.277474,15.776,0.024
54207.228451,15.974,0.04
54207.238003,16.088,0.043
54207.247817,16.204,0.045
54207.258525,16.162,0.045
54207.271957,16.001,0.036
54216.220852,16.235,0.055
54216.2295,16.192,0.054
54216.238151,16.069,0.048
54216.246804,16.012,0.044
54216.255457,15.93,0.041
54508.35618,15.84,0.031
54508.36882,15.94,0.033
54508.381013,16.056,0.036
54508.3932,16.223,0.041
54508.405134,16.172,0.038
54543.293489,15.924,0.084
54543.304396,15.996,0.087
54543.327553,15.957,0.081
54561.211243,16.094,0.079
54561.222677,15.941,0.054
54561.234807,15.962,0.056
54573.261919,15.93,0.061
54573.272657,15.985,0.059
54573.28341,15.989,0.059
54583.271762,15.984,0.064
54583.28208,15.846,0.058
54614.21348,15.808,0.046
54614.223781,15.913,0.049
54614.234252,16.076,0.054
54614.244667,16.202,0.061
54614.254895,16.295,0.068
