mjd,m,merr
52620.447943,15.716,0.035
52620.462611,15.73,0.035
52620.477235,15.729,0.054
52620.491819,15.774,0.054
52620.506914,15.396,0.025
52623.453336,15.646,0.035
52623.469003,15.666,0.041
52623.484854,15.632,0.048
52623.500756,15.656,0.033
52623.516655,15.667,0.039
52651.354664,15.635,0.031
52651.374029,15.638,0.028
52651.389313,15.668,0.028
52651.404762,15.715,0.03
52651.419902,15.762,0.031
52652.387745,15.671,0.026
52652.402796,15.621,0.022
52652.418224,15.614,0.02
52652.433416,15.649,0.02
52652.448673,15.677,0.022
52664.351946,15.601,0.024
52664.367197,15.614,0.028
52664.382435,15.583,0.05
52664.413039,15.686,0.135
52681.287149,15.638,0.039
52681.30461,15.658,0.037
52681.323247,15.738,0.03
52681.34168,15.718,0.026
52695.316592,15.634,0.026
52695.330387,15.631,0.026
52695.344161,15.659,0.038
52695.357965,15.635,0.035
52722.296217,15.018,0.015
52722.308336,14.814,0.013
52722.320446,14.811,0.013
52722.332466,14.872,0.015
52722.344476,14.905,0.015
52725.363636,15.685,0.03
52725.378452,15.738,0.031
52725.391407,15.761,0.024
52725.404775,15.768,0.026
52725.417219,15.621,0.022
52771.221523,15.221,0.035
52771.233191,15.254,0.035
52771.244884,15.291,0.037
52771.25662,15.313,0.039
52782.211328,15.113,0.039
52800.202353,15.511,0.065
52800.212404,15.541,0.068
52810.175889,15.551,0.028
52810.185853,15.574,0.03
52810.19575,15.602,0.037
52810.215739,15.595,0.041
52812.176615,15.313,0.022
52812.186834,15.382,0.024
52812.197193,15.355,0.024
52812.207405,15.426,0.026
52812.21783,15.429,0.026
52976.404485,15.41,0.02
52976.415545,15.391,0.02
52976.426604,15.417,0.02
52976.437684,15.478,0.021
52976.448743,15.503,0.021
52990.405629,14.816,0.013
52990.418922,14.888,0.013
52990.432923,14.948,0.013
52990.445977,14.956,0.02
52990.459191,15.05,0.017
53023.399862,15.669,0.018
53023.412775,15.391,0.015
53023.425453,15.109,0.011
53023.438132,14.838,0.009
53023.450823,14.786,0.009
53035.356103,15.662,0.028
53035.369133,15.662,0.026
53035.381785,15.645,0.025
53035.395482,15.616,0.023
53035.40849,15.676,0.025
53046.351896,15.63,0.03
53046.363833,15.607,0.028
53046.375814,15.613,0.028
53046.387956,15.593,0.028
53046.400003,15.631,0.03
53094.285272,15.015,0.013
53094.295647,15.043,0.013
53094.30625,15.062,0.013
53094.316942,14.985,0.011
53094.32738,15.026,0.011
53107.245799,15.634,0.018
53107.257048,15.601,0.018
53107.268242,15.616,0.02
53107.279507,15.664,0.02
53107.290725,15.699,0.02
53127.262336,15.754,0.061
53127.272294,15.687,0.057
53127.282325,15.47,0.048
53136.202032,15.511,0.024
53136.211388,15.219,0.018
53136.220691,15.064,0.017
53136.23001,14.885,0.015
53136.239315,14.794,0.013
53154.207998,15.28,0.03
53154.216904,15.293,0.031
53154.225742,15.31,0.033
53154.234577,15.32,0.033
53154.243436,15.354,0.033
53164.174739,15.26,0.018
53164.184947,15.294,0.018
53164.195163,15.33,0.018
53164.205379,15.355,0.02
53164.215618,15.354,0.018
53169.170309,15.587,0.026
53169.180414,15.633,0.028
53169.190527,15.685,0.028
53169.200627,15.694,0.03
53169.210733,15.704,0.028
53330.46746,15.239,0.026
53330.49539,15.375,0.028
53340.462292,15.308,0.035
53340.477774,15.335,0.033
53340.490339,15.41,0.036
53340.508153,15.447,0.035
53340.520619,15.475,0.035
53356.51931,15.705,0.031
53358.463882,15.628,0.024
53358.476517,15.638,0.022
53358.489152,15.583,0.022
53358.501785,15.633,0.022
53358.520898,15.644,0.022
53360.429139,15.374,0.028
53360.442277,15.408,0.055
53360.455418,15.53,0.085
53386.419284,15.745,0.024
53386.432426,15.687,0.024
53386.445485,15.534,0.02
53386.458636,15.135,0.015
53386.476044,14.82,0.011
53422.340283,15.407,0.048
53422.352287,15.34,0.05
53422.364265,15.426,0.035
53422.376336,15.493,0.074
53450.276396,15.6,0.035
53450.287869,15.631,0.037
53450.29896,15.622,0.035
53450.309654,15.609,0.037
53450.321574,15.604,0.037
53479.23335,15.727,0.057
53479.243376,15.719,0.057
53479.255307,15.748,0.061
53479.265689,15.75,0.061
53479.275244,15.81,0.063
53491.243698,15.643,0.031
53491.257657,15.625,0.026
53491.270028,15.606,0.026
53491.28344,15.604,0.031
53491.294617,15.63,0.028
53537.205076,15.377,0.054
53552.173917,15.7,0.041
53552.18411,15.729,0.044
53552.194521,15.754,0.044
53552.204699,15.743,0.044
53552.215361,15.745,0.046
53700.454056,15.568,0.031
53700.467029,15.578,0.03
53700.479827,15.567,0.028
53700.492801,15.583,0.028
53700.505487,15.589,0.026
53727.499364,14.832,0.028
53757.382402,14.811,0.013
53757.395025,14.794,0.013
53757.407746,14.831,0.015
53757.420423,14.888,0.015
53757.433131,14.947,0.015
53772.353032,15.603,0.024
53772.365782,15.614,0.024
53772.378602,15.596,0.022
53772.391594,15.627,0.022
53772.40459,15.609,0.022
53825.284901,15.511,0.02
53825.296017,15.519,0.023
53825.307137,15.549,0.02
53825.319207,15.597,0.021
53825.330383,15.594,0.021
53842.246827,15.66,0.043
53842.258412,15.673,0.043
53842.293304,15.786,0.054
53856.267071,15.537,0.028
53856.277136,15.571,0.028
53856.287005,15.633,0.03
53856.296971,15.687,0.031
53856.306893,15.591,0.03
53878.235005,15.447,0.033
53878.245757,15.448,0.033
53878.256504,15.464,0.033
53878.267483,15.503,0.035
53878.27919,15.531,0.036
53892.169961,15.617,0.068
53892.180015,15.595,0.068
53892.190183,15.278,0.052
53892.200348,15.047,0.043
53892.210688,14.854,0.037
53904.171754,15.591,0.033
53904.181686,15.613,0.035
53904.191663,15.66,0.035
53904.201782,15.681,0.037
53904.211894,15.688,0.039
54070.458123,15.65,0.028
54070.471527,15.631,0.028
54070.484523,15.619,0.028
54070.497531,15.706,0.03
54070.51058,15.736,0.031
54098.379609,14.94,0.016
54098.391787,14.815,0.015
54098.403951,14.852,0.013
54098.416286,14.901,0.015
54098.428552,14.967,0.015
54124.339151,15.583,0.026
54124.351658,15.574,0.026
54124.364351,15.614,0.028
54124.376817,15.639,0.026
54124.389398,15.609,0.026
54140.352495,14.884,0.016
54140.364537,14.818,0.015
54140.376545,14.899,0.016
54198.269317,15.462,0.02
54198.278969,15.481,0.022
54198.298685,15.542,0.037
54210.223969,15.179,0.018
54218.237207,15.509,0.052
54218.245799,15.5,0.048
54218.254389,15.541,0.052
54218.262994,15.535,0.052
54527.335379,15.593,0.028
54527.347405,15.658,0.028
54527.365385,15.691,0.03
54537.271747,15.578,0.035
54569.242254,15.574,0.036
54569.264184,15.631,0.036
54569.275127,15.616,0.036
54569.28604,15.688,0.036
