mjd,m,merr
52620.44807,15.409,0.026
52620.462736,15.164,0.021
52620.47736,15.045,0.026
52620.491944,14.96,0.03
52620.507039,14.918,0.016
52623.453072,15.266,0.026
52623.468741,15.106,0.026
52623.484588,14.948,0.028
52623.500493,14.963,0.02
52623.51639,14.909,0.02
52651.354535,15.015,0.018
52651.373901,14.959,0.015
52651.389184,14.946,0.015
52651.404633,14.944,0.015
52651.419773,15.002,0.016
52652.387491,15.23,0.018
52652.402547,15.097,0.015
52652.417973,15.007,0.013
52652.433162,14.958,0.013
52652.448419,14.929,0.013
52652.452146,14.903,0.011
52652.467193,14.921,0.013
52652.482423,14.991,0.015
52652.500593,15.081,0.015
52652.515673,15.231,0.017
52653.455613,15.13,0.015
52653.470909,15.023,0.013
52653.486202,14.969,0.013
52653.501567,14.939,0.015
52653.516913,14.927,0.013
52664.351681,15.343,0.02
52664.366934,15.425,0.024
52664.382171,15.29,0.039
52664.397506,15.009,0.054
52664.412778,14.931,0.061
52681.286906,15.304,0.03
52681.304234,15.414,0.031
52681.322937,15.201,0.018
52681.341333,15.012,0.015
52695.316716,14.925,0.015
52695.330511,14.89,0.015
52695.344286,14.931,0.02
52695.35809,14.948,0.02
52722.296097,14.936,0.015
52722.308215,14.94,0.015
52722.320325,14.899,0.013
52722.332346,14.918,0.015
52722.344355,14.94,0.015
52751.249404,14.931,0.016
52751.260187,14.973,0.016
52751.270918,14.947,0.016
52751.281655,14.976,0.016
52751.293055,15.009,0.018
52771.22129,14.871,0.026
52771.232957,14.948,0.026
52771.244652,14.985,0.028
52771.256386,15.094,0.031
52782.211207,15.262,0.044
52800.201992,15.182,0.048
52800.212036,15.345,0.057
52810.175503,14.942,0.017
52810.185491,14.918,0.017
52810.215373,14.986,0.024
52812.176432,14.985,0.017
52812.186653,15.017,0.018
52812.19701,15.115,0.02
52812.20722,15.267,0.022
52812.217646,15.378,0.026
52976.426464,15.014,0.015
52976.437543,15.06,0.015
52976.448604,15.132,0.015
52990.405327,15.194,0.017
52990.41862,15.374,0.02
52990.432622,15.389,0.02
52990.445676,15.264,0.026
52990.458889,15.115,0.018
53023.399548,15.367,0.015
53023.412461,15.546,0.017
53023.42514,15.527,0.017
53023.437819,15.364,0.015
53023.45051,15.179,0.013
53046.351658,15.569,0.028
53046.363596,15.55,0.028
53046.375576,15.375,0.022
53046.387718,15.173,0.02
53046.399765,15.079,0.018
53094.284358,15.057,0.013
53094.294714,15.092,0.013
53094.305336,15.115,0.013
53094.316028,15.226,0.015
53094.326386,15.388,0.017
53107.245584,15.271,0.015
53107.256832,15.126,0.013
53107.268027,15.046,0.013
53107.279292,14.989,0.013
53107.29051,14.967,0.011
53127.261934,14.834,0.028
53127.271894,14.9,0.028
53127.281924,14.937,0.03
53136.201648,15.097,0.017
53136.211005,15.036,0.017
53136.220308,14.995,0.015
53136.229625,14.965,0.015
53136.238932,14.936,0.015
53138.150341,15.081,0.015
53138.16028,15.048,0.018
53138.170147,14.963,0.015
53138.179949,14.959,0.013
53138.189796,14.912,0.011
53139.150794,15.544,0.022
53139.160907,15.617,0.024
53139.170614,15.569,0.024
53139.180176,15.519,0.02
53139.18971,15.305,0.018
53140.152593,14.975,0.013
53140.162406,15.023,0.016
53140.17249,15.05,0.015
53140.182267,15.111,0.016
53140.192065,15.225,0.016
53154.20781,15.005,0.024
53154.216715,15.02,0.024
53154.225554,14.958,0.024
53154.234388,14.963,0.024
53154.243247,14.918,0.024
53164.17455,15.067,0.015
53164.184758,15.125,0.017
53164.194974,15.289,0.018
53164.20519,15.436,0.02
53164.215428,15.544,0.024
53330.480803,15.101,0.026
53330.50966,15.008,0.021
53340.462187,15.18,0.031
53340.477669,15.394,0.036
53340.490235,15.438,0.036
53340.508048,15.224,0.03
53340.520514,15.067,0.025
53356.491361,15.029,0.016
53356.518342,15.303,0.018
53358.463685,15.243,0.018
53358.476321,15.412,0.02
53358.488955,15.422,0.02
53358.501589,15.284,0.018
53358.520701,15.079,0.015
53360.429028,15.562,0.033
53386.419025,14.993,0.013
53386.432167,14.953,0.013
53386.445226,14.98,0.013
53386.458378,14.952,0.013
53386.475785,15.003,0.013
53387.479986,14.99,0.013
53387.493293,14.955,0.013
53387.508584,14.931,0.013
53387.522762,14.971,0.013
53387.535842,14.997,0.013
53389.482326,15.027,0.013
53389.498259,15.112,0.015
53389.513496,15.293,0.017
53390.466934,15.038,0.015
53390.479635,14.983,0.015
53390.492311,14.943,0.013
53390.505028,14.928,0.013
53390.517724,14.938,0.013
53401.354017,15.601,0.033
53401.366638,15.515,0.03
53401.379261,15.311,0.026
53401.391946,15.111,0.02
53421.348689,14.969,0.02
53421.360551,14.92,0.018
53421.372426,14.898,0.018
53421.38452,14.886,0.018
53421.3964,14.922,0.018
53430.363939,14.916,0.017
53430.375649,14.912,0.017
53430.389525,14.9,0.017
53430.402353,14.896,0.017
53430.413713,14.972,0.017
53479.233144,14.928,0.028
53479.24317,14.895,0.028
53479.254557,14.898,0.028
53479.265481,14.919,0.03
53479.27499,14.94,0.03
53491.243597,14.929,0.017
53491.257556,14.911,0.015
53491.269927,14.959,0.017
53491.283338,14.975,0.018
53491.294516,15.033,0.017
53537.174496,15.096,0.055
53537.194659,15.386,0.065
53537.204718,15.416,0.054
53552.173716,14.973,0.022
53552.183909,15.088,0.026
53552.194093,15.173,0.028
53552.204498,15.323,0.031
53552.215159,15.394,0.033
53700.453799,15.114,0.022
53700.46677,14.999,0.018
53700.479535,14.951,0.017
53700.492545,14.922,0.017
53700.505231,14.893,0.015
53727.499235,14.893,0.03
53757.382274,15.166,0.018
53757.394897,15.332,0.022
53757.407619,15.494,0.026
53757.420295,15.509,0.026
53757.433003,15.289,0.022
53773.358463,14.923,0.017
53773.371606,14.888,0.015
53773.384514,14.869,0.015
53773.397303,14.899,0.015
53773.410072,14.926,0.013
53825.284764,14.979,0.013
53825.29588,15.031,0.015
53825.307,15.099,0.015
53825.319068,15.213,0.016
53825.330244,15.353,0.018
53842.246595,15.077,0.023
53842.269748,15.306,0.031
53842.281417,15.356,0.035
53842.293069,15.285,0.031
53856.266969,15.063,0.018
53856.277035,15.077,0.026
53856.286903,14.991,0.018
53856.296869,14.93,0.016
53856.30679,14.961,0.018
53877.220067,15.382,0.071
53877.252039,15.068,0.023
53877.262669,15.003,0.025
53904.171657,15.032,0.022
53904.181589,15.161,0.024
53904.191564,15.32,0.028
53904.201684,15.496,0.033
53904.211796,15.522,0.035
54052.459379,15.106,0.03
54052.471654,15.044,0.022
54052.483904,14.973,0.02
54052.496165,14.909,0.018
54052.508492,14.924,0.018
54098.379486,14.96,0.018
54098.391664,14.925,0.018
54098.403829,14.964,0.016
54098.416165,14.99,0.016
54098.428429,15.035,0.016
54124.339022,14.944,0.013
54124.351527,15.03,0.013
54124.364223,15.073,0.015
54124.376688,15.22,0.015
54124.389266,15.401,0.018
54140.339733,15.005,0.016
54140.352191,14.911,0.015
54140.364215,14.911,0.015
54140.376241,14.902,0.015
54140.388426,14.897,0.015
54187.279245,14.972,0.021
54187.289811,14.954,0.021
54187.300511,14.924,0.02
54187.311453,14.929,0.02
54198.269206,14.922,0.015
54198.278858,14.961,0.015
54198.298574,15.061,0.026
54210.223719,14.973,0.015
54210.232745,14.92,0.015
54210.241464,14.926,0.015
54210.250166,14.925,0.015
54210.259101,14.927,0.015
54218.237004,15.117,0.037
54218.245596,15.239,0.041
54218.254186,15.433,0.046
54218.26279,15.504,0.052
54481.390609,15.135,0.025
54481.402938,15.043,0.023
54481.439665,15.033,0.021
54498.334225,15.064,0.021
54498.346058,14.994,0.02
54498.357884,14.975,0.02
54498.369707,14.955,0.02
54498.381581,14.997,0.021
54526.330188,15.651,0.028
54526.341832,15.602,0.028
54526.353081,15.468,0.025
54526.364519,15.261,0.021
54526.378695,15.054,0.021
54537.271589,15.595,0.033
54537.282708,15.583,0.045
54537.31564,15.138,0.021
54559.245901,14.996,0.023
54559.258132,15.032,0.023
54559.270006,15.074,0.023
54559.281426,15.102,0.025
54559.29282,15.177,0.025
54569.242115,15.155,0.025
54569.253119,15.037,0.023
54569.264046,14.991,0.023
54569.27499,14.954,0.021
54569.285903,14.941,0.021
54599.228724,15.238,0.036
