mjd,m,merr
52640.462634,16.352,0.048
52640.477521,16.446,0.051
52640.492431,16.385,0.048
52640.507277,16.445,0.048
52640.522137,16.426,0.046
52643.482922,16.244,0.041
52643.498831,16.245,0.04
52643.515148,16.233,0.04
52643.532355,16.32,0.045
52644.485955,16.534,0.054
52644.50076,16.633,0.083
52644.515698,16.637,0.072
52644.530419,16.649,0.083
52648.39636,16.203,0.048
52648.411418,16.182,0.046
52648.426095,16.226,0.048
52648.441247,16.196,0.046
52648.456563,16.2,0.044
52667.394622,16.312,0.049
52667.409403,16.407,0.053
52667.424403,16.394,0.053
52667.439237,16.388,0.056
52667.454075,16.392,0.056
52670.427952,16.202,0.048
52670.442555,16.22,0.048
52670.457151,16.258,0.048
52670.471823,16.207,0.048
52670.486383,16.277,0.051
52671.398115,16.572,0.055
52671.41348,16.599,0.055
52671.42866,16.636,0.059
52671.443934,16.531,0.054
52671.45927,16.684,0.063
52674.397437,16.494,0.054
52674.411346,16.451,0.048
52674.425392,16.451,0.052
52674.439292,16.508,0.055
52674.453243,16.472,0.052
52703.311762,16.541,0.125
52703.311877,16.493,0.134
52703.333756,16.552,0.183
52703.333872,16.362,0.13
52703.352055,16.445,0.063
52703.367556,16.584,0.104
52703.367671,16.48,0.109
52703.382445,16.612,0.16
52707.31513,16.342,0.043
52707.32889,16.327,0.041
52707.342588,16.231,0.037
52707.355836,16.233,0.039
52707.36923,16.193,0.037
52725.365287,16.572,0.078
52725.37971,16.601,0.061
52725.392616,16.621,0.057
52725.405979,16.545,0.059
52725.41842,16.498,0.057
52730.296519,16.569,0.056
52730.296634,16.462,0.053
52730.308634,16.495,0.054
52730.320656,16.493,0.053
52730.332682,16.37,0.049
52738.24192,16.399,0.048
52738.25336,16.392,0.048
52738.265283,16.443,0.05
52738.276811,16.422,0.048
52738.288331,16.431,0.048
52755.204758,16.419,0.05
52755.222141,16.476,0.052
52755.235279,16.488,0.052
52755.247312,16.467,0.052
52755.259446,16.491,0.054
52761.205676,16.469,0.093
52761.217713,16.305,0.083
52761.22979,16.324,0.061
52761.241877,16.323,0.05
52761.253962,16.305,0.046
52764.207518,16.513,0.059
52764.207627,16.591,0.066
52764.219473,16.436,0.056
52764.219583,16.603,0.064
52764.231621,16.552,0.061
52764.24364,16.585,0.059
52764.243749,16.611,0.063
52764.255611,16.585,0.059
52764.25572,16.508,0.056
52789.170469,16.349,0.064
52789.181043,16.356,0.066
52789.191608,16.394,0.068
52789.202302,16.483,0.071
52789.212957,16.47,0.071
52794.171111,16.646,0.068
52794.181136,16.593,0.072
52794.191073,16.546,0.068
52794.201009,16.635,0.08
52794.210973,16.579,0.072
52813.174565,16.419,0.097
52813.184408,16.49,0.092
52813.194302,16.365,0.086
52813.204141,16.419,0.096
52813.21399,16.377,0.096
52816.169212,16.448,0.106
52816.179544,16.556,0.104
52816.18964,16.486,0.106
52816.199726,16.66,0.14
52816.21001,16.384,0.12
52973.461647,16.335,0.059
52973.474508,16.366,0.055
52973.487479,16.47,0.061
52973.500302,16.385,0.055
52973.513239,16.408,0.054
52987.468955,16.078,0.107
52996.462981,16.408,0.035
52996.475895,16.398,0.035
52996.488853,16.386,0.035
52996.502025,16.483,0.035
52996.514979,16.488,0.035
53001.465327,16.342,0.031
53001.47863,16.399,0.03
53001.491769,16.412,0.033
53001.505916,16.404,0.031
53001.5192,16.476,0.031
53027.394056,16.653,0.041
53027.4069,16.597,0.039
53027.419608,16.634,0.041
53027.43238,16.568,0.041
53027.446064,16.611,0.041
53033.342672,16.235,0.046
53033.354996,16.216,0.046
53033.367302,16.168,0.043
53033.392036,16.198,0.053
53053.352683,16.195,0.033
53053.3643,16.212,0.037
53053.37597,16.264,0.048
53053.387617,16.206,0.057
53053.399895,16.178,0.035
53060.307534,16.262,0.028
53060.319659,16.315,0.028
53060.332377,16.286,0.028
53060.343745,16.323,0.028
53060.356994,16.37,0.031
53079.313112,16.475,0.044
53079.323915,16.452,0.044
53079.334595,16.485,0.046
53079.345344,16.523,0.05
53079.356372,16.521,0.048
53084.336409,16.532,0.035
53084.347032,16.531,0.035
53084.357828,16.499,0.033
53084.368462,16.517,0.033
53084.379217,16.528,0.033
53087.332961,16.337,0.03
53087.343372,16.344,0.031
53087.353818,16.379,0.031
53087.364522,16.341,0.031
53087.375166,16.373,0.033
53110.240925,16.591,0.063
53110.252015,16.592,0.065
53110.263155,16.613,0.063
53110.274233,16.591,0.061
53110.285301,16.54,0.057
53138.204119,16.438,0.046
53138.213891,16.435,0.05
53138.223731,16.492,0.05
53138.233451,16.484,0.05
53138.243177,16.429,0.048
53148.202193,16.381,0.044
53148.211141,16.453,0.05
53148.220095,16.401,0.048
53148.22905,16.532,0.065
53148.238034,16.414,0.054
53166.181443,16.249,0.05
53166.190795,16.262,0.052
53166.200152,16.283,0.052
53166.209529,16.201,0.052
53166.218892,16.176,0.05
53175.172894,16.478,0.044
53175.182813,16.466,0.043
53175.192918,16.439,0.039
53175.202839,16.439,0.044
53175.212765,16.433,0.046
53346.445895,16.476,0.099
53346.458356,16.549,0.101
53346.470585,16.571,0.099
53346.482784,16.618,0.097
53346.49508,16.746,0.106
53348.457269,16.552,0.078
53348.470206,16.492,0.074
53348.482657,16.475,0.067
53348.496483,16.581,0.111
53348.509672,16.416,0.089
53351.495841,16.422,0.079
53351.510287,16.417,0.074
53351.524543,16.473,0.081
53354.453578,16.403,0.052
53354.466522,16.368,0.05
53354.479282,16.456,0.052
53354.493431,16.437,0.05
53354.506448,16.459,0.052
53377.410965,16.178,0.043
53377.424129,16.156,0.041
53377.438574,16.168,0.039
53377.452103,16.164,0.039
53377.465809,16.237,0.041
53404.43567,16.241,0.043
53404.44862,16.244,0.045
53404.461735,16.215,0.045
53404.474499,16.291,0.051
53404.487722,16.301,0.054
53465.287267,16.434,0.054
53465.298623,16.322,0.048
53465.310569,16.319,0.048
53465.321251,16.435,0.054
53465.332532,16.443,0.052
53468.227407,16.467,0.104
53468.23724,16.398,0.083
53468.246926,16.31,0.059
53468.258308,16.381,0.07
53468.267879,16.328,0.083
53468.285233,16.279,0.07
53468.295233,16.268,0.091
53473.223652,16.501,0.061
53473.233411,16.437,0.057
53473.243718,16.418,0.055
53473.253769,16.388,0.05
53473.264626,16.347,0.052
53479.224999,16.903,0.205
53479.235142,16.863,0.233
53479.257637,17.426,0.401
53493.294478,16.403,0.074
53493.304715,16.417,0.074
53493.314894,16.385,0.072
53493.325494,16.345,0.07
53493.335579,16.283,0.067
53503.231509,16.604,0.059
53503.240142,16.489,0.054
53503.249028,16.569,0.061
53503.258054,16.513,0.059
53503.267285,16.532,0.055
53522.168414,16.364,0.052
53522.178634,16.351,0.054
53522.188883,16.219,0.05
53522.199207,16.217,0.048
53522.209779,16.244,0.054
53526.212981,16.494,0.081
53737.473206,16.454,0.05
53737.48646,16.474,0.057
53737.499788,16.452,0.05
53737.513076,16.455,0.046
53737.526384,16.493,0.048
53790.349331,16.573,0.059
53790.361182,16.536,0.056
53790.372994,16.491,0.054
53790.384808,16.547,0.058
53790.396886,16.499,0.056
53799.292296,16.188,0.036
53799.304191,16.186,0.036
53799.316035,16.203,0.036
53799.327809,16.258,0.038
53799.339596,16.262,0.04
53818.288164,16.427,0.053
53818.299252,16.385,0.049
53818.310315,16.465,0.053
53818.321462,16.397,0.051
53818.33252,16.443,0.051
53845.253708,16.47,0.139
53845.276182,16.334,0.081
53845.287464,16.448,0.107
53851.2393,16.288,0.056
53851.249491,16.22,0.053
53851.259814,16.236,0.053
53851.27021,16.187,0.053
53851.280576,16.179,0.058
53880.161933,16.224,0.061
53880.173092,16.22,0.059
53880.18429,16.298,0.063
53880.195457,16.265,0.063
53880.206645,16.325,0.067
53881.208548,16.38,0.061
53881.218575,16.48,0.069
53881.228671,16.447,0.071
53881.238788,16.449,0.073
53881.248813,16.446,0.076
53885.164136,16.219,0.061
53885.176332,16.327,0.067
53885.188425,16.328,0.068
53885.200558,16.308,0.068
53885.212687,16.291,0.067
53886.163171,16.531,0.076
53886.173084,16.529,0.076
53886.20561,16.585,0.087
53886.215661,16.48,0.078
53886.225701,16.533,0.081
53886.235942,16.473,0.078
53886.245914,16.568,0.087
53901.179394,16.479,0.15
53901.189211,16.381,0.102
53901.199232,16.322,0.094
53901.209493,16.408,0.139
54112.439509,16.556,0.102
54112.452139,16.462,0.084
54112.465025,16.891,0.208
54112.477667,16.544,0.087
54112.490512,16.538,0.089
54152.342168,16.451,0.043
54152.35413,16.503,0.044
54152.366521,16.468,0.044
54152.378499,16.476,0.044
54152.39339,16.446,0.044
54173.271725,16.494,0.068
54173.282761,16.458,0.066
54173.293505,16.543,0.068
54173.304175,16.59,0.069
54173.314849,16.597,0.069
54185.275976,16.447,0.084
54185.286307,16.355,0.079
54185.296548,16.075,0.092
54185.306799,16.599,0.149
54201.242267,16.325,0.066
54201.251535,16.369,0.068
54201.260796,16.419,0.069
54201.270027,16.424,0.071
54201.27933,16.378,0.068
54450.459805,16.338,0.033
54450.472962,16.211,0.03
54450.48612,16.21,0.028
54450.499309,16.178,0.028
54450.51247,16.24,0.028
54454.458585,16.39,0.037
54454.471682,16.348,0.037
54454.484998,16.412,0.039
54454.498035,16.312,0.035
54454.511059,16.392,0.039
54475.397967,16.604,0.061
54475.410863,16.558,0.043
54475.423846,16.617,0.046
54475.436699,16.59,0.043
54475.44954,16.531,0.037
54483.337509,16.525,0.089
54483.363638,16.683,0.094
54483.377142,16.51,0.078
54483.390075,16.514,0.078
54495.465316,16.626,0.055
54495.477933,16.598,0.055
54495.490542,16.682,0.057
54495.503142,16.689,0.059
54495.515737,16.632,0.059
54509.334243,16.485,0.033
54509.34645,16.435,0.031
54509.358501,16.332,0.03
54509.370541,16.295,0.026
54509.382618,16.287,0.028
54524.391752,16.397,0.035
54524.403586,16.351,0.035
54524.415518,16.328,0.035
54524.427224,16.262,0.035
54524.43907,16.286,0.037
54532.329993,16.5,0.033
54532.341451,16.47,0.033
54532.352846,16.53,0.035
54532.364128,16.524,0.035
54532.375393,16.531,0.035
54538.308035,16.271,0.03
54538.319153,16.216,0.028
54538.330248,16.256,0.03
54538.341346,16.255,0.03
54538.352402,16.273,0.03
54555.301075,16.287,0.031
54555.312887,16.353,0.033
54555.324828,16.305,0.033
54555.336834,16.349,0.033
54555.348694,16.369,0.035
54558.184989,16.635,0.068
54558.196567,16.67,0.093
54558.20813,16.533,0.061
54558.219676,16.539,0.109
54558.231313,16.398,0.057
54580.248206,16.113,0.063
54580.258619,16.083,0.063
54580.268902,16.087,0.063
54580.279146,16.176,0.068
54580.289486,16.16,0.069
54586.240662,16.461,0.048
54586.250992,16.405,0.048
54586.261424,16.461,0.046
54586.271749,16.442,0.046
54586.282161,16.415,0.048
54591.19553,16.452,0.107
54591.225091,16.558,0.119
54594.250618,16.367,0.048
54594.260898,16.398,0.048
54594.271213,16.389,0.048
54594.2815,16.394,0.052
54594.291778,16.39,0.052
54611.198172,16.295,0.109
54611.206479,16.272,0.107
54611.214802,16.291,0.109
54611.223029,16.369,0.112
54611.231264,16.409,0.114
54618.165677,16.402,0.044
54618.175867,16.394,0.044
54618.186102,16.464,0.048
54618.196312,16.458,0.048
54618.206498,16.467,0.048
