mjd,m,merr
52641.463159,16.777,0.072
52641.478446,16.734,0.074
52641.493657,16.715,0.074
52641.50885,16.833,0.078
52641.523966,16.815,0.072
52644.486699,16.655,0.07
52644.501507,16.786,0.096
52644.516441,16.857,0.093
52644.531165,16.81,0.107
52648.397108,17.064,0.115
52648.412159,16.969,0.115
52648.426851,17.004,0.113
52648.441996,16.886,0.094
52648.457351,16.615,0.07
52667.465609,16.472,0.061
52667.48089,16.073,0.05
52667.496138,16.098,0.046
52667.511272,16.05,0.048
52667.526734,16.188,0.05
52671.398894,16.596,0.065
52671.414253,16.674,0.07
52671.429436,16.621,0.068
52671.444709,16.751,0.08
52671.460041,16.783,0.083
52674.399092,16.528,0.059
52674.413084,16.643,0.065
52674.427079,16.55,0.063
52674.440958,16.697,0.07
52674.454896,16.644,0.07
52704.37038,16.391,0.054
52704.383611,16.412,0.055
52704.396978,16.399,0.055
52704.410155,16.47,0.059
52704.423229,16.489,0.061
52707.312691,16.476,0.056
52707.325736,16.213,0.045
52707.339025,16.103,0.04
52707.352289,16.116,0.041
52707.365801,16.139,0.043
52728.291004,16.455,0.052
52728.303623,16.429,0.052
52728.31632,16.467,0.054
52728.328843,16.524,0.055
52728.342635,16.562,0.057
52731.310844,16.289,0.104
52731.322818,16.332,0.052
52731.334808,16.367,0.152
52731.346818,16.479,0.074
52737.303002,17.088,0.096
52737.327666,16.78,0.068
52737.339541,16.561,0.055
52737.351439,16.385,0.048
52737.363468,16.157,0.041
52756.204131,16.929,0.091
52756.216242,16.885,0.089
52756.22842,16.991,0.097
52756.240665,17.011,0.104
52756.252859,17.095,0.111
52760.206132,16.564,0.054
52760.218061,16.589,0.057
52760.229988,16.683,0.063
52760.241931,16.531,0.063
52760.253853,16.651,0.067
52764.143739,16.863,0.054
52764.156831,16.826,0.054
52764.169174,16.878,0.052
52764.182389,16.772,0.05
52764.194696,16.754,0.052
52789.172081,16.895,0.091
52789.182417,16.914,0.094
52789.19273,16.913,0.094
52789.203123,16.945,0.094
52789.213586,16.855,0.089
52794.17166,16.961,0.096
52794.181666,16.951,0.1
52794.191604,16.991,0.104
52794.201547,16.922,0.104
52794.211503,16.915,0.105
52816.169091,16.893,0.124
52816.17888,16.768,0.111
52816.189522,16.808,0.126
52816.199395,16.878,0.146
52816.209229,16.755,0.157
52967.44979,16.688,0.118
52967.462524,16.662,0.107
52967.475293,16.651,0.096
52967.487898,16.622,0.094
52967.500609,16.648,0.094
52987.496887,15.858,0.072
52987.509755,15.976,0.061
52995.510368,16.19,0.033
52995.52431,16.241,0.033
53000.478779,16.311,0.037
53000.49166,16.431,0.037
53000.504505,16.346,0.037
53000.517645,16.473,0.037
53000.530561,16.461,0.035
53026.433251,16.722,0.081
53026.446269,16.719,0.155
53026.460789,16.691,0.08
53026.473613,16.757,0.2
53033.393498,16.966,0.111
53033.405802,16.827,0.081
53033.418314,16.503,0.061
53033.430367,16.313,0.05
53033.442515,16.155,0.043
53054.373365,16.269,0.039
53054.386923,16.359,0.041
53054.398935,16.311,0.041
53054.41159,16.346,0.043
53054.425223,16.427,0.048
53058.344492,16.773,0.048
53058.356842,16.798,0.048
53058.369185,16.804,0.048
53058.380587,16.786,0.052
53058.398848,16.812,0.052
53080.287669,16.737,0.063
53080.299633,16.783,0.065
53080.310986,16.726,0.063
53080.322317,16.862,0.07
53080.333601,16.824,0.068
53083.337875,16.623,0.048
53083.348559,16.601,0.05
53083.359685,16.608,0.05
53083.370767,16.729,0.052
53083.38161,16.697,0.055
53084.332739,16.085,0.026
53084.343404,16.09,0.026
53084.35417,16.164,0.026
53084.364827,16.231,0.028
53084.375523,16.229,0.028
53085.321947,16.555,0.189
53085.343483,16.58,0.174
53086.344339,16.477,0.052
53086.355143,16.591,0.055
53086.365923,16.504,0.067
53086.376879,16.538,0.055
53086.387834,16.586,0.057
53092.330818,16.089,0.033
53092.341314,16.136,0.035
53092.351492,16.113,0.037
53092.361673,16.229,0.039
53092.371854,16.133,0.039
53114.298424,16.946,0.068
53117.301264,16.864,0.067
53117.31188,16.969,0.076
53117.322444,16.931,0.074
53117.333125,16.922,0.07
53117.343645,16.87,0.078
53139.203187,16.869,0.085
53139.212497,16.901,0.087
53139.221798,16.869,0.091
53139.231098,16.894,0.091
53139.240562,16.753,0.08
53142.212667,16.754,0.07
53142.222198,16.826,0.059
53142.231816,16.748,0.057
53142.241361,16.886,0.113
53142.25089,16.787,0.065
53146.210905,16.399,0.044
53146.220054,16.333,0.039
53146.22923,16.158,0.033
53146.238301,16.102,0.031
53146.247356,16.024,0.03
53169.17284,16.706,0.08
53169.182964,16.755,0.085
53169.193059,16.764,0.083
53169.203156,16.75,0.087
53169.213265,16.819,0.087
53171.172112,16.929,0.091
53171.182317,17.007,0.098
53171.192627,17.012,0.1
53171.202856,16.999,0.1
53171.213154,16.878,0.096
53174.172554,16.92,0.078
53174.182623,16.943,0.078
53174.193143,16.864,0.076
53174.203378,16.937,0.083
53174.21368,16.919,0.085
53346.458416,16.876,0.159
53346.472161,16.884,0.154
53346.485434,16.831,0.137
53346.498089,16.933,0.144
53346.510233,16.87,0.131
53348.459219,16.826,0.12
53348.471679,16.943,0.124
53348.484132,16.899,0.117
53348.49796,16.658,0.12
53348.511149,16.369,0.078
53354.455098,17.047,0.113
53354.468043,17.017,0.113
53354.482187,16.869,0.091
53354.495013,16.972,0.1
53354.507969,16.911,0.094
53377.412503,16.244,0.052
53377.425667,16.273,0.052
53377.440116,16.221,0.048
53377.453642,16.267,0.05
53377.467347,16.213,0.046
53382.506632,16.776,0.08
53382.521039,16.714,0.076
53382.536967,16.773,0.078
53404.429869,16.394,0.057
53404.44218,16.434,0.057
53404.455066,16.507,0.061
53404.467944,16.491,0.065
53404.480845,16.506,0.067
53433.364864,16.722,0.065
53433.376314,16.735,0.067
53433.387769,16.703,0.074
53433.400437,16.697,0.076
53433.412112,16.794,0.089
53440.426531,16.869,0.094
53440.437022,16.782,0.087
53440.447518,16.462,0.07
53440.459197,16.248,0.059
53440.47028,16.157,0.057
53465.289109,16.796,0.08
53465.300024,16.906,0.091
53465.311954,16.862,0.087
53465.322639,16.901,0.091
53465.33392,16.882,0.085
53468.276613,16.928,0.287
53468.286068,16.725,0.12
53468.29607,16.894,0.141
53473.274524,16.86,0.089
53473.286826,16.814,0.087
53473.298138,16.773,0.087
53473.309017,16.816,0.093
53473.32096,16.906,0.098
53478.257031,17.185,0.215
53478.267085,17.033,0.198
53479.277385,16.325,0.146
53479.32249,16.593,0.191
53493.295792,16.322,0.07
53493.306137,16.41,0.081
53493.316747,16.402,0.076
53493.326808,16.453,0.08
53493.336893,16.47,0.08
53496.201911,17.072,0.131
53496.212109,17.003,0.122
53496.222432,16.706,0.098
53496.232698,16.561,0.087
53496.2429,16.322,0.07
53526.214117,17.267,0.196
53527.169454,16.774,0.094
53527.179742,16.781,0.094
53527.189641,16.855,0.107
53527.199404,16.876,0.109
53527.209204,16.917,0.115
53733.455517,16.783,0.094
53733.468164,16.422,0.07
53733.480899,16.26,0.08
53746.461093,16.4,0.087
53746.473513,16.441,0.078
53746.486207,16.468,0.078
53746.498663,16.454,0.072
53746.511179,16.515,0.067
53791.357901,16.745,0.063
53791.367911,16.69,0.068
53791.369682,16.785,0.068
53791.379653,16.846,0.078
53791.381469,16.835,0.069
53791.391408,16.828,0.078
53791.393093,16.861,0.073
53791.40316,16.859,0.081
53791.404979,16.844,0.073
53791.41492,16.892,0.085
53794.397245,16.647,0.063
53794.408856,16.729,0.067
53794.420488,16.709,0.067
53794.432113,16.791,0.072
53794.443741,16.816,0.072
53815.292482,16.747,0.13
53815.30366,16.832,0.098
53815.314844,16.946,0.107
53815.326032,16.995,0.113
53815.337232,17.011,0.124
53817.269443,16.988,0.079
53817.280707,17.002,0.079
53817.291977,16.993,0.076
53817.30331,16.921,0.073
53817.314621,17.038,0.081
53818.33138,16.77,0.08
53818.342994,16.728,0.078
53818.35539,16.856,0.083
53818.366969,16.832,0.083
53818.380146,16.838,0.087
53823.31621,16.879,0.085
53823.328958,16.86,0.085
53823.342108,16.89,0.085
53823.35783,16.971,0.094
53823.372959,16.947,0.094
53825.285326,17.031,0.104
53825.297801,16.868,0.118
53825.308819,16.979,0.102
53825.319165,16.994,0.098
53825.330869,17.24,0.176
53829.283363,16.496,0.335
53829.324882,16.747,0.185
53846.239261,16.876,0.074
53846.249838,16.513,0.054
53846.260438,16.379,0.048
53846.271135,16.18,0.04
53846.281717,16.165,0.038
53848.258126,16.477,0.083
53848.268996,16.578,0.087
53848.279762,16.569,0.087
53848.290242,16.607,0.091
53849.254687,17.082,0.109
53849.265429,17.063,0.107
53849.276125,17.043,0.109
53849.286823,16.975,0.107
53849.297817,16.822,0.094
53850.242986,16.867,0.125
53850.253379,16.938,0.104
53850.263663,16.886,0.099
53850.274001,16.893,0.102
53850.284398,16.869,0.102
53852.25881,16.905,0.113
53852.269621,17.002,0.122
53852.279994,16.885,0.111
53852.291031,16.978,0.122
53852.302784,17.032,0.128
53855.249857,16.999,0.113
53855.260965,16.834,0.098
53855.272605,16.997,0.111
53855.283509,16.966,0.113
53855.294195,16.844,0.098
53858.243603,17.21,0.364
53858.256698,17.248,0.431
53858.267381,17.037,0.309
53858.278409,16.763,0.178
53858.289039,16.908,0.122
53880.215625,16.865,0.099
53880.22681,16.72,0.087
53880.237963,16.794,0.096
53880.249254,16.779,0.092
53880.260261,16.796,0.096
53883.222192,16.533,0.085
53883.2336,16.675,0.096
53883.245104,16.727,0.102
53883.256554,16.613,0.094
53883.267982,16.696,0.117
53884.166759,16.88,0.109
53884.178508,17.05,0.13
53884.190276,17.056,0.137
53884.202074,16.895,0.12
53884.2107,17.001,0.117
53884.213853,17.048,0.131
53884.22355,17.151,0.137
53884.236151,17.049,0.127
53884.24889,16.805,0.104
53884.261139,16.528,0.084
53901.178823,16.659,0.194
53901.188763,16.738,0.157
53901.198774,16.658,0.146
53901.208838,16.652,0.202
54080.490914,16.2,0.111
54080.503532,16.252,0.112
54121.399148,16.989,0.084
54121.411894,17.052,0.089
54121.424455,17.038,0.092
54121.436856,17.024,0.094
54121.449381,16.999,0.094
54124.402633,16.852,0.065
54124.419546,16.865,0.067
54124.432441,16.838,0.067
54124.446254,16.896,0.068
54124.459341,16.893,0.07
54149.391886,16.954,0.089
54149.4036,16.944,0.086
54149.415455,16.837,0.081
54149.428127,16.939,0.092
54149.440031,16.863,0.083
54155.354989,16.408,0.046
54155.366813,16.502,0.05
54155.378648,16.516,0.05
54155.390602,16.486,0.05
54155.402443,16.545,0.054
54156.326156,16.861,0.08
54156.337767,16.927,0.081
54156.349285,16.963,0.081
54156.360811,17.001,0.085
54156.372337,16.998,0.081
54174.275897,16.308,0.051
54174.286852,16.294,0.049
54174.297831,16.332,0.056
54174.308881,16.421,0.063
54174.32,16.383,0.056
54175.325161,16.937,0.076
54175.335912,16.869,0.074
54175.346531,17.0,0.08
54175.357253,17.068,0.085
54175.367931,16.956,0.078
54180.283956,17.128,0.096
54180.294415,17.129,0.096
54180.304991,16.975,0.083
54180.315503,16.97,0.084
54180.325865,16.924,0.079
54200.26298,16.783,0.101
54200.291547,16.931,0.117
54200.301018,16.967,0.12
54207.268139,16.913,0.078
54207.277285,16.984,0.083
54207.28647,16.979,0.091
54210.264595,17.013,0.089
54210.273614,17.042,0.093
54210.282604,16.968,0.093
54210.291592,17.01,0.098
54210.300618,17.089,0.104
54440.479429,16.583,0.081
54454.459758,16.121,0.037
54454.472984,16.184,0.039
54454.486159,16.173,0.039
54474.403227,16.786,0.061
54474.416227,16.745,0.076
54474.42924,16.776,0.078
54474.442259,16.791,0.061
54474.455247,16.795,0.094
54483.39335,16.553,0.094
54508.359099,16.045,0.031
54508.371302,16.147,0.031
54508.383639,16.231,0.031
54508.395836,16.243,0.035
54508.40819,16.201,0.035
54523.45009,16.866,0.076
54523.461852,16.818,0.078
54523.473603,16.867,0.081
54523.485458,16.951,0.083
54535.44634,16.682,0.064
54535.457359,16.735,0.073
54535.468246,16.683,0.071
54535.479124,16.634,0.074
54535.490209,16.715,0.084
54537.324278,16.464,0.135
54537.335341,16.642,0.07
54537.34633,16.689,0.076
54537.357281,16.749,0.068
54537.36826,16.648,0.068
54554.357197,16.231,0.035
54554.36915,16.265,0.039
54554.38108,16.333,0.043
54554.393028,16.297,0.043
54554.405041,16.389,0.048
54564.295667,16.443,0.044
54564.307075,16.516,0.044
54564.318436,16.625,0.046
54564.329777,16.537,0.046
54564.341103,16.575,0.048
54580.243703,16.547,0.068
54580.254336,16.581,0.074
54580.26493,16.689,0.081
54580.275534,16.492,0.074
54580.286131,16.607,0.081
54585.2475,16.95,0.141
54585.257762,16.92,0.093
54585.268062,16.77,0.08
54585.278361,16.873,0.065
54585.288658,16.817,0.063
54592.244162,16.846,0.076
54592.254851,16.871,0.078
54592.265329,16.58,0.063
54592.275756,16.36,0.05
54592.286174,16.215,0.044
54611.20719,16.874,0.068
54611.21707,16.878,0.07
54611.226935,16.868,0.07
54611.236949,16.888,0.074
54611.246766,16.834,0.07
54615.213478,16.609,0.063
54615.224191,16.612,0.065
54615.234649,16.652,0.074
54615.255607,16.671,0.078
