mjd,m,merr
52641.462775,14.928,0.015
52641.478061,14.892,0.015
52641.493276,14.782,0.015
52641.508466,14.745,0.013
52641.523581,14.789,0.013
52642.423645,15.056,0.017
52642.437818,15.185,0.018
52642.452146,15.207,0.018
52642.466477,15.099,0.017
52642.480723,14.983,0.015
52644.486825,15.171,0.018
52644.501632,15.087,0.02
52644.516566,14.943,0.018
52644.531291,14.888,0.02
52648.397235,15.162,0.022
52648.412285,15.008,0.02
52648.426975,14.927,0.018
52648.442122,14.859,0.017
52648.457476,14.832,0.015
52667.465478,14.816,0.015
52667.480759,14.81,0.015
52667.496007,14.898,0.017
52667.511141,14.944,0.018
52667.526603,15.138,0.02
52671.399026,14.912,0.015
52671.414384,15.03,0.017
52671.429567,15.168,0.018
52671.444839,15.178,0.018
52671.460171,15.052,0.017
52674.399213,14.789,0.015
52674.413206,14.794,0.013
52674.4272,14.826,0.015
52674.441079,14.867,0.015
52674.455017,14.941,0.017
52704.370518,14.898,0.015
52704.383749,14.869,0.015
52704.397115,14.813,0.013
52704.410292,14.804,0.013
52704.423365,14.817,0.015
52707.312812,15.185,0.02
52707.313171,14.86,0.015
52707.325859,15.181,0.018
52707.339146,15.281,0.021
52707.339504,14.96,0.015
52707.352409,15.43,0.023
52707.352765,15.054,0.016
52707.365923,15.676,0.028
52707.366277,15.147,0.018
52728.291124,14.839,0.013
52728.303744,14.788,0.013
52728.31644,14.806,0.013
52728.328963,14.829,0.013
52728.342755,14.845,0.015
52731.310957,15.093,0.044
52731.322931,14.945,0.015
52731.334921,14.912,0.052
52731.346932,14.854,0.018
52737.302883,14.826,0.013
52737.327546,14.859,0.013
52737.339422,14.897,0.013
52737.35132,14.975,0.015
52737.363349,15.057,0.017
52756.204357,15.246,0.021
52756.216357,15.703,0.033
52756.216466,15.239,0.021
52756.228535,15.563,0.03
52756.240782,15.406,0.026
52756.252974,15.303,0.025
52756.253083,14.904,0.016
52760.206244,14.831,0.013
52760.218173,14.846,0.013
52760.2301,14.881,0.013
52760.242042,14.946,0.015
52760.253965,15.099,0.017
52764.15658,15.092,0.011
52764.168923,15.192,0.013
52789.214165,14.859,0.015
52789.224457,14.894,0.017
52789.234883,14.959,0.017
52789.245199,15.07,0.018
52789.255586,15.097,0.018
52794.171749,15.213,0.02
52794.191692,15.269,0.022
52794.201635,15.198,0.022
52794.211592,15.085,0.022
52816.169179,14.826,0.02
52816.178969,14.869,0.02
52816.189615,14.915,0.024
52816.199484,14.997,0.03
52816.209318,15.164,0.039
52967.449908,15.299,0.033
52967.462643,15.341,0.035
52967.475411,15.25,0.03
52967.488016,15.084,0.024
52967.500727,14.93,0.02
52987.470792,15.224,0.043
52987.48373,15.101,0.044
52987.49677,14.972,0.028
52987.509638,14.898,0.02
53000.530742,15.09,0.011
53026.433433,15.039,0.022
53026.44645,15.158,0.026
53026.46097,15.174,0.018
53026.473795,15.103,0.028
53033.39359,15.096,0.02
53033.405893,15.179,0.018
53033.418406,15.122,0.017
53033.430458,15.049,0.017
53033.442607,14.953,0.015
53054.373254,14.828,0.011
53054.386813,14.883,0.011
53054.398825,14.914,0.013
53054.411478,15.011,0.013
53054.425112,15.146,0.015
53058.369356,14.883,0.009
53058.380758,14.839,0.009
53058.399018,14.794,0.009
53080.287773,14.811,0.011
53080.299737,14.822,0.013
53080.311089,14.867,0.013
53080.32242,14.9,0.013
53080.333705,14.967,0.013
53083.338044,14.787,0.009
53083.341839,14.827,0.008
53083.348728,14.808,0.009
53083.353292,14.856,0.01
53083.359854,14.83,0.009
53083.364747,14.874,0.01
53083.376119,14.92,0.01
53083.38178,14.905,0.011
53083.388038,15.001,0.012
53084.344429,14.813,0.008
53084.355684,14.816,0.008
53084.36694,14.84,0.008
53084.389886,14.895,0.008
53086.344508,14.874,0.011
53086.355349,14.814,0.011
53086.366092,14.774,0.013
53086.377048,14.773,0.011
53086.388003,14.81,0.013
53087.288242,14.926,0.009
53087.298908,15.019,0.011
53087.30973,15.122,0.011
53087.320545,15.173,0.011
53092.330985,14.781,0.011
53092.34148,14.811,0.011
53092.351658,14.83,0.011
53092.361839,14.862,0.011
53092.37202,14.911,0.013
53114.287422,15.164,0.013
53114.298597,15.087,0.013
53117.301432,15.064,0.013
53117.343814,15.188,0.015
53139.203096,15.209,0.02
53139.212406,15.128,0.018
53139.221707,15.041,0.018
53139.231007,14.955,0.017
53139.240471,14.894,0.017
53142.212818,14.889,0.015
53142.222349,14.946,0.011
53142.241512,15.121,0.022
53142.251041,15.161,0.015
53146.211052,14.827,0.011
53146.220201,14.807,0.011
53146.229377,14.809,0.011
53146.238449,14.796,0.011
53169.172926,14.928,0.017
53169.18305,15.014,0.018
53169.193145,15.129,0.02
53169.203243,15.199,0.022
53169.213351,15.245,0.022
53171.18255,14.852,0.015
53171.192767,14.882,0.015
53171.202996,14.924,0.015
53171.213294,14.992,0.017
53174.172693,14.858,0.013
53174.182762,14.864,0.013
53174.193282,14.838,0.013
53174.203517,14.83,0.013
53174.213819,14.829,0.013
53346.458321,14.803,0.026
53346.472064,14.785,0.024
53346.485338,14.76,0.024
53346.497993,14.821,0.024
53346.510137,14.887,0.024
53353.46519,14.866,0.02
53353.4786,14.966,0.02
53353.491441,15.06,0.02
53353.504284,15.139,0.022
53353.517707,15.081,0.02
53376.491101,14.787,0.013
53376.504908,14.85,0.013
53376.518523,14.858,0.013
53376.535271,14.97,0.015
53382.506772,15.178,0.018
53382.521523,14.993,0.017
53382.537108,14.896,0.015
53404.429993,14.772,0.013
53404.442307,14.769,0.013
53404.455189,14.761,0.013
53404.468068,14.784,0.015
53404.480968,14.839,0.015
53433.364984,15.195,0.017
53433.376433,15.042,0.015
53433.387889,14.938,0.015
53433.400804,14.874,0.015
53433.412233,14.85,0.015
53440.426656,14.883,0.015
53440.437146,14.949,0.017
53440.447643,15.04,0.018
53440.459322,15.185,0.022
53440.470405,15.24,0.024
53464.339862,14.87,0.015
53464.349948,14.972,0.017
53464.360083,15.03,0.018
53464.370676,15.107,0.018
53464.380772,15.144,0.018
53465.281598,14.872,0.015
53465.292963,14.796,0.015
53465.304904,14.791,0.013
53465.315551,14.779,0.013
53465.326864,14.792,0.013
53467.276206,15.151,0.024
53467.286296,15.023,0.02
53467.296791,14.928,0.018
53467.30642,14.903,0.035
53467.317262,14.858,0.02
53478.22599,14.904,0.03
53478.236956,14.92,0.028
53478.246997,14.968,0.03
53478.257155,15.039,0.031
53478.27299,15.196,0.037
53478.282499,15.234,0.039
53478.300847,15.169,0.035
53495.252322,15.126,0.037
53495.26243,14.987,0.035
53495.272498,14.925,0.033
53495.282582,14.895,0.033
53495.292638,14.851,0.048
53496.20181,14.845,0.017
53496.212007,14.861,0.018
53496.22233,14.916,0.018
53496.232596,15.006,0.02
53496.242798,15.088,0.022
53525.179704,14.812,0.018
53525.189891,14.842,0.018
53525.200079,14.897,0.02
53525.210237,14.937,0.02
53527.169364,14.826,0.017
53527.179653,14.822,0.017
53527.189546,14.796,0.017
53527.199313,14.772,0.017
53527.209112,14.811,0.018
53733.455649,15.151,0.022
53733.468296,14.998,0.02
53733.481031,14.912,0.024
53746.461209,14.858,0.022
53746.473629,14.985,0.022
53746.486325,15.078,0.024
53746.498781,15.114,0.022
53746.511297,15.078,0.02
53791.35804,14.812,0.012
53791.368046,14.851,0.015
53791.369821,14.851,0.013
53791.379788,14.907,0.017
53791.381607,14.918,0.013
53791.391543,14.992,0.017
53791.393233,15.009,0.015
53791.403296,15.118,0.018
53791.405118,15.124,0.016
53791.415055,15.219,0.02
53794.397381,14.779,0.013
53794.408992,14.828,0.013
53794.420624,14.855,0.013
53794.432249,14.905,0.013
53794.443877,14.996,0.015
53815.292368,14.93,0.026
53815.303541,15.035,0.02
53815.314727,15.117,0.022
53815.325913,15.196,0.024
53815.337113,15.144,0.024
53817.269582,14.781,0.013
53817.280848,14.782,0.013
53817.292117,14.802,0.013
53817.30345,14.828,0.013
53817.314763,14.861,0.015
53818.331507,14.882,0.015
53818.343121,14.905,0.017
53818.355516,14.995,0.017
53818.367096,15.112,0.02
53818.380273,15.162,0.02
53823.316333,15.081,0.018
53823.329082,14.949,0.017
53823.342233,14.883,0.015
53823.357954,14.829,0.015
53823.373084,14.785,0.015
53825.285446,14.9,0.017
53825.297923,14.992,0.022
53825.308941,15.116,0.02
53825.319287,15.217,0.02
53825.330991,15.26,0.028
53829.325015,14.782,0.03
53829.338325,14.877,0.074
53846.238529,14.844,0.016
53846.249109,14.807,0.016
53846.259708,14.779,0.016
53846.270404,14.794,0.016
53846.280986,14.826,0.016
53848.258052,14.898,0.02
53848.268922,14.832,0.02
53848.279684,14.821,0.018
53848.290167,14.778,0.018
53849.254857,15.085,0.018
53849.265544,14.993,0.018
53849.27624,14.919,0.017
53849.286938,14.87,0.017
53849.297933,14.832,0.017
53850.243089,15.137,0.03
53850.253482,15.16,0.021
53850.263765,15.138,0.021
53850.284502,14.971,0.018
53852.258924,14.98,0.02
53852.269734,15.076,0.022
53852.280107,15.158,0.024
53852.291145,15.182,0.024
53852.302898,15.091,0.022
53855.249967,14.78,0.017
53855.261075,14.787,0.017
53855.272714,14.815,0.017
53855.283619,14.83,0.017
53855.294304,14.893,0.018
53858.243718,15.079,0.061
53858.278524,14.814,0.041
53858.289154,14.802,0.018
53880.215525,14.871,0.016
53880.22671,14.97,0.018
53880.237863,15.037,0.02
53883.222304,14.812,0.018
53883.233713,14.801,0.018
53883.245217,14.758,0.018
53883.256667,14.839,0.02
53883.268095,14.883,0.022
53884.16687,15.162,0.024
53884.178621,15.055,0.022
53884.190387,14.976,0.022
53884.202185,14.899,0.02
53884.210811,14.872,0.016
53884.213965,14.857,0.02
53884.223659,14.822,0.016
53884.236262,14.84,0.016
53884.249001,14.821,0.016
53884.26125,14.822,0.018
53901.178738,14.839,0.037
53901.188678,14.819,0.028
53901.198682,14.754,0.031
53901.208737,14.846,0.039
54080.503661,15.157,0.045
54084.486307,14.845,0.017
54084.500039,14.81,0.02
54084.527498,14.905,0.026
54121.399279,14.881,0.016
54121.412029,14.845,0.015
54121.424588,14.804,0.016
54121.436989,14.805,0.016
54121.449514,14.817,0.016
54124.402781,15.201,0.017
54124.419693,15.108,0.017
54124.432588,14.965,0.015
54124.446402,14.873,0.013
54124.459488,14.845,0.013
54149.391764,14.845,0.013
54149.403474,14.821,0.013
54149.415248,14.828,0.013
54149.428001,14.861,0.015
54149.439904,14.881,0.015
54155.366668,14.815,0.011
54155.378503,14.872,0.011
54155.390452,14.915,0.013
54155.402298,14.987,0.013
54156.326298,14.865,0.015
54156.349426,14.797,0.013
54156.360953,14.791,0.013
54156.372479,14.795,0.013
54174.276034,14.978,0.016
54174.286989,14.896,0.015
54174.297969,14.904,0.016
54174.309018,14.838,0.015
54174.320136,14.825,0.015
54175.325286,14.862,0.013
54175.336037,14.812,0.011
54175.346656,14.82,0.011
54175.357378,14.831,0.013
54175.368055,14.838,0.013
54180.284089,14.855,0.013
54180.294551,14.885,0.013
54180.305124,14.936,0.015
54180.315637,14.998,0.015
54180.325998,15.098,0.016
54200.291447,14.823,0.026
54200.300918,14.884,0.026
54207.268251,14.948,0.013
54207.277397,15.007,0.013
54207.28658,15.086,0.015
54210.264707,14.84,0.011
54210.273724,14.835,0.011
54210.282713,14.785,0.011
54210.291701,14.857,0.013
54210.300727,14.852,0.013
54440.47923,14.85,0.015
54448.508322,14.878,0.033
54454.459956,14.882,0.013
54454.486357,15.052,0.015
54474.416436,14.803,0.013
54474.429449,14.791,0.013
54474.455455,14.868,0.017
54508.370906,14.857,0.011
54508.383245,14.935,0.011
54523.449903,14.828,0.013
54523.473417,14.993,0.015
54523.485209,15.113,0.017
54530.339311,14.834,0.017
54530.350562,14.797,0.013
54537.324473,14.794,0.022
54537.335535,14.824,0.015
54537.346525,14.828,0.015
54537.357475,14.854,0.011
54537.368453,14.91,0.013
54554.357033,15.191,0.015
54554.368985,15.089,0.013
54554.380915,15.016,0.013
54554.392863,14.933,0.013
54554.404876,14.896,0.013
54563.299711,14.91,0.011
54563.311399,15.005,0.011
54563.334266,15.158,0.013
54568.294388,14.98,0.021
54568.305307,14.86,0.021
54568.316569,14.875,0.02
54568.327491,14.847,0.02
54568.338475,14.814,0.02
54580.243837,14.874,0.017
54580.254468,14.897,0.017
54580.265063,14.972,0.018
54580.275667,15.06,0.02
54580.286273,15.12,0.022
54585.247369,14.936,0.022
54585.257633,14.889,0.017
54585.267932,14.883,0.017
54585.278231,14.857,0.011
54585.288529,14.812,0.011
54590.209566,14.739,0.025
54590.219234,14.831,0.028
54590.229194,14.776,0.025
54590.238866,14.789,0.025
54592.244033,14.782,0.013
54592.254723,14.777,0.013
54592.2652,14.798,0.013
54592.275627,14.81,0.013
54592.286043,14.85,0.013
54611.207081,14.845,0.011
54611.21696,14.827,0.013
54611.226825,14.8,0.011
54611.23684,14.801,0.011
54611.246658,14.801,0.013
54615.213355,15.155,0.018
54615.234526,15.153,0.02
54615.24497,15.038,0.018
54615.255484,14.973,0.017
