mjd,m,merr
52646.471167,15.958,0.043
52646.486204,15.945,0.038
52646.501412,15.974,0.036
52646.516337,15.96,0.038
52646.531218,16.003,0.04
52649.470837,16.04,0.037
52649.486467,16.055,0.039
52649.501213,16.077,0.039
52649.515321,16.074,0.041
52649.529809,16.153,0.043
52666.397372,16.179,0.046
52666.412034,16.167,0.045
52666.426676,16.151,0.045
52666.441313,16.151,0.041
52666.456248,16.234,0.046
52672.397671,16.343,0.051
52672.413674,16.365,0.056
52672.435962,16.35,0.053
52676.358827,16.281,0.052
52676.374541,16.234,0.05
52676.390156,16.239,0.046
52676.406911,16.25,0.046
52676.425994,16.353,0.054
52698.335507,15.936,0.033
52698.336096,15.942,0.031
52698.349224,15.985,0.036
52698.349809,16.002,0.033
52698.36227,16.021,0.038
52698.362858,16.024,0.035
52701.313198,16.119,0.041
52701.313556,16.129,0.04
52701.326453,16.255,0.109
52701.339534,16.194,0.043
52701.33989,16.188,0.043
52701.352574,16.207,0.045
52701.352933,16.174,0.041
52701.366084,16.203,0.043
52701.366441,16.219,0.041
52725.365884,16.312,0.063
52725.380394,16.295,0.044
52725.393455,16.284,0.041
52725.406575,16.364,0.046
52725.419015,16.346,0.048
52729.294554,16.176,0.043
52729.306677,16.205,0.045
52729.307036,16.235,0.043
52729.319074,16.239,0.045
52729.319434,16.181,0.041
52729.331161,16.208,0.045
52729.33152,16.256,0.045
52729.343463,16.256,0.046
52729.343822,16.26,0.046
52732.251267,16.264,0.053
52732.251622,16.277,0.045
52732.263386,16.276,0.048
52732.263815,16.264,0.045
52732.275894,16.322,0.051
52732.276248,16.291,0.048
52732.287857,16.284,0.051
52732.288212,16.331,0.048
52732.299809,16.25,0.051
52732.300164,16.264,0.046
52754.206709,15.937,0.033
52754.218873,15.955,0.033
52754.231168,15.957,0.033
52754.24335,16.019,0.035
52754.255477,16.051,0.037
52761.205883,16.016,0.066
52761.205992,15.936,0.061
52761.217933,16.083,0.078
52761.218042,15.994,0.068
52761.22996,15.998,0.053
52761.23007,16.115,0.058
52761.242216,16.088,0.048
52761.242325,16.07,0.045
52761.254625,16.055,0.041
52761.254735,16.055,0.04
52768.209798,16.062,0.059
52768.221559,16.039,0.059
52768.233628,16.135,0.065
52768.245486,16.089,0.063
52768.257328,16.107,0.067
52792.192392,16.063,0.059
52792.203348,16.08,0.059
52792.214432,16.032,0.058
52793.227172,16.063,0.059
52793.237716,16.08,0.059
52793.248039,16.032,0.058
52797.171049,16.105,0.099
52813.174926,16.41,0.092
52813.184769,16.361,0.083
52813.194661,16.379,0.084
52813.204501,16.294,0.084
52813.21435,16.441,0.101
52973.462353,16.541,0.074
52973.475213,16.496,0.07
52973.488179,16.464,0.065
52973.501105,16.398,0.057
52973.513951,16.197,0.048
52993.454609,16.095,0.03
52993.467851,16.088,0.028
52993.481227,16.09,0.028
52993.494714,16.087,0.03
52993.508111,16.149,0.03
53003.382127,16.113,0.031
53003.394292,16.115,0.031
53003.406421,16.154,0.048
53003.418359,16.198,0.083
53003.430539,16.246,0.122
53033.343341,16.399,0.053
53033.355672,16.433,0.053
53033.367975,16.454,0.054
53033.392711,16.612,0.069
53052.334606,16.215,0.039
53052.346928,16.227,0.037
53052.359412,16.256,0.041
53052.371266,16.284,0.039
53052.383112,16.308,0.039
53062.341395,16.406,0.228
53062.354445,16.35,0.111
53062.366638,16.393,0.067
53062.378909,16.39,0.061
53062.390344,16.333,0.061
53079.281186,16.353,0.043
53079.292131,16.299,0.043
53079.303118,16.359,0.045
53079.314208,16.373,0.045
53079.325135,16.411,0.048
53087.294565,16.329,0.03
53087.306166,16.261,0.028
53087.317355,16.306,0.03
53087.328404,16.324,0.03
53087.340455,16.337,0.031
53089.288687,16.42,0.033
53089.299761,16.369,0.033
53089.310785,16.239,0.028
53110.242854,16.433,0.059
53110.253713,16.383,0.058
53110.264577,16.296,0.051
53110.275549,16.102,0.043
53110.286458,16.034,0.04
53111.237248,16.422,0.054
53111.248865,16.427,0.053
53111.261252,16.417,0.053
53111.272215,16.458,0.053
53111.286643,16.442,0.053
53118.255517,16.364,0.031
53118.26776,16.413,0.033
53118.279161,16.369,0.031
53118.289404,16.399,0.033
53118.299662,16.418,0.035
53138.204803,16.228,0.041
53138.2147,16.191,0.041
53138.224545,16.155,0.04
53138.234384,16.121,0.04
53138.244191,16.075,0.038
53148.243611,16.089,0.035
53148.252292,16.074,0.035
53148.261134,16.121,0.038
53148.269757,16.093,0.036
53148.278907,16.166,0.04
53166.171892,15.867,0.041
53166.182822,15.856,0.045
53166.192623,15.717,0.041
53166.202454,15.747,0.041
53166.212232,15.804,0.041
53175.173113,16.316,0.045
53175.182751,16.363,0.046
53175.192329,16.308,0.045
53175.202072,16.387,0.049
53175.211761,16.346,0.051
53348.486057,16.097,0.051
53348.499969,16.157,0.056
53348.5139,16.103,0.049
53404.436051,16.211,0.041
53404.449008,16.279,0.045
53404.462124,16.314,0.048
53404.474884,16.319,0.051
53404.488108,16.386,0.056
53410.481782,16.482,0.044
53410.49425,16.426,0.041
53410.506701,16.43,0.043
53410.519113,16.443,0.044
53438.412728,16.399,0.048
53438.425182,16.446,0.054
53438.437085,16.444,0.054
53438.448958,16.44,0.054
53438.460775,16.51,0.057
53445.412374,16.451,0.048
53445.424093,16.402,0.048
53445.435663,16.53,0.054
53445.447977,16.558,0.055
53445.45948,16.463,0.054
53471.268698,16.02,0.039
53471.278838,16.11,0.043
53471.28866,16.07,0.041
53471.298557,16.095,0.041
53471.308296,16.113,0.043
53502.196515,16.238,0.048
53502.207673,16.236,0.052
53502.218142,16.211,0.05
53502.229755,16.269,0.055
53502.242201,16.263,0.054
53523.171833,16.281,0.054
53523.182368,16.244,0.052
53523.192929,16.316,0.057
53523.203447,16.336,0.055
53523.213973,16.401,0.059
53712.469145,16.403,0.072
53712.482325,16.368,0.065
53712.495589,16.364,0.063
53712.508641,16.383,0.061
53712.521597,16.436,0.065
53738.507658,16.356,0.139
53738.520528,16.374,0.063
53747.410647,16.397,0.146
53769.393023,16.271,0.041
53769.406557,16.281,0.039
53769.420019,16.274,0.039
53769.433201,16.265,0.059
53769.446504,16.248,0.041
53789.356897,16.503,0.183
53789.369661,16.459,0.13
53789.382064,16.519,0.053
53789.394684,16.488,0.045
53789.407276,16.514,0.058
53845.264186,16.341,0.137
53845.275043,16.383,0.067
53845.285897,16.356,0.109
53851.239767,15.99,0.043
53851.249974,16.016,0.045
53851.260277,16.044,0.045
53851.27067,16.036,0.046
53851.281038,16.092,0.051
53880.162402,16.437,0.074
53880.173564,16.476,0.076
53880.184767,16.498,0.078
53880.19593,16.451,0.074
53880.207122,16.424,0.072
53885.164621,16.275,0.061
53885.176817,16.204,0.059
53885.188912,16.274,0.065
53885.201045,16.312,0.068
53885.213172,16.243,0.063
53901.179833,16.482,0.157
53901.189654,16.356,0.097
53901.199672,16.277,0.084
53901.209937,16.342,0.13
54064.449293,16.276,0.079
54064.465553,16.3,0.078
54064.478433,16.348,0.076
54064.491446,16.329,0.071
54064.504007,16.389,0.069
54112.44008,16.328,0.076
54112.452712,16.204,0.066
54112.465598,16.207,0.089
54112.47824,16.052,0.056
54112.491084,15.974,0.053
54144.335277,16.37,0.051
54144.347212,16.436,0.054
54144.359121,16.409,0.054
54144.37137,16.495,0.058
54144.383604,16.421,0.059
54153.339643,16.074,0.038
54153.351556,16.071,0.045
54153.363281,16.178,0.048
54153.375238,16.083,0.058
54153.386965,16.276,0.089
54201.279825,16.311,0.064
54201.289176,16.366,0.064
54201.298503,16.289,0.063
54201.30788,16.355,0.068
54201.317368,16.288,0.063
54452.458249,16.033,0.03
54452.47141,16.068,0.03
54452.484548,16.08,0.03
54452.497712,16.131,0.03
54452.510878,16.132,0.03
54476.404085,16.09,0.028
54476.416954,16.136,0.028
54476.429944,16.143,0.03
54476.442817,16.167,0.028
54476.456058,16.191,0.028
54484.364224,15.975,0.048
54484.377148,15.951,0.044
54484.390413,15.959,0.043
54533.330062,16.043,0.022
54533.34174,16.077,0.022
54533.353033,16.067,0.022
54533.364401,16.091,0.022
54533.375779,16.077,0.022
54536.319371,16.202,0.046
54536.320754,16.143,0.022
54536.330376,16.219,0.045
54536.331875,16.145,0.022
54536.341386,16.205,0.045
54536.342995,16.182,0.024
54536.352325,16.224,0.046
54536.354282,16.171,0.024
54536.36324,16.211,0.046
54536.3654,16.204,0.024
54539.263814,16.136,0.039
54539.274675,16.179,0.028
54539.285541,16.157,0.026
54539.29646,16.157,0.026
54539.307454,16.185,0.026
54559.186184,16.33,0.035
54559.197747,16.349,0.035
54559.209315,16.364,0.035
54559.221041,16.36,0.035
54559.232605,16.353,0.035
54567.238162,16.237,0.037
54567.249362,16.287,0.039
54567.260616,16.272,0.037
54567.271844,16.309,0.039
54567.283046,16.342,0.041
54581.245226,16.258,0.044
54581.255802,16.274,0.048
54581.266346,16.29,0.054
54581.277011,16.331,0.063
54581.287558,16.371,0.068
54587.24908,16.349,0.046
54587.259493,16.431,0.052
54587.270035,16.375,0.05
54587.280446,16.443,0.052
54587.29083,16.456,0.054
54592.193115,16.141,0.058
54592.20309,16.11,0.058
54592.212965,16.151,0.059
54592.222716,16.142,0.058
54592.232595,16.224,0.063
54595.201853,16.225,0.044
54595.211856,16.236,0.044
54595.221939,16.249,0.044
54595.231901,16.241,0.044
54595.241823,16.222,0.043
54619.165538,16.454,0.052
54619.17583,16.436,0.052
54619.186031,16.437,0.052
54619.196269,16.439,0.065
54619.206473,16.413,0.054
