mjd,m,merr
52639.476484,17.489,0.129
52639.491405,17.496,0.134
52639.506213,17.333,0.12
52639.522605,17.342,0.119
52649.446262,16.572,0.064
52649.461461,16.584,0.064
52649.476544,16.771,0.074
52649.491803,16.678,0.071
52649.50706,16.766,0.078
52666.392079,16.956,0.094
52666.407317,16.906,0.083
52666.422396,16.986,0.098
52666.437676,17.04,0.094
52666.452503,17.009,0.091
52676.358815,16.722,0.079
52676.373806,16.785,0.084
52676.388887,16.739,0.081
52676.404002,16.782,0.084
52676.419303,16.75,0.079
52706.307243,16.949,0.081
52706.320636,16.956,0.083
52706.333955,17.042,0.087
52706.347224,17.011,0.085
52706.360615,17.079,0.093
52711.300995,16.717,0.087
52711.301239,16.826,0.092
52711.314009,16.706,0.086
52711.314256,16.803,0.089
52711.327387,16.811,0.094
52711.327631,16.712,0.083
52711.340634,16.768,0.089
52711.340877,16.708,0.081
52711.353733,16.741,0.086
52711.353977,16.827,0.089
52724.302097,17.077,0.091
52724.314556,16.981,0.079
52724.314915,16.873,0.066
52724.326926,16.647,0.063
52724.327287,16.785,0.066
52724.339441,16.503,0.054
52724.351776,16.434,0.051
52724.352137,16.593,0.056
52734.25817,16.814,0.074
52734.258767,16.81,0.069
52734.270266,16.849,0.099
52734.270879,16.901,0.079
52734.282788,16.568,0.147
52734.294709,16.942,0.195
52734.306,17.205,0.249
52734.306597,16.902,0.214
52753.25637,17.013,0.104
52753.256608,17.081,0.099
52753.26949,16.973,0.102
52753.269728,17.026,0.096
52753.282548,17.146,0.119
52753.282787,16.973,0.092
52753.296567,16.995,0.109
52753.296806,17.072,0.102
52753.309162,16.961,0.104
52753.309401,17.141,0.109
52769.212471,16.959,0.221
52769.224355,17.009,0.228
52769.23587,17.05,0.239
52769.236109,16.598,0.16
52769.247423,16.921,0.219
52769.259473,16.999,0.239
52794.170923,16.532,0.073
52794.171017,16.412,0.063
52794.181318,16.474,0.071
52794.181411,16.432,0.068
52794.191985,16.523,0.076
52794.192078,16.356,0.066
52794.20276,16.507,0.081
52794.202853,16.423,0.073
52794.213201,16.62,0.089
52794.213295,16.524,0.081
52974.464253,16.602,0.068
52974.475126,16.618,0.066
52974.486967,16.689,0.071
52974.497959,16.67,0.064
52974.511008,16.712,0.066
53002.422619,16.496,0.033
53002.445585,16.326,0.026
53002.461615,16.401,0.026
53002.477496,16.527,0.031
53002.493001,16.552,0.031
53002.493203,16.572,0.031
53006.393149,16.947,0.109
53006.405358,16.725,0.083
53006.418047,16.516,0.063
53006.430276,16.409,0.061
53006.447628,16.289,0.055
53034.390593,17.122,0.102
53034.390695,17.449,0.139
53034.402422,17.151,0.106
53034.402524,17.601,0.158
53034.414243,17.273,0.112
53034.414347,17.396,0.129
53034.426189,17.235,0.106
53034.426292,17.428,0.132
53034.438198,16.902,0.083
53034.438301,17.048,0.094
53051.334465,16.851,0.072
53051.346699,16.858,0.07
53051.358293,16.889,0.076
53051.370023,16.926,0.083
53051.381655,16.881,0.076
53064.284688,16.617,0.065
53064.297191,16.659,0.061
53064.321657,16.674,0.065
53064.340106,16.668,0.057
53064.354017,16.824,0.067
53078.32093,17.172,0.097
53078.331978,17.087,0.091
53078.342882,17.096,0.092
53078.353841,17.114,0.096
53089.282997,17.035,0.067
53089.293593,17.075,0.068
53089.303986,16.994,0.067
53089.314481,17.096,0.068
53089.324897,17.302,0.265
53109.237729,17.088,0.096
53109.237817,17.027,0.092
53109.252193,17.17,0.102
53109.252281,17.015,0.094
53109.264098,17.124,0.096
53109.264185,17.143,0.106
53109.274831,16.986,0.087
53109.274918,16.986,0.092
53109.293624,17.116,0.097
53109.293711,16.999,0.089
53119.245044,16.691,0.049
53119.245187,16.65,0.048
53119.255545,16.719,0.049
53119.255688,16.634,0.048
53119.266265,16.779,0.053
53119.276739,16.793,0.056
53119.290881,16.711,0.054
53137.206518,17.116,0.117
53137.207113,17.053,0.106
53137.216146,17.071,0.111
53137.216738,16.983,0.102
53137.226494,17.038,0.096
53137.227086,17.053,0.102
53137.236409,17.081,0.102
53137.237006,17.098,0.102
53137.246004,17.059,0.097
53137.2466,17.067,0.102
53149.204122,17.044,0.091
53149.204245,16.958,0.084
53149.212729,17.097,0.097
53149.212852,17.158,0.104
53149.221287,17.147,0.097
53149.230016,17.138,0.097
53149.238863,17.055,0.087
53165.173195,16.894,0.127
53165.173787,16.803,0.116
53165.183105,16.827,0.218
53165.193013,17.377,0.37
53165.21894,17.099,0.137
53165.228755,16.993,0.117
53349.471063,17.038,0.144
53349.484604,17.029,0.139
53349.498375,16.959,0.127
53349.499154,17.093,0.147
53349.512415,16.881,0.119
53349.513203,17.062,0.142
53501.199847,17.0,0.105
53501.210976,17.046,0.109
53501.221379,16.945,0.102
53501.231349,16.95,0.102
53501.24168,17.072,0.117
53529.163597,16.946,0.113
53529.174009,17.069,0.135
53529.184312,17.027,0.128
53529.194784,17.083,0.126
53529.194868,16.999,0.128
53529.205135,17.061,0.122
53529.205219,17.043,0.128
53540.183072,17.629,0.583
53540.192835,17.399,0.466
53713.470779,17.183,0.3
53713.483696,17.322,0.488
53739.472705,16.429,0.055
53739.486202,16.589,0.063
53739.499213,16.521,0.059
53739.512125,16.578,0.059
53739.525099,16.629,0.063
53770.357169,16.486,0.059
53770.37039,16.528,0.061
53770.383748,16.657,0.067
53770.39662,16.587,0.067
53770.409535,16.711,0.074
53788.35613,17.072,0.073
53788.368715,17.13,0.173
53788.381397,17.043,0.137
53788.394031,17.205,0.153
53788.406687,17.098,0.104
53813.319679,16.757,0.101
53813.319822,16.647,0.092
53813.331149,16.641,0.092
53813.331293,16.63,0.091
53813.342621,16.616,0.089
53813.342765,16.763,0.102
53813.354083,16.788,0.104
53813.354226,16.855,0.112
53813.365909,16.701,0.099
53813.366053,16.874,0.116
53844.242581,16.742,0.099
53844.253699,16.825,0.109
53844.264637,16.817,0.106
53844.275593,16.804,0.104
53844.286568,16.918,0.114
53852.242437,16.756,0.097
53852.252552,16.835,0.102
53852.262789,16.765,0.094
53852.272927,16.872,0.107
53852.28304,16.829,0.114
53881.168721,17.026,0.107
53881.179897,17.07,0.117
53881.190974,17.152,0.122
53881.202155,17.12,0.124
53881.213306,17.255,0.152
53887.170592,16.639,0.104
53887.180754,16.851,0.132
53887.191144,16.753,0.13
53887.201515,16.896,0.149
53887.211899,16.814,0.135
53902.171951,16.982,0.17
53902.211675,16.957,0.157
53902.211767,17.365,0.231
53914.181125,16.97,0.218
53914.181206,17.222,0.276
53914.191259,17.014,0.238
54068.459584,16.589,0.068
54068.485406,16.578,0.122
54083.459539,17.012,0.287
54083.472776,16.808,0.257
54083.498971,16.986,0.243
54154.334542,16.737,0.073
54154.346064,16.81,0.076
54154.357478,16.746,0.074
54154.36894,16.773,0.073
54154.380448,16.789,0.073
54169.279329,16.906,0.094
54169.290239,16.92,0.107
54169.301345,16.8,0.097
54169.312176,16.84,0.109
54169.323029,16.905,0.12
54205.227431,16.646,0.074
54205.236702,16.64,0.073
54205.245923,16.64,0.079
54205.255459,16.716,0.078
54205.265004,16.659,0.079
54453.454476,16.491,0.05
54453.467551,16.32,0.041
54453.480641,16.321,0.041
54453.493697,16.283,0.039
54453.506748,16.319,0.041
54478.404716,17.012,0.276
54478.417688,17.095,0.209
54478.430798,17.059,0.154
54478.443785,17.05,0.209
54478.456764,17.076,0.133
54568.238209,16.957,0.087
54568.249211,16.927,0.087
54568.260259,16.928,0.089
54568.27145,16.968,0.089
54568.28256,16.971,0.087
54594.208087,16.697,0.119
54594.217725,16.541,0.102
54594.227191,16.429,0.091
54594.236631,16.376,0.101
54594.246116,16.465,0.099
54597.20445,16.559,0.093
54597.20456,16.6,0.113
54597.215,16.589,0.093
54597.215109,16.665,0.122
54597.225835,16.676,0.122
54597.236442,16.729,0.128
54597.246991,16.854,0.142
54612.204358,17.129,0.144
54612.212926,17.066,0.134
54612.222405,17.039,0.132
54612.230962,17.159,0.153
54612.239481,17.082,0.137
54620.17265,16.97,0.081
54620.172747,16.786,0.08
54620.182823,16.979,0.081
54620.182921,16.823,0.081
54620.192943,17.114,0.093
54620.19304,16.841,0.083
54620.20307,16.998,0.081
54620.203167,16.94,0.089
54620.21319,17.069,0.091
54620.213288,16.952,0.094
