mjd,m,merr
52639.44797,16.91,0.074
52639.462754,16.936,0.074
52639.47811,16.968,0.078
52639.492763,17.012,0.08
52639.5077,16.956,0.076
52650.446249,16.761,0.074
52665.386596,16.147,0.035
52665.40099,16.186,0.035
52665.415275,16.226,0.037
52665.429682,16.291,0.041
52665.444145,16.318,0.043
52677.382887,16.918,0.157
52677.411718,16.843,0.072
52677.4261,17.008,0.111
52706.30699,16.844,0.061
52706.320365,16.863,0.061
52706.333631,16.917,0.065
52706.346965,16.885,0.063
52706.360361,16.907,0.063
52711.309005,16.964,0.087
52711.323044,16.926,0.081
52711.33737,16.808,0.072
52711.351603,16.626,0.063
52711.365719,16.389,0.05
52724.296131,16.141,0.031
52724.307707,16.178,0.031
52724.325894,16.254,0.035
52724.337964,16.282,0.035
52724.350309,16.297,0.037
52739.244294,16.679,0.063
52739.255804,16.686,0.063
52739.267214,16.648,0.063
52739.27861,16.776,0.068
52739.290095,16.717,0.065
52753.1997,16.293,0.043
52753.21274,16.311,0.043
52753.225719,16.353,0.044
52753.237731,16.415,0.046
52753.249974,16.429,0.048
52769.209415,16.522,0.091
52769.221277,16.455,0.1
52769.244733,16.741,0.137
52769.257253,16.715,0.139
52797.191787,17.065,0.176
52811.212316,16.836,0.1
52974.474875,16.949,0.083
52974.486715,16.937,0.079
52974.49771,16.96,0.078
52974.510759,16.89,0.071
52992.463984,16.475,0.044
52992.477408,16.38,0.037
52992.504345,15.926,0.028
52992.51758,16.106,0.05
53006.40218,17.68,0.188
53006.440255,17.563,0.162
53034.397523,16.481,0.052
53034.409778,16.533,0.052
53034.422375,16.54,0.052
53034.434631,16.612,0.055
53034.447039,16.591,0.057
53051.334906,17.002,0.065
53051.34714,16.921,0.059
53051.358735,16.856,0.057
53051.370463,16.757,0.055
53051.382095,16.555,0.044
53064.281243,16.42,0.045
53064.293293,16.238,0.036
53064.305292,16.15,0.031
53064.317816,16.082,0.03
53078.321316,16.911,0.073
53078.332365,16.877,0.069
53078.343268,16.976,0.078
53078.354225,16.871,0.071
53092.3101,16.842,0.054
53092.32029,16.858,0.054
53109.238144,16.399,0.048
53109.252612,16.463,0.051
53109.264515,16.521,0.053
53109.27525,16.505,0.054
53109.294046,16.513,0.053
53121.198449,16.858,0.058
53121.208924,16.818,0.056
53121.219242,16.872,0.059
53121.229548,16.821,0.054
53121.240037,16.828,0.054
53137.20686,16.818,0.078
53137.216485,16.895,0.083
53137.226832,16.86,0.076
53137.236752,16.907,0.078
53137.246346,16.921,0.081
53165.183443,16.772,0.155
53165.219292,16.626,0.078
53177.174056,16.953,0.074
53177.184186,16.949,0.073
53349.471571,16.781,0.102
53349.485102,16.833,0.106
53349.512915,17.061,0.119
53437.409993,16.927,0.068
53437.421306,16.806,0.063
53437.432618,16.677,0.055
53437.449329,16.404,0.046
53437.460627,16.292,0.043
53449.26814,16.562,0.081
53449.278578,16.506,0.102
53449.289031,16.514,0.067
53449.299999,16.51,0.072
53449.310499,16.558,0.067
53500.19669,16.404,0.046
53500.206964,16.474,0.048
53500.21843,16.467,0.048
53500.228442,16.469,0.05
53500.238358,16.514,0.054
53528.173721,16.886,0.102
53528.18537,16.835,0.098
53528.196529,17.003,0.115
53528.207193,16.853,0.104
53528.217702,17.001,0.115
53714.458232,16.682,0.065
53714.471032,16.597,0.057
53714.48403,16.636,0.057
53714.496719,16.635,0.054
53714.50963,16.68,0.054
53740.409024,16.764,0.065
53740.42322,16.763,0.063
53740.436932,16.802,0.063
53740.450454,16.897,0.068
53740.464779,16.856,0.065
53770.357885,16.602,0.054
53770.371108,16.633,0.054
53770.384467,16.702,0.057
53770.397339,16.727,0.061
53770.410255,16.711,0.063
53787.405282,16.34,0.081
53787.418169,16.345,0.045
53813.356725,16.718,0.104
53813.367765,16.673,0.098
53813.378758,16.715,0.1
53813.389773,16.761,0.107
53813.400803,16.853,0.118
53823.249242,16.802,0.059
53823.251899,16.867,0.068
53823.260474,16.839,0.063
53823.26322,16.805,0.065
53823.271287,16.822,0.063
53823.273826,16.838,0.067
53823.282318,16.842,0.061
53823.284808,16.863,0.068
53823.293132,16.807,0.061
53823.296224,16.841,0.068
53824.28549,16.517,0.05
53824.299811,16.576,0.063
53824.314026,16.613,0.074
53824.329732,16.665,0.059
53824.345654,16.644,0.052
53844.235449,16.888,0.087
53844.245675,16.868,0.08
53844.255969,16.822,0.081
53844.266195,16.891,0.085
53844.276414,16.821,0.078
53853.241403,16.766,0.092
53853.251788,16.773,0.092
53853.262071,16.603,0.076
53853.272388,16.639,0.081
53853.282837,16.769,0.089
53883.211276,16.479,0.071
53883.221565,16.463,0.079
53883.231879,16.407,0.073
53883.252433,16.592,0.086
53887.22148,17.008,0.148
53887.2321,16.99,0.15
53887.242759,16.98,0.146
53887.253461,16.92,0.135
53887.264168,17.003,0.137
53902.172445,16.356,0.081
53902.219519,16.396,0.083
53915.181509,16.573,0.104
53915.193043,16.667,0.116
53915.204242,16.613,0.117
54066.457106,17.114,0.206
54066.500103,16.966,0.114
54066.513184,16.934,0.096
54070.453309,16.725,0.07
54070.466343,16.549,0.059
54070.479221,16.667,0.065
54070.492107,16.755,0.068
54070.504993,16.691,0.067
54084.468898,16.362,0.068
54084.481758,16.382,0.069
54084.494593,16.471,0.079
54098.373988,16.885,0.089
54098.386002,17.018,0.089
54098.39796,17.049,0.081
54098.409906,16.89,0.072
54098.421934,16.947,0.072
54110.395509,16.546,0.127
54110.408226,16.618,0.125
54110.420932,16.723,0.139
54110.433702,16.891,0.155
54121.386872,16.571,0.054
54121.399092,16.612,0.054
54121.411294,16.646,0.059
54121.423488,16.706,0.065
54121.435682,16.742,0.065
54155.350657,16.85,0.073
54155.36217,16.88,0.073
54155.373805,16.908,0.074
54155.385638,16.839,0.073
54155.397739,16.866,0.074
54206.228566,16.826,0.069
54206.237875,16.798,0.069
54206.247224,16.868,0.073
54206.256907,16.8,0.069
54206.266326,16.765,0.066
54529.209662,17.005,0.091
54529.223082,16.991,0.087
54529.234626,17.039,0.089
54529.246058,17.02,0.087
54529.257132,16.962,0.081
54562.167039,16.772,0.102
54582.243402,16.453,0.048
54582.253747,16.481,0.05
54582.264164,16.535,0.054
54582.274506,16.6,0.052
54582.284858,16.518,0.052
54589.245661,16.826,0.054
54589.256074,16.805,0.054
54589.266595,16.883,0.057
54589.277057,16.846,0.055
54589.287562,16.826,0.055
54613.20247,16.896,0.098
54613.212297,16.973,0.139
54613.222243,16.777,0.203
54613.232381,16.975,0.322
54613.242202,16.87,0.104
54621.165741,16.893,0.063
54621.175935,16.766,0.057
54621.186048,16.893,0.063
54621.196415,16.774,0.057
54621.206681,16.863,0.065
