mjd,m,merr
52621.494852,15.234,0.021
52621.509816,15.257,0.021
52623.453472,15.533,0.03
52623.469138,15.55,0.033
52623.484991,15.586,0.043
52623.500891,15.569,0.03
52623.516791,15.532,0.033
52651.354406,15.549,0.028
52651.373772,15.566,0.026
52651.389056,15.59,0.026
52651.404504,15.552,0.025
52651.419644,15.571,0.026
52652.387876,15.382,0.02
52652.402929,15.415,0.018
52652.418356,15.41,0.017
52652.433547,15.444,0.017
52652.448805,15.43,0.017
52664.35208,15.568,0.024
52664.367332,15.541,0.026
52664.382569,15.53,0.046
52664.413174,15.676,0.107
52681.287387,15.299,0.028
52681.304806,15.198,0.026
52681.323441,15.141,0.017
52681.341869,15.164,0.017
52695.335545,15.647,0.022
52695.354385,15.732,0.03
52722.345419,15.52,0.018
52722.358609,15.546,0.02
52722.371143,15.542,0.02
52722.384183,15.576,0.022
52722.396681,15.577,0.022
52751.256172,15.475,0.02
52751.26689,15.512,0.022
52751.277592,15.515,0.022
52751.288947,15.506,0.022
52751.301798,15.529,0.022
52756.191525,15.481,0.02
52756.20336,15.478,0.02
52756.215231,15.511,0.02
52756.227061,15.507,0.02
52756.238904,15.534,0.022
52757.204318,15.245,0.017
52757.21631,15.214,0.017
52757.228182,15.217,0.017
52757.240042,15.215,0.017
52757.251853,15.231,0.017
52771.210263,15.623,0.065
52771.221862,15.641,0.048
52771.233536,15.625,0.046
52771.245229,15.656,0.048
52771.256965,15.672,0.05
52782.211436,15.571,0.061
52800.202444,15.683,0.072
52800.212495,15.59,0.068
52810.17598,15.712,0.033
52810.185944,15.705,0.033
52810.215831,15.702,0.043
52812.176892,15.262,0.022
52812.187111,15.261,0.022
52812.197467,15.293,0.022
52812.207685,15.264,0.022
52812.218108,15.294,0.024
52976.404623,15.241,0.016
52976.415683,15.265,0.016
52976.426741,15.322,0.018
52976.437822,15.314,0.018
52976.448881,15.307,0.018
52990.405779,15.583,0.024
52990.419073,15.623,0.024
52990.433074,15.678,0.024
52990.446219,15.639,0.035
52990.459342,15.68,0.028
53023.40002,15.329,0.015
53023.412933,15.341,0.013
53023.425612,15.38,0.013
53023.438291,15.397,0.015
53023.450982,15.397,0.015
53024.464513,15.642,0.048
53026.482691,15.244,0.022
53026.495818,15.312,0.013
53026.508855,15.323,0.013
53026.522061,15.317,0.013
53026.535255,15.377,0.013
53046.352257,15.474,0.024
53046.364194,15.509,0.026
53046.376174,15.474,0.024
53046.388317,15.489,0.024
53046.400364,15.514,0.026
53094.285088,15.253,0.015
53094.295463,15.251,0.015
53094.306066,15.215,0.015
53094.316758,15.25,0.015
53094.327196,15.268,0.015
53107.246125,15.373,0.015
53107.257373,15.326,0.015
53107.268568,15.316,0.015
53107.279833,15.281,0.015
53107.291051,15.299,0.015
53127.242414,15.531,0.059
53127.252376,15.584,0.059
53127.262438,15.562,0.046
53127.272396,15.498,0.044
53127.282427,15.545,0.048
53136.202129,15.586,0.024
53136.211485,15.451,0.022
53136.220789,15.361,0.02
53136.230107,15.323,0.02
53136.239412,15.288,0.02
53154.208284,15.28,0.03
53154.21719,15.281,0.03
53154.226029,15.293,0.03
53154.234864,15.329,0.031
53154.243779,15.375,0.033
53164.175024,15.376,0.018
53164.185235,15.377,0.018
53164.19545,15.394,0.02
53164.205667,15.404,0.02
53164.215907,15.415,0.02
53340.4624,15.718,0.051
53340.477881,15.729,0.051
53340.490447,15.796,0.051
53340.508261,15.699,0.045
53340.520727,15.629,0.04
53358.406014,15.703,0.031
53358.420455,15.655,0.03
53358.435251,15.519,0.026
53358.449862,15.351,0.023
53358.46439,15.281,0.02
53389.482205,15.329,0.017
53389.498138,15.306,0.017
53389.513375,15.346,0.018
53390.467057,15.705,0.026
53390.479758,15.716,0.028
53390.492434,15.68,0.026
53390.505151,15.673,0.026
53390.51831,15.639,0.026
53401.354262,15.597,0.03
53401.366885,15.585,0.03
53401.379507,15.561,0.03
53401.392191,15.577,0.03
53421.348928,15.708,0.039
53421.36079,15.687,0.037
53421.372667,15.614,0.035
53421.384761,15.418,0.03
53421.396641,15.393,0.028
53430.364697,15.564,0.028
53430.37641,15.546,0.026
53430.390288,15.524,0.028
53430.402597,15.584,0.028
53430.413955,15.554,0.028
53479.233661,15.597,0.048
53479.243684,15.614,0.05
53479.256145,15.64,0.054
53479.265998,15.577,0.05
53479.275553,15.668,0.054
53491.243805,15.334,0.024
53491.257764,15.349,0.02
53491.270135,15.332,0.02
53491.283546,15.325,0.026
53491.294723,15.375,0.02
53537.17495,15.583,0.059
53537.195111,15.663,0.081
53537.205169,15.618,0.061
53700.454187,15.282,0.024
53700.467159,15.243,0.022
53700.479958,15.247,0.02
53700.492932,15.275,0.02
53700.505617,15.289,0.02
53727.499498,15.627,0.052
53757.382536,15.412,0.02
53757.395159,15.441,0.022
53757.407879,15.444,0.022
53757.420556,15.445,0.022
53757.433265,15.456,0.022
53773.358724,15.322,0.02
53773.371869,15.319,0.02
53773.384776,15.376,0.02
53773.397566,15.377,0.02
53773.410336,15.405,0.018
53826.284868,15.676,0.021
53826.295535,15.681,0.036
53826.317158,15.54,0.021
53827.302758,15.558,0.02
53827.313785,15.527,0.018
53827.325362,15.558,0.02
53827.336242,15.547,0.02
53827.347606,15.551,0.02
53842.246947,15.703,0.043
53842.258531,15.709,0.043
53842.270101,15.711,0.045
53842.281771,15.711,0.048
53842.293423,15.72,0.048
53856.267174,15.514,0.028
53856.277238,15.58,0.031
53856.287108,15.565,0.028
53856.297073,15.529,0.028
53856.306996,15.563,0.028
53877.220237,15.526,0.086
53877.252208,15.517,0.04
53877.262837,15.608,0.043
53904.17184,15.148,0.024
53904.181772,15.183,0.024
53904.191749,15.195,0.024
53904.201867,15.208,0.026
53904.21198,15.192,0.026
54052.459639,15.495,0.041
54052.471912,15.48,0.031
54052.484162,15.469,0.03
54052.496423,15.494,0.03
54052.508748,15.479,0.031
54071.453679,15.207,0.03
54071.466592,15.18,0.026
54071.49237,15.252,0.023
54071.505106,15.263,0.023
54098.379733,15.618,0.031
54098.391911,15.613,0.03
54098.404076,15.608,0.028
54098.416411,15.677,0.028
54098.428676,15.693,0.028
54109.460947,15.514,0.055
54124.339282,15.722,0.028
54124.351787,15.695,0.028
54124.36448,15.736,0.031
54124.376944,15.716,0.028
54124.389526,15.716,0.028
54140.34021,15.654,0.028
54140.352651,15.612,0.03
54140.364693,15.653,0.03
54140.376702,15.658,0.03
54140.388886,15.67,0.031
54158.336267,15.772,0.043
54158.347385,15.76,0.043
54158.358328,15.778,0.043
54158.369154,15.755,0.041
54158.38042,15.71,0.04
54188.270909,15.422,0.045
54188.28062,15.428,0.049
54188.290741,15.428,0.046
54188.30053,15.489,0.048
54188.31036,15.536,0.046
54198.269432,15.646,0.024
54198.279084,15.631,0.024
54198.298796,15.658,0.046
54210.224093,15.677,0.026
54210.233137,15.627,0.025
54210.241837,15.567,0.025
54210.250539,15.484,0.023
54210.259474,15.444,0.023
54218.237317,15.685,0.057
54218.245908,15.706,0.055
54218.254499,15.69,0.055
54218.263103,15.622,0.054
54481.391123,15.399,0.028
54481.403453,15.504,0.03
54481.415554,15.508,0.035
54481.427655,15.435,0.035
54481.440177,15.438,0.028
54498.334573,15.599,0.03
54498.346405,15.57,0.03
54498.358231,15.624,0.03
54498.370056,15.641,0.03
54498.381927,15.628,0.03
54526.330518,15.352,0.021
54526.342163,15.25,0.021
54526.353411,15.215,0.02
54526.364849,15.186,0.02
54526.379027,15.183,0.021
54537.271905,15.573,0.033
54537.283023,15.618,0.043
54537.29408,15.625,0.053
54537.305086,15.626,0.049
54537.315957,15.672,0.03
54559.246193,15.377,0.028
54559.258424,15.392,0.028
54559.270296,15.421,0.03
54559.281716,15.439,0.03
54559.293109,15.447,0.028
54569.24239,15.594,0.033
54569.253393,15.594,0.033
54569.26432,15.569,0.031
54569.275263,15.615,0.033
54569.286176,15.639,0.033
54585.246958,15.515,0.041
54585.257085,15.602,0.036
54585.267119,15.575,0.056
54585.277228,15.566,0.033
54599.200558,15.472,0.069
54599.219293,15.429,0.064
54599.23836,15.412,0.061
54618.2097,15.721,0.051
54618.220063,15.769,0.054
54618.23041,15.717,0.053
54618.240762,15.74,0.051
54618.25161,15.721,0.051
