mjd,m,merr
52640.463657,15.451,0.023
52640.478543,15.203,0.018
52640.493452,15.003,0.015
52640.508295,14.891,0.013
52640.523152,14.878,0.013
52643.483998,15.556,0.023
52643.50031,15.57,0.023
52643.516287,15.584,0.023
52643.533467,15.58,0.023
52667.395632,15.435,0.023
52667.410414,15.463,0.025
52667.42541,15.461,0.025
52667.44024,15.49,0.026
52667.455076,15.517,0.026
52670.428988,15.222,0.02
52670.443564,15.264,0.021
52670.458138,15.296,0.021
52670.472831,15.333,0.021
52670.487393,15.328,0.023
52676.359218,15.334,0.022
52676.374937,15.368,0.022
52676.390552,15.393,0.022
52676.407343,15.436,0.02
52676.42637,15.405,0.022
52703.312594,15.136,0.045
52703.334585,15.156,0.036
52703.352763,15.106,0.026
52703.368386,15.194,0.033
52707.316455,15.521,0.02
52707.330189,15.498,0.02
52707.343909,15.525,0.02
52707.35716,15.51,0.02
52707.370556,15.472,0.02
52725.36649,15.497,0.028
52725.381179,15.528,0.022
52725.39423,15.494,0.02
52725.407183,15.526,0.022
52725.419624,15.544,0.024
52730.29735,15.562,0.025
52730.309355,15.596,0.026
52730.321374,15.562,0.025
52730.3334,15.599,0.026
52730.346048,15.586,0.03
52738.243092,15.559,0.024
52738.254531,15.564,0.024
52738.26645,15.573,0.024
52738.277983,15.576,0.022
52738.289504,15.549,0.022
52755.205659,15.541,0.022
52755.223042,15.547,0.022
52755.236181,15.572,0.024
52755.248214,15.58,0.024
52755.260349,15.579,0.024
52761.206466,15.61,0.035
52761.218502,15.586,0.039
52761.230658,15.595,0.028
52761.242667,15.613,0.026
52761.254753,15.62,0.024
52764.208308,15.488,0.025
52764.220268,15.534,0.026
52764.232306,15.535,0.026
52764.244437,15.533,0.025
52764.256406,15.552,0.026
52789.171338,15.224,0.023
52789.181919,15.307,0.026
52789.192481,15.381,0.025
52789.213833,15.347,0.025
52813.175283,15.334,0.036
52813.185128,15.433,0.036
52813.19502,15.343,0.035
52813.204861,15.467,0.04
52813.214709,15.496,0.043
52816.16984,15.175,0.028
52816.19027,15.14,0.03
52973.462764,15.46,0.026
52973.475624,15.478,0.026
52973.48859,15.493,0.026
52973.501516,15.457,0.024
52973.514361,15.49,0.024
53000.469506,15.288,0.012
53000.484745,15.322,0.012
53033.343814,14.791,0.013
53033.356148,14.843,0.013
53033.380897,15.034,0.018
53033.393183,15.08,0.021
53053.353806,15.593,0.02
53053.365477,15.618,0.022
53053.377119,15.634,0.026
53053.38874,15.635,0.026
53053.401016,15.661,0.022
53062.380234,15.584,0.025
53062.392528,15.619,0.021
53062.404528,15.551,0.038
53079.314118,15.382,0.017
53079.324922,15.423,0.018
53079.335601,15.458,0.018
53079.346351,15.44,0.018
53079.35738,15.498,0.02
53087.333934,15.422,0.015
53087.344364,15.455,0.015
53087.365542,15.496,0.015
53087.37614,15.506,0.017
53089.281568,15.017,0.01
53089.292657,15.063,0.01
53089.303771,15.08,0.012
53089.314875,15.104,0.012
53090.283743,14.998,0.013
53092.285707,15.572,0.02
53092.296182,15.581,0.02
53092.306543,15.577,0.02
53092.317102,15.598,0.02
53110.241875,15.46,0.024
53110.252965,15.482,0.024
53110.264104,15.52,0.022
53110.275183,15.53,0.024
53110.286323,15.526,0.022
53138.205004,14.976,0.013
53138.214842,14.997,0.015
53138.224618,15.03,0.015
53138.234338,15.053,0.015
53138.244065,15.068,0.017
53148.202636,15.643,0.024
53148.211584,15.672,0.024
53148.220538,15.675,0.026
53148.229494,15.651,0.028
53148.238478,15.597,0.026
53166.182321,15.561,0.028
53166.191673,15.545,0.028
53166.20103,15.565,0.028
53166.210408,15.545,0.03
53166.21977,15.52,0.028
53175.173314,15.533,0.02
53175.183295,15.542,0.018
53175.193337,15.572,0.018
53175.203259,15.541,0.018
53175.213184,15.553,0.02
53348.486889,15.101,0.021
53348.500806,15.161,0.023
53348.514727,15.158,0.023
53351.511583,15.615,0.038
53351.525839,15.675,0.038
53468.382718,15.493,0.026
53468.392506,15.545,0.026
53468.402131,15.551,0.028
53468.411692,15.563,0.028
53468.421279,15.599,0.03
53503.2325,15.368,0.02
53503.241134,15.128,0.017
53503.250021,14.964,0.015
53503.259048,14.815,0.013
53503.268282,14.79,0.013
53522.169284,15.523,0.024
53522.179502,15.542,0.026
53522.189752,15.539,0.026
53522.200075,15.553,0.028
53522.210648,15.558,0.028
53737.474397,15.061,0.015
53737.487651,15.111,0.015
53737.50098,15.14,0.015
53737.514335,15.173,0.015
53737.527636,15.219,0.015
53790.350448,15.533,0.023
53790.362303,15.5,0.021
53790.374114,15.562,0.023
53790.385927,15.544,0.025
53790.398005,15.536,0.023
53799.340856,15.331,0.016
53799.352761,15.351,0.018
53799.364727,15.397,0.018
53799.376546,15.408,0.018
53799.388399,15.47,0.018
53818.300333,15.093,0.015
53818.311413,14.992,0.015
53818.322553,15.035,0.015
53851.240243,15.535,0.03
53851.250448,15.45,0.028
53851.260752,15.338,0.025
53851.271145,15.188,0.023
53851.281516,15.065,0.021
53880.162892,15.247,0.026
53880.174055,15.264,0.026
53880.18526,15.312,0.026
53880.196421,15.326,0.026
53880.207615,15.326,0.028
53881.209582,15.163,0.021
53881.219603,15.251,0.023
53881.229704,15.312,0.025
53881.239845,15.281,0.026
53881.249847,15.321,0.026
53885.165144,15.602,0.035
53885.177341,15.581,0.033
53885.189433,15.568,0.035
53885.201568,15.606,0.035
53885.213697,15.559,0.035
53886.216403,15.566,0.033
53886.226444,15.575,0.033
53886.246658,15.573,0.035
53910.165634,15.559,0.041
53910.175873,15.598,0.039
53910.186177,15.586,0.039
53910.196371,15.586,0.041
53910.20661,15.549,0.041
54112.44065,15.517,0.036
54112.453276,15.549,0.036
54112.466168,15.64,0.059
54112.478807,15.604,0.038
54112.491651,15.614,0.038
54152.343321,15.564,0.017
54152.35528,15.553,0.017
54152.367671,15.543,0.017
54152.381786,15.531,0.017
54152.394533,15.545,0.017
54185.276997,15.555,0.036
54185.287333,15.573,0.036
54185.297618,15.564,0.061
54201.280327,15.563,0.033
54201.289661,15.566,0.035
54201.29899,15.535,0.033
54201.308384,15.597,0.033
54201.317855,15.576,0.033
54450.460802,15.563,0.017
54450.473956,15.579,0.017
54450.487114,15.592,0.015
54450.500303,15.621,0.017
54450.513464,15.669,0.017
54475.399414,15.568,0.028
54475.412419,15.59,0.022
54475.42528,15.583,0.02
54475.438132,15.578,0.018
54475.450973,15.612,0.017
54483.394407,15.646,0.031
54483.407526,15.618,0.028
54483.420776,15.605,0.024
54483.433694,15.626,0.02
54483.44659,15.646,0.02
54509.335427,15.313,0.013
54509.347629,15.369,0.013
54509.359679,15.389,0.013
54509.371719,15.416,0.013
54509.383799,15.428,0.013
54532.330935,15.536,0.013
54532.342385,15.526,0.015
54532.353779,15.525,0.013
54532.365063,15.545,0.015
54532.376325,15.538,0.015
54538.309162,15.61,0.017
54538.320276,15.627,0.017
54538.331374,15.651,0.017
54538.353528,15.645,0.017
54543.243513,14.979,0.022
54543.254455,15.052,0.022
54543.265276,15.054,0.022
54558.186435,15.115,0.017
54558.209568,15.195,0.018
54558.221139,15.203,0.03
54558.232755,15.263,0.018
54586.241817,15.716,0.026
54586.252144,15.706,0.024
54586.262573,15.696,0.028
54586.272904,15.6,0.022
54586.283316,15.448,0.02
54594.251787,15.635,0.024
54594.262063,15.533,0.022
54594.272378,15.218,0.017
54594.282665,15.008,0.015
54594.29294,14.857,0.013
54618.166669,15.695,0.024
54618.176857,15.659,0.022
54618.187097,15.713,0.024
54618.197302,15.698,0.024
54618.207489,15.632,0.022
