mjd,m,merr
52612.462237,16.492,0.068
52612.47742,16.516,0.065
52612.492558,16.441,0.059
52612.507885,16.554,0.065
52612.523071,16.556,0.065
52620.466989,16.245,0.05
52620.482124,16.272,0.054
52620.497326,16.285,0.068
52620.512504,16.312,0.07
52620.527598,16.421,0.055
52622.459225,16.676,0.083
52622.473831,16.649,0.078
52622.488786,16.656,0.079
52622.503692,16.69,0.078
52638.498184,16.554,0.063
52638.513218,16.422,0.054
52650.365033,16.564,0.061
52650.37914,16.507,0.055
52650.393301,16.546,0.055
52650.407415,16.519,0.052
52650.421493,16.557,0.052
52665.396423,15.734,0.03
52665.411184,15.645,0.028
52665.42666,15.706,0.03
52665.44197,15.789,0.031
52665.456669,15.848,0.031
52677.408278,15.654,0.031
52677.423413,15.766,0.048
52677.453278,15.877,0.036
52677.46877,15.956,0.04
52680.418396,16.27,0.045
52680.433292,16.317,0.046
52680.448178,16.328,0.048
52680.462921,16.316,0.051
52680.477655,16.369,0.053
52696.343062,16.466,0.046
52696.355696,16.524,0.048
52696.368142,16.523,0.05
52696.393521,16.556,0.052
52712.265576,16.816,0.176
52712.278876,16.555,0.085
52712.292117,16.553,0.08
52712.305363,16.607,0.085
52723.326186,16.823,0.179
52752.236421,15.582,0.026
52752.246624,15.627,0.026
52752.256882,15.675,0.026
52752.267253,15.741,0.028
52752.277547,15.808,0.031
52770.20833,16.453,0.106
52770.208787,16.468,0.101
52770.209486,16.428,0.093
52770.219994,16.584,0.125
52770.22066,16.562,0.114
52770.221357,16.424,0.094
52770.231624,16.593,0.12
52770.232163,16.495,0.106
52770.23366,16.508,0.104
52770.243203,16.645,0.129
52770.243655,16.619,0.119
52770.245721,16.511,0.105
52770.254979,16.831,0.16
52770.255441,16.601,0.12
52770.257979,16.52,0.107
52977.455146,16.383,0.059
52977.467435,16.461,0.063
52977.479758,16.519,0.063
52977.492024,16.485,0.061
52977.50434,16.497,0.061
53035.408287,16.26,0.063
53035.42063,16.3,0.068
53035.432997,16.284,0.039
53035.44609,16.308,0.059
53035.458435,16.357,0.043
53049.334759,16.298,0.037
53049.346624,16.298,0.037
53049.358487,16.341,0.039
53049.370348,16.34,0.039
53049.382212,16.408,0.043
53065.285264,16.551,0.055
53065.296498,16.594,0.055
53065.307845,16.516,0.052
53065.319146,16.602,0.055
53065.330377,16.533,0.052
53093.27691,16.491,0.041
53093.287484,16.128,0.03
53093.297769,15.814,0.022
53093.308063,15.63,0.018
53093.318381,15.614,0.017
53107.238192,15.64,0.023
53107.248547,15.702,0.025
53107.258939,15.771,0.025
53107.269433,15.846,0.03
53122.219127,16.207,0.059
53122.229476,16.24,0.041
53122.239805,16.247,0.04
53136.218801,16.396,0.058
53136.227544,16.515,0.063
53136.237165,16.43,0.061
53154.20484,16.298,0.099
53154.240339,15.552,0.058
53164.174244,16.508,0.064
53164.183746,16.584,0.069
53164.193418,16.516,0.068
53164.203027,16.556,0.066
53164.212575,16.559,0.068
53165.317535,15.807,0.072
53165.327851,15.963,0.1
53165.338142,15.951,0.13
53178.194383,16.406,0.048
53178.203818,16.13,0.038
53178.213253,15.858,0.031
53341.471246,16.257,0.097
53341.485047,16.282,0.094
53341.498052,16.323,0.101
53341.510586,16.306,0.096
53341.523127,16.371,0.104
53349.470217,15.916,0.048
53349.482205,15.628,0.037
53349.494451,15.594,0.035
53349.506882,15.724,0.039
53349.520534,15.816,0.039
53474.296346,16.021,0.037
53474.310097,16.08,0.037
53474.323543,16.158,0.041
53474.333547,16.184,0.043
53474.343874,16.223,0.044
53498.21409,15.677,0.063
53498.225614,15.741,0.05
53498.236242,15.813,0.039
53498.24673,15.866,0.037
53499.209949,15.9,0.031
53499.220554,15.945,0.033
53499.231339,15.988,0.035
53499.241901,15.991,0.035
53499.252843,16.064,0.039
53521.206132,15.866,0.05
53521.216469,15.662,0.033
53521.226774,15.623,0.035
53521.237112,15.675,0.065
53521.247418,15.743,0.072
53538.184202,16.379,0.133
53538.203301,16.247,0.124
53550.175084,16.311,0.059
53550.19485,16.354,0.068
53550.204738,16.406,0.072
53550.214624,16.285,0.067
53702.44681,16.446,0.068
53702.459462,16.612,0.076
53702.472155,16.557,0.068
53702.484735,16.65,0.072
53702.497692,16.532,0.065
53741.415829,15.588,0.02
53741.428775,15.655,0.022
53741.441488,15.726,0.022
53741.454218,15.785,0.024
53741.467011,15.866,0.024
53786.362268,16.717,0.094
53786.375387,16.67,0.135
53786.401811,16.888,0.262
53843.271308,16.337,0.061
53854.239885,16.111,0.079
53854.249997,16.167,0.086
53854.259952,16.163,0.084
53854.280127,16.489,0.277
53886.177967,16.494,0.076
53886.188633,16.497,0.076
53886.199382,16.588,0.085
53886.210181,16.573,0.081
53886.221079,16.666,0.087
53903.174115,16.129,0.065
53903.184196,16.149,0.07
53903.194415,16.168,0.067
53903.204659,16.282,0.072
53903.214857,16.176,0.067
54054.46528,16.637,0.114
54054.478007,16.562,0.101
54054.491026,16.612,0.094
54054.504376,16.526,0.084
54054.517217,16.613,0.096
54068.462462,16.537,0.076
54068.489398,16.54,0.069
54068.502883,16.515,0.12
54085.463898,16.095,0.056
54085.476825,16.159,0.058
54085.489804,16.155,0.053
54085.502729,16.195,0.053
54085.515928,16.271,0.058
54123.383331,16.179,0.046
54123.39564,16.201,0.046
54123.40798,16.245,0.048
54123.420507,16.256,0.05
54123.433028,16.358,0.054
54156.318606,16.711,0.081
54156.329606,16.527,0.066
54156.340695,16.062,0.043
54156.351721,15.763,0.033
54156.362819,15.622,0.028
54201.278779,16.529,0.05
54201.288659,16.536,0.052
54201.299078,16.538,0.052
54201.308966,16.464,0.048
54201.318492,16.548,0.052
54207.229298,15.671,0.053
54207.238857,15.744,0.056
54207.248664,15.775,0.058
54207.259389,15.823,0.061
54207.272886,15.96,0.066
54216.221668,16.513,0.067
54216.230317,16.511,0.065
54216.238967,16.547,0.067
54216.247618,16.488,0.061
54216.25627,16.57,0.067
54508.357645,16.542,0.049
54508.370329,16.531,0.048
54508.382466,16.578,0.053
54508.394656,16.555,0.048
54508.406746,16.67,0.054
54543.3069,16.82,0.168
54543.317615,17.131,0.224
54543.32854,17.093,0.214
54561.189653,16.295,0.129
54561.212392,16.291,0.083
54561.223847,15.84,0.048
54573.262807,15.765,0.055
54573.273537,15.843,0.057
54573.284293,15.863,0.061
54613.205293,16.294,0.094
54613.216049,16.262,0.092
54613.22642,16.281,0.094
54613.236674,16.294,0.094
54613.247084,16.326,0.097
