mjd,m,merr
52641.456444,16.637,0.099
52641.471207,16.632,0.096
52641.500861,15.948,0.053
52641.517624,15.914,0.045
52643.449027,16.762,0.07
52643.463088,16.857,0.072
52643.476975,16.876,0.07
52643.49133,16.788,0.061
52643.505641,16.826,0.063
52647.466254,16.746,0.076
52647.481015,16.758,0.078
52647.495853,16.719,0.072
52647.510238,16.729,0.194
52647.524648,16.695,0.117
52670.40598,16.969,0.094
52670.419976,16.872,0.085
52670.433915,16.786,0.076
52670.447824,16.516,0.059
52670.461741,16.216,0.044
52673.376563,16.827,0.07
52673.391807,16.868,0.07
52673.40703,16.855,0.067
52673.422416,16.824,0.068
52673.437933,16.826,0.065
52703.320162,16.731,0.074
52703.333494,16.793,0.08
52703.34757,16.759,0.074
52703.360807,16.901,0.157
52703.374106,16.819,0.081
52708.318836,16.353,0.053
52708.331514,16.423,0.043
52708.331868,16.41,0.056
52708.344572,16.392,0.043
52708.344927,16.494,0.064
52708.357643,16.438,0.043
52708.357998,16.424,0.058
52708.370792,16.478,0.045
52708.371147,16.52,0.063
52730.295859,16.778,0.063
52730.307426,16.801,0.063
52730.319047,16.785,0.063
52730.330605,16.831,0.065
52730.342179,16.788,0.063
52737.30372,16.433,0.05
52737.328259,16.477,0.05
52737.340134,16.474,0.048
52737.352035,16.529,0.052
52737.364083,16.614,0.057
52756.200728,16.823,0.074
52756.21256,16.744,0.07
52756.224429,16.845,0.076
52756.236273,16.863,0.081
52756.248128,16.889,0.083
52758.260746,16.85,0.07
52758.272596,16.846,0.072
52758.284365,16.822,0.074
52758.296279,16.877,0.083
52758.308119,16.857,0.076
52764.14524,16.108,0.026
52764.15833,16.176,0.028
52764.170675,16.243,0.03
52764.183887,16.274,0.03
52764.196198,16.282,0.031
52788.229972,16.78,0.104
52788.240438,16.849,0.12
52793.23791,16.545,0.085
52793.247904,16.541,0.083
52815.169434,16.932,0.131
52815.17938,16.895,0.141
52815.189407,16.791,0.126
52815.199472,16.878,0.152
52815.209391,17.025,0.17
52986.462826,16.842,0.113
52986.475857,16.905,0.115
52986.489009,17.099,0.133
52986.501961,16.922,0.107
52986.515074,16.719,0.085
53028.405736,16.858,0.044
53028.418126,16.599,0.035
53028.430516,16.315,0.033
53028.443033,16.095,0.022
53032.396896,16.776,0.063
53032.409188,16.791,0.063
53032.421376,16.749,0.061
53032.433646,16.721,0.063
53032.445939,16.85,0.067
53054.356739,16.18,0.033
53054.368534,16.239,0.035
53054.380321,16.304,0.038
53054.392369,16.352,0.038
53054.404468,16.384,0.038
53061.334613,16.725,0.044
53061.345679,16.689,0.044
53061.356744,16.703,0.046
53061.36786,16.718,0.048
53061.379031,16.736,0.057
53080.286757,16.376,0.046
53080.298128,16.461,0.051
53080.309347,16.481,0.053
53080.320478,16.531,0.053
53080.331897,16.542,0.053
53082.355124,16.275,0.033
53082.366236,16.331,0.035
53082.383443,16.429,0.039
53082.394694,16.433,0.041
53089.282508,16.899,0.059
53089.293611,16.805,0.054
53089.304799,16.758,0.073
53090.284416,16.749,0.076
53090.295448,16.877,0.069
53090.306293,16.802,0.076
53090.317055,16.804,0.066
53090.327765,16.783,0.064
53091.332002,16.706,0.044
53091.342604,16.675,0.046
53091.352969,16.596,0.046
53091.363513,16.733,0.05
53091.373803,16.672,0.05
53111.243142,16.093,0.045
53111.255051,16.167,0.046
53111.266426,16.179,0.048
53111.279891,16.267,0.049
53111.291691,16.279,0.051
53113.327666,16.035,0.163
53116.337194,16.714,0.057
53116.348786,16.73,0.054
53116.360107,16.388,0.043
53139.210957,16.275,0.048
53139.220546,16.267,0.051
53139.238939,16.312,0.053
53141.216364,15.992,0.033
53141.226545,16.004,0.035
53141.236299,15.973,0.031
53141.246448,16.04,0.035
53141.256127,16.088,0.037
53144.213392,16.945,0.137
53144.222335,16.872,0.13
53144.231545,17.006,0.175
53144.240415,16.904,0.195
53144.249204,17.048,0.223
53168.169418,16.223,0.055
53168.179439,16.244,0.057
53168.189459,16.293,0.059
53168.199477,16.347,0.063
53168.209494,16.299,0.065
53170.171038,16.335,0.041
53170.181255,16.134,0.035
53170.191376,16.034,0.033
53170.201487,16.045,0.033
53170.211634,16.076,0.037
53173.170283,16.73,0.079
53173.179798,16.713,0.081
53173.190861,16.702,0.083
53173.201172,16.767,0.089
53173.210687,16.731,0.089
53346.472736,16.686,0.203
53353.465497,16.567,0.085
53353.478907,16.583,0.078
53353.491747,16.597,0.076
53353.504591,16.627,0.074
53353.518014,16.693,0.074
53376.491471,16.844,0.076
53376.505278,16.869,0.07
53376.518893,16.84,0.067
53376.536195,16.81,0.065
53381.431035,16.582,0.144
53403.41468,16.925,0.131
53403.43103,17.129,0.142
53403.444021,16.923,0.098
53403.458146,16.691,0.081
53403.471096,16.369,0.063
53432.400889,16.894,0.098
53432.412446,16.614,0.261
53432.424388,16.597,0.074
53432.436401,16.329,0.057
53432.447968,16.134,0.05
53464.340167,16.92,0.083
53464.350254,16.842,0.085
53464.360388,16.85,0.085
53464.370982,16.908,0.083
53464.381081,16.837,0.078
53467.276504,16.484,0.061
53467.286593,16.584,0.074
53467.297102,16.536,0.065
53467.317562,16.582,0.081
53469.27811,16.401,0.048
53469.288334,16.422,0.052
53469.298272,16.429,0.05
53469.310101,16.437,0.052
53469.320327,16.49,0.055
53478.273312,16.66,0.135
53478.282821,16.636,0.131
53478.301168,16.685,0.139
53478.310165,16.771,0.152
53495.252638,16.685,0.172
53495.262747,16.632,0.178
53495.272813,16.728,0.179
53495.282898,16.76,0.235
53495.292954,16.849,0.383
53504.190073,16.779,0.124
53504.199158,16.898,0.137
53504.208087,16.771,0.124
53504.217468,16.917,0.139
53504.227051,16.829,0.128
53530.177932,16.012,0.131
53530.207563,16.288,0.168
53732.482666,16.141,0.063
53732.496234,16.016,0.055
53732.509054,16.063,0.059
53732.521882,16.028,0.057
53732.534574,16.124,0.055
53735.487762,16.94,0.289
53759.415111,16.115,0.061
53759.427887,16.167,0.074
53759.440472,16.279,0.089
53762.470934,16.453,0.052
53762.484335,16.195,0.039
53762.497644,16.009,0.039
53762.510722,16.019,0.041
53762.523605,16.124,0.039
53790.395911,16.66,0.07
53790.407764,16.399,0.055
53790.419609,16.141,0.044
53790.431459,16.058,0.041
53790.443477,16.062,0.043
53793.401728,17.004,0.181
53793.425446,16.95,0.413
53793.437295,16.934,0.329
53793.449161,16.801,0.076
53797.313584,16.509,0.106
53797.31508,16.628,0.1
53797.326085,16.611,0.051
53797.326653,16.562,0.05
53797.338286,16.595,0.054
53797.338554,16.619,0.053
53797.349925,16.647,0.054
53797.350918,16.631,0.051
53799.343179,16.417,0.055
53799.354602,16.547,0.057
53799.366033,16.455,0.046
53799.377477,16.497,0.05
53799.388929,16.541,0.057
53815.293091,16.107,0.068
53815.304265,16.215,0.054
53815.315449,16.276,0.061
53815.326638,16.291,0.061
53815.337842,16.317,0.067
53819.346215,16.884,0.081
53819.360302,16.747,0.076
53819.376105,16.384,0.063
53819.388836,16.148,0.05
53819.401328,16.053,0.048
53820.349826,17.05,0.229
53826.344021,16.774,0.089
53826.35527,16.88,0.229
53826.378588,16.761,0.176
53827.352662,16.632,0.074
53827.364458,16.702,0.091
53827.376167,16.584,0.085
53827.389573,16.635,0.098
53827.402828,16.634,0.085
53832.278688,16.813,0.094
53832.289643,16.707,0.087
53832.300284,16.554,0.076
53832.310216,16.355,0.063
53832.320152,16.125,0.052
53833.272613,16.862,0.122
53833.282445,16.935,0.128
53833.292864,16.985,0.141
53833.302924,16.993,0.139
53833.312886,16.84,0.124
53846.238957,16.94,0.104
53846.249532,16.928,0.101
53846.260134,16.838,0.091
53846.270829,16.475,0.064
53846.281411,16.232,0.053
53848.291551,16.971,0.122
53848.302309,16.953,0.124
53848.312965,16.925,0.122
53848.323756,16.853,0.126
53848.334643,16.619,0.096
53850.327932,16.85,0.089
53850.339194,16.808,0.085
53850.351214,16.914,0.093
53850.363627,16.997,0.107
53850.374847,17.042,0.122
53853.293508,16.823,0.093
53853.304017,16.791,0.091
53853.31513,16.796,0.089
53853.325578,16.853,0.104
53853.336017,16.807,0.091
53856.284563,16.509,0.068
53856.2962,16.669,0.078
53856.307609,16.665,0.078
53856.317759,16.617,0.078
53856.327946,16.608,0.078
53880.216269,16.9,0.102
53880.227453,16.838,0.094
53880.238695,16.799,0.094
53880.249897,16.918,0.104
53880.260907,16.827,0.097
53882.224293,16.704,0.076
53882.235527,16.693,0.078
53882.246756,16.719,0.08
53882.257986,16.675,0.08
53882.269246,16.773,0.091
53884.211701,16.586,0.078
53884.224506,16.586,0.081
53884.23711,16.539,0.079
53884.24985,16.66,0.092
53884.262117,16.75,0.104
54081.47238,16.584,0.158
54086.433222,16.356,0.07
54086.446165,16.468,0.072
54086.459014,16.551,0.076
54086.471988,16.495,0.07
54086.484841,16.566,0.072
54113.397494,16.635,0.078
54113.411231,16.722,0.087
54113.436682,16.691,0.087
54113.449215,16.636,0.091
54115.471719,16.627,0.087
54115.484645,16.734,0.106
54115.497304,16.774,0.112
54115.51121,16.8,0.129
54115.524259,16.887,0.124
54123.402006,16.83,0.099
54123.414422,16.74,0.086
54123.426719,16.762,0.087
54123.439794,16.927,0.101
54123.452272,16.86,0.092
54144.414356,16.51,0.048
54144.425544,16.483,0.046
54144.437024,16.52,0.05
54144.448207,16.559,0.052
54144.459689,16.647,0.057
54147.343276,16.411,0.061
54147.355569,16.146,0.046
54147.368336,16.031,0.043
54147.38075,16.066,0.045
54147.392694,16.143,0.046
54148.393003,16.136,0.051
54148.40464,16.071,0.048
54148.416217,16.091,0.048
54148.427927,16.156,0.053
54148.439826,16.219,0.056
54154.337141,16.738,0.052
54154.349489,16.742,0.05
54154.361103,16.741,0.052
54154.372736,16.854,0.057
54154.384355,16.824,0.055
54157.330181,16.48,0.055
54157.341814,16.515,0.057
54157.35346,16.526,0.055
54157.365114,16.512,0.054
54157.376756,16.579,0.057
54173.321645,16.353,0.041
54173.332379,16.432,0.044
54173.34311,16.458,0.044
54173.35474,16.507,0.046
54173.36569,16.499,0.046
54175.325075,16.104,0.041
54175.335911,16.174,0.043
54175.346659,16.222,0.046
54175.357469,16.285,0.049
54175.368175,16.308,0.051
54176.327767,16.061,0.031
54176.338638,16.035,0.031
54176.349601,16.048,0.031
54176.360507,16.101,0.033
54176.371487,16.187,0.035
54179.345307,16.822,0.068
54179.356105,16.968,0.076
54179.367156,16.885,0.07
54179.378362,16.957,0.078
54179.389534,16.91,0.076
54186.347443,16.378,0.041
54186.359282,16.467,0.046
54186.370641,16.482,0.046
54186.382405,16.536,0.048
54186.394004,16.524,0.046
54198.270119,16.807,0.107
54198.289377,16.834,0.181
54198.298991,17.043,0.244
54206.270792,16.891,0.065
54206.280188,16.931,0.07
54206.289337,16.834,0.067
54206.298478,16.694,0.057
54206.307609,16.525,0.052
54209.266626,16.747,0.167
54209.27569,16.864,0.205
54209.284762,16.769,0.15
54209.293818,16.571,0.144
54209.302882,16.813,0.268
54448.45653,16.036,0.03
54448.469662,16.062,0.028
54448.482763,16.157,0.03
54448.495863,16.176,0.031
54448.508953,16.282,0.111
54485.409829,16.563,0.104
54485.422519,16.744,0.12
54485.435252,16.66,0.107
54485.447924,16.813,0.117
54485.460597,16.75,0.109
54507.389203,16.25,0.03
54507.401487,16.063,0.026
54507.413745,16.006,0.024
54507.426046,16.042,0.024
54507.438431,16.118,0.026
54523.450884,15.961,0.031
54523.46265,16.081,0.035
54523.474397,16.093,0.037
54523.486255,16.14,0.039
54523.498413,16.191,0.043
54530.384986,16.669,0.041
54530.396367,16.701,0.041
54530.407688,16.713,0.044
54530.419026,16.805,0.063
54530.430428,16.753,0.046
54536.325106,16.848,0.044
54536.336225,16.76,0.041
54536.347346,16.432,0.031
54536.358639,16.245,0.026
54536.36975,16.022,0.02
54554.357904,16.843,0.052
54554.369862,16.808,0.054
54554.381788,16.822,0.057
54554.39374,16.828,0.059
54554.405755,16.989,0.072
54563.300301,16.117,0.024
54563.311988,16.173,0.024
54563.323419,16.219,0.028
54563.334853,16.278,0.028
54563.346305,16.322,0.035
54568.295103,16.848,0.094
54568.306021,16.733,0.086
54568.317279,16.874,0.099
54568.328203,16.851,0.096
54568.339189,16.915,0.099
54584.299903,16.81,0.059
54584.310513,16.826,0.065
54584.321126,16.865,0.072
54584.33174,16.844,0.072
54584.342354,16.855,0.076
54591.251076,16.159,0.043
54591.261233,16.247,0.046
54591.271404,16.318,0.048
54591.281566,16.329,0.05
54591.29172,16.384,0.054
54614.211163,16.754,0.057
54614.221205,16.816,0.061
54614.231212,16.79,0.059
54614.241204,16.718,0.055
54614.251214,16.839,0.065
54622.179501,16.885,0.252
54622.18959,16.863,0.234
54622.199647,16.865,0.208
54622.209847,16.692,0.175
