mjd,m,merr
52640.463528,16.731,0.068
52640.478413,16.655,0.061
52640.493322,16.677,0.061
52640.508166,16.625,0.056
52640.523023,16.752,0.064
52643.484129,16.66,0.063
52643.50044,16.76,0.066
52643.516433,16.914,0.076
52643.533613,16.718,0.064
52667.39576,16.824,0.078
52667.410541,16.876,0.086
52667.425538,16.898,0.086
52667.440367,16.833,0.086
52667.455201,16.522,0.064
52670.429112,16.618,0.068
52670.443688,16.648,0.073
52670.45826,16.702,0.076
52670.472956,16.875,0.087
52670.487515,17.02,0.101
52676.376537,16.724,0.076
52676.427809,16.78,0.074
52703.312473,16.7,0.127
52703.313072,16.558,0.168
52703.335062,16.517,0.112
52703.35324,16.666,0.109
52703.368866,16.782,0.124
52703.383642,16.762,0.177
52725.366733,16.791,0.089
52730.297713,16.519,0.058
52730.309721,16.576,0.059
52730.321743,16.651,0.063
52730.333768,16.648,0.068
52730.346413,16.874,0.096
52738.243214,16.817,0.07
52738.254652,16.63,0.061
52738.266572,16.641,0.059
52738.289625,16.574,0.055
52755.261714,16.705,0.067
52755.297561,16.901,0.085
52761.206797,16.964,0.118
52761.218833,17.173,0.161
52764.208534,16.645,0.066
52764.22049,16.593,0.064
52764.232531,16.587,0.063
52764.244663,16.675,0.069
52764.256632,16.674,0.069
52816.17002,16.803,0.134
52816.210815,16.574,0.137
52987.470409,18.144,0.571
53000.441182,16.779,0.048
53000.470318,17.036,0.053
53000.485558,16.91,0.048
53000.500078,16.801,0.041
53033.394774,16.455,0.069
53033.444552,16.527,0.054
53053.354143,16.548,0.044
53053.365814,16.685,0.055
53053.377456,16.76,0.074
53053.389077,16.964,0.078
53053.401352,16.936,0.065
53062.368228,16.674,0.096
53062.381269,16.847,0.071
53062.393319,16.782,0.068
53062.405314,16.782,0.087
53079.325222,16.706,0.054
53079.34667,17.021,0.078
53087.334095,16.775,0.044
53087.365703,16.542,0.039
53087.376302,16.511,0.039
53110.25353,16.518,0.059
53110.275748,16.668,0.065
53110.286888,16.799,0.07
53148.211879,16.932,0.074
53175.173592,16.751,0.059
53175.183574,16.913,0.063
53175.193615,17.065,0.068
53175.203537,16.972,0.063
53175.213463,16.774,0.055
53346.447273,17.045,0.168
53346.459732,16.933,0.145
53348.459748,16.674,0.091
53348.47221,16.617,0.081
53348.484664,16.556,0.07
53348.49849,16.542,0.067
53348.511679,16.621,0.068
53351.497962,16.542,0.092
53351.512423,16.824,0.107
53351.526697,16.604,0.086
53354.455644,16.738,0.074
53354.46859,16.936,0.083
53354.482735,16.959,0.08
53354.49556,16.777,0.067
53354.508515,16.812,0.07
53377.413057,16.573,0.057
53377.426222,16.618,0.061
53377.440671,16.689,0.063
53377.454779,16.866,0.072
53377.467901,16.99,0.076
53404.436819,17.212,0.101
53404.449782,17.032,0.087
53404.462877,16.84,0.078
53447.306278,16.642,0.061
53447.317623,16.643,0.059
53447.328426,17.232,0.163
53447.339189,17.028,0.089
53447.350056,16.977,0.078
53465.334781,16.915,0.081
53465.34554,16.816,0.078
53465.368669,16.615,0.061
53468.277213,17.002,0.194
53468.286683,17.053,0.167
53468.296683,17.019,0.152
53468.38356,16.84,0.081
53468.393097,16.885,0.08
53468.402728,16.976,0.093
53468.412287,16.914,0.089
53468.42189,16.794,0.085
53473.275253,16.751,0.074
53473.287529,16.881,0.081
53473.298737,16.944,0.089
53473.30962,16.861,0.083
53473.321993,16.851,0.081
53503.232599,16.929,0.081
53503.268381,16.661,0.063
53522.169713,16.708,0.068
53522.179944,16.675,0.068
53522.190182,16.586,0.067
53522.211078,16.659,0.076
53737.474685,16.809,0.067
53737.487939,17.137,0.085
53737.501268,17.042,0.08
53737.514625,16.896,0.065
53737.527926,16.757,0.059
53790.350589,16.599,0.059
53790.362443,16.59,0.061
53790.374254,16.624,0.061
53790.386066,16.709,0.069
53790.398145,16.814,0.073
53799.341711,16.572,0.049
53799.353724,16.492,0.046
53799.36558,16.63,0.049
53799.377396,16.613,0.051
53799.389251,16.755,0.056
53818.289655,16.755,0.069
53818.300739,16.971,0.081
53818.311824,17.02,0.086
53818.322953,16.846,0.073
53818.334005,16.815,0.069
53845.266107,16.606,0.096
53845.277343,16.777,0.12
53845.28863,16.76,0.086
53851.240433,16.644,0.079
53851.250639,16.566,0.073
53851.26096,16.587,0.071
53851.271401,16.455,0.069
53851.281707,16.638,0.084
53880.208394,16.817,0.1
53880.219615,16.799,0.1
53880.230835,16.977,0.113
53880.242063,16.978,0.117
53880.25331,16.922,0.105
53881.20968,16.543,0.069
53881.2197,16.571,0.074
53881.229801,16.722,0.087
53881.239942,16.718,0.087
53881.249944,16.723,0.094
53885.165341,16.695,0.085
53885.177539,16.7,0.089
53885.18963,16.652,0.085
53885.201769,16.641,0.089
53885.213897,16.795,0.104
53886.206822,16.58,0.086
53886.216872,16.599,0.081
53886.226912,16.571,0.083
53886.237156,16.7,0.092
53886.247126,16.723,0.097
53901.190991,16.296,0.086
53910.206705,16.725,0.093
53912.200644,16.905,0.144
54112.44157,16.872,0.124
54112.454197,16.803,0.112
54112.467089,17.046,0.185
54112.479729,16.652,0.094
54112.492651,16.704,0.099
54152.34388,16.589,0.039
54152.355841,16.678,0.043
54152.368232,16.805,0.048
54152.382345,16.96,0.055
54152.395141,16.905,0.054
54173.273178,16.564,0.063
54173.284214,16.6,0.061
54173.294965,16.752,0.071
54173.305649,16.812,0.069
54173.316303,16.849,0.074
54185.277503,17.117,0.134
54185.28784,17.008,0.125
54201.28112,16.646,0.086
54201.290455,16.66,0.087
54201.299854,16.662,0.086
54201.309243,16.803,0.094
54201.31865,17.065,0.116
54450.461604,16.666,0.043
54450.474759,16.779,0.046
54450.487921,16.82,0.046
54450.501102,17.007,0.054
54450.51427,16.868,0.046
54475.399579,16.71,0.076
54475.412584,16.868,0.068
54475.425445,16.891,0.065
54475.438298,16.937,0.063
54475.451139,16.754,0.043
54483.394616,17.066,0.109
54483.407735,16.79,0.083
54483.420984,16.699,0.067
54483.4339,16.572,0.054
54483.446798,16.475,0.046
54509.336275,16.923,0.05
54509.348472,16.968,0.054
54509.36052,16.865,0.048
54509.372561,16.711,0.043
54509.384644,16.642,0.037
54532.331691,16.989,0.05
54532.343245,16.96,0.048
54532.354547,16.815,0.046
54532.365818,16.712,0.041
54532.377075,16.63,0.037
54535.447196,16.641,0.061
54535.458214,16.608,0.059
54535.469101,16.545,0.058
54535.479977,16.575,0.064
54535.491066,16.502,0.063
54538.309965,16.616,0.037
54538.321078,16.636,0.037
54538.332177,16.672,0.037
54538.343309,16.763,0.039
54538.354334,16.844,0.044
54543.243696,16.848,0.109
54543.254635,17.017,0.118
54543.265456,17.131,0.131
54558.186584,16.94,0.083
54558.198157,16.698,0.139
54558.209718,16.618,0.067
54558.221287,16.748,0.107
54558.232905,16.601,0.057
54586.241946,16.666,0.061
54586.252273,16.719,0.057
54586.262702,16.72,0.063
54586.273034,16.852,0.065
54586.283444,16.965,0.076
54591.196809,16.866,0.122
54591.206397,16.81,0.125
54591.216157,16.767,0.117
54591.2264,16.728,0.119
54591.236115,16.657,0.111
54594.251922,17.014,0.083
54594.262198,17.042,0.089
54594.272513,16.905,0.08
54594.282799,16.747,0.07
54594.293074,16.72,0.068
54611.199309,16.54,0.089
54611.207654,16.697,0.106
54611.215938,16.7,0.107
54611.224164,16.739,0.114
54611.232398,16.694,0.109
54618.166779,16.985,0.074
54618.176968,16.878,0.063
54618.187207,16.749,0.059
54618.197412,16.702,0.055
54618.2076,16.604,0.052
