mjd,m,merr
52641.479333,15.692,0.028
52641.494546,15.669,0.028
52641.509737,15.745,0.028
52641.524851,15.749,0.028
52644.487954,15.715,0.03
52644.502852,15.591,0.033
52644.517697,15.437,0.026
52644.532434,15.354,0.024
52648.398367,15.69,0.033
52648.413415,15.687,0.035
52648.428106,15.673,0.033
52648.443252,15.707,0.031
52648.45885,15.669,0.03
52667.46682,15.54,0.026
52667.482073,15.568,0.028
52667.512438,15.603,0.03
52667.527898,15.645,0.031
52671.400193,15.325,0.02
52671.415555,15.384,0.02
52671.430737,15.357,0.02
52671.446008,15.383,0.022
52671.461337,15.427,0.022
52674.400274,15.485,0.024
52674.414267,15.505,0.022
52674.42826,15.476,0.022
52674.442138,15.545,0.026
52674.456076,15.543,0.026
52704.37164,15.723,0.028
52704.384805,15.72,0.028
52704.398167,15.764,0.03
52704.411338,15.793,0.031
52704.424418,15.819,0.033
52707.31425,15.78,0.031
52707.32729,15.836,0.033
52707.340587,15.817,0.031
52707.353837,15.772,0.031
52707.367347,15.548,0.026
52728.292152,15.81,0.03
52728.30504,15.762,0.028
52728.317409,15.591,0.024
52728.330894,15.405,0.02
52728.34372,15.352,0.02
52731.323879,15.229,0.022
52731.335871,15.262,0.063
52731.347884,15.315,0.026
52732.300669,15.715,0.035
52732.313022,15.74,0.035
52732.325078,15.766,0.036
52732.337007,15.773,0.038
52732.349227,15.799,0.04
52733.242054,15.563,0.026
52733.25477,15.568,0.026
52733.266827,15.61,0.028
52733.279237,15.601,0.026
52733.291858,15.603,0.037
52737.304241,15.558,0.024
52737.328713,15.575,0.024
52737.34059,15.61,0.024
52737.352489,15.622,0.024
52737.364543,15.628,0.024
52756.20515,15.832,0.036
52756.217257,15.805,0.036
52756.229437,15.797,0.036
52756.241681,15.795,0.038
52756.253876,15.7,0.033
52760.207029,15.704,0.026
52760.218957,15.676,0.026
52760.230885,15.691,0.026
52760.242826,15.702,0.03
52760.254752,15.755,0.03
52764.146243,15.638,0.017
52764.159333,15.635,0.017
52764.171684,15.659,0.018
52764.172222,15.626,0.017
52764.18489,15.685,0.018
52764.197201,15.645,0.017
52789.215024,15.686,0.031
52789.22532,15.677,0.031
52789.235738,15.687,0.031
52789.246047,15.703,0.031
52789.25652,15.711,0.03
52794.17255,15.22,0.02
52794.182561,15.218,0.022
52794.192487,15.257,0.024
52794.202446,15.293,0.024
52794.212414,15.308,0.026
52816.169908,15.858,0.046
52816.179698,15.892,0.05
52816.190341,15.861,0.052
52816.200213,15.798,0.055
52816.210039,15.777,0.065
52823.170204,15.857,0.094
52823.180108,15.86,0.104
52823.190047,15.708,0.044
52987.471991,15.243,0.041
52987.51081,15.312,0.028
52995.470948,15.734,0.022
52995.484406,15.723,0.022
52995.498352,15.656,0.02
52995.511868,15.462,0.017
52995.525592,15.409,0.015
53000.480045,15.62,0.018
53000.492927,15.628,0.018
53000.50589,15.632,0.017
53000.518911,15.681,0.017
53000.531827,15.678,0.017
53026.420506,15.168,0.017
53026.434521,15.219,0.018
53026.447537,15.201,0.046
53026.462114,15.281,0.018
53026.474883,15.319,0.046
53033.394753,15.12,0.018
53033.406999,15.17,0.017
53033.41951,15.197,0.018
53033.431605,15.255,0.018
53033.443752,15.265,0.018
53054.375375,15.222,0.015
53054.387918,15.267,0.015
53054.399928,15.287,0.015
53054.412584,15.292,0.017
53054.426217,15.344,0.017
53055.37507,15.769,0.028
53055.393693,15.631,0.096
53055.4048,15.767,0.087
53058.345687,15.751,0.018
53058.358036,15.645,0.017
53058.370378,15.452,0.015
53058.38178,15.322,0.018
53058.400041,15.2,0.013
53080.336201,15.694,0.024
53080.34769,15.687,0.024
53080.358663,15.699,0.024
53080.370802,15.677,0.024
53080.382211,15.711,0.024
53081.345442,15.592,0.021
53081.357015,15.586,0.021
53081.368115,15.62,0.022
53081.368669,15.615,0.023
53081.379127,15.64,0.022
53081.39018,15.651,0.022
53081.391458,15.633,0.023
53081.401178,15.655,0.024
53081.412099,15.662,0.022
53082.335516,15.257,0.013
53082.347109,15.279,0.013
53082.358285,15.31,0.013
53082.36941,15.342,0.015
53082.386745,15.381,0.015
53083.339061,15.81,0.02
53083.349746,15.794,0.02
53083.360983,15.83,0.022
53083.372092,15.77,0.02
53083.382797,15.708,0.022
53086.345525,15.13,0.015
53086.356364,15.096,0.015
53086.378171,15.161,0.015
53086.389169,15.207,0.017
53092.33198,15.445,0.018
53092.342476,15.459,0.018
53092.352654,15.461,0.018
53092.362836,15.488,0.018
53092.373018,15.52,0.018
53114.254643,15.376,0.017
53114.265951,15.306,0.015
53114.277084,15.224,0.013
53115.244395,15.623,0.021
53115.245206,15.479,0.02
53115.256432,15.512,0.02
53115.289828,15.498,0.022
53116.248498,15.577,0.033
53116.248671,15.505,0.033
53116.249395,15.581,0.041
53116.260111,15.594,0.031
53116.260467,15.617,0.03
53116.26064,15.582,0.03
53116.260813,15.457,0.026
53116.271097,15.604,0.026
53116.271601,15.579,0.024
53116.271774,15.517,0.024
53116.282028,15.618,0.051
53116.282735,15.671,0.043
53116.282907,15.571,0.037
53116.28308,15.584,0.033
53116.292756,15.627,0.035
53116.293973,15.641,0.037
53116.294145,15.618,0.037
53116.294318,15.613,0.035
53117.245482,15.189,0.013
53117.256345,15.206,0.013
53117.267212,15.22,0.013
53117.277981,15.277,0.013
53117.28876,15.307,0.015
53117.302275,15.357,0.015
53117.312892,15.384,0.017
53117.323458,15.415,0.017
53117.334134,15.428,0.018
53117.344658,15.415,0.018
53139.204008,15.729,0.031
53139.213316,15.753,0.031
53139.222614,15.772,0.033
53139.231917,15.818,0.033
53139.241379,15.793,0.035
53142.213573,15.323,0.018
53142.223104,15.252,0.015
53142.232723,15.173,0.013
53142.242267,15.158,0.017
53142.251795,15.173,0.015
53146.211894,15.769,0.022
53146.22094,15.807,0.022
53146.230116,15.768,0.022
53146.239189,15.743,0.022
53146.24824,15.703,0.022
53169.173788,15.468,0.026
53169.18391,15.506,0.028
53169.194005,15.507,0.028
53169.204104,15.513,0.028
53169.214214,15.554,0.028
53171.172956,15.675,0.026
53171.183253,15.703,0.028
53171.193469,15.723,0.028
53171.203698,15.721,0.03
53171.213998,15.741,0.031
53174.173389,15.79,0.026
53174.183458,15.796,0.026
53174.193978,15.708,0.026
53174.204213,15.593,0.024
53174.214515,15.474,0.022
53346.511291,15.514,0.048
53348.460482,15.49,0.043
53348.472941,15.544,0.037
53348.485395,15.514,0.033
53348.499223,15.568,0.033
53348.512412,15.598,0.031
53354.4564,15.685,0.033
53354.469345,15.661,0.03
53354.48349,15.669,0.03
53354.496315,15.701,0.03
53354.509273,15.681,0.03
53377.413823,15.174,0.02
53377.426987,15.195,0.02
53377.441438,15.244,0.018
53377.455546,15.267,0.02
53377.468667,15.286,0.018
53382.507606,15.742,0.03
53382.522378,15.763,0.028
53382.537961,15.797,0.031
53404.430979,15.633,0.026
53404.443295,15.645,0.028
53404.456741,15.689,0.028
53404.469616,15.676,0.028
53404.483336,15.661,0.03
53433.365937,15.357,0.018
53433.377386,15.37,0.018
53433.38884,15.402,0.02
53433.401756,15.395,0.022
53433.414032,15.435,0.024
53440.438144,15.503,0.026
53440.44864,15.502,0.028
53440.460321,15.501,0.028
53440.471946,15.549,0.031
53465.334477,15.227,0.02
53465.34522,15.256,0.02
53465.356913,15.279,0.022
53465.368364,15.271,0.02
53465.378645,15.399,0.022
53468.276908,15.353,0.052
53468.286363,15.345,0.03
53468.296381,15.397,0.037
53473.274949,15.663,0.03
53473.287223,15.678,0.031
53473.298432,15.698,0.031
53473.309312,15.703,0.033
53473.321688,15.765,0.035
53478.258216,15.515,0.044
53478.26813,15.487,0.044
53479.277681,15.191,0.041
53479.290766,15.177,0.041
53479.303026,15.205,0.041
53479.312951,15.3,0.046
53479.322785,15.333,0.046
53493.296725,15.318,0.028
53493.307058,15.336,0.028
53493.317786,15.353,0.03
53493.327723,15.366,0.03
53493.337805,15.402,0.03
53496.202817,15.287,0.026
53496.213031,15.33,0.026
53496.223342,15.337,0.028
53496.233606,15.327,0.028
53496.24383,15.365,0.028
53526.193925,15.731,0.068
53527.170065,15.532,0.031
53527.190257,15.481,0.03
53527.200019,15.581,0.033
53527.209825,15.586,0.033
53733.456702,15.713,0.035
53733.469351,15.704,0.033
53733.482084,15.701,0.048
53746.462372,15.199,0.028
53746.474792,15.229,0.026
53746.499942,15.272,0.024
53746.512462,15.306,0.022
53791.359189,15.352,0.018
53791.369096,15.361,0.02
53791.380837,15.405,0.022
53791.382758,15.417,0.02
53791.392592,15.44,0.022
53791.404348,15.441,0.022
53791.406269,15.45,0.021
53791.416112,15.441,0.022
53794.410032,15.623,0.024
53794.421658,15.625,0.024
53794.43329,15.647,0.026
53794.444917,15.671,0.026
53815.338786,15.572,0.033
53815.349933,15.569,0.035
53815.361068,15.633,0.037
53815.372233,15.598,0.037
53815.383396,15.638,0.039
53817.304571,15.745,0.026
53818.333501,15.697,0.031
53818.344104,15.686,0.03
53818.356664,15.671,0.03
53818.381871,15.682,0.031
53823.317376,15.264,0.02
53823.330641,15.279,0.02
53823.343284,15.305,0.02
53823.359084,15.357,0.022
53825.286372,15.648,0.03
53825.298846,15.631,0.037
53825.309864,15.681,0.033
53825.320921,15.658,0.03
53825.33255,15.701,0.068
53829.326019,15.565,0.046
53848.291854,15.306,0.028
53848.302617,15.24,0.028
53848.313274,15.196,0.028
53848.324063,15.195,0.028
53848.334951,15.248,0.03
53849.298823,15.688,0.033
53849.309612,15.683,0.033
53849.331486,15.703,0.037
53849.342252,15.783,0.041
53850.254468,15.528,0.03
53850.285485,15.6,0.035
53852.259782,15.727,0.039
53852.2706,15.753,0.039
53852.280969,15.777,0.043
53852.29201,15.764,0.041
53852.303762,15.809,0.043
53855.250811,15.481,0.03
53855.26192,15.406,0.028
53855.27356,15.351,0.026
53855.284464,15.223,0.024
53855.295141,15.189,0.022
53858.245743,15.331,0.111
53858.257711,15.243,0.067
53858.268394,15.271,0.05
53858.290044,15.374,0.03
53880.227848,15.813,0.04
53883.223252,15.242,0.026
53883.234664,15.191,0.026
53883.246165,15.175,0.024
53883.257615,15.237,0.026
53883.269042,15.245,0.03
53884.167905,15.681,0.037
53884.17966,15.684,0.037
53884.191425,15.673,0.039
53884.203222,15.701,0.039
53884.215007,15.737,0.041
53901.189601,15.828,0.067
53901.199615,15.898,0.074
53901.209672,15.832,0.08
53911.217661,15.272,0.056
53911.22726,15.265,0.097
54084.487457,15.66,0.033
54084.501186,15.674,0.035
54084.514921,15.735,0.041
54084.528648,15.76,0.043
54087.483508,15.773,0.035
54121.400321,15.33,0.02
54121.413072,15.333,0.02
54121.425634,15.405,0.023
54121.438032,15.422,0.023
54121.450561,15.457,0.025
54124.404753,15.496,0.018
54124.42085,15.527,0.02
54124.433742,15.546,0.02
54124.447557,15.558,0.02
54124.460645,15.611,0.02
54149.392902,15.445,0.023
54149.416476,15.493,0.025
54149.429149,15.515,0.026
54149.441053,15.545,0.026
54155.356022,15.656,0.022
54155.367843,15.649,0.022
54155.379682,15.691,0.022
54155.391639,15.671,0.022
54155.403478,15.672,0.024
54156.327458,15.359,0.02
54156.339072,15.399,0.02
54156.350589,15.428,0.02
54156.362115,15.434,0.02
54156.373643,15.439,0.02
54174.321242,15.272,0.021
54174.331884,15.258,0.058
54174.342553,15.35,0.023
54174.353311,15.315,0.023
54174.364163,15.375,0.023
54175.326287,15.756,0.026
54175.337041,15.795,0.026
54175.347658,15.81,0.026
54175.358373,15.807,0.026
54175.369055,15.764,0.026
54180.327251,15.585,0.025
54200.263956,15.713,0.036
54200.282984,15.71,0.04
54200.292463,15.728,0.041
54200.301931,15.686,0.04
54207.26914,15.723,0.026
54207.278283,15.726,0.026
54207.287467,15.698,0.033
54210.265694,15.787,0.03
54210.274702,15.827,0.03
54210.283683,15.801,0.031
54210.292676,15.814,0.031
54210.301698,15.751,0.03
54440.480442,15.53,0.043
54454.461691,15.556,0.02
54454.474926,15.554,0.02
54454.488077,15.57,0.02
54454.501112,15.576,0.02
54454.514138,15.599,0.02
54474.404637,15.653,0.02
54474.417637,15.68,0.03
54474.430651,15.683,0.03
54474.443668,15.682,0.022
54474.456655,15.696,0.041
54483.395854,15.196,0.026
54483.408992,15.258,0.024
54483.422222,15.266,0.022
54483.435135,15.311,0.018
54483.448035,15.347,0.018
54508.409958,15.192,0.013
54508.422067,15.213,0.013
54508.43415,15.246,0.013
54508.446246,15.261,0.015
54508.458381,15.3,0.015
54537.325785,15.689,0.031
54537.336846,15.693,0.035
54537.347834,15.751,0.048
54537.358784,15.713,0.024
54537.369761,15.708,0.035
54543.255726,15.681,0.039
54543.266541,15.57,0.033
54554.358562,15.322,0.015
54554.370519,15.235,0.015
54554.382445,15.206,0.015
54554.3944,15.211,0.015
54554.406416,15.24,0.017
54564.296552,15.164,0.013
54564.307958,15.195,0.013
54564.319316,15.234,0.013
54564.330662,15.274,0.013
54564.341986,15.282,0.015
54568.295806,15.584,0.035
54568.306725,15.443,0.031
54568.317982,15.364,0.03
54568.328906,15.236,0.026
54580.244879,15.625,0.03
54580.255508,15.624,0.03
54580.266104,15.63,0.03
54580.276707,15.66,0.033
54580.287315,15.654,0.031
54585.248606,15.154,0.031
54585.258862,15.229,0.02
54585.269171,15.25,0.02
54585.279464,15.258,0.015
54585.289827,15.303,0.017
54592.245283,15.199,0.017
54592.255984,15.238,0.017
54592.266455,15.261,0.017
54592.276887,15.29,0.018
54592.287302,15.321,0.018
54611.208112,15.678,0.022
54611.218006,15.735,0.024
54611.227863,15.709,0.024
54611.237886,15.677,0.024
54611.247671,15.677,0.024
54615.214475,15.705,0.028
54615.225193,15.693,0.028
54615.246091,15.683,0.028
54615.256606,15.664,0.03
