mjd,m,merr
52612.463023,16.074,0.046
52612.478211,16.129,0.044
52612.493353,16.091,0.041
52612.508677,15.924,0.035
52612.523864,15.857,0.033
52620.449949,16.055,0.046
52620.464627,16.158,0.046
52620.479201,16.183,0.078
52620.493781,16.083,0.092
52620.508909,15.877,0.045
52650.365986,16.042,0.039
52650.380091,15.932,0.031
52650.394252,15.851,0.03
52650.408369,15.872,0.028
52650.422515,15.891,0.028
52652.425564,15.988,0.03
52652.456136,16.162,0.036
52652.47191,16.134,0.036
52664.364379,16.144,0.054
52664.380631,16.23,0.102
52681.348323,16.029,0.038
52681.393226,16.168,0.046
52681.408495,16.016,0.043
52696.394971,15.978,0.03
52696.422417,16.179,0.037
52712.267941,15.961,0.089
52712.281443,16.009,0.054
52712.29461,16.143,0.063
52712.307983,16.246,0.071
52723.327518,16.032,0.174
52752.237315,15.903,0.031
52752.24757,15.948,0.031
52752.257776,15.949,0.033
52752.268148,16.033,0.035
52752.278439,16.125,0.039
52771.222508,16.211,0.096
52771.235378,16.256,0.097
52771.247022,16.172,0.094
52771.258514,16.117,0.089
52787.214757,16.229,0.048
52787.225714,16.224,0.046
52787.236696,16.13,0.043
52787.247449,16.041,0.041
52787.258398,15.963,0.038
52800.203266,16.009,0.116
52810.175709,15.997,0.048
52810.185556,15.976,0.046
52810.205341,15.889,0.13
52810.215258,15.914,0.053
52812.177151,16.009,0.046
52812.195206,15.941,0.045
52812.205934,15.913,0.045
52812.216141,15.859,0.043
52812.226343,15.909,0.045
52826.16897,15.984,0.074
52826.179011,15.959,0.069
52826.188938,15.949,0.073
52826.199234,15.875,0.068
52977.455954,16.04,0.041
52977.468242,16.225,0.046
52977.480604,16.28,0.048
52977.492835,16.284,0.05
52977.505148,16.171,0.043
52990.461696,15.901,0.045
52990.474285,15.859,0.031
52990.486903,15.841,0.03
52990.4995,15.875,0.03
52990.512585,15.968,0.033
53035.409286,15.908,0.035
53035.421517,15.97,0.055
53035.433884,16.045,0.03
53035.446978,16.193,0.055
53035.459321,16.152,0.033
53037.408948,15.936,0.033
53037.4213,16.006,0.035
53037.433701,16.196,0.04
53037.446688,16.249,0.04
53049.335424,16.117,0.028
53049.347288,16.04,0.026
53049.359151,15.943,0.024
53049.371013,15.892,0.024
53049.382876,15.859,0.024
53065.289755,15.937,0.028
53065.30183,16.061,0.033
53065.313968,16.142,0.035
53065.325736,16.144,0.035
53065.337554,16.154,0.033
53094.273031,15.941,0.028
53094.282675,15.884,0.026
53094.293536,15.875,0.025
53094.303395,15.824,0.023
53094.313308,15.877,0.025
53107.23875,15.894,0.03
53107.249106,15.866,0.028
53107.259494,15.924,0.03
53107.26999,15.978,0.033
53107.280498,16.113,0.036
53122.245468,16.103,0.035
53122.255823,15.987,0.033
53122.266177,15.924,0.031
53122.276528,15.886,0.03
53122.2872,15.842,0.03
53136.200236,16.065,0.041
53136.210315,16.129,0.045
53136.219065,16.167,0.046
53136.227795,16.207,0.048
53136.237416,16.194,0.049
53153.209146,15.869,0.037
53153.218098,15.814,0.037
53153.22691,15.824,0.037
53153.235709,15.875,0.039
53153.244484,15.91,0.041
53154.205085,16.055,0.074
53154.215616,15.998,0.074
53154.223831,16.184,0.089
53154.232225,16.141,0.089
53154.240586,16.082,0.086
53164.174493,15.943,0.038
53164.183997,15.999,0.041
53164.19367,16.107,0.046
53164.2033,16.202,0.049
53164.21284,16.177,0.046
53178.175584,15.909,0.03
53178.185723,15.97,0.031
53178.195801,15.999,0.033
53178.206016,16.113,0.035
53178.216095,16.115,0.037
53330.469254,16.066,0.061
53330.497525,16.235,0.071
53341.469828,15.971,0.061
53341.481901,15.892,0.057
53341.493974,15.903,0.057
53341.506556,15.877,0.054
53341.518634,16.021,0.061
53358.465636,16.216,0.043
53358.478274,16.267,0.043
53358.490906,16.224,0.041
53358.50354,16.102,0.037
53358.523134,15.939,0.031
53386.478509,16.17,0.039
53386.491471,15.983,0.033
53386.504428,15.922,0.03
53386.51772,15.841,0.03
53386.532703,15.815,0.03
53441.390887,16.152,0.035
53441.401795,16.037,0.033
53441.412748,15.964,0.031
53441.424225,15.923,0.031
53441.435132,15.878,0.03
53474.296949,16.163,0.039
53474.310701,16.161,0.039
53474.324148,16.084,0.035
53474.33415,15.99,0.033
53474.344473,15.937,0.033
53521.206727,16.114,0.076
53521.217068,16.148,0.048
53521.227368,16.207,0.063
53521.237706,16.127,0.078
53521.248014,16.056,0.059
53538.174684,16.164,0.098
53538.184453,15.964,0.083
53538.193994,15.959,0.085
53538.203549,15.888,0.078
53538.213176,15.886,0.081
53551.183574,15.908,0.039
53551.193518,16.05,0.044
53551.203669,16.13,0.05
53551.213588,16.227,0.055
53728.462774,15.926,0.037
53728.476126,15.888,0.039
53728.489945,15.903,0.037
53728.503381,15.904,0.043
53728.516668,16.045,0.046
53742.470927,15.882,0.022
53742.471592,15.877,0.022
53742.483756,15.887,0.022
53742.484413,15.905,0.024
53742.49671,15.904,0.022
53742.497375,15.94,0.022
53742.509771,16.026,0.024
53742.510438,16.069,0.024
53742.522733,16.142,0.026
53742.523401,16.129,0.026
53772.355204,15.957,0.035
53772.367973,15.977,0.035
53772.380793,16.151,0.037
53772.393711,16.131,0.037
53772.40674,16.198,0.041
53786.363096,15.977,0.04
53786.376206,16.089,0.094
53807.331508,16.172,0.08
53843.254944,15.898,0.041
53843.266188,15.959,0.044
53843.277381,16.034,0.052
53843.288592,16.122,0.057
53843.300428,16.197,0.065
53855.242175,15.859,0.038
53855.252331,15.875,0.038
53855.262577,15.918,0.038
53855.272769,16.025,0.043
53855.282856,16.078,0.045
53878.236176,16.261,0.069
53878.246975,16.167,0.063
53878.257673,15.994,0.053
53878.268673,15.921,0.049
53878.280468,15.93,0.051
53903.176797,16.172,0.061
53903.198406,15.93,0.048
53903.20882,15.939,0.046
53903.218754,15.893,0.046
53903.228287,15.944,0.048
54068.463413,15.97,0.043
54068.49015,16.177,0.048
54068.503636,16.124,0.045
54086.428338,15.86,0.045
54086.441695,15.935,0.048
54086.455536,16.002,0.051
54086.468825,16.191,0.059
54086.483886,16.153,0.056
54109.391386,16.023,0.102
54169.322828,15.919,0.03
54169.334524,15.915,0.031
54169.345746,15.971,0.035
54169.356981,16.09,0.043
54169.368275,16.16,0.041
54186.277249,15.94,0.04
54186.287462,16.006,0.041
54186.297767,16.156,0.051
54186.307935,16.192,0.049
54186.318129,16.2,0.051
54201.279668,15.964,0.026
54201.289549,15.928,0.026
54201.299917,15.897,0.024
54201.309724,15.92,0.024
54201.319247,15.953,0.026
54209.267862,15.943,0.096
54209.277053,15.914,0.081
54209.285884,15.879,0.061
54209.294639,15.836,0.061
54217.220202,16.077,0.065
54217.228853,16.121,0.067
54217.237511,16.094,0.067
54217.246179,16.099,0.063
54218.239778,15.832,0.084
54218.248683,15.837,0.081
54218.257771,15.823,0.079
54218.266588,15.898,0.086
54508.358479,16.006,0.033
54508.371354,16.07,0.036
54508.383301,16.15,0.036
54508.395485,16.108,0.036
54508.407581,15.982,0.031
54543.284419,16.003,0.092
54543.295186,16.153,0.101
54543.307604,16.074,0.092
54543.318321,16.064,0.087
54543.32924,15.96,0.078
54614.2146,16.171,0.045
54614.2249,16.116,0.041
54614.235369,15.973,0.036
54614.245788,15.911,0.036
54614.256013,15.851,0.035
