mjd,m,merr
52613.373318,15.483,0.024
52613.388759,15.526,0.024
52613.404085,15.546,0.022
52613.419639,15.551,0.022
52613.434929,15.542,0.024
52618.409479,15.603,0.028
52618.425062,15.612,0.033
52618.440493,15.645,0.035
52639.319887,15.354,0.021
52639.335575,15.37,0.021
52639.350573,15.38,0.021
52639.366308,15.386,0.021
52639.381295,15.408,0.021
52643.309386,15.537,0.022
52643.32361,15.57,0.022
52643.366368,15.56,0.022
52647.322794,15.313,0.018
52647.337616,15.29,0.018
52647.352254,15.283,0.018
52647.366963,15.278,0.018
52647.381535,15.283,0.02
52666.244243,15.589,0.022
52666.259667,15.592,0.022
52666.275043,15.585,0.022
52666.290368,15.597,0.022
52666.305933,15.585,0.022
52670.325253,15.273,0.018
52670.339236,15.286,0.018
52670.35321,15.317,0.018
52670.367205,15.339,0.02
52670.381225,15.381,0.022
52673.223673,15.584,0.024
52673.239187,15.591,0.024
52673.254762,15.644,0.024
52673.27027,15.632,0.024
52673.285781,15.614,0.024
52678.302272,15.475,0.085
52678.316296,15.44,0.039
52678.330275,15.4,0.028
52678.344351,15.381,0.022
52678.358383,15.352,0.022
52698.233219,15.305,0.018
52698.260229,15.128,0.018
52698.27398,15.087,0.018
52698.287973,15.118,0.015
52703.240474,15.098,0.015
52703.253831,15.108,0.022
52703.267419,15.148,0.033
52703.281315,15.203,0.018
52703.294662,15.232,0.018
52724.176966,15.581,0.028
52724.189581,15.57,0.028
52724.202343,15.598,0.028
52724.226641,15.621,0.028
52730.175775,15.401,0.02
52730.188138,15.428,0.02
52730.199775,15.448,0.02
52730.211931,15.471,0.022
52730.223474,15.478,0.022
52733.186413,15.324,0.02
52733.198537,15.328,0.02
52733.210683,15.325,0.02
52733.22296,15.359,0.022
52733.235102,15.389,0.022
52754.154686,15.271,0.023
52754.16742,15.251,0.023
52754.179666,15.208,0.023
52754.192086,15.199,0.023
52754.204779,15.202,0.025
52758.141709,15.486,0.022
52758.153705,15.505,0.024
52758.165716,15.489,0.024
52758.177798,15.514,0.024
52758.189962,15.511,0.026
52933.483056,15.454,0.035
52933.495817,15.488,0.035
52936.481471,15.352,0.018
52936.493596,15.353,0.018
52940.443248,15.633,0.084
52940.455458,15.618,0.04
52940.467426,15.651,0.066
52944.443854,15.196,0.025
52944.4564,15.253,0.025
52944.469049,15.295,0.025
52944.481395,15.262,0.023
52944.493736,15.329,0.025
52964.451142,15.496,0.018
52964.464057,15.476,0.018
52964.477156,15.517,0.018
52964.490415,15.511,0.018
52964.50672,15.516,0.018
52966.39888,15.515,0.022
52966.411545,15.498,0.022
52966.424348,15.512,0.022
52966.449821,15.503,0.022
52974.393257,15.4,0.017
52974.40623,15.415,0.017
52974.419253,15.435,0.017
52974.432141,15.451,0.018
52974.445135,15.479,0.018
52992.409579,15.438,0.018
52992.42233,15.468,0.018
52992.435358,15.484,0.016
52992.448043,15.489,0.016
52992.460745,15.501,0.016
52994.404111,15.616,0.02
52994.417304,15.598,0.017
52994.430369,15.612,0.018
52994.443615,15.588,0.022
52994.456759,15.608,0.02
53025.307081,15.354,0.013
53025.320393,15.37,0.017
53025.333619,15.39,0.017
53025.346475,15.409,0.015
53025.359498,15.418,0.017
53028.280803,15.144,0.011
53028.319919,15.215,0.011
53034.272746,15.609,0.028
53034.285307,15.601,0.028
53034.297987,15.627,0.028
53034.310658,15.618,0.028
53034.3233,15.618,0.028
53051.221128,15.34,0.015
53051.23306,15.318,0.015
53051.244774,15.305,0.015
53057.315482,15.607,0.046
53061.221782,15.323,0.013
53061.233103,15.314,0.013
53061.244348,15.28,0.011
53078.259234,15.642,0.04
53078.270523,15.605,0.026
53078.281422,15.627,0.028
53078.292428,15.597,0.026
53078.303536,15.613,0.028
53082.226403,15.602,0.017
53082.237405,15.577,0.017
53082.248516,15.456,0.015
53082.259736,15.348,0.013
53082.270863,15.296,0.013
53091.224454,15.43,0.018
53091.234995,15.365,0.035
53091.256052,15.476,0.02
53091.266638,15.472,0.018
53109.137677,15.223,0.021
53109.14808,15.229,0.021
53109.15851,15.257,0.021
53109.168998,15.315,0.023
53109.179529,15.304,0.023
53116.196934,15.561,0.028
53116.208065,15.559,0.057
53116.219197,15.566,0.065
53116.230331,15.541,0.063
53137.149612,15.36,0.028
53137.159536,15.325,0.028
53137.169571,15.314,0.03
53137.179562,15.374,0.035
53287.416468,15.141,0.03
53287.42741,15.161,0.03
53287.438345,15.22,0.028
53287.449281,15.234,0.028
53287.460216,15.221,0.026
53292.40226,15.289,0.031
53292.411814,15.289,0.03
53292.421382,15.272,0.028
53292.430948,15.347,0.03
53292.440525,15.316,0.028
53297.408552,15.32,0.031
53297.416188,15.309,0.026
53297.418307,15.352,0.031
53297.428053,15.365,0.031
53297.428143,15.329,0.026
53297.437801,15.357,0.03
53297.440886,15.359,0.026
53297.447541,15.397,0.03
53297.454702,15.369,0.025
53297.466765,15.401,0.025
53316.37729,15.642,0.037
53316.389402,15.625,0.035
53316.401519,15.627,0.043
53316.413635,15.634,0.039
53316.425751,15.601,0.063
53327.369814,15.475,0.035
53327.382246,15.506,0.028
53327.394634,15.509,0.033
53327.407012,15.506,0.031
53327.419463,15.555,0.033
53329.432595,15.612,0.028
53329.445012,15.598,0.03
53329.452809,15.593,0.031
53329.457838,15.578,0.026
53329.465321,15.601,0.031
53329.470217,15.572,0.026
53329.47816,15.59,0.031
53329.482574,15.562,0.026
53329.49063,15.583,0.031
53329.503372,15.604,0.031
53347.397582,15.49,0.03
53347.412713,15.536,0.067
53347.44361,15.549,0.024
53347.46046,15.563,0.024
53353.333063,15.266,0.018
53353.346071,15.269,0.018
53353.359052,15.264,0.018
53353.372576,15.288,0.02
53353.385571,15.285,0.02
53357.382859,15.627,0.025
53357.397669,15.649,0.025
53357.412646,15.634,0.025
53357.442426,15.609,0.025
53376.350527,15.311,0.033
53376.36377,15.355,0.018
53376.378657,15.374,0.02
53376.392076,15.383,0.02
53376.40532,15.411,0.02
53381.306259,15.352,0.018
53381.31951,15.361,0.022
53381.332735,15.381,0.02
53381.346956,15.383,0.018
53385.35005,15.546,0.024
53385.36338,15.564,0.024
53385.377479,15.554,0.024
53385.390677,15.573,0.026
53385.403926,15.599,0.028
53387.345353,15.647,0.026
53387.354511,15.623,0.026
53387.359991,15.644,0.026
53387.368412,15.587,0.026
53387.373544,15.596,0.026
53387.382372,15.526,0.024
53387.387002,15.554,0.024
53387.395272,15.494,0.024
53387.399984,15.483,0.022
53387.408708,15.451,0.024
53403.28411,15.557,0.02
53403.296868,15.551,0.02
53403.309688,15.583,0.02
53403.322484,15.585,0.02
53403.33521,15.61,0.024
53410.280246,15.556,0.052
53410.292747,15.587,0.035
53410.306183,15.622,0.026
53410.320044,15.622,0.024
53410.333663,15.667,0.022
53432.226432,15.3,0.024
53432.238082,15.346,0.044
53432.273044,15.333,0.068
53464.190331,15.516,0.026
53464.200762,15.52,0.024
53464.221721,15.545,0.024
53464.232253,15.538,0.026
53495.1466,15.439,0.028
53495.156719,15.445,0.028
53495.166885,15.512,0.031
53495.177036,15.468,0.03
53495.1872,15.475,0.041
53501.137425,15.338,0.028
53501.148059,15.292,0.026
53501.159196,15.232,0.026
53501.170745,15.189,0.028
53501.181453,15.233,0.03
53648.426436,15.453,0.035
53648.438382,15.398,0.031
53648.455474,15.326,0.028
53648.466786,15.35,0.028
53648.47817,15.27,0.026
53655.421448,15.288,0.03
53655.432502,15.356,0.031
53655.443855,15.365,0.031
53655.454972,15.373,0.03
53655.466004,15.376,0.03
53671.439664,15.269,0.028
53671.45172,15.266,0.028
53671.463755,15.29,0.026
53671.475815,15.32,0.031
53671.487946,15.325,0.046
53674.411095,15.606,0.031
53674.423229,15.605,0.03
53674.435294,15.609,0.03
53674.447339,15.623,0.031
53674.459397,15.613,0.03
53680.446245,15.463,0.022
53680.458561,15.469,0.022
53680.471043,15.481,0.022
53680.48341,15.474,0.022
53680.495723,15.496,0.022
53705.392584,15.598,0.026
53705.405928,15.56,0.026
53705.419028,15.556,0.026
53705.432103,15.568,0.026
53708.390475,15.536,0.022
53708.403654,15.558,0.022
53708.416824,15.551,0.022
53708.429918,15.561,0.022
53708.442802,15.573,0.024
53713.398449,15.536,0.046
53713.4113,15.512,0.041
53713.424326,15.537,0.044
53713.437582,15.532,0.037
53713.450519,15.516,0.035
53732.348162,15.327,0.031
53732.360878,15.263,0.022
53732.393379,15.17,0.022
53732.406244,15.179,0.028
53735.343008,15.638,0.024
53735.356595,15.659,0.026
53735.369781,15.637,0.026
53735.383271,15.646,0.026
53739.346365,15.358,0.033
53739.35968,15.375,0.033
53759.285898,15.447,0.02
53759.298815,15.431,0.022
53759.311593,15.454,0.02
53759.324564,15.458,0.02
53759.337566,15.466,0.02
53762.341928,15.357,0.022
53762.354779,15.364,0.018
53762.367464,15.388,0.02
53762.380494,15.394,0.02
53762.393408,15.369,0.02
53770.219196,15.475,0.022
53770.23226,15.408,0.022
53770.245232,15.404,0.02
53770.258188,15.395,0.02
53770.271433,15.348,0.018
53788.232225,15.358,0.058
53788.24528,15.267,0.021
53788.258054,15.186,0.023
53788.271142,15.145,0.031
53788.283989,15.124,0.023
53790.277466,15.397,0.024
53790.289199,15.398,0.022
53790.324501,15.472,0.024
53793.281641,15.182,0.055
53793.293511,15.267,0.057
53797.231101,15.492,0.021
53797.238923,15.47,0.033
53797.243788,15.509,0.021
53797.25048,15.504,0.02
53797.256242,15.524,0.021
53797.269098,15.513,0.036
53797.273697,15.511,0.02
53797.281421,15.505,0.025
53797.285273,15.479,0.03
53799.225416,15.516,0.026
53799.236896,15.551,0.026
53799.248603,15.564,0.026
53799.260068,15.557,0.024
53799.27182,15.568,0.024
53813.206719,15.213,0.018
53813.21815,15.24,0.018
53813.229882,15.24,0.021
53813.241225,15.269,0.023
53813.252983,15.283,0.023
53816.347101,15.264,0.026
53816.358146,15.239,0.03
53816.369231,15.277,0.035
53816.380326,15.365,0.043
53819.228606,15.636,0.031
53819.239355,15.65,0.031
53819.250095,15.665,0.031
53819.261062,15.682,0.033
53819.272594,15.683,0.033
53820.179007,15.44,0.03
53820.190412,15.434,0.038
53820.201931,15.45,0.021
53827.236534,15.589,0.03
53827.247509,15.595,0.03
53827.258411,15.605,0.03
53827.269218,15.604,0.031
53827.279776,15.622,0.033
53844.180862,15.421,0.025
53844.192302,15.44,0.025
53844.203439,15.419,0.025
53844.214641,15.419,0.025
53844.225933,15.403,0.026
53846.187573,15.358,0.033
53846.198213,15.376,0.035
53846.208892,15.402,0.037
53846.21956,15.35,0.035
53846.230323,15.39,0.037
53850.142169,15.537,0.059
53850.153048,15.537,0.033
53850.188014,15.538,0.03
53850.199117,15.571,0.031
53850.211151,15.558,0.031
53852.142871,15.601,0.036
53852.153013,15.629,0.038
53852.163157,15.623,0.038
53852.173645,15.659,0.041
53852.183785,15.613,0.041
53853.138577,15.442,0.033
53853.149487,15.424,0.033
53853.160504,15.442,0.035
53853.171572,15.474,0.033
53853.182283,15.464,0.033
54031.430326,15.4,0.028
54031.442551,15.401,0.026
54031.454824,15.395,0.026
54031.46675,15.432,0.025
54031.478702,15.472,0.025
54036.427118,15.442,0.026
54036.441114,15.438,0.025
54036.454367,15.503,0.025
54036.466639,15.493,0.023
54036.478508,15.512,0.023
54041.42566,15.467,0.033
54041.438964,15.509,0.033
54041.451688,15.535,0.033
54041.46419,15.585,0.035
54041.476388,15.531,0.031
54057.382836,15.359,0.026
54057.395541,15.339,0.025
54057.396841,15.342,0.02
54057.408254,15.329,0.025
54057.409231,15.32,0.018
54057.421066,15.298,0.023
54057.421684,15.289,0.018
54057.433935,15.305,0.023
54057.434102,15.272,0.018
54057.44657,15.29,0.018
54060.371994,15.696,0.026
54060.384423,15.687,0.026
54060.39686,15.65,0.024
54060.409305,15.639,0.024
54060.421756,15.63,0.024
54068.386988,15.634,0.022
54068.400027,15.616,0.02
54068.413079,15.627,0.022
54068.426135,15.644,0.022
54068.439192,15.653,0.022
54083.386928,15.568,0.035
54083.397664,15.547,0.024
54083.400063,15.501,0.035
54083.424044,15.391,0.02
54083.42587,15.292,0.03
54083.437238,15.308,0.024
54083.43871,15.274,0.033
54083.450434,15.275,0.024
54086.314583,15.483,0.061
54086.327721,15.521,0.041
54086.341667,15.521,0.026
54086.355577,15.537,0.024
54091.310651,15.528,0.02
54091.323312,15.556,0.02
54091.335986,15.554,0.02
54091.348894,15.561,0.02
54091.361905,15.567,0.02
54113.321851,15.095,0.016
54113.334963,15.103,0.016
54113.360707,15.179,0.023
54113.373751,15.217,0.02
54115.381567,15.486,0.028
54115.394496,15.483,0.028
54123.289609,15.255,0.018
54123.302148,15.284,0.018
54123.314629,15.302,0.02
54144.301045,15.636,0.02
54144.323279,15.589,0.035
54144.334476,15.505,0.018
54144.345571,15.443,0.018
54148.275076,15.379,0.021
54148.287333,15.364,0.021
54148.299039,15.386,0.021
54148.310808,15.444,0.023
54148.322497,15.432,0.025
54154.2184,15.646,0.02
54154.220915,15.673,0.03
54154.229825,15.694,0.022
54154.23276,15.683,0.03
54154.241398,15.662,0.02
54154.245164,15.642,0.03
54154.252834,15.618,0.02
54154.256793,15.622,0.028
54154.264271,15.542,0.02
54154.268648,15.498,0.025
54169.238533,15.271,0.015
54169.249546,15.294,0.018
54173.212594,15.48,0.018
54173.223228,15.474,0.017
54173.233915,15.478,0.017
54173.244587,15.468,0.018
54173.255258,15.494,0.018
54176.217267,15.375,0.017
54176.228055,15.381,0.018
54176.238902,15.4,0.018
54176.260476,15.429,0.02
54179.240891,15.339,0.017
54179.263366,15.327,0.017
54205.173667,15.68,0.035
54205.18298,15.64,0.035
54205.192404,15.631,0.035
54205.201855,15.591,0.033
54205.211198,15.541,0.035
54206.175272,15.533,0.024
54206.184373,15.545,0.024
54206.193381,15.549,0.024
54206.202414,15.571,0.024
54206.21156,15.558,0.024
54208.13155,15.57,0.031
54208.140589,15.585,0.031
54208.149456,15.553,0.03
54208.158207,15.565,0.03
54208.167011,15.546,0.03
54209.170475,15.412,0.031
54209.188437,15.448,0.022
54209.197436,15.433,0.028
54209.206442,15.484,0.041
54384.428146,15.389,0.02
54384.439416,15.395,0.018
54384.450678,15.42,0.018
54384.461939,15.439,0.018
54384.473207,15.406,0.018
54387.427967,15.347,0.02
54387.439243,15.313,0.018
54387.450527,15.32,0.018
54387.461814,15.32,0.018
54387.473083,15.326,0.017
54393.426547,15.629,0.038
54393.43826,15.706,0.04
54393.450514,15.718,0.04
54393.464626,15.701,0.038
54393.476296,15.68,0.038
54395.434417,15.359,0.018
54395.446252,15.346,0.018
54395.458351,15.308,0.018
54395.470181,15.234,0.017
54395.482006,15.2,0.017
54409.435375,15.573,0.018
54409.447628,15.545,0.02
54409.459868,15.595,0.018
54409.47209,15.577,0.018
54409.484312,15.599,0.018
54418.385433,15.426,0.015
54418.397915,15.367,0.015
54418.410804,15.305,0.015
54418.423239,15.285,0.013
54418.435871,15.267,0.013
54439.380596,15.611,0.015
54439.419217,15.607,0.015
54464.452606,15.305,0.015
54464.465665,15.313,0.015
54464.478729,15.313,0.015
54464.491795,15.321,0.015
54464.504865,15.3,0.017
54480.396799,15.623,0.038
54480.409211,15.609,0.038
54480.422168,15.601,0.038
54480.434951,15.622,0.041
54480.447364,15.631,0.043
54507.212802,15.616,0.018
54507.237326,15.557,0.017
54507.249577,15.499,0.015
54507.261773,15.441,0.015
54522.278525,15.147,0.013
54522.290248,15.168,0.013
54522.302029,15.207,0.015
54522.313737,15.233,0.015
54522.325445,15.257,0.017
54529.264032,15.442,0.013
54536.186624,15.566,0.017
54536.197576,15.559,0.022
54536.208553,15.593,0.018
54553.238564,15.538,0.017
54553.250477,15.485,0.017
54553.262336,15.44,0.017
54553.274292,15.407,0.02
54553.286141,15.441,0.026
54562.186973,15.359,0.015
54562.198411,15.381,0.015
54562.21004,15.402,0.015
54562.221541,15.406,0.015
54562.232996,15.415,0.015
54584.146668,15.501,0.022
54584.157266,15.538,0.022
54584.167928,15.545,0.022
54584.178622,15.527,0.024
54584.189313,15.561,0.024
54591.144243,15.533,0.024
54591.154759,15.48,0.024
54591.165287,15.447,0.022
54591.175648,15.398,0.022
54591.185908,15.39,0.022
