mjd,m,merr
52613.373842,16.157,0.041
52613.404608,16.156,0.039
52613.420161,15.92,0.03
52613.435453,16.167,0.039
52618.410408,16.183,0.044
52618.425993,16.106,0.05
52618.441424,16.11,0.046
52639.320527,15.981,0.035
52639.336215,16.156,0.063
52639.351969,16.168,0.041
52639.36695,16.24,0.045
52639.381936,16.207,0.045
52643.368934,16.203,0.039
52643.383227,15.924,0.031
52643.397404,16.033,0.035
52643.411681,16.155,0.043
52643.425829,16.228,0.044
52647.323784,16.069,0.035
52647.338654,16.185,0.039
52647.353259,16.24,0.041
52647.382525,16.029,0.037
52666.307964,16.189,0.035
52666.338667,16.095,0.031
52666.354146,15.959,0.03
52670.325727,16.2,0.039
52670.339712,15.867,0.03
52670.353686,16.063,0.035
52670.367681,16.192,0.043
52670.381701,16.143,0.043
52673.22472,15.956,0.033
52673.255837,16.19,0.039
52673.271316,16.224,0.039
52673.286834,15.908,0.03
52678.317253,15.871,0.052
52678.331235,15.975,0.035
52678.345308,16.148,0.043
52678.359422,16.159,0.044
52698.274409,15.821,0.076
52698.288465,15.956,0.03
52703.241014,16.204,0.039
52703.254348,15.88,0.048
52703.281858,16.16,0.041
52703.295212,16.188,0.041
52724.177081,16.179,0.046
52724.189695,15.963,0.038
52724.226756,16.112,0.043
52730.176605,16.18,0.039
52730.188969,16.184,0.039
52730.20061,16.202,0.039
52730.21275,15.95,0.031
52733.187254,16.125,0.041
52733.199377,16.195,0.044
52733.211527,16.171,0.043
52733.223801,15.944,0.035
52733.235944,16.026,0.039
52754.15503,16.149,0.048
52754.167763,15.875,0.04
52754.180012,16.032,0.046
52754.205124,16.173,0.056
52758.142398,16.198,0.043
52758.154394,15.962,0.035
52758.166404,15.968,0.037
52758.178486,16.101,0.041
52758.19065,16.232,0.048
52933.483745,16.367,0.076
52940.450567,15.944,0.052
52940.46325,15.952,0.07
52940.501596,16.167,0.091
52944.444277,15.96,0.046
52944.456824,16.097,0.051
52944.469468,16.21,0.054
52944.481819,16.266,0.058
52944.494162,16.297,0.059
52964.45207,16.25,0.033
52964.464988,15.965,0.026
52964.478159,16.074,0.031
52964.491345,16.199,0.031
52964.507697,16.307,0.035
52966.399736,16.238,0.041
52966.412398,16.271,0.041
52966.450673,16.19,0.037
52974.393662,16.265,0.035
52974.406751,16.0,0.031
52974.419688,16.073,0.03
52974.432545,16.212,0.033
52974.44554,16.266,0.037
52992.410137,15.953,0.031
52992.42289,16.142,0.036
52992.435919,16.21,0.035
52992.448604,16.211,0.035
52992.461307,15.953,0.028
52994.431121,15.914,0.03
52994.444367,16.038,0.031
52994.457512,16.216,0.035
53025.307815,15.993,0.022
53028.333227,16.009,0.02
53034.273156,16.012,0.04
53034.285725,16.112,0.043
53034.298398,16.212,0.046
53034.311065,16.288,0.049
53034.323739,16.334,0.051
53051.221903,15.96,0.026
53051.257456,16.205,0.033
53057.316173,15.883,0.052
53061.233789,15.888,0.02
53078.271212,16.167,0.043
53078.282198,16.147,0.043
53078.30422,16.233,0.048
53082.227103,16.209,0.028
53082.260435,16.029,0.026
53082.271563,16.181,0.028
53091.225153,16.035,0.031
53091.235693,16.132,0.048
53091.256751,16.179,0.035
53091.267457,16.082,0.081
53109.138189,15.956,0.04
53109.148597,16.079,0.045
53109.159034,16.227,0.046
53109.169511,16.254,0.051
53109.180044,16.279,0.053
53116.197633,16.017,0.046
53116.208765,15.82,0.091
53116.219899,16.1,0.089
53116.23103,15.996,0.091
53116.242415,16.151,0.142
53137.160145,16.126,0.058
53137.170167,16.203,0.064
53137.180161,16.298,0.078
53137.191904,16.263,0.079
53287.417255,16.224,0.08
53287.428197,16.326,0.083
53287.43913,16.162,0.068
53287.450068,15.909,0.054
53287.461003,16.107,0.059
53292.402975,16.169,0.068
53292.412528,15.999,0.055
53292.422097,15.912,0.05
53292.431661,16.056,0.057
53292.441239,16.022,0.052
53297.409263,16.044,0.059
53297.419018,16.17,0.065
53297.428764,16.19,0.063
53297.438509,16.178,0.059
53297.448251,16.119,0.055
53316.377708,16.034,0.05
53316.38982,16.175,0.055
53316.401939,16.242,0.07
53316.414053,16.209,0.063
53316.42617,16.013,0.093
53327.370232,15.96,0.054
53327.382647,16.147,0.048
53327.395035,16.153,0.057
53327.407411,16.187,0.052
53327.419864,15.775,0.048
53329.432595,16.239,0.05
53329.445012,15.958,0.043
53329.452809,15.869,0.04
53329.457838,16.008,0.041
53329.465321,16.07,0.048
53329.470217,16.138,0.044
53329.47816,16.18,0.051
53329.482574,16.187,0.046
53329.49063,16.162,0.049
53329.503372,16.187,0.051
53330.435683,15.843,0.035
53330.457474,16.228,0.053
53330.485211,16.327,0.059
53330.513884,16.16,0.053
53347.492326,16.167,0.039
53347.508755,15.914,0.083
53353.333484,15.911,0.031
53353.346488,16.071,0.037
53353.372996,16.159,0.039
53353.385988,16.074,0.039
53357.413483,16.116,0.049
53376.351031,16.104,0.043
53376.364279,15.923,0.031
53376.379169,16.081,0.035
53376.392586,16.17,0.039
53376.405824,16.202,0.041
53381.293598,16.232,0.183
53381.320422,16.173,0.046
53381.333652,15.884,0.03
53381.347938,16.032,0.033
53385.363911,16.151,0.041
53385.378007,16.115,0.039
53387.347352,15.965,0.031
53387.362038,15.931,0.031
53387.373544,16.002,0.039
53387.387002,16.044,0.041
53387.38902,16.172,0.041
53387.395793,16.192,0.043
53387.399984,16.059,0.043
53387.401964,16.112,0.041
53387.409229,16.052,0.039
53403.336089,15.97,0.039
53410.281172,16.06,0.078
53432.227293,16.17,0.048
53464.190746,15.962,0.037
53464.222137,16.193,0.043
53464.232669,16.137,0.043
53495.147029,16.042,0.046
53495.157148,16.169,0.054
53495.167315,16.18,0.055
53495.177465,16.192,0.057
53495.187628,16.085,0.067
53501.137837,16.2,0.059
53501.148465,15.928,0.046
53501.159602,15.944,0.048
53501.171155,16.058,0.057
53501.18186,16.125,0.065
53648.427156,16.135,0.065
53648.439102,15.949,0.055
53648.456196,15.976,0.052
53648.467508,16.093,0.054
53655.421871,16.099,0.061
53655.432924,16.048,0.057
53655.444385,15.851,0.046
53655.466431,16.106,0.055
53671.44043,16.144,0.063
53671.452483,16.165,0.061
53671.464518,15.988,0.05
53671.47658,15.937,0.059
53671.488711,16.067,0.081
53674.461104,16.171,0.048
53674.473234,15.906,0.039
53680.483838,16.095,0.037
53705.419568,16.012,0.037
53705.445539,16.027,0.037
53713.398878,16.084,0.072
53713.411729,15.897,0.052
53713.424756,16.11,0.065
53732.348698,16.087,0.061
53732.361413,16.087,0.043
53732.379419,15.824,0.035
53732.406782,16.043,0.054
53735.397018,15.874,0.094
53759.299354,16.095,0.035
53788.23294,16.111,0.071
53788.245871,16.225,0.048
53788.258645,15.961,0.048
53788.271732,16.029,0.061
53788.284578,16.037,0.046
53790.277989,16.083,0.043
53790.289741,15.864,0.033
53793.220132,16.17,0.085
53793.231941,15.893,0.059
53793.24376,15.99,0.072
53793.267427,16.103,0.089
53793.294038,15.709,0.061
53813.253399,16.018,0.045
53813.265051,16.031,0.046
53813.277621,16.147,0.053
53813.289116,16.17,0.058
53813.300459,16.168,0.061
53816.348468,16.023,0.05
53816.370607,16.13,0.07
53816.381874,16.233,0.098
53819.273113,15.931,0.041
53820.179425,16.308,0.066
53820.19083,15.976,0.069
53820.202349,16.05,0.036
53820.231848,15.931,0.104
53827.248016,16.116,0.046
53827.280279,15.958,0.044
53844.181338,16.107,0.056
53844.192778,16.169,0.059
53844.203915,16.008,0.053
53844.226411,16.054,0.054
53846.188393,16.021,0.059
53846.199034,16.054,0.063
53846.209712,16.057,0.067
53846.220446,16.101,0.068
53846.231161,16.079,0.068
53850.153568,16.131,0.061
53850.188534,15.975,0.043
53850.211666,16.109,0.052
53852.143148,16.2,0.063
53852.153289,16.103,0.058
53852.163428,16.327,0.078
53852.184058,16.218,0.069
53853.139081,16.066,0.055
53853.149993,16.076,0.057
53853.16101,16.176,0.067
53853.172078,15.985,0.054
53853.182789,15.863,0.046
54031.430829,15.996,0.046
54031.443051,16.107,0.048
54031.455377,16.184,0.048
54031.467249,16.298,0.053
54031.479201,16.038,0.041
54036.427625,16.21,0.059
54036.441622,16.23,0.058
54036.454872,15.864,0.04
54036.467143,15.976,0.043
54041.425989,15.893,0.048
54041.439296,15.959,0.049
54041.45202,16.066,0.051
54041.464524,16.221,0.058
54041.476722,16.204,0.056
54057.383259,16.088,0.049
54057.395964,15.896,0.04
54057.408676,16.099,0.046
54057.421488,16.137,0.048
54083.387287,16.144,0.056
54083.400415,16.236,0.066
54083.426219,16.006,0.054
54083.439063,15.952,0.064
54086.301869,16.057,0.183
54086.315132,15.845,0.091
54086.328271,16.062,0.068
54086.342216,16.053,0.044
54086.356126,16.213,0.046
54113.335493,15.863,0.033
54113.348202,15.921,0.107
54113.361253,16.087,0.04
54115.343065,16.143,0.049
54115.356242,15.896,0.04
54115.382105,16.031,0.045
54115.395036,16.171,0.049
54123.277659,15.859,0.036
54123.290129,15.956,0.04
54123.302671,16.125,0.045
54123.315187,16.224,0.049
54144.323758,16.092,0.052
54148.287839,16.03,0.038
54148.299544,16.135,0.041
54148.323004,16.174,0.046
54205.174028,16.152,0.053
54205.202218,15.871,0.045
54205.21156,15.873,0.046
54208.176304,16.114,0.048
54208.184916,16.154,0.048
54208.1937,16.125,0.048
54208.202309,16.221,0.054
54209.17096,16.091,0.05
54209.179943,16.185,0.102
54209.197924,15.785,0.039
54209.206925,15.933,0.055
54384.428654,15.995,0.035
54384.439924,16.04,0.035
54384.451183,16.222,0.039
54384.462445,16.297,0.041
54384.473712,16.326,0.041
54387.428476,16.217,0.044
54387.439747,15.973,0.033
54387.451032,16.105,0.035
54387.462315,16.251,0.039
54387.473586,16.248,0.037
54395.434847,16.114,0.035
54395.446681,16.211,0.039
54395.45878,16.338,0.055
54395.47061,16.36,0.046
54395.482434,16.05,0.031
54409.436156,16.102,0.028
54409.44841,16.209,0.035
54409.460646,16.251,0.033
54409.472872,16.283,0.033
54409.485095,15.979,0.026
54418.437145,16.316,0.031
54418.449649,15.993,0.022
54418.462157,16.109,0.024
54418.474654,16.239,0.028
54418.487156,16.267,0.03
54439.394268,16.015,0.02
54439.432894,16.289,0.026
54464.453539,16.034,0.026
54464.466595,16.188,0.031
54464.479659,16.232,0.033
54464.492725,16.243,0.035
54464.505794,16.013,0.03
54507.21352,16.303,0.031
54507.225719,16.265,0.028
54507.238045,15.952,0.022
54507.250297,16.08,0.024
54507.26249,16.198,0.028
54522.279514,16.174,0.031
54522.291239,15.972,0.026
54522.303018,16.129,0.031
54522.314726,16.23,0.035
54522.326435,16.274,0.039
54529.219238,16.045,0.02
54529.241929,16.148,0.022
54529.253239,16.256,0.026
54529.26461,16.275,0.026
54536.18734,16.154,0.026
54536.209397,16.321,0.028
54553.251348,16.046,0.026
54553.26329,16.214,0.033
54553.27517,16.255,0.039
54553.287019,16.273,0.05
54562.187589,16.302,0.03
54562.199028,16.104,0.026
54562.210655,15.962,0.022
54562.22216,16.089,0.026
54562.233613,16.205,0.028
54584.147431,16.143,0.037
54584.158027,16.279,0.043
54584.16869,16.28,0.043
54584.179383,16.286,0.044
54584.190073,16.042,0.037
54591.145016,16.089,0.037
54591.155528,16.247,0.044
54591.166049,16.345,0.05
54591.176413,16.332,0.052
54591.186654,16.213,0.048
