mjd,m,merr
52610.393822,15.914,0.054
52610.408308,15.927,0.035
52610.422853,16.003,0.051
52610.437366,16.094,0.117
52613.373454,15.331,0.022
52613.388896,15.447,0.022
52613.404222,15.546,0.022
52613.419776,15.643,0.024
52613.435067,15.682,0.026
52618.409616,16.216,0.048
52618.425198,16.3,0.057
52618.44063,16.266,0.063
52639.335958,16.33,0.061
52639.351711,16.175,0.041
52639.366692,16.27,0.045
52643.309513,15.966,0.031
52643.323734,15.975,0.031
52643.352339,16.084,0.033
52647.322921,15.698,0.028
52647.337773,15.747,0.028
52647.352381,15.789,0.03
52647.36709,15.872,0.031
52647.381663,15.863,0.033
52666.307672,15.644,0.024
52666.323064,15.679,0.024
52666.338407,15.767,0.026
52666.353885,15.823,0.028
52666.369247,15.858,0.028
52670.252373,16.204,0.039
52670.252488,16.274,0.041
52670.266554,16.26,0.039
52670.266669,16.246,0.039
52670.280693,16.271,0.041
52670.280808,16.339,0.041
52670.294802,16.319,0.043
52670.294917,16.383,0.044
52670.308914,16.353,0.048
52670.309029,16.364,0.046
52670.325378,16.095,0.037
52670.339361,15.68,0.026
52670.353336,15.413,0.02
52670.36733,15.4,0.022
52670.38135,15.445,0.022
52671.235302,16.29,0.046
52671.250573,16.28,0.043
52671.265818,16.289,0.044
52671.281054,16.235,0.043
52671.296356,16.292,0.044
52673.270406,16.249,0.041
52673.285917,16.297,0.043
52678.316421,16.277,0.083
52678.330401,16.264,0.059
52678.344476,16.282,0.048
52678.358508,16.307,0.05
52697.265838,16.064,0.043
52703.240625,15.441,0.02
52703.253959,15.513,0.028
52703.267563,15.605,0.057
52703.281465,15.627,0.028
52703.294812,15.717,0.028
52706.235805,16.297,0.044
52706.249037,16.319,0.044
52706.262231,16.121,0.039
52706.275231,15.778,0.028
52706.288435,15.518,0.022
52724.176608,16.372,0.056
52724.189221,16.406,0.059
52724.201985,16.411,0.059
52724.214178,16.447,0.061
52724.226279,16.362,0.058
52730.175897,16.156,0.043
52730.18826,16.137,0.039
52730.199896,16.242,0.043
52730.212051,16.212,0.044
52730.223593,16.177,0.044
52733.186539,16.043,0.039
52733.198663,16.09,0.041
52733.210809,16.007,0.041
52733.223087,16.073,0.044
52733.235229,16.094,0.044
52753.137718,15.887,0.041
52753.150275,15.989,0.045
52753.162645,15.956,0.045
52753.175229,16.006,0.049
52753.187625,16.067,0.056
52758.14183,15.637,0.026
52758.153826,15.415,0.022
52758.165837,15.378,0.022
52758.177918,15.441,0.024
52758.190083,15.516,0.026
52934.448355,16.086,0.059
52934.460217,16.072,0.058
52940.45007,15.554,0.05
52940.462575,15.615,0.057
52940.475339,15.793,0.093
52940.501099,15.776,0.067
52945.431227,16.272,0.057
52945.443351,16.21,0.052
52945.455347,16.223,0.052
52945.467181,16.205,0.052
52945.479211,16.315,0.055
52964.451281,16.302,0.035
52964.464196,16.366,0.039
52964.477294,16.358,0.041
52964.490554,16.413,0.039
52964.506857,16.251,0.033
52966.399007,16.334,0.046
52966.411672,16.313,0.043
52966.424474,16.275,0.041
52966.437136,16.263,0.041
52974.393459,15.8,0.028
52974.404925,15.809,0.03
52992.409765,15.991,0.031
52992.422516,15.965,0.033
52992.435544,15.952,0.03
52992.448229,16.026,0.03
52992.460931,16.065,0.03
52994.404301,15.802,0.024
52994.417494,15.862,0.022
52994.430558,15.881,0.024
52994.443805,15.944,0.028
52994.456948,15.95,0.028
53025.307266,15.993,0.022
53025.320578,16.107,0.033
53025.333805,16.04,0.03
53025.346661,16.126,0.03
53025.359684,16.133,0.03
53028.280985,15.737,0.017
53028.294377,15.807,0.018
53028.307021,15.852,0.018
53028.320101,15.887,0.018
53028.332687,15.924,0.018
53034.272844,16.287,0.051
53034.28541,16.321,0.054
53034.298086,16.344,0.053
53034.310756,16.353,0.054
53034.323398,16.247,0.051
53051.221242,16.271,0.035
53051.233174,16.327,0.037
53051.244889,16.384,0.037
53051.256794,16.341,0.037
53051.268767,16.242,0.033
53057.315657,16.349,0.1
53061.221955,15.921,0.022
53061.24452,16.035,0.022
53061.255904,16.031,0.024
53061.267287,16.055,0.024
53078.259325,16.216,0.079
53078.270614,16.21,0.046
53078.281512,16.239,0.051
53078.29252,16.266,0.048
53078.303625,16.362,0.054
53082.226579,15.831,0.02
53082.237581,15.882,0.02
53082.248692,15.845,0.022
53082.259912,15.851,0.022
53082.27104,15.956,0.024
53083.113355,15.838,0.025
53083.12614,15.569,0.021
53083.137586,15.348,0.016
53083.149043,15.41,0.015
53083.160872,15.435,0.016
53091.235173,16.206,0.037
53091.256229,16.154,0.039
53091.266815,16.154,0.037
53109.148165,16.288,0.054
53109.1586,16.288,0.051
53109.169083,16.287,0.054
53109.179613,16.371,0.059
53116.208243,16.008,0.085
53116.230507,16.174,0.115
53137.149704,15.8,0.041
53137.159624,15.823,0.045
53137.169661,15.853,0.049
53137.179654,15.844,0.053
53137.191398,15.883,0.058
53287.416569,16.239,0.078
53287.427511,16.355,0.083
53287.449382,16.014,0.055
53287.460317,15.699,0.041
53292.402353,16.229,0.07
53292.411906,16.352,0.074
53292.421474,16.25,0.067
53292.431039,16.287,0.067
53292.440616,16.367,0.068
53297.408643,16.077,0.061
53297.418398,16.055,0.057
53297.428145,16.095,0.057
53297.437891,16.075,0.054
53297.447632,16.094,0.055
53316.377396,15.888,0.048
53316.389509,16.037,0.05
53316.413742,16.055,0.055
53327.369917,16.325,0.072
53327.382349,16.291,0.059
53327.407113,16.3,0.061
53327.419566,16.25,0.065
53347.397694,16.319,0.067
53347.412824,16.242,0.152
53347.443722,16.242,0.043
53347.460572,16.306,0.046
53353.33317,15.994,0.035
53353.346178,15.987,0.033
53353.35916,15.974,0.035
53353.372683,16.048,0.037
53353.385678,16.047,0.039
53357.412761,15.861,0.041
53376.350655,15.699,0.043
53376.363898,15.682,0.026
53376.378785,15.734,0.028
53376.392204,15.845,0.03
53376.405449,15.838,0.031
53381.306392,16.258,0.044
53381.319643,16.295,0.057
53381.332874,16.191,0.043
53381.347089,16.312,0.044
53385.350184,16.244,0.046
53385.363514,16.243,0.044
53385.377613,16.243,0.046
53385.390811,16.277,0.048
53385.40406,16.269,0.05
53387.354644,16.23,0.044
53387.368545,16.239,0.044
53387.382504,16.239,0.046
53387.395405,16.227,0.048
53387.408841,16.236,0.048
53403.284239,16.276,0.035
53403.296996,16.289,0.037
53403.309817,16.278,0.037
53403.322613,16.351,0.041
53403.335338,16.276,0.041
53404.226651,16.171,0.031
53404.239966,16.197,0.031
53404.253054,16.227,0.031
53404.266028,16.247,0.031
53404.279203,16.27,0.033
53405.217113,16.042,0.033
53405.230312,16.097,0.033
53405.243652,16.112,0.033
53405.256899,16.17,0.035
53405.271678,16.15,0.033
53410.280381,15.889,0.068
53410.292882,15.918,0.048
53410.306318,15.95,0.033
53410.320179,15.944,0.031
53410.333797,15.978,0.03
53432.226558,15.94,0.037
53432.23821,15.698,0.05
53464.190437,15.817,0.033
53464.200871,15.858,0.033
53464.211326,15.883,0.044
53464.221826,15.903,0.033
53464.232358,15.938,0.037
53495.146711,16.244,0.057
53495.15683,16.306,0.063
53495.166997,16.212,0.059
53495.177147,16.207,0.061
53495.187309,16.263,0.078
53501.137533,15.721,0.043
53501.148162,15.722,0.043
53501.159299,15.86,0.048
53655.444069,16.205,0.067
53672.454816,16.328,0.063
53672.468064,16.342,0.067
53672.48138,16.315,0.061
53672.496039,16.145,0.054
53675.440914,16.27,0.05
53675.453042,16.24,0.05
53675.46511,16.208,0.05
53675.477422,16.193,0.05
53675.490388,16.279,0.05
53681.443574,16.103,0.12
53681.473276,16.082,0.044
53681.486696,16.068,0.039
53681.50029,16.167,0.043
53705.392723,15.395,0.022
53705.406066,15.48,0.024
53705.419166,15.526,0.024
53705.432242,15.621,0.026
53705.445138,15.705,0.028
53708.390614,16.359,0.044
53708.403793,16.326,0.044
53708.416962,16.306,0.043
53708.430059,16.199,0.039
53708.44294,15.805,0.03
53713.398596,16.304,0.087
53713.450666,16.319,0.067
53732.348299,16.278,0.07
53732.361015,16.22,0.048
53732.379019,16.347,0.055
53732.393515,16.316,0.065
53732.406383,16.372,0.078
53735.343162,16.036,0.033
53735.356734,16.055,0.035
53735.36992,16.134,0.039
53735.38341,16.151,0.041
53739.346514,15.815,0.05
53739.359829,15.847,0.05
53759.286037,15.472,0.02
53759.298953,15.356,0.02
53759.311732,15.428,0.02
53759.324704,15.539,0.022
53759.337706,15.549,0.024
53762.342728,15.993,0.037
53762.355582,15.678,0.024
53762.368262,15.431,0.02
53762.381292,15.419,0.02
53762.394313,15.492,0.022
53770.21934,15.871,0.033
53770.232404,15.897,0.033
53770.245378,15.965,0.035
53770.258466,15.989,0.035
53770.27158,16.053,0.035
53771.28035,16.042,0.065
53771.293057,16.069,0.046
53771.306978,16.104,0.055
53771.319599,16.124,0.046
53771.33263,16.173,0.065
53772.218975,15.867,0.039
53772.231679,15.93,0.041
53772.244506,15.947,0.043
53772.257413,15.984,0.044
53772.270396,16.072,0.048
53787.240803,16.455,0.056
53788.346565,16.25,0.044
53788.358746,16.294,0.048
53788.382848,16.264,0.067
53788.395023,16.259,0.054
53790.277597,16.027,0.044
53790.28933,16.072,0.044
53790.301133,16.089,0.048
53790.312888,16.095,0.048
53790.324633,16.103,0.046
53793.293645,16.495,0.216
53799.225546,16.247,0.052
53799.237027,16.289,0.054
53799.248733,16.265,0.05
53799.260198,16.303,0.05
53799.271951,16.403,0.054
53813.247081,15.581,0.035
53813.258165,15.699,0.041
53813.269387,15.736,0.043
53813.280451,15.827,0.048
53813.291951,15.839,0.05
53817.289083,15.834,0.044
53817.299931,15.552,0.031
53817.310807,15.418,0.03
53817.321875,15.45,0.031
53819.239483,16.348,0.059
53819.261191,16.267,0.055
53827.236657,16.029,0.046
53827.247634,16.065,0.046
53827.258534,16.057,0.048
53827.269342,16.095,0.05
53827.2799,16.072,0.052
53844.180979,16.102,0.053
53844.192417,16.117,0.053
53844.203553,16.103,0.053
53844.214756,16.198,0.063
53844.226049,16.179,0.064
53850.142296,15.951,0.091
53850.153178,15.746,0.048
53850.199245,15.53,0.031
53850.211278,15.548,0.033
53853.138702,16.336,0.078
53853.149612,16.241,0.072
53853.160627,16.323,0.078
53853.171085,16.306,0.089
53853.171697,16.301,0.074
53853.182408,16.316,0.076
54031.430453,15.54,0.03
54031.442674,15.538,0.028
54031.454951,15.642,0.031
54031.466873,15.695,0.031
54031.478826,15.76,0.033
54036.427246,16.343,0.068
54036.441241,16.176,0.054
54036.454492,16.366,0.061
54036.466762,16.362,0.061
54036.478632,16.315,0.056
54056.378513,16.279,0.058
54056.39122,16.306,0.058
54056.406692,16.328,0.059
54056.419946,16.21,0.051
54056.432507,16.301,0.053
54057.396971,16.328,0.046
54057.409361,16.334,0.043
54057.421813,16.324,0.044
54057.434232,16.324,0.044
54057.4467,16.276,0.041
54060.372125,16.209,0.041
54060.384553,16.24,0.041
54060.39699,16.26,0.041
54060.409436,16.273,0.041
54060.421887,16.273,0.043
54066.397279,15.858,0.069
54066.422942,15.947,0.043
54068.387134,15.492,0.02
54068.400173,15.564,0.02
54068.413226,15.629,0.022
54068.426282,15.678,0.022
54068.439339,15.751,0.024
54083.397808,16.016,0.035
54083.410993,16.048,0.039
54083.424188,16.072,0.039
54083.437381,16.098,0.05
54084.330334,15.627,0.036
54084.343358,15.719,0.04
54084.356518,15.764,0.04
54084.369677,15.823,0.041
54084.382892,15.854,0.043
54086.314719,15.685,0.089
54086.327857,15.454,0.041
54086.341802,15.413,0.026
54086.355712,15.453,0.024
54091.310783,16.298,0.039
54091.323443,16.332,0.039
54091.336119,16.3,0.037
54091.349027,16.258,0.035
54091.362038,16.272,0.037
54098.309238,16.063,0.124
54098.321081,16.05,0.043
54098.344341,16.105,0.041
54098.356106,16.188,0.043
54110.273718,16.322,0.063
54110.286734,16.305,0.069
54110.299585,16.265,0.066
54110.312369,16.237,0.069
54110.325092,16.277,0.071
54113.322083,16.299,0.049
54113.335093,16.302,0.048
54113.347805,16.297,0.068
54113.373884,16.398,0.125
54115.342634,16.246,0.054
54115.35584,16.21,0.053
54115.368846,16.323,0.058
54115.381702,16.262,0.054
54115.394633,16.346,0.059
54121.270087,15.533,0.022
54121.28231,15.555,0.018
54121.294538,15.638,0.02
54121.306783,15.703,0.022
54121.319129,15.758,0.022
54123.277272,15.708,0.033
54123.289738,15.473,0.026
54123.302279,15.402,0.025
54123.314793,15.443,0.026
54123.327367,15.533,0.03
54144.301166,16.314,0.035
54144.312286,16.166,0.033
54144.323402,15.77,0.033
54144.334599,15.559,0.018
54144.345694,15.418,0.017
54148.275204,16.303,0.049
54148.28746,16.303,0.049
54148.299166,16.303,0.049
54148.310935,16.357,0.053
54148.322625,16.334,0.053
54154.218549,15.863,0.026
54154.229975,15.904,0.026
54154.241546,15.945,0.028
54154.252984,15.947,0.028
54154.26442,16.003,0.03
54173.212726,15.872,0.026
54173.223359,15.899,0.028
54173.234048,15.955,0.028
54173.24472,15.962,0.03
54173.255392,15.989,0.03
54176.217402,15.557,0.02
54176.228191,15.624,0.022
54176.239039,15.664,0.024
54176.249675,15.69,0.024
54176.260613,15.783,0.028
54179.229762,16.038,0.031
54179.241029,15.734,0.024
54179.252348,15.491,0.02
54179.263503,15.423,0.018
54179.275055,15.428,0.018
54205.173788,16.221,0.058
54205.183102,16.237,0.058
54205.192527,16.298,0.063
54205.201977,16.279,0.066
54205.21132,16.288,0.068
54206.175399,16.118,0.039
54206.184502,16.145,0.041
54206.19351,16.18,0.041
54206.202544,16.181,0.043
54206.21169,16.206,0.044
54209.170603,15.989,0.078
54209.188567,15.965,0.039
54209.197566,15.992,0.046
54209.206573,16.071,0.061
54384.42827,16.29,0.044
54384.439539,16.317,0.044
54384.450801,16.267,0.041
54384.462062,16.312,0.041
54384.47333,16.234,0.039
54387.428089,16.172,0.041
54387.439365,16.165,0.039
54387.450652,16.233,0.041
54387.461936,16.228,0.037
54387.473205,16.262,0.039
54395.43456,15.539,0.02
54395.446395,15.564,0.022
54395.458493,15.664,0.028
54395.470322,15.68,0.024
54395.482146,15.737,0.024
54409.435567,16.034,0.028
54409.447819,16.072,0.03
54409.46006,16.097,0.028
54409.472282,16.099,0.028
54409.484504,16.132,0.028
54419.443931,16.27,0.03
54419.456782,16.317,0.031
54419.469515,16.344,0.031
54419.482253,16.376,0.033
54419.495001,16.26,0.03
54439.380792,16.299,0.028
54439.393662,16.3,0.028
54439.406525,16.27,0.028
54439.419412,16.326,0.028
54439.43229,16.308,0.028
54448.327863,15.56,0.015
54448.340856,15.603,0.015
54448.353846,15.707,0.02
54448.366825,15.779,0.024
54448.379811,15.835,0.028
54464.452833,16.17,0.031
54464.465892,16.202,0.033
54464.478957,16.159,0.031
54464.492022,16.245,0.035
54464.505093,16.248,0.037
54507.212977,16.28,0.031
54507.225177,16.209,0.028
54507.237502,16.288,0.03
54507.249752,16.381,0.031
54507.261948,16.334,0.033
54508.347752,15.329,0.015
54508.35996,15.407,0.015
54508.372163,15.395,0.017
54508.3845,15.478,0.018
54508.396845,15.567,0.02
54523.278067,15.563,0.015
54523.28977,15.627,0.017
54523.301417,15.685,0.018
54523.313011,15.7,0.02
54523.324768,15.763,0.022
54530.223031,16.28,0.044
54530.234372,16.324,0.055
54530.245775,16.391,0.093
54530.257156,16.256,0.087
54530.268696,16.238,0.055
54536.164883,15.836,0.067
54536.186799,15.865,0.022
54536.197752,15.909,0.033
54536.208728,15.908,0.022
54554.1876,15.994,0.033
54554.19957,16.001,0.035
54554.211504,16.005,0.022
54554.223443,16.046,0.035
54554.235506,16.106,0.028
54563.18568,16.168,0.03
54563.197157,16.222,0.031
54563.208735,16.282,0.033
54563.220208,16.295,0.035
54563.231801,16.284,0.035
54584.146787,16.274,0.043
54584.157385,16.296,0.044
54584.168046,16.281,0.044
54584.178741,16.307,0.046
54584.189431,16.298,0.048
54591.144361,15.939,0.033
54591.154876,15.944,0.035
54591.165405,16.002,0.039
54591.175766,16.002,0.039
54591.186025,16.097,0.043
