mjd,m,merr
52610.393947,15.928,0.058
52610.408433,15.955,0.035
52610.422978,15.993,0.053
52613.373579,16.21,0.044
52613.389021,15.99,0.035
52613.404345,15.912,0.031
52613.419901,15.866,0.03
52613.43519,15.941,0.033
52618.37903,16.093,0.161
52618.410145,15.981,0.039
52618.42573,15.926,0.043
52618.441161,15.89,0.039
52639.320398,16.083,0.04
52639.336086,16.342,0.076
52639.35184,16.26,0.045
52639.366821,16.136,0.041
52639.381808,16.005,0.038
52643.309999,16.262,0.041
52643.324218,16.077,0.035
52643.338507,15.971,0.031
52643.35287,15.884,0.03
52643.366981,15.885,0.03
52647.323543,15.867,0.031
52647.338397,15.883,0.031
52647.353018,15.98,0.033
52647.367701,16.096,0.039
52647.382271,16.322,0.05
52666.307541,15.914,0.03
52666.322933,15.878,0.028
52666.338276,15.94,0.03
52666.353753,16.011,0.031
52666.369116,16.222,0.039
52667.233603,15.964,0.028
52667.249154,15.941,0.028
52667.264722,16.044,0.03
52667.280059,16.109,0.031
52667.295432,16.275,0.037
52667.310092,16.297,0.039
52667.325413,16.151,0.033
52667.340802,16.002,0.03
52667.356295,15.955,0.03
52667.371519,15.925,0.03
52670.325493,16.178,0.039
52670.339476,16.345,0.046
52670.353451,16.225,0.041
52670.367445,16.038,0.037
52670.381466,15.969,0.035
52673.224458,16.124,0.039
52673.239973,16.334,0.044
52673.255574,16.294,0.043
52673.271055,16.029,0.033
52673.28657,15.971,0.031
52678.317018,15.927,0.054
52678.330998,15.934,0.035
52678.345074,15.937,0.035
52678.359106,15.98,0.039
52697.265983,16.174,0.046
52703.240754,15.929,0.031
52703.254088,15.917,0.048
52703.281594,15.954,0.033
52703.294945,16.077,0.037
52706.235935,16.17,0.039
52706.249165,16.028,0.033
52706.262362,15.972,0.033
52706.275359,15.907,0.031
52706.288566,15.886,0.031
52724.176844,16.094,0.048
52724.177204,16.248,0.053
52724.202581,15.991,0.043
52724.214416,15.909,0.04
52724.214775,15.925,0.04
52724.226516,15.874,0.04
52724.226878,15.927,0.04
52730.176377,15.903,0.033
52730.188739,15.948,0.035
52730.200377,15.996,0.037
52730.212523,16.108,0.041
52730.224065,16.322,0.05
52733.187019,15.835,0.033
52733.199143,15.803,0.033
52733.211291,15.843,0.033
52733.223565,15.808,0.033
52733.23571,15.909,0.037
52753.137949,15.939,0.045
52753.138063,15.992,0.041
52753.150507,15.972,0.046
52753.150619,16.02,0.045
52753.162878,16.097,0.051
52753.162992,16.127,0.049
52753.175463,16.229,0.061
52753.175576,16.387,0.064
52753.187857,16.357,0.071
52753.18797,16.336,0.064
52758.142169,15.91,0.033
52758.154164,15.914,0.035
52758.166175,15.967,0.037
52758.178257,16.106,0.043
52758.190421,16.292,0.05
52933.471034,16.214,0.071
52940.450318,15.888,0.061
52940.463002,15.945,0.076
52940.475587,16.154,0.131
52940.501348,16.355,0.115
52945.431361,15.893,0.039
52945.443485,15.885,0.037
52945.455481,15.894,0.039
52945.467314,15.95,0.039
52945.479345,16.029,0.041
52964.451806,15.905,0.026
52964.464721,15.974,0.028
52964.477898,16.069,0.031
52964.491078,16.268,0.033
52964.507433,16.272,0.035
52966.399492,15.942,0.033
52966.412155,15.867,0.03
52966.425017,15.891,0.03
52966.437619,15.946,0.031
52966.450433,15.98,0.031
52974.393582,16.306,0.041
52974.405047,16.231,0.038
52974.41869,16.046,0.033
52974.433047,16.008,0.031
52974.444297,15.961,0.031
52992.409952,15.916,0.028
52992.422704,15.996,0.031
52992.435731,16.033,0.028
52992.448417,16.181,0.033
52992.461119,16.367,0.038
52994.404677,16.0,0.03
52994.417871,16.065,0.026
52994.430935,16.196,0.035
52994.444181,16.322,0.041
52994.457325,16.17,0.033
53025.307634,16.299,0.03
53025.320947,16.165,0.031
53025.334173,16.06,0.03
53025.347028,15.967,0.026
53025.360052,15.915,0.024
53028.281724,15.873,0.018
53028.29474,15.938,0.02
53028.307384,15.986,0.02
53028.320463,16.109,0.024
53028.333048,16.3,0.028
53034.272948,16.294,0.053
53034.285515,16.293,0.053
53034.29819,16.096,0.043
53034.31086,16.025,0.04
53034.323504,15.952,0.038
53037.291194,15.988,0.043
53037.304739,16.14,0.048
53037.323614,16.102,0.054
53037.336291,15.889,0.046
53038.272682,16.146,0.061
53038.284964,16.05,0.056
53051.221794,15.888,0.024
53051.233727,15.876,0.024
53051.245441,15.905,0.026
53051.257347,15.963,0.028
53051.26932,16.063,0.03
53057.316002,15.907,0.078
53061.212929,16.016,0.024
53061.222298,15.916,0.022
53061.224783,15.928,0.02
53061.23362,15.868,0.02
53061.236037,15.878,0.02
53061.244864,15.88,0.02
53061.247269,15.895,0.02
53061.256248,15.879,0.02
53061.25867,15.908,0.02
53061.26763,15.916,0.02
53078.259815,15.935,0.053
53078.271104,15.911,0.035
53078.28209,15.958,0.038
53078.293008,15.949,0.036
53078.304113,15.986,0.038
53082.22693,15.854,0.02
53082.237932,15.893,0.022
53082.249042,15.893,0.022
53082.260261,15.913,0.022
53082.27139,15.979,0.024
53091.22498,15.921,0.03
53091.256578,16.178,0.037
53091.267285,16.206,0.037
53109.138105,15.988,0.041
53109.148512,15.943,0.04
53109.158943,15.984,0.04
53109.169426,16.015,0.043
53109.179958,16.07,0.045
53116.19746,16.317,0.063
53116.208593,16.376,0.128
53116.219725,16.221,0.096
53116.230857,16.171,0.109
53116.242242,16.005,0.155
53137.150244,16.164,0.059
53137.160062,16.31,0.068
53137.170084,16.421,0.081
53137.180078,16.348,0.081
53137.191821,16.305,0.083
53287.417057,16.329,0.087
53287.428,16.212,0.076
53287.438933,16.11,0.065
53287.44987,16.017,0.057
53287.460805,15.929,0.05
53292.402796,15.988,0.059
53292.412348,16.053,0.059
53292.421918,16.206,0.065
53292.431482,16.323,0.072
53292.44106,16.294,0.067
53297.409084,15.945,0.054
53297.416726,16.088,0.053
53297.41884,16.031,0.057
53297.428587,16.167,0.061
53297.428682,16.227,0.059
53297.438333,16.298,0.067
53297.441425,16.422,0.068
53297.448074,16.343,0.068
53297.455323,16.321,0.059
53297.467304,16.135,0.049
53316.377499,15.927,0.046
53316.389611,15.932,0.044
53316.40173,15.972,0.055
53316.413844,15.999,0.052
53316.425961,16.245,0.105
53327.370015,16.169,0.063
53327.382447,16.299,0.057
53327.394834,16.225,0.063
53327.40721,16.03,0.048
53327.419663,16.033,0.059
53347.397816,15.97,0.041
53347.412928,16.058,0.167
53347.444283,16.204,0.043
53347.460676,15.982,0.035
53353.333272,15.965,0.035
53353.34628,16.07,0.039
53353.359262,16.256,0.046
53353.372786,16.412,0.054
53353.38578,16.194,0.044
53357.398383,15.975,0.033
53357.413276,15.997,0.033
53357.428203,16.033,0.035
53357.443046,16.188,0.04
53376.350779,16.069,0.063
53376.364022,15.983,0.033
53376.378909,15.911,0.031
53376.392328,15.877,0.031
53376.405573,15.932,0.033
53381.30691,16.02,0.033
53381.320161,16.176,0.048
53381.333392,16.337,0.046
53381.347607,16.206,0.039
53385.350314,15.893,0.033
53385.363643,15.887,0.033
53385.377742,15.925,0.035
53385.39094,15.998,0.039
53385.404189,16.116,0.043
53387.345481,15.975,0.033
53387.345626,15.9,0.031
53387.354772,15.936,0.033
53387.36012,15.991,0.035
53387.360266,15.944,0.033
53387.368673,15.993,0.035
53387.373673,16.05,0.037
53387.373806,16.0,0.037
53387.382633,16.12,0.041
53387.387135,16.252,0.046
53387.38727,16.234,0.046
53387.395533,16.294,0.048
53387.400115,16.44,0.055
53387.400251,16.373,0.052
53387.408969,16.311,0.05
53403.284737,15.914,0.026
53403.297493,15.919,0.028
53403.310381,15.896,0.028
53403.323109,15.964,0.03
53403.335838,16.021,0.035
53410.280909,15.86,0.065
53410.293409,15.869,0.046
53410.306845,15.925,0.031
53410.320709,15.966,0.033
53410.334323,16.131,0.033
53432.227046,16.048,0.044
53432.238702,16.15,0.078
53464.190538,16.171,0.044
53464.200974,16.038,0.039
53464.211427,15.975,0.044
53464.221928,15.894,0.033
53464.23246,15.869,0.033
53495.146815,15.976,0.044
53495.156934,16.102,0.052
53495.167101,16.194,0.057
53495.177251,16.348,0.068
53495.187414,16.259,0.078
53501.137634,16.092,0.054
53501.148261,16.0,0.05
53501.159398,15.932,0.048
53501.17095,15.909,0.052
53501.181654,15.959,0.055
53648.427038,15.963,0.055
53648.438983,16.058,0.059
53648.456078,16.232,0.063
53648.46739,16.205,0.061
53648.478774,16.107,0.055
53655.421661,16.039,0.057
53655.432712,16.221,0.067
53655.444171,16.356,0.074
53655.455185,16.368,0.072
53655.46622,16.174,0.059
53671.440305,16.006,0.055
53671.452359,15.928,0.048
53671.464393,15.883,0.044
53671.476455,15.878,0.057
53671.488586,15.938,0.068
53674.460977,16.089,0.048
53674.473109,15.963,0.048
53674.485388,15.914,0.041
53674.497527,15.895,0.037
53680.446389,15.85,0.031
53680.458705,15.86,0.033
53680.471186,15.913,0.033
53680.483553,16.026,0.037
53680.495866,16.22,0.043
53705.392854,15.914,0.033
53705.406198,16.01,0.037
53705.419297,16.13,0.041
53705.432373,16.266,0.048
53705.44527,16.233,0.046
53708.390746,15.888,0.03
53708.403926,15.895,0.03
53708.417095,15.908,0.03
53708.430193,15.948,0.031
53708.443072,16.057,0.035
53713.398737,15.85,0.061
53713.411588,15.879,0.054
53713.424616,15.869,0.055
53713.43787,15.948,0.052
53713.450808,16.023,0.054
53732.348431,16.321,0.074
53732.361146,16.129,0.044
53732.379151,15.968,0.041
53732.393646,15.892,0.046
53732.406515,15.871,0.05
53735.343296,15.964,0.033
53735.356868,16.105,0.037
53735.370054,16.275,0.044
53735.383544,16.333,0.048
53739.346656,16.152,0.072
53739.359972,16.009,0.055
53759.28617,15.948,0.033
53759.299086,15.893,0.031
53759.311865,15.896,0.03
53759.324837,15.912,0.031
53759.337839,15.884,0.031
53762.34286,15.913,0.035
53762.355714,15.901,0.031
53762.368395,15.946,0.033
53762.381425,15.966,0.033
53762.394446,16.088,0.039
53770.219484,16.106,0.039
53770.232548,15.989,0.035
53770.245522,15.934,0.033
53770.258664,15.89,0.031
53770.271724,15.93,0.031
53788.232797,16.062,0.092
53788.245728,16.038,0.043
53788.258502,16.256,0.063
53788.271588,16.242,0.081
53788.284435,16.234,0.054
53790.27773,16.063,0.043
53790.289462,15.965,0.039
53790.301265,15.917,0.039
53790.31302,15.895,0.037
53790.324766,15.893,0.035
53793.293777,16.184,0.12
53799.225676,16.285,0.054
53799.237157,16.188,0.048
53799.248862,16.023,0.043
53799.260327,15.951,0.035
53799.272081,15.937,0.035
53813.206862,16.395,0.051
53813.218294,16.268,0.046
53813.230025,16.089,0.045
53813.241368,16.001,0.043
53813.253125,15.963,0.043
53816.348334,16.117,0.055
53816.359387,16.284,0.074
53816.370473,16.342,0.087
53816.38174,16.208,0.094
53819.228867,15.965,0.043
53819.239616,15.98,0.043
53819.250356,16.118,0.048
53819.261323,16.216,0.052
53819.272855,16.365,0.059
53820.17915,16.143,0.053
53820.190555,16.351,0.092
53820.202074,16.209,0.043
53820.225044,16.047,0.15
53820.231592,15.95,0.117
53827.236785,15.9,0.039
53827.24776,15.911,0.041
53827.258661,15.885,0.039
53827.269468,15.92,0.041
53827.280027,15.985,0.046
53844.1811,16.158,0.049
53844.192537,16.28,0.054
53844.203674,16.315,0.058
53844.214877,16.254,0.059
53844.22617,16.117,0.054
53846.18831,16.296,0.078
53846.198951,16.174,0.07
53846.209629,16.033,0.065
53846.220364,15.95,0.059
53846.231078,15.876,0.059
53850.142426,16.459,0.209
53850.153308,16.184,0.072
53850.188273,15.935,0.043
53850.199375,15.933,0.043
53850.211409,15.913,0.043
53852.142962,16.112,0.056
53852.153105,16.034,0.053
53852.163248,15.975,0.053
53852.173739,15.953,0.053
53852.183877,15.963,0.056
53853.13883,15.933,0.052
53853.149739,16.064,0.057
53853.160755,16.195,0.067
53853.171824,16.336,0.072
53853.182536,16.294,0.068
54026.482285,16.283,0.084
54031.430578,15.975,0.046
54031.442799,15.957,0.043
54031.455076,15.954,0.041
54031.466997,15.985,0.041
54031.478952,16.052,0.043
54036.427372,16.09,0.049
54036.441368,15.976,0.043
54036.454619,15.959,0.04
54036.466889,15.958,0.038
54036.478759,15.959,0.038
54041.425767,16.191,0.063
54041.439074,15.97,0.049
54041.451797,16.017,0.051
54041.4643,15.891,0.045
54041.476498,15.94,0.045
54057.382977,16.134,0.053
54057.395681,16.042,0.048
54057.397103,15.983,0.035
54057.408393,15.961,0.041
54057.409493,15.922,0.031
54057.421206,15.924,0.04
54057.421946,15.897,0.031
54057.434074,15.943,0.04
54057.434364,15.893,0.031
54057.446833,15.909,0.031
54060.372258,16.068,0.035
54060.384687,16.242,0.041
54060.397123,16.354,0.044
54060.409569,16.193,0.039
54060.42202,16.076,0.035
54068.387283,15.93,0.03
54068.400322,15.97,0.03
54068.413375,16.011,0.033
54068.426431,16.151,0.035
54068.439488,16.324,0.041
54083.387048,16.011,0.049
54083.397954,15.943,0.035
54083.411138,15.888,0.033
54083.413,15.957,0.063
54083.424334,15.917,0.033
54083.425986,15.899,0.048
54083.437527,15.904,0.044
54083.438827,16.022,0.068
54083.450724,16.042,0.046
54086.301594,15.979,0.189
54086.314858,15.859,0.093
54086.327995,15.955,0.063
54086.341941,15.945,0.039
54086.35585,16.067,0.041
54091.310918,15.931,0.03
54091.323578,15.871,0.028
54091.336254,15.893,0.028
54091.349162,15.949,0.03
54091.362173,15.998,0.031
54115.355973,15.976,0.041
54115.36898,16.031,0.043
54115.381835,16.198,0.051
54115.394766,16.352,0.059
54123.314926,16.36,0.053
54144.301286,16.169,0.033
54144.312404,16.05,0.031
54144.32352,16.043,0.044
54144.334715,15.892,0.028
54144.345809,15.915,0.028
54148.27533,16.016,0.038
54148.287586,15.997,0.038
54148.311061,15.935,0.036
54154.218679,15.953,0.028
54154.221187,15.957,0.038
54154.230105,15.876,0.026
54154.233034,15.921,0.036
54154.241677,15.887,0.026
54154.245436,15.939,0.036
54154.253115,15.9,0.028
54154.257068,15.948,0.036
54154.264551,15.954,0.028
54154.268922,16.022,0.04
54169.216798,16.38,0.046
54169.26082,15.927,0.035
54173.212849,15.966,0.028
54173.223479,15.906,0.026
54173.234163,15.867,0.026
54173.244836,15.903,0.028
54173.255507,15.921,0.028
54176.21752,16.319,0.041
54176.228308,16.118,0.033
54176.239155,16.032,0.031
54176.249792,15.948,0.03
54176.260729,15.908,0.03
54179.229897,16.166,0.035
54179.241146,16.291,0.039
54179.252465,16.177,0.037
54179.263766,16.083,0.033
54179.275173,15.998,0.031
54186.230673,16.29,0.07
54205.173908,15.978,0.046
54205.183222,15.962,0.045
54205.192646,16.034,0.049
54205.21144,16.24,0.063
54206.175511,16.125,0.039
54206.184614,15.976,0.033
54206.193622,15.959,0.033
54206.202655,15.925,0.033
54206.211802,15.933,0.033
54209.170715,16.181,0.059
54209.188679,16.343,0.054
54209.197677,16.261,0.055
54209.206684,16.039,0.067
54384.4284,15.912,0.031
54384.439669,15.898,0.03
54384.45093,15.918,0.03
54384.46219,15.945,0.03
54384.473458,16.071,0.033
54387.428219,16.023,0.037
54387.439493,15.968,0.033
54387.45078,15.904,0.03
54387.462064,15.885,0.03
54387.473334,15.897,0.028
54393.426815,16.02,0.049
54393.438525,16.081,0.051
54393.450779,16.233,0.058
54393.46489,16.36,0.063
54393.476564,16.286,0.061
54395.434702,16.317,0.043
54395.446537,16.375,0.046
54395.458636,16.194,0.05
54395.470466,16.026,0.033
54395.482289,15.995,0.031
54409.435764,16.216,0.033
54409.448016,16.026,0.03
54409.460257,15.969,0.026
54409.47248,15.93,0.024
54409.484703,15.912,0.024
54418.385629,16.356,0.033
54418.398113,16.351,0.033
54418.411001,16.102,0.028
54418.423435,15.987,0.024
54418.436069,15.944,0.022
54439.380995,16.123,0.022
54439.393865,16.006,0.02
54439.406727,15.931,0.02
54439.419615,15.899,0.018
54439.432493,15.892,0.018
54464.45307,16.022,0.026
54464.466129,15.939,0.024
54464.479194,15.923,0.026
54464.492258,15.889,0.026
54464.505329,15.905,0.026
54507.213161,15.891,0.022
54507.22536,15.897,0.02
54507.237685,15.875,0.02
54507.249936,15.921,0.022
54507.262131,16.016,0.022
54509.210573,15.878,0.022
54509.222465,15.891,0.022
54509.234479,15.921,0.022
54509.246507,16.013,0.024
54509.258424,16.169,0.028
54522.279344,15.897,0.024
54522.291067,15.943,0.026
54522.30285,16.006,0.028
54522.314557,16.175,0.033
54522.326267,16.379,0.043
54529.218847,16.044,0.02
54529.230236,15.969,0.02
54529.241536,15.923,0.018
54529.252848,15.905,0.018
54529.264218,15.884,0.018
54536.165066,16.233,0.115
54536.176023,16.302,0.074
54536.186982,16.294,0.035
54536.197937,16.174,0.037
54536.209038,16.029,0.024
54553.239288,15.986,0.026
54553.2512,15.935,0.024
54553.263141,15.918,0.026
54553.27502,15.905,0.031
54553.286869,15.91,0.041
54562.187176,16.176,0.028
54562.198612,16.001,0.024
54562.21024,15.972,0.022
54562.221742,15.91,0.022
54562.233197,15.861,0.022
54584.146917,15.878,0.03
54584.157515,15.882,0.03
54584.168177,15.973,0.033
54584.178872,16.057,0.037
54584.189563,16.188,0.043
54591.144497,15.934,0.033
54591.155012,15.925,0.033
54591.165537,16.05,0.039
54591.175898,16.147,0.043
54591.186156,16.242,0.048
