mjd,m,merr
52610.394326,15.326,0.028
52610.437882,15.339,0.054
52644.342593,15.53,0.02
52644.373853,15.325,0.017
52650.281949,15.497,0.024
52650.297661,15.356,0.02
52650.313797,15.323,0.018
52650.327399,15.911,0.036
52650.328147,15.317,0.02
52650.342427,15.299,0.018
52650.358252,15.88,0.035
52671.312996,15.528,0.02
52671.343339,15.357,0.018
52671.358557,15.329,0.018
52671.37386,15.323,0.018
52674.252327,15.325,0.018
52674.267664,15.332,0.022
52674.282901,15.317,0.022
52674.298376,15.394,0.018
52674.313838,15.542,0.02
52677.245725,15.702,0.026
52677.260262,15.486,0.02
52677.274744,15.402,0.018
52677.289138,15.346,0.018
52677.303639,15.314,0.018
52704.264888,15.335,0.017
52704.278217,15.339,0.018
52706.249535,15.308,0.017
52724.22827,15.347,0.02
52728.171692,15.436,0.02
52728.184087,15.354,0.02
52728.195873,15.304,0.018
52728.207845,15.304,0.018
52728.219776,15.324,0.02
52753.132769,15.758,0.03
52753.156542,15.504,0.024
52753.168432,15.418,0.024
52753.180323,15.365,0.024
52760.176939,15.415,0.022
52945.456161,15.625,0.028
52963.455992,15.427,0.017
52963.493874,15.311,0.015
52963.506495,15.327,0.015
52967.379042,15.757,0.026
52967.39166,15.712,0.026
52967.416623,15.489,0.02
52967.429127,15.417,0.018
52974.444906,15.386,0.018
52992.337047,15.387,0.017
52992.350295,15.523,0.018
52995.34104,15.289,0.011
52995.367266,15.303,0.013
52995.380314,15.434,0.013
52995.393234,15.506,0.015
52997.393064,15.878,0.126
53000.348369,15.376,0.013
53000.362786,15.315,0.013
53000.376494,15.311,0.013
53000.389634,15.286,0.013
53029.340079,15.36,0.024
53034.278341,15.737,0.028
53037.291864,15.457,0.024
53037.30547,15.546,0.026
53037.324281,15.712,0.033
53037.336962,15.648,0.033
53037.349513,15.461,0.028
53038.284567,15.383,0.03
53038.296764,15.306,0.03
53038.308977,15.323,0.031
53051.270097,15.342,0.015
53051.281773,15.343,0.015
53051.293504,15.368,0.015
53051.305181,15.418,0.017
53078.260508,15.375,0.031
53078.271799,15.37,0.021
53083.226088,15.48,0.015
53083.247692,15.35,0.013
53083.258584,15.318,0.013
53086.275884,15.484,0.03
53090.1166,15.309,0.017
53090.116729,15.303,0.017
53090.126945,15.264,0.017
53090.127073,15.3,0.017
53090.13731,15.317,0.018
53090.137438,15.301,0.017
53090.147664,15.325,0.017
53090.147793,15.327,0.017
53090.15801,15.323,0.017
53090.168317,15.418,0.017
53090.172243,15.473,0.021
53090.178956,15.512,0.018
53090.189412,15.649,0.03
53090.199709,15.732,0.041
53090.210176,15.745,0.026
53092.224818,15.29,0.024
53092.245579,15.227,0.022
53109.181267,15.336,0.023
53109.191594,15.374,0.025
53109.201887,15.343,0.023
53109.212479,15.421,0.026
53109.222728,15.467,0.026
53114.212251,15.219,0.015
53117.212421,15.4,0.017
53117.223293,15.349,0.017
53117.234139,15.349,0.017
53137.150845,15.749,0.038
53137.19242,15.417,0.036
53293.452207,15.361,0.026
53297.442194,15.607,0.031
53297.468511,15.694,0.031
53299.465283,15.515,0.059
53327.395432,15.307,0.026
53347.461343,15.55,0.022
53347.492744,15.363,0.018
53347.509173,15.316,0.018
53357.384439,15.438,0.02
53357.399328,15.379,0.02
53357.414226,15.354,0.02
53357.429155,15.352,0.018
53357.444031,15.398,0.02
53376.364807,15.535,0.02
53382.394629,15.333,0.02
53382.409042,15.304,0.02
53382.423442,15.329,0.02
53385.37853,15.668,0.026
53404.298501,15.534,0.017
53404.315945,15.409,0.017
53404.328471,15.358,0.015
53404.340924,15.318,0.015
53404.35397,15.3,0.015
53415.288801,15.392,0.018
53415.301041,15.326,0.018
53415.313785,15.305,0.018
53433.230598,15.687,0.022
53433.267723,15.409,0.018
53464.23416,15.317,0.018
53464.244581,15.309,0.02
53464.254995,15.312,0.018
53464.26583,15.337,0.02
53464.276423,15.374,0.022
53500.179142,15.408,0.028
53675.441685,15.336,0.02
53675.465883,15.226,0.018
53703.432749,15.684,0.024
53706.404213,15.321,0.017
53706.418085,15.38,0.018
53706.44381,15.552,0.08
53709.400874,15.406,0.02
53709.41357,15.368,0.02
53771.28062,15.361,0.041
53771.307252,15.329,0.022
53773.283157,15.318,0.022
53773.296722,15.361,0.024
53775.245867,15.357,0.046
53775.247824,15.493,0.049
53775.258865,15.317,0.037
53775.261837,15.397,0.043
53775.271468,15.32,0.039
53787.241412,15.696,0.023
53788.347365,15.371,0.017
53788.359544,15.326,0.017
53788.395838,15.361,0.02
53794.292179,15.382,0.022
53794.304035,15.354,0.1
53794.315818,15.315,0.018
53794.327923,15.369,0.137
53813.258655,15.455,0.03
53813.269875,15.567,0.035
53813.280939,15.676,0.041
53817.290609,15.402,0.026
53817.301461,15.352,0.024
53817.312345,15.331,0.026
53817.32343,15.314,0.026
53818.223898,15.341,0.024
53818.234453,15.32,0.024
53818.244992,15.299,0.022
53818.266152,15.34,0.024
53823.208768,15.747,0.03
53823.221969,15.545,0.026
53823.233857,15.468,0.024
53823.246025,15.419,0.024
53825.224567,15.352,0.022
53829.215754,15.24,0.044
53849.166638,15.364,0.024
53853.135871,15.358,0.035
53853.149367,15.312,0.035
53853.171495,15.363,0.036
53855.146524,15.358,0.026
54027.449194,15.4,0.028
54027.460913,15.339,0.028
54027.475038,15.349,0.04
54027.487191,15.35,0.026
54027.498712,15.345,0.026
54029.431566,15.371,0.025
54029.444362,15.322,0.021
54029.468782,15.324,0.021
54029.480699,15.365,0.021
54037.433677,15.555,0.026
54037.446487,15.725,0.03
54037.458459,15.786,0.031
54037.470536,15.728,0.03
54037.483166,15.523,0.025
54054.361459,15.661,0.024
54054.372862,15.732,0.026
54054.384235,15.639,0.024
54054.395617,15.517,0.022
54054.406999,15.438,0.02
54055.411628,15.509,0.018
54055.423301,15.68,0.02
54055.434968,15.732,0.022
54055.446635,15.732,0.024
54055.458308,15.576,0.02
54056.37909,15.55,0.03
54056.39179,15.446,0.026
54056.407263,15.37,0.025
54056.420516,15.375,0.023
54056.433077,15.314,0.021
54058.375466,15.407,0.02
54058.38769,15.337,0.018
54058.399949,15.292,0.017
54058.412185,15.313,0.018
54058.424432,15.32,0.017
54061.376216,15.654,0.024
54061.389136,15.674,0.024
54061.426471,15.353,0.017
54066.391977,15.618,0.048
54070.381518,15.719,0.028
54070.394462,15.576,0.024
54070.420648,15.367,0.017
54070.433706,15.331,0.015
54084.3308,15.348,0.026
54084.343827,15.355,0.028
54084.351352,15.379,0.018
54084.356981,15.455,0.03
54084.37015,15.58,0.033
54084.383359,15.744,0.036
54084.391843,15.716,0.024
54087.395148,15.377,0.02
54087.408158,15.53,0.039
54087.421169,15.619,0.039
54087.447196,15.699,0.024
54098.321507,15.322,0.022
54098.333117,15.289,0.02
54098.344768,15.346,0.02
54098.356532,15.371,0.02
54110.325557,15.514,0.035
54110.338167,15.415,0.035
54110.350729,15.406,0.03
54110.36331,15.348,0.028
54110.375953,15.376,0.028
54121.276083,15.777,0.03
54121.288597,15.634,0.026
54121.294991,15.513,0.017
54121.301821,15.459,0.023
54121.307236,15.439,0.015
54121.314697,15.41,0.02
54121.319581,15.365,0.013
54121.327279,15.361,0.02
54124.267916,15.351,0.013
54125.265668,15.468,0.018
54125.278174,15.387,0.017
54125.290564,15.362,0.017
54125.302992,15.341,0.015
54125.315393,15.338,0.015
54149.272582,15.484,0.023
54149.284448,15.595,0.025
54149.296279,15.731,0.028
54149.308051,15.755,0.028
54149.319842,15.684,0.028
54206.175072,15.506,0.03
54206.184248,15.467,0.028
54206.193469,15.418,0.026
54206.202661,15.392,0.026
54206.212369,15.359,0.026
54207.175155,15.38,0.024
54207.184314,15.428,0.026
54210.17563,15.348,0.022
54210.184543,15.323,0.022
54210.202339,15.336,0.022
54210.211218,15.342,0.022
54385.428176,15.327,0.018
54388.440284,15.474,0.02
54388.462973,15.343,0.017
54388.474265,15.31,0.017
54396.435423,15.37,0.018
54396.458834,15.521,0.018
54396.470484,15.644,0.022
54396.482148,15.748,0.022
54410.432552,15.351,0.022
54410.444872,15.388,0.03
54410.457087,15.439,0.033
54410.469286,15.484,0.037
54410.481567,15.58,0.026
54419.445121,15.35,0.013
54419.457969,15.389,0.013
54419.483442,15.624,0.015
54419.496191,15.671,0.017
54424.330474,15.362,0.02
54424.343057,15.465,0.02
54424.355644,15.57,0.02
54424.368246,15.685,0.02
54424.380808,15.646,0.017
54440.365823,15.724,0.017
54440.378716,15.707,0.015
54440.391509,15.597,0.017
54440.40431,15.457,0.013
54444.368432,15.388,0.015
54444.381526,15.347,0.013
54448.329076,15.417,0.013
54448.34207,15.36,0.013
54448.355059,15.359,0.015
54448.368038,15.316,0.02
54448.381026,15.301,0.015
54454.289892,15.294,0.017
54454.302973,15.251,0.017
54454.316065,15.238,0.017
54465.460189,15.367,0.015
54465.47309,15.414,0.015
54465.486001,15.487,0.017
54465.498907,15.618,0.018
54465.511818,15.708,0.02
54474.328031,15.539,0.05
54508.231501,15.324,0.011
54508.243657,15.271,0.011
54508.268411,15.32,0.015
54508.280701,15.332,0.018
54523.279608,15.667,0.017
54523.291358,15.551,0.015
54523.30294,15.457,0.015
54523.314534,15.404,0.015
54523.326293,15.321,0.015
54530.224191,15.358,0.018
54530.235551,15.404,0.017
54530.246936,15.455,0.055
54537.193904,15.301,0.011
54537.204861,15.266,0.011
54554.23687,15.444,0.015
54554.24878,15.377,0.011
54554.260697,15.325,0.011
54554.27283,15.297,0.011
54554.284745,15.298,0.011
54563.232939,15.401,0.015
54574.138668,15.408,0.037
54574.149304,15.541,0.043
54574.159937,15.67,0.046
54574.170527,15.819,0.055
54574.18113,15.695,0.05
54582.185193,15.311,0.022
