mjd,m,merr
52623.363055,15.715,0.038
52623.377693,15.728,0.038
52623.392276,15.74,0.036
52623.407174,15.7,0.033
52623.421907,15.726,0.035
52643.329618,15.784,0.033
52643.345772,15.841,0.031
52643.36217,15.794,0.03
52643.378394,15.853,0.031
52643.394659,15.847,0.035
52649.373276,15.515,0.02
52649.38959,15.538,0.022
52649.405803,15.608,0.024
52649.423557,15.628,0.026
52649.440366,15.678,0.028
52652.308986,15.152,0.02
52652.328381,15.019,0.018
52652.350506,15.189,0.018
52652.371494,15.221,0.02
52652.388368,15.277,0.021
52664.272928,15.373,0.021
52664.289479,15.394,0.023
52664.307069,15.505,0.023
52664.323891,15.544,0.025
52664.340666,15.594,0.026
52670.277441,15.957,0.036
52670.29224,16.001,0.04
52670.307018,15.999,0.038
52670.322001,15.996,0.04
52670.337001,15.853,0.035
52675.250821,15.994,0.087
52675.266038,16.231,0.211
52696.268955,15.818,0.026
52696.28255,15.784,0.026
52696.295105,15.794,0.026
52696.30811,15.828,0.028
52696.321403,15.831,0.028
52701.238909,15.77,0.03
52701.239267,15.717,0.033
52701.251985,15.805,0.031
52701.252344,15.697,0.035
52701.265121,15.791,0.03
52701.278244,15.858,0.036
52701.278602,15.716,0.036
52701.291308,15.945,0.099
52723.173355,15.863,0.03
52723.18489,15.82,0.028
52723.196337,15.873,0.03
52723.20892,15.924,0.117
52723.220419,15.966,0.043
52724.11596,15.491,0.022
52724.127708,15.498,0.022
52724.139576,15.507,0.022
52724.15139,15.562,0.022
52724.163345,15.584,0.024
52729.172722,15.626,0.028
52729.184737,15.639,0.028
52729.196905,15.668,0.03
52729.208943,15.717,0.031
52729.221022,15.704,0.03
52732.18386,15.388,0.035
52732.195749,15.425,0.028
52732.207716,15.483,0.026
52732.220099,15.5,0.031
52732.232193,15.518,0.035
52752.136671,15.389,0.024
52752.146956,15.431,0.024
52752.157212,15.503,0.024
52752.167465,15.532,0.028
52752.177722,15.541,0.028
52761.141433,15.82,0.037
52761.153207,15.872,0.033
52761.164978,15.844,0.035
52761.176746,15.89,0.065
52761.188559,15.882,0.063
52912.441562,15.804,0.041
52912.454581,15.822,0.039
52912.467615,15.821,0.037
52912.4803,15.825,0.035
52935.438314,15.775,0.049
52935.449817,15.831,0.049
52935.461287,15.83,0.049
52935.484595,15.808,0.045
52946.432354,15.236,0.02
52946.444223,15.289,0.033
52946.456179,15.245,0.035
52962.387653,15.847,0.03
52962.400474,15.808,0.028
52962.413359,15.818,0.026
52962.42601,15.858,0.028
52962.439116,15.868,0.028
52977.390726,15.881,0.037
52977.40266,15.918,0.037
52977.414825,15.958,0.035
52977.426765,15.953,0.031
52977.438813,15.963,0.031
52990.339325,15.764,0.025
52990.352936,15.802,0.026
52990.365558,15.83,0.026
52990.378878,15.846,0.028
52990.391531,15.863,0.028
53001.351408,15.459,0.013
53001.364771,15.521,0.013
53001.378069,15.547,0.015
53001.391383,15.577,0.015
53001.404905,15.593,0.015
53002.375742,15.827,0.02
53002.420141,15.185,0.011
53002.438426,15.037,0.009
53006.333192,15.423,0.025
53006.345776,15.459,0.03
53006.358348,15.505,0.035
53006.370924,15.524,0.026
53009.335789,15.131,0.022
53009.348482,15.189,0.024
53009.361166,15.247,0.026
53009.374254,15.275,0.026
53009.387253,15.32,0.028
53023.273923,15.714,0.018
53023.286529,15.742,0.02
53023.298845,15.76,0.02
53023.311424,15.777,0.02
53023.324706,15.797,0.02
53035.282256,15.827,0.033
53035.295482,15.847,0.035
53035.307892,15.853,0.033
53035.322567,15.861,0.033
53035.335502,15.934,0.035
53037.284042,15.714,0.031
53037.29678,15.367,0.023
53037.309248,15.24,0.02
53037.321676,15.054,0.018
53037.334061,15.013,0.018
53049.222854,15.226,0.013
53049.23467,15.248,0.015
53049.24649,15.276,0.015
53049.258307,15.304,0.015
53049.270173,15.347,0.015
53062.223589,15.292,0.046
53062.259865,15.052,0.046
53062.274053,15.101,0.054
53087.181138,15.027,0.01
53087.19294,15.059,0.012
53087.204293,15.112,0.012
53087.215294,15.155,0.021
53087.226537,15.216,0.021
53089.180329,15.468,0.018
53089.191639,15.47,0.018
53089.202674,15.486,0.016
53089.213484,15.527,0.018
53089.224519,15.554,0.018
53107.18166,15.286,0.02
53107.192121,15.315,0.02
53107.202547,15.33,0.021
53107.213051,15.351,0.021
53107.223556,15.375,0.021
53118.143115,15.888,0.023
53118.154896,15.863,0.025
53127.146812,15.352,0.046
53127.156071,15.366,0.048
53127.165353,15.397,0.049
53127.174559,15.418,0.053
53127.183877,15.404,0.054
53136.150883,15.866,0.041
53136.159634,15.865,0.041
53136.16846,15.777,0.041
53136.177251,15.856,0.045
53136.186128,15.833,0.048
53273.481007,15.161,0.023
53282.44897,15.649,0.063
53282.461075,15.706,0.064
53282.472457,15.764,0.068
53282.483347,15.857,0.069
53286.48909,15.862,0.073
53288.420663,15.127,0.024
53288.431487,15.146,0.024
53288.442303,15.208,0.024
53288.453118,15.227,0.024
53288.463937,15.288,0.026
53293.421295,15.169,0.02
53293.432273,15.196,0.022
53293.443257,15.234,0.022
53293.454235,15.261,0.022
53293.465212,15.283,0.022
53328.391292,15.324,0.036
53328.417436,15.426,0.028
53328.443353,15.495,0.028
53331.388414,15.04,0.022
53331.401299,15.067,0.02
53331.413674,15.141,0.02
53331.426339,15.185,0.02
53331.438699,15.23,0.022
53348.349307,15.455,0.073
53348.363192,15.475,0.031
53348.377464,15.584,0.036
53348.391419,15.562,0.028
53348.405272,15.573,0.026
53354.358444,15.998,0.035
53354.373206,15.929,0.033
53354.387576,15.746,0.028
53354.401889,15.401,0.021
53354.416343,15.207,0.018
53384.319836,15.238,0.063
53384.33404,15.114,0.041
53384.348818,15.123,0.068
53404.302344,15.108,0.012
53404.3152,15.151,0.013
53404.327996,15.239,0.013
53404.347814,15.271,0.015
53404.36101,15.303,0.015
53474.192509,15.473,0.031
53474.202106,15.482,0.031
53474.212257,15.548,0.035
53474.221968,15.559,0.037
53474.231688,15.541,0.035
53657.427117,15.637,0.033
53657.438355,15.648,0.031
53657.449594,15.67,0.033
53657.460817,15.665,0.031
53657.472028,15.692,0.031
53683.404469,15.162,0.026
53683.417097,15.226,0.061
53683.429663,15.236,0.02
53683.44237,15.257,0.022
53701.439244,15.066,0.018
53728.3352,15.393,0.024
53728.34831,15.423,0.028
53728.361305,15.387,0.031
53728.374423,15.454,0.041
53728.388175,15.526,0.03
53742.348483,15.86,0.026
53742.361483,15.867,0.026
53742.374476,15.834,0.026
53742.387452,15.849,0.026
53742.400268,15.876,0.028
53747.335767,15.778,0.094
53762.275208,15.88,0.059
53762.288228,15.875,0.043
53762.301212,15.875,0.046
53762.314501,15.884,0.044
53762.327893,15.914,0.037
53772.221903,15.85,0.039
53772.234586,15.857,0.037
53772.247402,15.877,0.037
53772.260309,15.859,0.037
53772.273306,15.802,0.035
53786.236526,15.271,0.016
53786.249742,15.321,0.015
53786.263128,15.322,0.015
53786.276262,15.383,0.016
53786.290147,15.412,0.018
53812.25079,16.007,0.05
53812.261865,16.046,0.054
53812.272939,15.969,0.05
53812.284008,15.799,0.044
53812.295092,15.606,0.037
53824.182489,15.042,0.016
53824.193601,15.094,0.016
53824.204911,15.118,0.016
53824.225822,15.238,0.018
53824.251574,15.299,0.02
53843.190698,15.78,0.037
53843.202193,15.831,0.039
53843.213507,15.825,0.041
53843.224828,15.867,0.044
53843.236731,15.858,0.044
53855.142195,15.863,0.043
53855.152331,15.869,0.043
53855.162454,15.793,0.041
53855.172613,15.832,0.045
53855.182783,15.899,0.046
54010.42894,15.269,0.021
54010.445219,15.035,0.016
54010.458544,15.019,0.015
54010.471326,15.049,0.015
54010.484511,15.107,0.015
54028.435564,16.087,0.061
54028.447531,15.993,0.053
54028.459137,15.916,0.049
54028.470914,15.696,0.04
54028.482734,15.44,0.031
54054.396639,15.783,0.035
54054.409231,15.808,0.036
54054.421832,15.84,0.036
54054.434437,15.839,0.036
54054.446886,15.828,0.035
54068.391244,15.06,0.016
54068.404117,15.075,0.016
54068.417187,15.191,0.018
54068.430353,15.225,0.02
54068.443241,15.228,0.018
54086.297522,15.926,0.158
54086.313748,16.036,0.175
54086.327404,16.031,0.097
54086.341037,15.909,0.059
54086.354587,15.97,0.049
54109.313653,15.883,0.058
54109.32569,15.823,0.064
54109.337523,15.922,0.063
54109.349313,15.861,0.066
54109.361087,15.889,0.066
54169.217423,16.013,0.03
54169.228356,15.993,0.03
54169.239355,15.993,0.03
54169.250297,15.898,0.028
54169.261321,15.762,0.026
54186.219485,15.278,0.058
54201.184496,15.37,0.024
54201.194617,15.378,0.024
54201.204371,15.438,0.024
54201.214101,15.46,0.024
54201.2241,15.474,0.024
54209.170183,15.202,0.035
54209.187795,15.039,0.02
54209.197025,15.092,0.028
54209.205937,15.088,0.038
54218.162807,15.746,0.091
54396.430419,15.808,0.045
54396.443522,15.85,0.043
54396.457204,15.875,0.046
54413.43425,15.782,0.024
54413.446495,15.805,0.024
54413.458704,15.795,0.024
54413.470907,15.729,0.02
54413.483141,15.478,0.017
54420.438461,15.211,0.013
54420.451322,15.234,0.013
54420.464129,15.245,0.015
54420.476572,15.271,0.046
54436.459646,15.924,0.022
54436.472453,15.891,0.022
54436.485232,15.938,0.022
54436.498129,15.959,0.024
54436.510913,15.826,0.022
54452.326399,15.507,0.017
54452.339289,15.53,0.017
54452.352149,15.551,0.017
54452.365012,15.466,0.017
54452.377861,15.62,0.017
54476.330974,15.826,0.018
54476.343833,15.824,0.02
54476.356683,15.797,0.018
54476.369537,15.824,0.02
54476.382382,15.842,0.02
54508.290357,15.247,0.026
54508.30242,15.307,0.023
54508.314314,15.326,0.026
54508.326411,15.358,0.025
54508.338301,15.389,0.023
54533.219145,15.278,0.013
54533.230145,15.285,0.013
54533.241134,15.305,0.013
54533.252118,15.33,0.013
54533.263155,15.342,0.013
54561.12385,15.745,0.059
54561.169201,14.973,0.025
54567.130734,15.771,0.028
54567.142042,15.765,0.028
54567.153023,15.751,0.031
54567.164062,15.8,0.033
54567.175026,15.816,0.033
54583.145047,15.525,0.041
54583.155132,15.49,0.04
54583.165313,15.536,0.043
54583.175396,15.592,0.046
54583.185711,15.615,0.048
54587.147084,15.857,0.033
54587.157809,15.823,0.031
54587.168495,15.848,0.033
54587.179172,15.818,0.033
54587.189879,15.831,0.035
54595.146673,15.746,0.041
54595.156576,15.736,0.041
54595.166478,15.72,0.041
54595.176343,15.711,0.041
54595.186281,15.773,0.044
