mjd,m,merr
52623.372721,15.608,0.028
52623.387958,15.585,0.028
52623.403223,15.588,0.026
52623.418509,15.589,0.026
52623.433918,15.644,0.03
52650.294001,15.661,0.03
52650.309421,15.474,0.023
52652.309549,15.55,0.024
52652.324694,15.575,0.024
52652.339655,15.619,0.024
52652.354721,15.664,0.026
52652.369725,15.649,0.026
52664.273299,15.35,0.017
52664.288502,15.354,0.017
52664.303778,15.362,0.017
52664.319051,15.403,0.018
52664.334396,15.383,0.018
52695.246441,15.263,0.039
52695.263447,15.274,0.017
52695.279196,15.302,0.017
52695.295649,15.316,0.017
52695.312047,15.354,0.017
52711.179042,15.286,0.037
52711.192374,15.322,0.031
52711.206057,15.317,0.028
52711.21954,15.353,0.03
52711.233211,15.346,0.028
52722.196866,15.497,0.018
52722.210552,15.528,0.018
52722.224108,15.524,0.018
52722.237413,15.53,0.02
52722.254832,15.541,0.02
52739.204028,15.116,0.036
52739.227809,15.198,0.041
52751.141647,15.572,0.037
52751.152245,15.507,0.044
52751.162936,15.538,0.035
52751.173562,15.537,0.028
52751.184364,15.568,0.026
52914.436435,15.733,0.087
52914.449442,15.655,0.039
52914.475493,15.505,0.035
52914.489142,15.345,0.039
52947.46764,15.516,0.026
52947.479872,15.552,0.026
52947.492067,15.567,0.026
52966.359783,15.714,0.025
52966.367809,15.713,0.025
52966.375803,15.719,0.025
52966.38384,15.693,0.025
52966.391842,15.714,0.025
52976.356318,15.579,0.021
52976.367453,15.595,0.021
52976.378572,15.596,0.02
52978.382377,15.491,0.028
52978.395189,15.51,0.026
52978.407835,15.516,0.026
52978.42068,15.547,0.026
52978.433427,15.526,0.024
52988.329852,15.353,0.02
52988.342918,15.329,0.02
52988.355895,15.341,0.02
52988.368868,15.375,0.02
52988.381745,15.378,0.02
53003.317475,15.085,0.01
53003.329676,15.074,0.01
53003.341862,15.062,0.01
53003.353917,15.087,0.01
53003.366001,15.107,0.01
53006.325575,15.254,0.018
53006.337672,15.253,0.017
53006.350522,15.271,0.018
53006.362618,15.293,0.017
53006.374715,15.319,0.018
53008.374681,15.07,0.018
53008.387246,15.071,0.02
53038.290631,15.469,0.035
53038.315203,15.538,0.033
53038.327538,15.545,0.033
53045.277278,15.216,0.018
53045.289538,15.228,0.02
53045.30705,15.253,0.021
53045.319264,15.287,0.021
53045.331683,15.292,0.021
53092.182378,15.229,0.02
53092.192379,15.233,0.02
53092.201968,15.295,0.021
53092.211687,15.254,0.02
53134.151967,15.306,0.025
53134.161073,15.325,0.026
53134.170122,15.403,0.026
53134.179428,15.379,0.026
53134.188594,15.336,0.028
53281.425589,15.295,0.049
53281.436386,15.333,0.049
53281.447367,15.344,0.048
53281.458463,15.376,0.048
53319.414362,15.265,0.021
53319.428132,15.173,0.02
53319.442802,15.102,0.02
53319.457183,15.089,0.018
53319.471717,15.104,0.018
53329.45575,15.666,0.03
53329.468225,15.595,0.03
53329.481006,15.478,0.026
53329.493793,15.325,0.023
53329.506185,15.281,0.021
53385.420856,15.476,0.022
53385.433775,15.473,0.022
53385.446703,15.503,0.022
53385.460779,15.489,0.022
53385.473741,15.523,0.024
53401.285875,15.408,0.02
53401.29849,15.436,0.02
53401.311078,15.433,0.02
53401.324196,15.434,0.022
53401.336801,15.447,0.022
53415.297878,15.682,0.024
53415.310112,15.713,0.026
53415.32286,15.693,0.024
53415.335299,15.676,0.024
53415.347538,15.642,0.024
53430.235644,15.517,0.02
53430.247422,15.536,0.02
53430.261313,15.566,0.022
53430.275342,15.526,0.022
53430.294275,15.568,0.026
53437.239019,15.3,0.017
53437.25149,15.274,0.017
53437.263112,15.317,0.017
53437.274587,15.308,0.017
53437.286082,15.333,0.017
53480.197623,15.768,0.083
53480.206932,15.743,0.081
53480.215949,15.771,0.085
53491.156469,15.494,0.037
53491.16645,15.34,0.024
53685.387366,15.101,0.018
53685.399633,15.108,0.018
53685.411912,15.153,0.024
53685.424306,15.151,0.018
53685.436627,15.166,0.028
53700.386305,15.697,0.028
53700.398858,15.677,0.028
53700.41148,15.731,0.03
53700.424193,15.675,0.026
53700.436746,15.675,0.026
53727.339848,15.219,0.02
53727.352681,15.242,0.018
53727.365487,15.262,0.018
53727.378443,15.28,0.018
53727.391138,15.282,0.018
53757.261979,15.56,0.018
53757.274689,15.563,0.018
53757.287367,15.547,0.018
53757.299888,15.561,0.018
53757.312485,15.582,0.02
53773.288874,15.687,0.031
53773.301748,15.723,0.031
53773.31459,15.699,0.031
53773.327554,15.639,0.031
53773.340211,15.606,0.031
53827.200272,15.509,0.021
53827.211669,15.541,0.021
53827.222568,15.529,0.021
53827.233583,15.556,0.021
53827.244477,15.528,0.021
53842.18428,15.357,0.025
53842.195818,15.332,0.025
53842.207759,15.371,0.026
53842.219399,15.399,0.033
53842.231101,15.496,0.04
54024.424955,15.621,0.04
54024.43736,15.622,0.036
54024.45223,15.699,0.036
54024.466418,15.687,0.036
54052.393705,15.496,0.026
54052.405917,15.536,0.026
54052.418121,15.541,0.026
54052.43033,15.576,0.028
54052.442541,15.566,0.026
54071.384932,15.745,0.048
54071.397769,15.698,0.046
54071.410616,15.705,0.043
54071.423446,15.601,0.038
54071.43623,15.534,0.035
54080.358074,15.376,0.024
54080.370094,15.379,0.024
54080.382121,15.366,0.024
54098.314289,15.24,0.023
54098.326381,15.23,0.023
54098.338462,15.225,0.023
54098.350715,15.268,0.023
54098.363042,15.293,0.021
54109.341391,15.479,0.063
54109.392027,15.521,0.039
54124.271951,15.173,0.018
54124.284387,15.216,0.018
54124.296866,15.221,0.018
54124.309171,15.23,0.018
54124.321984,15.261,0.018
54140.293403,15.355,0.015
54140.30602,15.376,0.017
54140.317854,15.395,0.017
54140.329838,15.415,0.018
54140.342152,15.449,0.02
54198.177889,15.52,0.022
54198.187348,15.496,0.024
54198.197003,15.547,0.024
54198.206517,15.511,0.024
54198.215993,15.547,0.026
54212.183757,15.517,0.041
54218.180426,15.325,0.039
54218.189016,15.343,0.041
54218.197654,15.358,0.044
54218.206277,15.319,0.043
54218.214912,15.38,0.046
54526.221308,15.225,0.02
54526.232861,15.076,0.018
54526.244089,15.103,0.018
54526.255578,15.222,0.02
54526.267088,15.244,0.02
54589.14674,15.251,0.018
54589.15723,15.298,0.02
54589.167737,15.294,0.02
54589.178186,15.313,0.02
54589.188748,15.321,0.02
