mjd,m,merr
52620.398083,14.671,0.033
52620.413935,14.792,0.015
52620.429747,14.757,0.013
52620.444891,14.686,0.013
52653.327304,14.746,0.02
52653.342164,14.867,0.021
52653.357034,15.082,0.03
52680.240174,14.669,0.013
52680.256713,14.674,0.013
52680.272731,14.566,0.013
52680.304513,14.704,0.015
52693.263014,14.715,0.011
52693.278492,14.589,0.009
52693.294928,14.482,0.009
52693.310587,14.42,0.007
52693.32609,14.383,0.009
52712.177886,14.664,0.024
52721.182639,14.776,0.011
52721.195441,14.779,0.011
52721.208283,14.743,0.011
52721.221092,14.621,0.009
52721.233816,14.526,0.009
52750.134794,14.533,0.013
52750.14539,14.456,0.011
52750.155993,14.429,0.009
52750.166613,14.39,0.009
52750.177221,14.384,0.009
52770.194081,14.396,0.02
52927.432361,14.701,0.026
52927.443999,14.591,0.024
52927.455796,14.541,0.02
52927.467452,14.486,0.02
52927.478931,14.418,0.018
52948.392467,14.762,0.017
52948.40454,14.731,0.015
52948.41667,14.727,0.015
52948.428674,14.639,0.013
52948.440841,14.503,0.011
52978.351917,14.388,0.012
52978.372113,14.443,0.012
52978.387095,14.5,0.012
52978.4004,14.554,0.013
52978.415622,14.713,0.015
52988.306444,14.651,0.013
52988.317902,14.539,0.012
52988.329911,14.446,0.01
52988.341367,14.415,0.01
52988.352961,14.403,0.01
53008.371942,14.389,0.012
53008.385825,14.372,0.012
53038.301625,14.604,0.015
53038.314686,14.646,0.015
53038.330863,14.787,0.018
53038.346162,14.774,0.022
53045.263391,14.642,0.013
53045.274939,14.715,0.013
53045.286477,14.757,0.015
53045.298037,14.777,0.015
53045.310415,14.685,0.013
53093.207869,14.517,0.015
53108.192456,14.436,0.009
53108.203653,14.464,0.009
53108.214938,14.46,0.011
53108.226213,14.501,0.011
53108.237528,14.562,0.011
53122.144297,14.777,0.023
53122.154623,14.789,0.021
53122.16497,14.749,0.02
53125.148074,14.421,0.024
53125.158078,14.447,0.024
53134.151189,14.474,0.013
53134.16066,14.443,0.013
53134.170137,14.413,0.011
53134.179621,14.418,0.011
53134.189105,14.382,0.011
53153.159933,14.743,0.016
53153.16838,14.759,0.018
53153.176996,14.749,0.016
53153.185757,14.655,0.016
53263.40725,14.475,0.013
53263.418973,14.552,0.013
53263.430621,14.615,0.013
53263.442268,14.741,0.013
53263.454045,14.771,0.013
53290.434659,14.815,0.018
53290.445774,14.769,0.016
53290.456977,14.642,0.015
53290.468159,14.551,0.013
53290.479286,14.468,0.013
53303.433161,14.449,0.015
53303.45689,14.513,0.013
53312.378928,14.85,0.028
53312.391031,14.825,0.028
53312.403074,14.81,0.026
53312.415127,14.708,0.024
53312.427171,14.594,0.02
53319.401771,14.398,0.009
53319.413864,14.394,0.009
53319.42595,14.445,0.011
53319.438062,14.48,0.011
53319.45015,14.541,0.011
53329.439077,14.408,0.011
53329.451492,14.482,0.011
53329.464318,14.549,0.011
53329.47667,14.672,0.013
53329.489012,14.785,0.013
53340.415945,14.424,0.02
53349.398263,14.572,0.013
53349.41036,14.526,0.013
53349.424234,14.438,0.011
53349.436815,14.463,0.011
53349.448891,14.432,0.011
53355.485819,14.765,0.013
53355.500119,14.779,0.013
53355.512952,14.732,0.013
53359.328265,14.534,0.012
53359.344347,14.609,0.012
53359.360375,14.727,0.012
53359.376422,14.742,0.012
53359.392539,14.706,0.012
53362.404438,14.56,0.015
53389.418758,14.804,0.013
53389.431746,14.733,0.013
53389.444728,14.635,0.011
53389.470755,14.493,0.011
53461.181015,14.423,0.009
53461.191416,14.416,0.009
53461.201718,14.411,0.009
53461.212239,14.439,0.009
53461.222845,14.431,0.011
53489.147498,14.388,0.009
53489.157847,14.425,0.011
53489.168021,14.439,0.011
53635.423558,14.503,0.024
53635.433995,14.48,0.022
53635.44442,14.461,0.024
53635.454853,14.474,0.022
53635.465282,14.562,0.026
53686.391379,14.777,0.015
53686.403967,14.747,0.013
53686.416553,14.628,0.009
53686.42918,14.552,0.009
53696.39331,14.769,0.017
53696.40649,14.775,0.018
53696.419703,14.777,0.024
53725.350759,14.526,0.011
53725.36383,14.469,0.011
53725.376918,14.461,0.011
53755.279361,14.484,0.011
53755.292067,14.548,0.013
53755.304805,14.641,0.013
53755.317702,14.771,0.015
53755.330359,14.804,0.015
53774.285878,14.467,0.015
53774.298348,14.425,0.013
53774.311,14.433,0.013
53774.323571,14.444,0.013
53774.336168,14.469,0.013
53858.145918,14.522,0.016
53876.151171,14.681,0.02
53876.161978,14.599,0.018
53876.173029,14.496,0.016
53876.184093,14.467,0.016
54051.42938,14.462,0.018
54051.441572,14.537,0.015
54051.453784,14.595,0.013
54072.340329,14.717,0.026
54072.354972,14.653,0.023
54072.368601,14.544,0.021
54072.381471,14.484,0.02
54079.30579,14.655,0.017
54079.31776,14.614,0.017
54079.329657,14.54,0.015
54079.341551,14.487,0.015
54079.353458,14.445,0.015
54108.320682,14.76,0.015
54108.333395,14.837,0.015
54108.346096,14.844,0.015
54108.358803,14.779,0.015
54108.371506,14.669,0.013
54125.264095,14.57,0.012
54125.275789,14.682,0.013
54125.288198,14.753,0.013
54125.299793,14.778,0.013
54125.311364,14.767,0.013
54139.268177,14.397,0.01
54139.279963,14.408,0.01
54139.291413,14.443,0.015
54139.302859,14.482,0.013
54139.31609,14.616,0.015
54157.268788,14.756,0.02
54167.241117,14.523,0.013
54167.252334,14.612,0.015
54406.42221,14.71,0.02
54406.434954,14.807,0.021
54406.449151,14.804,0.021
54406.461571,14.751,0.02
54406.473219,14.663,0.02
54418.436701,14.549,0.013
54418.448757,14.466,0.012
54418.461151,14.457,0.012
54418.473177,14.444,0.012
54418.485273,14.479,0.012
54436.382738,14.439,0.013
54436.408713,14.427,0.013
54436.43346,14.534,0.015
54465.324065,14.458,0.015
54465.336546,14.464,0.015
54465.348936,14.54,0.016
54465.373929,14.742,0.02
54483.270998,14.562,0.018
54483.283067,14.717,0.02
54483.295331,14.724,0.021
54483.307507,14.82,0.021
54483.319763,14.781,0.021
54496.340591,14.515,0.015
54496.352863,14.562,0.015
54496.3677,14.733,0.016
54496.380002,14.796,0.018
54496.392002,14.84,0.018
54524.22189,14.488,0.016
54524.233273,14.454,0.015
54524.244767,14.485,0.015
54524.256401,14.461,0.018
54524.268051,14.508,0.015
54539.208125,14.687,0.018
54539.218969,14.643,0.018
54539.229514,14.544,0.016
54539.240067,14.543,0.016
54539.250913,14.478,0.016
54571.196324,14.637,0.026
54571.229105,14.433,0.021
54587.147706,14.816,0.028
54587.157875,14.841,0.026
54587.167986,14.706,0.025
54587.179763,14.595,0.025
54587.190959,14.592,0.025
