mjd,m,merr
52620.394208,15.191,0.039
52620.410053,15.076,0.018
52620.425849,15.116,0.017
52620.441159,15.162,0.018
52621.374638,15.132,0.015
52621.389334,15.131,0.015
52621.404122,15.169,0.017
52621.41887,15.199,0.017
52622.370754,15.216,0.018
52622.386239,15.234,0.018
52622.40178,15.313,0.02
52622.417112,15.35,0.02
52622.432473,15.398,0.022
52623.355346,15.344,0.026
52623.370251,15.46,0.026
52623.384869,15.442,0.028
52623.399572,15.442,0.026
52623.414484,15.456,0.026
52636.302239,15.757,0.036
52636.316939,15.768,0.035
52636.33137,15.767,0.036
52636.345843,15.663,0.033
52636.360282,15.578,0.031
52653.307151,16.072,0.049
52653.322136,15.967,0.045
52653.33707,15.788,0.038
52653.351945,15.715,0.04
52653.366869,15.605,0.033
52660.249414,16.126,0.063
52660.296319,15.85,0.045
52680.17405,15.71,0.031
52680.189225,15.642,0.03
52680.204354,15.692,0.031
52680.219277,15.67,0.03
52680.23412,15.63,0.03
52684.307468,17.259,0.252
52693.259306,15.455,0.02
52693.291276,15.304,0.018
52693.306832,15.253,0.017
52693.32233,15.21,0.017
52712.173988,15.313,0.043
52712.18746,15.402,0.055
52721.178938,15.249,0.017
52721.191756,15.286,0.018
52721.204537,15.323,0.017
52721.217316,15.388,0.018
52721.230162,15.386,0.018
52742.134213,15.163,0.044
52750.131647,15.249,0.035
52750.142238,15.308,0.022
52750.152845,15.353,0.02
52750.163457,15.384,0.022
52750.174063,15.4,0.022
52897.425196,15.416,0.05
52897.436997,15.373,0.046
52897.460537,15.483,0.046
52927.452731,15.043,0.037
52927.475825,15.082,0.035
52948.389161,15.415,0.028
52948.401233,15.432,0.026
52948.413349,15.402,0.024
52948.425332,15.357,0.022
52948.437444,15.332,0.022
52978.296887,15.447,0.03
52978.31015,15.344,0.03
52978.321964,15.375,0.028
52978.33404,15.294,0.026
52988.303103,15.354,0.021
52988.314574,15.424,0.021
52988.326086,15.455,0.023
52988.349614,15.451,0.023
53008.283475,15.154,0.023
53008.297891,15.19,0.023
53038.297197,15.335,0.043
53038.310953,15.431,0.043
53038.327084,15.314,0.031
53038.342356,15.386,0.031
53045.21462,15.269,0.02
53045.225979,15.316,0.02
53045.237354,15.341,0.022
53045.248544,15.385,0.022
53045.260103,15.414,0.024
53065.170472,15.259,0.028
53065.181879,15.198,0.026
53065.193179,15.21,0.026
53065.204635,15.156,0.024
53065.216209,15.174,0.02
53094.173956,15.057,0.023
53094.183522,15.056,0.023
53094.193361,15.093,0.023
53094.20301,15.04,0.021
53094.212693,15.075,0.021
53108.18941,15.377,0.022
53108.200606,15.378,0.024
53108.211871,15.391,0.024
53108.223163,15.366,0.022
53108.234462,15.372,0.024
53122.142024,15.261,0.036
53122.152175,15.25,0.031
53125.155232,15.4,0.052
53125.165946,15.447,0.059
53125.176245,15.447,0.07
53134.148268,15.114,0.022
53134.157731,15.115,0.028
53134.167208,15.097,0.022
53134.176691,15.118,0.022
53134.186175,15.129,0.033
53260.448842,15.379,0.02
53260.461303,15.424,0.021
53260.473487,15.447,0.021
53263.404736,15.233,0.02
53263.416461,15.179,0.018
53263.428108,15.134,0.018
53263.439755,15.179,0.018
53263.451532,15.136,0.018
53290.431346,15.292,0.026
53290.442461,15.297,0.025
53290.453559,15.233,0.023
53290.464761,15.265,0.025
53290.475966,15.229,0.023
53303.382536,15.196,0.028
53303.394255,15.169,0.028
53303.405989,15.147,0.026
53303.417716,15.176,0.026
53303.429473,15.098,0.028
53319.398129,15.228,0.02
53319.410225,15.181,0.018
53319.422315,15.154,0.018
53319.434422,15.151,0.018
53319.446514,15.129,0.018
53329.436162,15.302,0.02
53329.448574,15.258,0.02
53329.461401,15.195,0.02
53329.473773,15.175,0.018
53329.486129,15.143,0.018
53355.429161,15.27,0.02
53355.442045,15.318,0.02
53358.333847,15.43,0.02
53358.348951,15.409,0.02
53358.361894,15.373,0.02
53358.374724,15.316,0.02
53358.388507,15.227,0.018
53359.323832,15.28,0.021
53359.339984,15.221,0.02
53359.355999,15.177,0.018
53359.372045,15.161,0.016
53359.388158,15.12,0.016
53362.358899,15.258,0.043
53362.404258,15.447,0.037
53389.415221,15.247,0.02
53389.428283,15.334,0.024
53389.441259,15.386,0.024
53389.467306,15.337,0.024
53390.271811,15.161,0.022
53390.284568,15.123,0.02
53390.298237,15.163,0.02
53390.311081,15.18,0.022
53390.32389,15.197,0.022
53429.217068,15.153,0.017
53429.228357,15.128,0.017
53429.239704,15.109,0.017
53429.251005,15.116,0.018
53429.262304,15.098,0.018
53461.17752,15.366,0.02
53461.187922,15.425,0.022
53461.198221,15.38,0.022
53461.20873,15.382,0.022
53461.218992,15.413,0.024
53489.143857,15.242,0.02
53489.154219,15.314,0.024
53489.16458,15.33,0.026
53489.174748,15.322,0.057
53489.18509,15.484,0.048
53635.419838,15.159,0.039
53635.430269,15.21,0.039
53635.440693,15.211,0.041
53635.451121,15.234,0.041
53687.378222,15.466,0.031
53687.390635,15.432,0.03
53687.403023,15.484,0.031
53687.415778,15.461,0.03
53687.428478,15.419,0.028
53696.38874,15.232,0.024
53696.401951,15.229,0.024
53696.414979,15.245,0.024
53696.428288,15.357,0.033
53725.333052,15.161,0.022
53725.346371,15.178,0.02
53725.359381,15.182,0.02
53725.372531,15.202,0.02
53725.385537,15.239,0.02
53755.287397,15.22,0.02
53755.300098,15.303,0.022
53755.313037,15.355,0.024
53755.325697,15.371,0.024
53775.288945,15.087,0.035
53775.303076,15.132,0.028
53775.317,15.115,0.026
53807.250788,15.283,0.041
53807.262846,15.389,0.046
53858.142181,15.312,0.043
53994.444025,15.456,0.036
53994.456681,15.483,0.038
53994.469027,15.506,0.036
54021.426189,15.109,0.036
54050.369786,15.167,0.022
54050.381973,15.216,0.022
54050.394165,15.222,0.022
54050.406366,15.274,0.024
54079.301461,15.211,0.024
54079.313425,15.246,0.026
54079.32532,15.293,0.026
54079.337219,15.305,0.026
54079.349125,15.334,0.028
54108.26587,15.2,0.022
54108.278455,15.238,0.022
54108.291056,15.274,0.022
54108.303718,15.329,0.024
54108.316408,15.35,0.024
54126.263129,15.472,0.028
54126.274986,15.437,0.028
54139.217333,15.37,0.017
54139.229022,15.311,0.017
54139.240786,15.274,0.015
54167.230217,15.212,0.018
54167.241337,15.293,0.018
54167.252523,15.271,0.018
54167.26373,15.234,0.02
54406.372015,15.249,0.031
54406.383619,15.217,0.031
54406.395215,15.196,0.03
54406.406673,15.193,0.03
54406.418136,15.174,0.028
54418.383309,15.165,0.018
54418.395414,15.154,0.018
54418.407588,15.188,0.018
54418.419563,15.142,0.018
54418.431557,15.14,0.018
54436.327701,15.195,0.021
54465.31959,15.189,0.025
54465.332086,15.162,0.026
54465.344548,15.314,0.026
54465.356937,15.324,0.026
54465.369403,15.363,0.028
54524.216139,15.382,0.028
54524.229213,15.387,0.03
54524.240707,15.483,0.028
54524.25234,15.501,0.033
54524.263959,15.496,0.033
54540.179897,15.23,0.03
54540.190621,15.247,0.03
54540.201579,15.244,0.028
54540.212445,15.206,0.028
54572.138148,15.293,0.038
