mjd,m,merr
52619.383042,16.387,0.058
52619.398161,16.297,0.054
52619.413125,16.356,0.058
52619.428195,16.313,0.056
52619.443183,16.366,0.058
52640.41755,16.603,0.055
52640.432975,16.45,0.048
52640.448878,16.386,0.046
52640.463801,16.361,0.046
52640.478736,16.331,0.046
52646.380276,16.414,0.057
52646.395211,16.526,0.065
52646.409641,16.697,0.08
52646.424189,16.672,0.074
52646.438742,16.534,0.072
52647.377709,16.377,0.056
52647.392205,16.261,0.051
52647.406774,16.254,0.053
52647.421761,16.255,0.054
52647.436608,16.362,0.061
52666.313235,16.312,0.045
52666.329325,16.24,0.041
52666.344386,16.301,0.043
52666.359556,16.299,0.043
52666.37428,16.294,0.045
52667.310887,16.501,0.056
52667.311073,16.546,0.052
52667.325549,16.488,0.054
52667.326395,16.472,0.048
52667.340221,16.469,0.053
52667.341784,16.456,0.048
52667.35489,16.481,0.056
52667.357279,16.396,0.046
52667.36957,16.404,0.053
52667.372502,16.361,0.044
52668.313649,16.476,0.12
52668.327826,16.539,0.081
52668.328505,16.638,0.12
52668.329085,16.474,0.081
52668.343183,16.503,0.094
52668.34324,16.474,0.081
52668.344485,16.488,0.068
52668.357853,16.478,0.125
52668.358616,16.638,0.122
52668.359865,16.568,0.104
52668.374148,16.669,0.161
52668.375391,16.763,0.252
52672.316105,16.396,0.059
52672.330031,16.32,0.048
52672.344106,16.361,0.072
52672.358144,16.306,0.048
52672.372066,16.272,0.048
52673.267602,16.506,0.059
52698.234116,16.293,0.044
52698.261082,16.341,0.054
52698.274817,16.393,0.057
52698.288943,16.535,0.052
52704.227031,16.244,0.045
52704.227389,16.318,0.046
52704.239972,16.318,0.048
52704.240331,16.315,0.046
52704.25348,16.308,0.048
52704.253839,16.279,0.046
52704.266492,16.381,0.053
52704.266849,16.347,0.049
52704.280056,16.35,0.051
52704.280414,16.372,0.051
52705.232758,16.437,0.048
52705.245994,16.403,0.046
52705.260963,16.379,0.044
52705.273984,16.335,0.044
52705.287098,16.371,0.046
52725.298015,16.401,0.058
52729.17345,16.254,0.044
52729.185427,16.278,0.044
52729.196912,16.284,0.048
52729.208573,16.305,0.048
52729.220072,16.322,0.048
52734.190052,16.522,0.055
52734.202585,16.489,0.055
52734.215759,16.569,0.059
52734.228008,16.712,0.074
52734.241174,16.748,0.078
52754.14279,16.308,0.046
52754.154853,16.307,0.048
52754.16691,16.305,0.052
52754.179012,16.313,0.054
52754.191192,16.34,0.055
52758.142803,16.5,0.064
52758.143033,16.446,0.059
52758.155081,16.435,0.063
52758.155315,16.436,0.061
52758.167309,16.405,0.061
52758.16754,16.428,0.061
52758.179373,16.408,0.063
52758.179686,16.33,0.058
52758.191516,16.428,0.063
52758.19175,16.432,0.061
52933.471828,16.267,0.078
52933.484425,16.336,0.081
52933.497212,16.388,0.083
52937.440901,16.701,0.066
52937.452813,16.757,0.079
52937.464571,16.589,0.056
52937.476355,16.508,0.049
52937.488106,16.43,0.045
52941.424037,16.296,0.045
52941.435634,16.289,0.043
52941.447465,16.294,0.041
52941.459047,16.291,0.04
52941.470869,16.344,0.04
52944.444702,16.309,0.066
52944.457244,16.318,0.064
52944.469892,16.337,0.063
52944.482241,16.364,0.064
52944.494585,16.287,0.059
52974.394067,16.292,0.043
52974.407157,16.317,0.052
52974.420092,16.403,0.046
52974.432951,16.546,0.052
52974.445946,16.636,0.061
52993.337194,16.391,0.078
52993.349651,16.398,0.043
52993.362031,16.444,0.053
52993.374473,16.535,0.061
52993.386896,16.682,0.049
52994.395757,16.272,0.056
52994.408602,16.248,0.035
52994.421223,16.256,0.031
52994.435208,16.272,0.035
52994.447806,16.303,0.046
52996.328446,16.378,0.035
52996.341011,16.365,0.035
52996.353683,16.387,0.036
52996.366257,16.439,0.038
52996.379071,16.512,0.04
53025.285784,16.537,0.038
53025.297241,16.476,0.036
53025.309433,16.426,0.033
53025.321024,16.377,0.045
53025.332511,16.394,0.043
53028.314414,16.462,0.031
53028.32682,16.413,0.03
53028.339723,16.38,0.028
53028.352647,16.328,0.028
53028.365005,16.321,0.028
53033.272837,16.354,0.053
53033.285336,16.361,0.053
53033.29804,16.317,0.049
53033.310531,16.32,0.048
53033.322982,16.369,0.049
53034.2669,16.559,0.068
53034.272095,16.594,0.061
53034.27953,16.706,0.076
53034.284817,16.786,0.074
53034.292109,16.786,0.083
53034.297342,16.711,0.067
53034.304794,16.721,0.076
53034.310101,16.655,0.063
53034.317415,16.685,0.073
53034.322509,16.54,0.055
53035.274258,16.254,0.05
53035.280677,16.265,0.056
53035.287996,16.3,0.054
53035.292909,16.345,0.059
53035.300419,16.296,0.054
53035.31504,16.247,0.05
53035.318756,16.319,0.056
53035.327996,16.334,0.054
53035.331107,16.348,0.058
53052.221312,16.308,0.041
53052.233006,16.297,0.041
53052.244748,16.288,0.039
53052.256502,16.277,0.041
53052.268387,16.272,0.039
53057.257725,16.308,0.028
53057.270118,16.328,0.028
53057.28247,16.341,0.03
53079.219779,16.328,0.048
53079.230759,16.326,0.048
53079.241908,16.294,0.046
53079.252843,16.445,0.051
53079.263805,16.473,0.053
53082.231233,16.331,0.031
53082.242879,16.336,0.031
53082.25465,16.312,0.03
53082.268101,16.408,0.033
53082.27944,16.412,0.035
53084.233691,16.715,0.043
53084.246134,16.704,0.043
53084.257526,16.57,0.038
53084.26885,16.516,0.036
53084.280658,16.51,0.036
53091.226346,16.353,0.043
53091.236007,16.358,0.041
53091.255739,16.311,0.041
53091.26845,16.341,0.04
53110.138198,16.459,0.064
53110.148899,16.438,0.064
53110.159714,16.38,0.059
53110.170699,16.392,0.061
53110.181663,16.282,0.058
53115.195018,16.464,0.043
53115.205732,16.514,0.046
53115.227817,16.799,0.064
53115.238691,16.753,0.066
53292.425725,16.418,0.086
53292.435332,16.394,0.083
53292.444972,16.388,0.074
53292.465224,16.251,0.064
53327.379924,16.294,0.068
53327.392998,16.354,0.074
53327.405497,16.347,0.066
53327.417735,16.361,0.069
53327.430011,16.482,0.083
53347.433318,16.376,0.122
53347.447164,16.353,0.054
53347.460872,16.423,0.054
53347.474883,16.523,0.059
53352.440315,16.561,0.073
53352.455292,16.589,0.081
53352.470103,16.437,0.069
53352.484724,16.326,0.068
53352.499634,16.351,0.068
53353.352714,16.351,0.053
53353.366766,16.31,0.051
53353.380821,16.274,0.051
53353.395113,16.315,0.053
53353.409232,16.293,0.051
53357.376617,16.464,0.072
53357.390917,16.434,0.057
53357.40525,16.366,0.054
53357.418816,16.348,0.065
53357.431881,16.396,0.055
53383.284927,16.31,0.044
53383.298955,16.24,0.043
53383.312263,16.302,0.043
53383.32628,16.277,0.044
53383.339909,16.335,0.046
53403.29338,16.349,0.038
53403.307021,16.304,0.038
53403.320274,16.313,0.04
53403.333706,16.238,0.049
53410.41243,16.308,0.043
53410.424947,16.308,0.046
53410.437317,16.342,0.048
53410.449696,16.409,0.054
53410.462647,16.427,0.059
53438.292868,16.388,0.048
53438.305874,16.403,0.05
53438.317986,16.421,0.054
53438.330112,16.4,0.055
53438.342528,16.339,0.055
53445.292791,16.272,0.05
53445.305105,16.29,0.052
53445.316464,16.296,0.05
53445.327676,16.291,0.055
53445.338837,16.331,0.055
53502.140207,16.332,0.067
53502.151004,16.32,0.067
53502.161259,16.369,0.07
53502.171781,16.358,0.074
53502.182607,16.325,0.074
53648.427759,16.484,0.107
53648.439707,16.393,0.093
53648.456797,16.192,0.068
53648.468112,16.334,0.076
53648.479493,16.373,0.076
53671.441066,16.63,0.115
53671.45312,16.529,0.098
53671.465154,16.413,0.083
53671.477216,16.431,0.098
53671.489349,16.266,0.094
53674.461747,16.46,0.07
53674.473876,16.379,0.063
53674.486157,16.413,0.063
53674.498295,16.287,0.055
53679.445114,16.36,0.057
53679.457455,16.324,0.052
53679.469593,16.328,0.055
53679.481749,16.271,0.052
53704.392631,16.3,0.048
53704.405178,16.318,0.048
53704.417743,16.274,0.046
53704.430475,16.279,0.048
53704.443984,16.256,0.046
53707.415632,16.353,0.054
53707.444742,16.27,0.067
53712.391022,16.209,0.059
53712.403876,16.245,0.057
53712.421839,16.146,0.05
53712.435359,16.188,0.054
53712.449128,16.172,0.052
53734.402072,16.233,0.043
53734.415052,16.259,0.046
53734.427927,16.269,0.046
53734.440874,16.217,0.048
53734.454096,16.205,0.048
53738.341702,16.281,0.054
53738.355976,16.265,0.052
53738.369635,16.316,0.055
53738.382691,16.3,0.055
53738.395665,16.321,0.052
53758.282252,16.249,0.044
53758.295759,16.288,0.046
53758.308647,16.305,0.046
53758.321556,16.301,0.046
53758.334182,16.385,0.05
53769.31737,16.268,0.043
53769.330638,16.218,0.041
53769.344043,16.343,0.044
53769.358063,16.386,0.046
53769.371999,16.359,0.046
53789.233502,16.266,0.043
53789.245979,16.286,0.049
53789.258437,16.4,0.076
53789.270985,16.253,0.063
53789.28335,16.291,0.066
53789.284979,16.276,0.076
53789.296926,16.281,0.078
53789.308843,16.288,0.078
53792.283277,16.28,0.048
53792.295209,16.27,0.048
53792.307119,16.299,0.052
53792.319013,16.299,0.05
53792.330965,16.298,0.052
53816.349134,16.32,0.068
53816.360188,16.353,0.08
53816.371278,16.401,0.094
53816.382547,16.283,0.102
53821.230093,16.535,0.104
53821.24071,16.561,0.081
53821.257018,16.566,0.072
53821.267746,16.419,0.065
53821.281462,16.366,0.063
53824.232887,16.546,0.068
53824.245123,16.626,0.072
53824.257422,16.559,0.065
53824.268249,16.563,0.067
53824.279721,16.46,0.091
53828.22961,16.27,0.074
53828.239996,16.162,0.107
53845.138819,16.406,0.067
53845.149504,16.463,0.072
53845.1602,16.326,0.068
53845.170932,16.359,0.07
53845.181648,16.275,0.067
53846.188806,16.492,0.096
53846.199447,16.563,0.102
53846.210125,16.59,0.107
53846.220855,16.527,0.102
53846.231573,16.422,0.096
53851.188671,16.293,0.07
53851.198706,16.261,0.068
53851.208948,16.31,0.076
53851.219206,16.358,0.08
53851.229074,16.281,0.078
53852.143427,16.288,0.066
53852.153569,16.324,0.069
53852.163708,16.325,0.071
53852.174201,16.39,0.078
53852.184339,16.343,0.076
53854.147833,16.286,0.065
53854.158305,16.301,0.07
53854.168858,16.442,0.089
53854.179375,16.363,0.074
53854.189888,16.352,0.08
54030.425053,16.435,0.084
54030.439607,16.555,0.089
54030.453591,16.541,0.083
54030.469717,16.631,0.084
54030.481449,16.564,0.079
54035.432512,16.397,0.074
54035.444777,16.363,0.069
54035.457311,16.35,0.064
54035.469437,16.271,0.059
54041.42632,16.314,0.073
54041.43964,16.373,0.073
54041.452363,16.368,0.071
54041.464867,16.4,0.073
54041.477064,16.378,0.068
54053.420733,16.168,0.076
54053.432518,16.208,0.113
54053.444312,16.183,0.059
54053.456244,16.199,0.057
54053.468033,16.241,0.059
54056.373199,16.267,0.052
54056.38537,16.165,0.046
54056.397553,16.233,0.048
54056.409731,16.192,0.046
54056.421925,16.197,0.046
54058.381588,16.307,0.061
54058.393945,16.355,0.061
54058.406399,16.353,0.061
54058.420394,16.465,0.068
54058.432935,16.529,0.068
54059.428934,16.173,0.043
54059.44124,16.173,0.043
54059.453742,16.203,0.043
54059.466067,16.266,0.044
54059.479505,16.269,0.046
54064.379076,16.28,0.059
54064.384602,16.359,0.054
54064.391626,16.296,0.061
54064.397517,16.32,0.05
54064.40429,16.311,0.059
54064.410427,16.296,0.044
54064.417021,16.397,0.059
54064.423334,16.34,0.048
54064.42997,16.388,0.061
54064.436242,16.392,0.05
54067.390484,16.24,0.039
54067.403454,16.247,0.041
54067.416426,16.253,0.037
54067.429397,16.283,0.039
54067.44266,16.338,0.039
54082.387947,16.201,0.05
54082.400836,16.2,0.05
54082.413739,16.166,0.048
54082.426961,16.184,0.048
54082.439854,16.2,0.046
54083.38764,16.425,0.076
54083.392313,16.584,0.061
54083.40077,16.505,0.091
54083.405498,16.606,0.074
54083.413589,16.564,0.101
54083.41869,16.56,0.063
54083.426576,16.36,0.074
54083.431883,16.459,0.059
54083.439418,16.373,0.096
54083.445076,16.325,0.054
54084.392524,16.232,0.044
54084.407395,16.25,0.046
54084.427113,16.264,0.044
54084.443846,16.349,0.05
54084.460338,16.395,0.057
54085.398345,16.3,0.046
54085.411474,16.262,0.057
54085.425236,16.259,0.05
54085.438874,16.296,0.061
54085.45236,16.238,0.05
54114.350849,16.329,0.056
54144.268281,16.286,0.045
54144.280592,16.352,0.048
54144.292619,16.311,0.048
54144.304616,16.397,0.051
54144.316536,16.474,0.058
54153.223293,16.23,0.046
54153.235011,16.289,0.048
54153.246672,16.271,0.046
54153.258562,16.259,0.046
54153.268923,16.17,0.039
54153.270859,16.251,0.045
54153.280425,16.249,0.041
54153.291917,16.257,0.043
54153.303423,16.304,0.044
54153.314971,16.316,0.044
54174.217685,16.381,0.046
54174.228194,16.514,0.052
54174.238804,16.556,0.052
54174.249314,16.516,0.05
54174.259896,16.467,0.048
54177.228792,16.381,0.039
54177.240392,16.527,0.046
54180.233171,16.263,0.055
54180.244008,16.386,0.046
54180.254882,16.464,0.048
54180.265385,16.533,0.05
54180.27587,16.429,0.044
54205.178762,16.322,0.048
54205.187925,16.273,0.048
54205.1971,16.255,0.048
54205.206754,16.382,0.055
54205.215982,16.427,0.059
54208.168124,16.392,0.069
54208.175326,16.218,0.039
54208.176861,16.273,0.063
54208.184228,16.264,0.041
54208.185472,16.369,0.069
54208.193157,16.192,0.039
54208.194255,16.36,0.068
54208.202169,16.243,0.043
54208.202869,16.347,0.068
54208.211354,16.235,0.044
54212.18304,16.269,0.068
54212.191906,16.246,0.068
54212.201032,16.246,0.07
54212.209927,16.267,0.072
54212.218831,16.147,0.067
54384.424874,16.324,0.122
54384.437067,16.285,0.111
54384.448634,16.278,0.112
54384.459551,16.451,0.125
54384.470604,16.396,0.117
54386.42574,16.269,0.046
54386.437043,16.283,0.044
54386.448328,16.357,0.046
54386.459604,16.459,0.048
54386.470882,16.495,0.048
54394.441769,16.36,0.052
54394.453332,16.394,0.052
54394.464887,16.358,0.05
54394.476461,16.317,0.046
54416.432454,16.265,0.039
54416.445224,16.239,0.037
54416.457545,16.295,0.039
54416.469852,16.209,0.037
54416.482196,16.165,0.035
54438.38817,16.302,0.028
54438.400998,16.239,0.026
54438.413834,16.207,0.026
54438.426671,16.194,0.026
54438.439495,16.156,0.026
54480.399969,16.292,0.068
54480.412378,16.328,0.071
54480.425339,16.284,0.073
54480.438124,16.257,0.074
54480.450559,16.255,0.079
54481.207523,16.436,0.061
54481.220897,16.24,0.052
54481.234335,16.213,0.048
54481.247332,16.171,0.046
54481.260271,16.197,0.046
54498.277327,16.217,0.03
54498.289697,16.204,0.031
54498.302088,16.211,0.031
54498.314502,16.21,0.031
54498.326896,16.204,0.031
54506.270615,16.113,0.026
54506.282927,16.154,0.028
54506.295109,16.12,0.028
54506.307408,16.16,0.03
54506.319737,16.194,0.03
54522.280353,16.33,0.039
54522.292136,16.376,0.041
54522.303842,16.421,0.043
54522.315549,16.373,0.044
54522.327262,16.377,0.046
54527.304075,16.197,0.033
54527.315464,16.176,0.03
54535.219984,16.346,0.031
54535.231168,16.304,0.03
54535.242268,16.291,0.03
54535.253807,16.254,0.028
54535.264981,16.245,0.028
54553.240165,16.248,0.035
54553.25208,16.201,0.035
54553.264022,16.292,0.039
54553.275904,16.288,0.055
54553.287755,16.354,0.048
54561.188195,16.279,0.065
54561.199676,16.246,0.044
54561.211128,16.273,0.039
54561.222591,16.306,0.031
54561.234102,16.454,0.063
54581.141698,16.239,0.054
54581.152425,16.256,0.054
54581.163131,16.218,0.052
54581.173831,16.179,0.05
54581.184659,16.274,0.054
54584.148065,16.252,0.044
54584.158664,16.232,0.043
54584.169324,16.242,0.044
54584.180016,16.207,0.044
54584.190707,16.212,0.046
54591.145663,16.303,0.048
54591.156188,16.342,0.052
54591.166688,16.386,0.055
54591.177051,16.388,0.055
54591.187282,16.414,0.059
54592.138083,16.272,0.071
54592.147961,16.255,0.073
54592.157764,16.21,0.071
54592.167564,16.278,0.076
54592.177093,16.368,0.083
