mjd,m,merr
52619.383814,15.337,0.023
52619.398931,15.324,0.023
52619.413896,15.353,0.023
52619.428965,15.322,0.023
52619.443952,15.316,0.023
52640.418551,15.303,0.017
52640.434069,15.303,0.017
52640.449885,15.311,0.017
52640.464903,15.282,0.017
52640.47974,15.278,0.017
52646.381426,15.301,0.018
52646.39632,15.304,0.02
52646.41075,15.282,0.02
52646.425301,15.28,0.018
52646.439852,15.282,0.02
52647.377954,15.292,0.021
52647.39245,15.301,0.021
52647.407019,15.292,0.021
52647.422005,15.318,0.023
52647.436852,15.304,0.023
52666.315036,15.306,0.018
52666.330083,15.331,0.018
52666.345145,15.321,0.018
52666.360315,15.29,0.018
52666.375038,15.308,0.018
52671.277498,15.436,0.025
52671.29221,15.377,0.023
52671.307066,15.425,0.025
52671.322011,15.416,0.025
52671.3366,15.379,0.025
52672.317276,15.282,0.02
52672.331202,15.283,0.018
52672.34535,15.286,0.02
52672.35932,15.279,0.018
52672.373244,15.295,0.018
52698.28023,15.279,0.035
52698.298239,15.299,0.02
52698.312589,15.316,0.02
52704.228111,15.271,0.02
52704.241052,15.279,0.018
52704.254564,15.282,0.02
52704.267569,15.297,0.02
52704.281136,15.297,0.02
52705.233933,15.319,0.017
52705.247122,15.329,0.017
52705.262093,15.318,0.017
52705.275118,15.319,0.017
52705.288239,15.318,0.018
52725.272962,15.312,0.067
52725.284687,15.289,0.031
52725.296346,15.295,0.02
52729.174522,15.302,0.018
52729.186472,15.297,0.018
52729.197958,15.296,0.018
52729.209658,15.273,0.018
52729.221116,15.3,0.018
52734.191128,15.29,0.018
52734.203665,15.291,0.018
52734.216839,15.302,0.018
52734.229088,15.316,0.02
52734.242254,15.379,0.022
52754.143453,15.495,0.022
52754.155516,15.693,0.028
52754.167573,15.942,0.035
52754.179677,15.979,0.037
52754.191858,15.79,0.033
52758.143259,15.225,0.021
52758.143601,15.295,0.021
52758.155884,15.312,0.023
52758.16811,15.297,0.023
52758.179912,15.272,0.023
52758.180255,15.302,0.023
52758.192321,15.313,0.023
52937.453833,15.322,0.02
52937.489123,15.304,0.016
52944.43479,15.325,0.026
52944.446864,15.325,0.024
52944.458806,15.332,0.024
52944.470671,15.333,0.024
52944.48272,15.332,0.022
52973.392278,15.32,0.018
52973.405217,15.32,0.018
52973.418406,15.325,0.017
52973.43119,15.307,0.017
52973.444153,15.302,0.017
52993.329887,15.325,0.024
52993.343003,15.311,0.017
52993.356261,15.32,0.015
52993.36937,15.295,0.018
52993.382729,15.319,0.017
52994.39656,15.328,0.023
52994.422022,15.339,0.016
52994.448607,15.32,0.02
52996.329269,15.32,0.013
52996.34196,15.309,0.013
52996.354504,15.324,0.015
52996.379891,15.316,0.013
53025.286526,15.333,0.012
53025.333258,15.3,0.015
53028.315215,15.288,0.012
53028.327655,15.29,0.012
53028.340519,15.303,0.012
53028.353442,15.3,0.012
53033.273883,15.27,0.02
53033.286387,15.282,0.02
53033.299088,15.314,0.02
53033.311582,15.301,0.02
53033.324029,15.254,0.02
53052.269154,15.306,0.015
53052.280905,15.312,0.015
53052.292747,15.311,0.017
53052.304587,15.298,0.015
53052.3165,15.29,0.017
53055.207392,15.311,0.017
53055.218524,15.301,0.017
53055.229725,15.31,0.017
53055.24099,15.308,0.018
53055.252226,15.306,0.03
53057.238709,15.319,0.012
53057.259239,15.319,0.012
53057.271615,15.328,0.012
53057.283958,15.332,0.012
53057.320516,15.291,0.048
53057.346667,15.307,0.064
53079.220905,15.283,0.02
53079.231947,15.308,0.02
53079.243035,15.278,0.02
53079.253968,15.3,0.02
53079.264926,15.294,0.02
53082.232033,15.336,0.013
53082.243835,15.304,0.013
53084.234488,15.288,0.013
53084.269651,15.301,0.013
53091.236914,15.291,0.015
53091.256645,15.31,0.016
53091.269352,15.282,0.015
53110.138825,15.313,0.023
53110.149528,15.323,0.025
53110.160404,15.34,0.025
53110.171322,15.317,0.023
53110.182292,15.31,0.025
53111.128225,15.328,0.023
53111.128276,15.304,0.022
53111.128318,15.312,0.023
53111.128374,15.293,0.02
53111.138974,15.291,0.022
53111.139072,15.301,0.022
53111.139097,15.302,0.023
53111.13919,15.314,0.023
53111.14983,15.303,0.022
53111.149928,15.324,0.022
53111.150089,15.295,0.023
53111.150182,15.291,0.023
53111.160471,15.313,0.022
53111.160568,15.298,0.022
53111.161051,15.301,0.023
53111.161144,15.298,0.023
53111.171107,15.3,0.022
53111.171205,15.305,0.022
53111.17163,15.324,0.025
53111.171723,15.318,0.025
53115.217748,15.318,0.016
53115.239433,15.325,0.018
53138.160412,15.32,0.025
53138.170179,15.334,0.026
53138.180476,15.319,0.026
53138.19016,15.296,0.025
53141.177697,15.296,0.021
53141.186722,15.342,0.021
53287.471494,15.299,0.033
53292.426601,15.316,0.033
53327.380245,15.308,0.028
53327.393318,15.276,0.028
53327.405816,15.306,0.026
53327.418053,15.356,0.03
53327.430521,15.296,0.03
53342.428794,15.291,0.068
53347.433631,15.366,0.073
53347.447475,15.316,0.021
53347.461184,15.339,0.021
53352.441717,15.349,0.026
53352.456673,15.338,0.026
53352.471503,15.357,0.028
53352.486125,15.378,0.028
53352.501011,15.379,0.028
53353.409563,15.355,0.023
53353.423617,15.417,0.026
53353.437707,15.41,0.026
53353.451799,15.4,0.026
53353.465995,15.35,0.028
53357.377841,15.362,0.028
53357.392139,15.454,0.02
53357.406474,15.503,0.02
53357.420039,15.479,0.031
53357.433221,15.439,0.02
53383.341462,15.36,0.018
53383.355603,15.402,0.018
53383.368504,15.464,0.02
53383.381586,15.494,0.022
53383.395253,15.453,0.02
53403.294588,15.922,0.026
53403.308149,15.656,0.021
53403.321402,15.413,0.018
53403.334834,15.32,0.018
53403.348531,15.339,0.025
53404.244275,15.363,0.016
53404.259039,15.357,0.015
53404.272367,15.357,0.015
53404.285616,15.339,0.015
53410.413387,15.325,0.017
53410.42589,15.337,0.017
53410.438264,15.302,0.017
53410.45065,15.339,0.018
53410.463594,15.323,0.02
53438.347996,15.303,0.02
53438.360168,15.325,0.022
53438.371735,15.346,0.022
53438.383363,15.307,0.024
53438.394943,15.339,0.026
53445.293441,15.296,0.018
53445.305767,15.347,0.018
53445.317101,15.332,0.018
53445.328307,15.315,0.02
53445.339462,15.345,0.02
53502.140503,15.311,0.024
53502.151303,15.331,0.026
53502.161557,15.313,0.026
53502.172079,15.302,0.026
53502.182906,15.297,0.028
53671.442213,15.278,0.037
53671.454265,15.277,0.03
53671.466298,15.319,0.03
53671.478361,15.327,0.037
53671.490495,15.341,0.031
53674.4629,15.36,0.024
53674.47503,15.338,0.022
53674.487312,15.334,0.022
53674.499449,15.336,0.022
53679.446127,15.347,0.022
53679.458467,15.355,0.02
53679.470603,15.324,0.02
53679.482775,15.319,0.022
53679.49562,15.335,0.022
53704.445213,15.558,0.022
53704.457682,15.804,0.03
53704.47018,16.006,0.035
53704.482691,15.924,0.033
53704.495424,15.727,0.028
53707.416717,15.314,0.022
53707.430391,15.327,0.033
53707.445826,15.341,0.02
53712.391731,15.357,0.022
53712.404585,15.345,0.022
53712.422549,15.371,0.022
53712.436067,15.361,0.022
53712.449836,15.346,0.02
53734.40332,15.303,0.018
53734.4163,15.306,0.018
53734.429174,15.292,0.018
53734.442129,15.307,0.018
53734.455344,15.304,0.018
53738.34242,15.349,0.02
53738.356692,15.343,0.02
53738.370351,15.337,0.022
53738.383406,15.357,0.022
53738.396494,15.336,0.02
53758.336286,15.324,0.018
53758.348818,15.293,0.017
53758.361354,15.314,0.018
53758.37396,15.303,0.02
53758.386588,15.286,0.02
53769.318714,15.259,0.017
53769.331997,15.3,0.017
53769.345527,15.343,0.017
53769.359416,15.386,0.018
53769.373347,15.433,0.018
53787.408671,15.381,0.085
53787.420541,15.343,0.026
53787.432465,15.34,0.028
53787.444491,15.34,0.031
53789.23394,15.358,0.018
53789.246417,15.381,0.021
53789.258876,15.555,0.033
53789.271424,15.787,0.04
53789.283789,16.04,0.054
53789.286023,15.997,0.057
53789.297961,16.016,0.052
53789.309886,15.688,0.043
53789.321824,15.456,0.083
53789.333992,15.348,0.052
53792.284292,15.347,0.018
53792.296227,15.358,0.02
53792.308135,15.354,0.022
53792.320031,15.348,0.02
53792.331982,15.346,0.022
53802.288582,15.392,0.039
53816.350904,15.342,0.028
53816.361964,15.336,0.03
53816.373059,15.312,0.033
53816.384327,15.295,0.039
53821.231219,15.287,0.03
53821.241839,15.306,0.026
53821.258145,15.311,0.022
53821.26887,15.32,0.022
53821.282588,15.379,0.033
53824.234027,15.296,0.022
53824.246345,15.331,0.02
53824.258578,15.31,0.02
53824.269402,15.3,0.02
53824.280872,15.301,0.03
53828.230718,15.464,0.033
53828.252174,15.395,0.055
53845.13992,15.264,0.024
53845.150607,15.279,0.026
53845.161307,15.32,0.026
53845.172035,15.298,0.026
53845.18275,15.304,0.028
53846.189867,15.315,0.031
53846.200511,15.332,0.033
53846.21119,15.307,0.031
53846.221926,15.328,0.033
53846.232647,15.298,0.033
53851.140021,15.356,0.03
53851.150627,15.365,0.03
53851.161194,15.334,0.038
53851.171658,15.363,0.028
53851.182092,15.312,0.028
53851.189522,15.304,0.028
53851.199552,15.302,0.028
53851.209806,15.281,0.028
53851.220062,15.303,0.03
53851.229936,15.306,0.03
53854.192901,15.474,0.041
53854.218079,15.495,0.035
53854.228939,15.416,0.033
53854.242843,15.359,0.035
54030.426072,15.325,0.031
54030.440598,15.336,0.028
54030.454689,15.307,0.026
54030.470707,15.312,0.026
54030.482628,15.298,0.025
54034.451875,15.257,0.033
54035.433514,15.301,0.026
54035.445777,15.355,0.025
54035.458311,15.322,0.023
54035.470453,15.319,0.023
54035.482133,15.337,0.023
54040.425673,15.346,0.031
54040.439856,15.359,0.03
54040.452102,15.362,0.03
54040.46449,15.373,0.028
54040.476562,15.362,0.026
54053.421904,15.237,0.031
54053.43369,15.231,0.044
54053.445477,15.287,0.026
54053.457412,15.312,0.022
54053.469215,15.269,0.026
54056.374364,15.348,0.022
54056.386538,15.307,0.02
54056.398717,15.296,0.02
54056.410896,15.292,0.018
54056.423092,15.297,0.018
54058.382578,15.277,0.025
54058.394935,15.271,0.023
54058.40739,15.29,0.025
54058.42142,15.313,0.023
54058.434499,15.356,0.023
54059.429984,15.319,0.018
54059.442291,15.329,0.018
54059.454793,15.329,0.018
54059.467114,15.322,0.018
54059.480552,15.324,0.018
54064.3795,15.274,0.021
54064.385698,15.292,0.018
54064.39205,15.279,0.021
54064.398613,15.302,0.018
54064.404714,15.273,0.021
54064.41152,15.297,0.017
54064.417446,15.323,0.02
54064.424429,15.284,0.017
54064.430395,15.339,0.021
54064.437337,15.321,0.017
54067.391807,15.303,0.015
54067.404775,15.316,0.015
54067.417746,15.325,0.015
54067.430845,15.314,0.015
54067.443984,15.298,0.013
54082.368958,15.349,0.036
54082.389053,15.306,0.02
54082.393832,15.301,0.035
54082.401942,15.318,0.02
54082.406285,15.285,0.033
54082.414846,15.32,0.018
54082.41875,15.261,0.033
54082.428068,15.303,0.018
54082.440961,15.298,0.018
54085.399495,15.315,0.017
54085.41263,15.331,0.022
54085.426391,15.337,0.018
54085.440029,15.312,0.024
54085.453515,15.333,0.018
54112.396617,15.325,0.023
54112.40918,15.322,0.025
54112.421726,15.357,0.026
54114.364916,15.375,0.026
54144.269233,15.32,0.018
54144.281416,15.322,0.018
54144.293444,15.321,0.018
54144.305442,15.341,0.02
54144.317361,15.318,0.02
54153.224567,15.296,0.02
54153.236253,15.293,0.018
54153.248106,15.303,0.018
54153.259804,15.319,0.02
54153.270039,15.327,0.017
54153.272105,15.297,0.018
54153.281537,15.317,0.015
54153.293031,15.311,0.017
54153.304537,15.303,0.017
54153.316085,15.324,0.017
54174.229248,15.319,0.017
54174.239855,15.311,0.017
54174.250374,15.305,0.017
54174.260957,15.309,0.017
54177.22977,15.304,0.018
54177.241368,15.314,0.018
54180.245057,15.328,0.018
54180.255982,15.315,0.017
54180.266472,15.294,0.017
54180.276944,15.309,0.017
54201.189763,15.311,0.028
54201.199035,15.287,0.028
54201.20851,15.314,0.028
54201.217739,15.333,0.028
54201.227046,15.409,0.031
54205.179698,15.304,0.018
54205.188858,15.326,0.018
54205.198032,15.297,0.018
54205.207689,15.303,0.02
54205.216917,15.297,0.02
54208.176252,15.917,0.031
54208.185155,15.995,0.033
54208.194084,15.957,0.033
54208.203099,15.772,0.028
54208.212285,15.588,0.026
54212.184096,15.284,0.024
54212.192957,15.292,0.026
54212.202085,15.292,0.026
54212.210976,15.285,0.026
54212.219883,15.283,0.026
54394.431427,15.347,0.022
54394.442979,15.361,0.02
54394.454543,15.355,0.02
54394.466097,15.349,0.018
54394.477875,15.383,0.018
54416.433538,15.297,0.015
54416.446303,15.28,0.015
54416.458627,15.294,0.015
54416.470935,15.304,0.015
54416.48328,15.297,0.015
54438.389456,15.81,0.017
54438.402282,16.022,0.02
54438.41512,15.894,0.018
54438.427955,15.62,0.015
54438.440776,15.397,0.011
54480.453537,15.352,0.035
54480.465846,15.355,0.036
54480.478137,15.371,0.038
54480.490751,15.376,0.04
54480.503072,15.369,0.041
54481.209064,15.277,0.018
54481.222439,15.3,0.018
54481.235873,15.291,0.018
54481.24887,15.292,0.018
54481.261812,15.281,0.017
54498.278515,15.321,0.013
54498.290879,15.318,0.013
54498.303275,15.315,0.013
54498.315688,15.323,0.013
54498.328209,15.333,0.013
54506.271795,15.314,0.013
54506.284105,15.326,0.013
54506.296288,15.333,0.013
54506.308743,15.326,0.013
54506.320976,15.322,0.013
54522.329285,15.415,0.018
54522.341109,15.467,0.018
54522.3531,15.496,0.02
54522.36515,15.469,0.02
54522.37692,15.425,0.02
54527.293831,15.299,0.035
54527.305237,15.293,0.017
54527.316624,15.323,0.013
54535.221169,15.297,0.011
54535.232348,15.293,0.011
54535.243515,15.309,0.011
54535.255059,15.315,0.011
54535.266222,15.304,0.011
54540.111839,15.344,0.02
54540.122736,15.323,0.02
54540.13362,15.319,0.02
54540.14452,15.334,0.018
54540.155443,15.313,0.018
54553.241469,15.304,0.015
54553.253396,15.31,0.015
54553.265327,15.341,0.015
54553.277204,15.326,0.02
54553.289057,15.338,0.02
54561.189348,15.312,0.022
54561.20083,15.304,0.018
54561.212283,15.291,0.013
54561.223747,15.301,0.011
54561.235262,15.286,0.018
54581.14282,15.382,0.022
54581.1536,15.39,0.022
54581.164263,15.379,0.022
54581.174958,15.376,0.022
54581.185792,15.483,0.024
54583.193674,15.335,0.022
54583.204327,15.341,0.024
54590.152181,15.321,0.018
54590.162586,15.3,0.018
54590.172995,15.314,0.022
54590.183508,15.299,0.028
54590.193963,15.299,0.018
