mjd,m,merr
52602.326938,17.005,0.224
52620.395284,16.145,0.074
52620.411136,16.251,0.052
52620.426931,16.373,0.05
52620.442196,16.751,0.07
52621.359954,16.074,0.037
52621.374638,16.085,0.037
52621.389334,16.148,0.039
52621.404122,16.186,0.043
52621.41887,16.588,0.061
52622.370754,16.218,0.048
52622.386239,16.395,0.052
52622.417112,16.726,0.07
52622.432473,16.346,0.052
52636.302854,16.154,0.051
52636.317555,16.299,0.058
52636.331988,16.242,0.056
52636.346458,16.562,0.076
52636.360914,16.935,0.109
52653.30779,16.123,0.054
52653.322777,16.146,0.054
52653.337709,16.12,0.053
52653.352585,16.255,0.064
52653.367506,16.494,0.076
52660.250066,16.514,0.099
52660.296972,16.137,0.064
52660.312211,16.227,0.071
52680.174558,16.493,0.066
52680.189733,16.842,0.089
52680.204861,16.694,0.078
52680.219784,16.267,0.053
52680.234629,16.166,0.048
52684.308334,16.109,0.087
52684.323349,16.401,0.122
52684.338456,16.461,0.13
52693.259567,16.292,0.039
52693.274911,16.434,0.044
52693.291535,16.774,0.059
52693.307094,16.448,0.044
52693.322594,16.293,0.043
52712.175109,16.277,0.105
52712.188543,16.131,0.107
52721.179215,16.3,0.041
52721.192025,16.515,0.05
52721.204807,16.696,0.055
52721.217583,16.479,0.044
52721.23043,16.294,0.039
52742.134686,16.677,0.211
52750.131881,16.151,0.08
52750.142472,16.135,0.05
52750.15308,16.128,0.039
52750.163692,16.105,0.039
52750.174298,16.145,0.043
52927.429254,16.035,0.089
52927.440992,16.118,0.093
52927.452931,16.221,0.102
52927.464597,16.596,0.142
52927.476026,16.683,0.15
52948.389451,16.451,0.068
52948.401522,16.709,0.081
52948.413639,16.782,0.081
52948.425622,16.574,0.063
52948.437735,16.307,0.048
52978.297883,16.531,0.087
52978.311112,16.199,0.066
52978.322941,16.223,0.068
52978.335536,16.089,0.054
52978.347485,16.128,0.054
53038.312092,16.065,0.055
53038.328281,16.124,0.061
53038.343497,16.12,0.067
53045.214912,16.357,0.048
53045.226271,16.618,0.065
53045.237646,16.761,0.074
53045.248835,16.681,0.07
53045.260395,16.43,0.057
53065.182831,16.599,0.094
53065.194767,16.755,0.106
53065.207978,16.533,0.073
53065.219729,16.318,0.056
53094.174488,16.229,0.064
53094.184052,16.323,0.071
53094.193893,16.616,0.092
53094.203651,16.759,0.106
53094.213226,16.86,0.117
53096.176197,16.876,0.213
53108.18968,16.327,0.05
53108.200877,16.215,0.048
53108.212142,16.109,0.044
53108.223435,16.145,0.044
53108.234733,16.115,0.044
53125.145453,16.276,0.13
53125.155485,16.255,0.12
53125.166199,16.422,0.141
53125.176498,16.671,0.211
53134.149159,16.261,0.059
53134.158625,16.194,0.07
53134.168101,16.178,0.057
53134.177586,16.137,0.054
53134.187068,16.326,0.135
53260.449192,16.669,0.066
53260.461653,16.663,0.064
53260.473837,16.478,0.054
53263.405053,16.579,0.067
53263.416778,16.316,0.05
53263.428424,16.206,0.044
53263.440071,16.176,0.041
53263.451849,16.116,0.041
53303.38285,16.203,0.068
53303.39457,16.332,0.076
53303.406304,16.487,0.085
53303.418031,16.697,0.1
53303.429787,16.634,0.1
53319.399022,16.075,0.039
53319.411115,16.101,0.041
53319.423204,16.162,0.043
53319.435312,16.323,0.05
53319.447402,16.638,0.067
53329.436915,16.119,0.041
53329.449322,16.158,0.043
53329.462149,16.299,0.048
53329.474519,16.469,0.057
53329.486877,16.675,0.068
53355.430135,16.506,0.052
53355.443019,16.792,0.065
53355.455879,16.58,0.068
53358.333943,16.102,0.033
53358.349047,16.163,0.035
53358.361991,16.323,0.041
53358.374821,16.635,0.055
53358.388604,16.671,0.057
53359.32513,16.14,0.048
53359.341261,16.344,0.054
53359.357298,16.802,0.078
53359.37334,16.588,0.059
53359.389448,16.296,0.048
53362.359732,16.052,0.093
53389.41559,16.079,0.035
53389.428652,16.112,0.041
53389.441628,16.171,0.043
53389.454659,16.338,0.048
53389.467675,16.699,0.072
53390.272429,16.197,0.055
53390.285185,16.192,0.055
53390.298853,16.205,0.054
53390.311706,16.379,0.063
53390.324508,16.624,0.08
53429.217681,16.175,0.041
53429.228971,16.253,0.046
53429.240317,16.324,0.05
53429.251618,16.559,0.065
53429.262917,16.727,0.078
53461.177828,16.162,0.043
53461.18823,16.316,0.05
53461.198528,16.475,0.057
53461.209043,16.744,0.074
53461.2193,16.714,0.074
53489.144167,16.586,0.067
53489.154525,16.386,0.061
53489.164891,16.263,0.057
53489.17506,16.193,0.118
53489.185398,16.271,0.205
53635.420178,16.7,0.178
53635.430613,16.513,0.142
53635.441032,16.346,0.124
53635.451464,16.113,0.096
53687.378619,16.109,0.055
53687.391033,16.132,0.055
53687.40342,16.176,0.057
53687.416176,16.25,0.061
53687.428876,16.429,0.068
53696.389365,16.539,0.078
53696.402477,16.305,0.063
53696.415506,16.139,0.054
53696.428815,16.031,0.074
53696.442023,16.056,0.076
53725.333454,16.055,0.048
53725.346773,16.153,0.048
53725.359818,16.266,0.052
53725.37293,16.427,0.059
53725.385936,16.845,0.091
53755.288574,16.242,0.05
53755.301272,16.2,0.05
53755.314196,16.14,0.046
53755.326859,16.105,0.046
53757.253675,16.176,0.031
53757.266404,16.109,0.03
53757.27897,16.103,0.03
53757.291634,16.097,0.03
53757.304162,16.154,0.031
53775.297495,16.195,0.093
53775.3103,16.304,0.08
53775.318849,16.44,0.089
53775.323618,16.531,0.111
53775.332796,16.885,0.183
53775.33704,16.76,0.122
53775.346799,16.691,0.112
53775.36088,16.674,0.2
53775.37488,16.269,0.101
53807.239419,16.249,0.104
53807.251941,16.212,0.094
53807.263982,16.43,0.12
54050.370566,16.162,0.054
54050.382754,16.269,0.057
54050.394948,16.406,0.065
54050.40715,16.652,0.085
54050.419353,16.439,0.087
54079.302592,16.616,0.087
54079.31456,16.444,0.076
54079.326462,16.315,0.067
54079.338354,16.237,0.063
54079.35026,16.145,0.059
54108.266256,16.155,0.048
54108.278841,16.211,0.05
54108.291442,16.413,0.059
54108.304104,16.711,0.08
54108.316795,16.756,0.081
54126.263747,16.146,0.048
54126.275603,16.274,0.058
54139.229154,16.11,0.03
54139.240918,16.181,0.03
54139.252741,16.228,0.031
54139.264529,16.369,0.039
54167.230341,16.233,0.046
54167.241464,16.204,0.043
54167.252649,16.098,0.041
54167.263854,16.086,0.043
