mjd,m,merr
52619.383042,15.564,0.03
52619.413125,15.4,0.025
52619.428195,15.335,0.023
52619.443183,15.276,0.023
52640.449126,15.502,0.02
52640.464049,15.504,0.02
52646.3962,15.337,0.018
52646.410629,15.249,0.018
52646.439733,15.228,0.018
52647.377709,15.511,0.026
52647.392205,15.423,0.025
52647.406774,15.292,0.023
52647.421761,15.277,0.023
52666.359556,15.352,0.02
52666.37428,15.422,0.021
52667.35489,15.254,0.02
52667.357279,15.256,0.017
52667.372502,15.331,0.018
52668.313649,15.275,0.033
52668.313789,15.295,0.049
52668.327826,15.28,0.026
52668.328505,15.295,0.04
52668.343183,15.285,0.035
52668.34324,15.233,0.026
52668.357853,15.279,0.045
52668.358616,15.295,0.037
52668.359865,15.27,0.031
52668.374148,15.312,0.048
52668.375391,15.353,0.065
52698.275825,15.51,0.024
52698.289995,15.411,0.018
52704.253839,15.247,0.02
52704.280414,15.303,0.021
52725.273036,15.403,0.097
52725.28527,15.311,0.046
52729.174407,15.26,0.017
52734.191009,15.433,0.02
52734.203546,15.353,0.018
52734.216719,15.301,0.018
52754.14301,15.248,0.017
52754.167129,15.299,0.02
52754.179232,15.329,0.02
52754.191412,15.39,0.022
52758.143033,15.359,0.025
52758.155315,15.28,0.023
52758.16754,15.256,0.023
52758.179686,15.231,0.023
52758.19175,15.22,0.023
52933.471943,15.275,0.03
52933.484541,15.25,0.03
52933.497327,15.262,0.028
52936.483257,15.295,0.016
52936.495384,15.231,0.016
52940.457249,15.56,0.061
52940.469217,15.506,0.068
52940.481225,15.545,0.066
52940.493239,15.381,0.079
52944.445683,15.268,0.025
52944.458229,15.341,0.026
52944.470886,15.321,0.025
52944.483227,15.399,0.026
52944.495572,15.471,0.028
52974.40811,15.291,0.017
52993.337697,15.32,0.031
52993.362535,15.44,0.021
52993.374975,15.488,0.025
52994.396157,15.572,0.023
53033.29899,15.37,0.021
53033.311485,15.458,0.021
53034.292109,15.298,0.021
53034.304794,15.349,0.023
53034.310101,15.393,0.02
53034.317415,15.463,0.025
53037.30747,15.191,0.02
53052.221643,15.556,0.018
53057.319441,15.319,0.049
53082.243285,15.447,0.015
53082.255055,15.354,0.013
53082.268507,15.307,0.013
53084.246537,15.52,0.015
53091.236371,15.24,0.015
53110.138466,15.314,0.023
53110.149168,15.324,0.023
53110.159984,15.374,0.025
53110.170965,15.425,0.026
53110.181934,15.526,0.03
53138.150326,15.436,0.028
53138.160165,15.452,0.03
53138.169917,15.527,0.031
53138.180223,15.545,0.033
53138.189896,15.564,0.033
53287.427441,15.291,0.038
53287.438407,15.309,0.036
53287.449298,15.319,0.036
53287.460484,15.312,0.033
53287.471398,15.317,0.033
53292.426514,15.452,0.036
53292.445759,15.319,0.03
53292.456408,15.329,0.028
53292.466012,15.324,0.028
53316.442935,15.245,0.043
53316.455124,15.281,0.056
53316.467196,15.404,0.053
53327.393212,15.308,0.028
53327.430223,15.415,0.031
53347.433529,15.255,0.054
53347.447373,15.251,0.021
53357.377561,15.256,0.024
53357.419759,15.39,0.03
53383.395125,15.5,0.02
53403.334709,15.403,0.02
53403.348407,15.323,0.033
53438.347874,15.525,0.024
53438.360046,15.548,0.026
53438.371613,15.574,0.028
53438.39482,15.452,0.03
53502.140405,15.305,0.026
53502.151204,15.273,0.024
53502.161459,15.311,0.026
53502.171981,15.253,0.026
53502.182808,15.298,0.028
53671.441442,15.461,0.039
53671.465529,15.571,0.037
53671.477591,15.581,0.039
53671.489725,15.548,0.048
53674.462126,15.351,0.022
53674.474254,15.371,0.024
53674.498674,15.555,0.026
53679.470493,15.287,0.018
53707.429576,15.388,0.074
53712.391451,15.432,0.022
53712.435787,15.6,0.026
53712.449556,15.473,0.022
53738.342137,15.388,0.022
53738.356409,15.466,0.022
53738.370068,15.535,0.024
53758.361224,15.291,0.017
53769.3314,15.3,0.017
53769.358812,15.417,0.018
53769.372745,15.499,0.02
53787.407875,15.528,0.115
53787.419735,15.592,0.033
53787.431657,15.59,0.035
53787.443682,15.54,0.037
53789.309099,15.497,0.033
53789.321042,15.431,0.065
53789.333206,15.407,0.05
53792.307369,15.597,0.024
53792.331217,15.528,0.024
53816.372219,15.354,0.035
53821.241713,15.307,0.024
53821.268744,15.442,0.024
53821.282462,15.489,0.03
53824.233902,15.301,0.022
53824.246165,15.277,0.02
53824.258449,15.266,0.02
53824.269273,15.278,0.02
53824.280743,15.309,0.028
53827.132754,15.244,0.076
53827.143435,15.276,0.024
53827.154736,15.298,0.024
53828.119962,15.264,0.028
53828.13063,15.285,0.024
53828.141321,15.26,0.022
53828.151826,15.289,0.022
53828.230594,15.587,0.043
53828.252049,15.391,0.054
53845.139622,15.272,0.024
53845.150308,15.281,0.024
53845.161006,15.245,0.024
53845.171737,15.282,0.026
53845.182452,15.296,0.026
53846.189378,15.263,0.03
53846.200016,15.322,0.031
53846.210695,15.367,0.033
53846.221427,15.42,0.035
53851.188878,15.343,0.028
53851.198914,15.323,0.028
53851.209156,15.254,0.028
53851.219416,15.283,0.028
53851.229283,15.252,0.03
53852.17504,15.489,0.035
53852.185172,15.458,0.035
53854.192779,15.551,0.046
53854.242722,15.309,0.033
54030.425328,15.349,0.03
54053.433558,15.523,0.054
54082.414015,15.472,0.022
54082.427238,15.38,0.018
54083.414653,15.487,0.036
54174.218625,15.414,0.022
54212.192842,15.579,0.031
54212.201971,15.513,0.03
54394.44244,15.294,0.018
54480.464262,15.414,0.035
54480.476551,15.478,0.04
54480.489166,15.544,0.046
54527.282234,15.247,0.018
54527.293636,15.284,0.024
54591.177185,15.275,0.02
54591.187417,15.337,0.02
54592.138314,15.338,0.033
54592.14819,15.308,0.033
54592.157993,15.26,0.035
54592.167794,15.232,0.033
54592.177321,15.264,0.035
