mjd,m,merr
52610.395822,16.721,0.13
52610.410325,16.661,0.089
52610.424854,16.723,0.122
52613.375667,16.76,0.072
52613.390993,16.821,0.074
52613.40632,16.804,0.07
52613.421872,16.834,0.072
52613.437172,16.822,0.07
52618.381007,16.739,0.235
52618.412127,16.732,0.074
52618.427771,16.821,0.094
52618.443137,16.695,0.093
52643.370555,16.747,0.063
52643.384823,16.751,0.065
52643.398968,16.786,0.07
52643.413259,16.717,0.068
52643.427405,16.801,0.074
52647.325413,16.784,0.068
52647.340249,16.827,0.07
52647.354839,16.827,0.07
52647.369557,16.723,0.067
52647.384195,16.808,0.074
52666.309407,16.942,0.072
52666.324777,16.924,0.07
52666.340115,16.811,0.063
52666.35559,16.78,0.061
52666.371112,16.758,0.061
52670.327302,16.766,0.065
52670.341277,16.791,0.067
52670.355249,16.832,0.072
52670.369268,16.787,0.074
52670.383269,16.777,0.074
52673.226427,16.744,0.07
52673.241944,16.774,0.07
52673.257544,16.709,0.067
52673.273027,16.858,0.076
52673.288581,16.795,0.07
52678.304783,16.779,0.246
52678.318802,16.9,0.137
52678.332792,16.925,0.093
52678.346865,16.911,0.093
52678.360989,16.909,0.096
52697.267599,16.901,0.144
52703.242911,16.909,0.093
52703.256308,16.995,0.292
52703.28377,16.773,0.085
52703.297103,16.756,0.083
52706.237504,17.523,0.139
52706.25076,17.223,0.105
52706.263981,16.92,0.08
52706.276926,16.825,0.072
52706.290134,16.785,0.072
52724.178877,16.759,0.079
52724.191489,16.773,0.079
52724.204254,16.765,0.079
52724.216449,16.88,0.087
52724.22855,16.995,0.097
52730.17813,16.805,0.067
52730.190499,16.783,0.063
52730.202138,16.748,0.061
52730.214266,16.746,0.063
52730.225798,16.811,0.068
52733.188815,16.764,0.07
52733.200939,16.766,0.072
52733.213092,16.835,0.076
52733.225368,16.765,0.072
52733.237506,16.742,0.07
52753.139113,16.783,0.087
52753.15167,16.696,0.084
52753.164045,16.748,0.087
52753.176625,16.677,0.087
52753.18902,16.672,0.089
52758.143887,16.818,0.07
52758.155881,16.954,0.083
52758.167902,16.964,0.085
52758.179973,16.936,0.085
52758.192139,16.9,0.081
52936.449146,16.658,0.059
52936.461873,16.692,0.059
52936.473892,16.614,0.055
52936.485812,16.553,0.052
52936.497639,16.586,0.054
52941.409505,17.231,0.104
52941.421968,17.277,0.104
52941.434118,17.168,0.093
52941.446834,16.898,0.065
52945.432875,16.815,0.089
52945.444844,16.721,0.08
52945.456841,16.659,0.074
52945.46879,16.776,0.081
52945.480705,16.745,0.078
52964.45389,16.797,0.055
52964.466712,16.803,0.055
52964.479963,16.809,0.057
52964.493091,16.786,0.052
52964.509408,16.829,0.057
52966.401321,16.785,0.068
52966.414056,16.894,0.074
52966.426847,16.835,0.067
52966.439548,16.843,0.068
52966.452259,16.748,0.063
52974.394798,16.708,0.059
52974.406452,16.714,0.059
52974.420474,16.702,0.058
52974.434271,16.784,0.066
52974.445973,16.767,0.066
52992.411432,16.808,0.064
52992.424202,16.739,0.061
52992.437226,16.795,0.056
52992.449916,16.788,0.056
52992.462614,16.833,0.058
52995.342139,16.717,0.044
52995.355135,16.714,0.044
52995.368367,16.724,0.043
52995.381414,16.756,0.044
52995.394423,16.766,0.044
53000.349579,16.761,0.044
53000.363874,16.729,0.044
53000.377582,16.687,0.044
53000.390722,16.644,0.043
53000.403887,16.669,0.044
53026.293925,16.702,0.041
53026.306815,16.681,0.039
53026.319824,16.755,0.044
53026.332582,16.687,0.041
53026.345609,16.704,0.041
53029.341176,16.786,0.076
53034.274579,16.843,0.086
53034.287144,16.783,0.081
53034.299815,16.752,0.074
53034.312486,16.805,0.081
53034.325164,16.707,0.073
53035.280795,16.814,0.087
53035.306454,16.738,0.079
53035.318875,16.676,0.073
53035.331225,16.738,0.078
53051.270652,17.354,0.094
53051.282326,17.417,0.094
53051.294056,17.225,0.08
53051.305734,16.953,0.063
53051.31743,16.792,0.055
53058.220889,16.708,0.039
53058.232398,16.672,0.039
53058.243785,16.738,0.043
53058.255179,16.688,0.039
53058.266574,16.701,0.041
53078.26107,16.8,0.101
53078.272325,16.825,0.074
53078.283311,16.832,0.076
53078.294447,16.856,0.078
53078.305334,16.932,0.089
53083.227106,16.781,0.048
53083.237996,16.675,0.041
53083.248711,16.761,0.043
53083.259602,16.727,0.043
53083.270313,16.669,0.043
53086.231772,16.923,0.157
53086.242848,16.824,0.213
53086.254253,16.811,0.15
53086.265548,16.897,0.13
53086.276902,16.777,0.085
53092.225983,16.6,0.07
53092.236327,16.691,0.074
53092.246893,16.589,0.07
53092.257445,16.686,0.078
53092.267737,16.685,0.081
53109.181695,16.864,0.087
53109.192017,16.776,0.081
53109.202311,16.9,0.092
53109.212906,17.007,0.102
53109.223157,17.032,0.107
53114.190736,16.593,0.048
53114.20185,16.638,0.05
53114.213118,16.726,0.054
53114.22418,16.675,0.054
53114.235244,16.682,0.057
53117.191859,16.752,0.055
53117.202591,16.712,0.055
53117.213603,16.743,0.057
53117.224304,16.776,0.057
53117.235151,16.736,0.057
53137.151271,17.112,0.129
53137.161107,16.896,0.109
53137.171116,16.934,0.119
53137.181104,16.903,0.13
53137.192844,16.776,0.117
53142.155378,16.803,0.072
53142.165767,16.824,0.076
53142.175805,16.834,0.08
53142.186454,16.729,0.07
53142.196363,16.815,0.094
53287.418332,16.608,0.118
53287.429277,16.683,0.122
53287.44021,16.74,0.12
53287.45115,16.64,0.109
53287.462082,16.644,0.102
53292.403954,16.77,0.12
53292.413517,16.84,0.122
53292.423077,16.757,0.109
53292.432644,16.76,0.104
53292.442217,16.783,0.105
53297.410241,16.871,0.124
53297.418109,16.834,0.109
53297.419992,16.647,0.1
53297.42974,16.835,0.115
53297.429993,16.837,0.106
53297.439485,16.766,0.102
53297.442734,16.789,0.096
53297.456615,16.39,0.064
53297.469051,16.811,0.092
53316.440291,16.629,0.111
53316.464494,16.621,0.109
53316.476592,16.684,0.144
53327.372045,16.794,0.105
53327.384445,16.774,0.093
53327.396843,16.827,0.104
53327.40923,16.814,0.091
53327.421668,16.785,0.091
53347.462886,16.697,0.065
53347.479792,16.714,0.065
53347.494273,16.776,0.068
53347.512952,16.705,0.063
53353.335376,16.767,0.07
53353.34837,16.835,0.076
53353.361883,16.815,0.074
53353.374878,16.683,0.067
53353.38787,16.976,0.087
53357.38506,16.84,0.069
53357.399952,16.784,0.064
53357.414852,16.806,0.066
53357.4298,16.847,0.069
53357.444655,16.768,0.066
53376.353307,16.82,0.068
53376.366591,16.878,0.072
53376.381465,16.796,0.068
53376.394871,16.84,0.07
53376.408165,16.86,0.072
53381.351544,16.733,0.063
53381.36486,16.866,0.087
53381.378685,16.772,0.113
53381.392142,16.772,0.081
53381.406811,16.829,0.091
53385.353046,16.77,0.072
53385.366358,16.803,0.074
53385.380376,16.739,0.07
53385.393585,16.829,0.078
53385.406862,16.76,0.074
53387.346969,16.834,0.072
53387.357376,16.827,0.07
53387.361654,16.787,0.068
53387.371273,16.857,0.078
53387.375132,16.813,0.076
53387.385249,16.8,0.076
53387.388638,16.797,0.076
53387.398138,16.769,0.076
53387.401582,16.818,0.078
53387.411574,16.754,0.076
53403.286648,16.725,0.052
53403.299459,16.748,0.055
53403.312293,16.782,0.059
53403.325005,16.762,0.059
53410.282898,16.882,0.159
53410.295509,16.75,0.094
53410.308838,16.823,0.068
53410.322702,16.773,0.067
53410.336329,16.807,0.055
53432.278749,16.855,0.183
53432.293159,16.797,0.085
53432.305741,16.9,0.292
53432.320442,16.763,0.344
53432.33302,16.679,0.187
53464.235304,16.82,0.072
53464.24573,16.795,0.074
53464.256135,16.825,0.074
53464.266972,16.793,0.072
53464.277581,16.846,0.085
53495.148428,16.739,0.083
53495.15855,16.818,0.091
53495.168736,16.841,0.094
53495.178908,16.805,0.096
53495.189024,16.82,0.122
53501.139498,16.708,0.091
53501.149979,16.712,0.091
53501.16104,16.707,0.094
53501.17258,16.83,0.111
53501.183294,16.89,0.118
53655.423372,16.815,0.12
53655.434404,16.824,0.12
53655.44587,16.715,0.105
53655.456897,16.878,0.118
53655.467921,16.748,0.104
53672.456614,16.854,0.104
53672.469863,16.884,0.109
53672.483513,16.784,0.098
53672.49784,16.811,0.096
53675.442706,16.786,0.083
53675.454885,16.739,0.08
53675.466911,16.703,0.081
53675.47934,16.693,0.078
53675.492189,16.684,0.076
53681.459726,16.847,0.278
53681.475259,16.725,0.113
53681.48868,16.736,0.076
53681.502272,16.769,0.078
53705.395038,16.792,0.078
53705.408353,16.801,0.081
53705.421455,16.753,0.078
53705.434565,16.848,0.087
53705.447423,16.842,0.083
53708.392895,16.781,0.068
53708.406135,16.871,0.076
53708.419253,16.798,0.07
53708.432347,16.732,0.067
53708.445225,16.805,0.072
53713.400229,16.992,0.205
53713.41302,16.816,0.133
53713.426045,16.914,0.159
53713.439321,16.762,0.122
53713.452243,16.857,0.124
53732.350568,16.998,0.12
53732.363284,17.011,0.102
53732.381289,17.011,0.105
53732.395789,16.798,0.115
53732.408652,16.826,0.1
53735.399606,16.874,0.126
53735.412848,16.805,0.085
53739.348105,17.014,0.142
53739.361419,16.929,0.113
53739.374654,17.369,0.438
53739.400981,16.718,0.348
53759.341051,16.811,0.067
53759.353838,16.802,0.074
53759.366612,16.941,0.089
53759.379314,17.191,0.107
53759.391978,17.494,0.133
53762.344883,16.856,0.07
53762.357742,16.846,0.067
53762.370414,16.831,0.067
53762.383535,16.901,0.072
53762.396539,17.025,0.083
53770.221475,16.766,0.068
53770.234543,16.714,0.065
53770.247545,16.688,0.061
53770.260668,16.737,0.063
53770.273732,16.813,0.067
53787.24277,16.72,0.058
53788.348836,16.802,0.061
53788.361015,16.77,0.065
53788.385144,16.776,0.074
53788.397327,16.809,0.076
53790.279833,17.115,0.1
53790.291575,17.35,0.128
53790.303369,17.68,0.176
53790.31512,17.335,0.124
53790.326867,16.966,0.089
53793.295887,16.962,0.133
53793.307827,16.929,0.401
53799.227754,16.822,0.08
53799.239231,16.855,0.083
53799.25094,16.833,0.08
53799.262404,16.713,0.067
53799.274153,16.873,0.07
53813.249162,16.747,0.096
53813.260252,16.834,0.105
53813.271474,16.883,0.113
53813.282539,16.778,0.107
53813.294026,16.822,0.115
53817.280834,16.768,0.08
53817.291674,16.801,0.091
53817.302519,16.724,0.087
53817.313571,16.908,0.105
53817.324498,16.986,0.12
53819.230928,16.794,0.087
53819.241672,16.79,0.083
53819.252413,16.737,0.078
53819.263386,16.85,0.089
53819.274919,16.816,0.085
53827.23881,16.98,0.094
53827.249793,16.821,0.083
53827.260684,16.827,0.087
53827.271494,16.906,0.094
53827.282079,16.819,0.089
53844.182413,16.683,0.081
53844.193846,16.731,0.083
53844.204981,16.673,0.079
53844.216181,16.669,0.087
53844.227473,16.709,0.094
53848.184644,16.722,0.102
53848.195252,16.772,0.105
53848.205923,16.795,0.105
53848.216592,16.889,0.118
53848.227237,16.943,0.133
53850.214826,16.784,0.089
53850.225449,16.832,0.096
53850.236131,16.916,0.126
53850.24702,16.698,0.089
53850.258032,16.872,0.107
53853.1372,16.896,0.14
53853.140846,16.696,0.098
53853.150728,16.871,0.142
53853.151765,16.728,0.1
53853.161892,16.901,0.149
53853.16278,16.768,0.105
53853.172744,16.877,0.139
53853.173846,16.755,0.098
53853.183622,16.88,0.135
53853.184574,16.881,0.109
54026.472434,16.924,0.147
54031.432642,16.795,0.099
54031.444822,17.013,0.114
54031.45715,16.846,0.094
54031.469015,17.063,0.111
54031.480977,17.516,0.165
54036.430125,16.87,0.111
54036.443515,16.763,0.092
54036.456635,16.67,0.081
54036.468905,16.892,0.096
54036.480773,16.866,0.092
54042.476323,16.691,0.084
54042.488795,16.711,0.079
54056.38037,17.619,0.2
54056.394381,17.715,0.218
54056.408542,17.183,0.129
54056.421792,16.908,0.097
54056.434354,16.866,0.091
54057.44948,16.799,0.065
54057.462223,16.724,0.061
54057.474708,16.767,0.063
54057.487195,16.812,0.065
54057.499678,16.838,0.067
54060.374356,16.829,0.07
54060.386784,16.718,0.063
54060.39922,16.845,0.07
54060.411666,16.819,0.067
54060.424118,16.802,0.065
54066.385839,16.893,0.101
54068.388909,17.493,0.118
54068.401949,17.803,0.152
54068.415001,17.347,0.102
54068.428059,17.057,0.076
54068.441115,16.934,0.068
54083.400252,16.867,0.081
54083.413442,16.879,0.081
54083.426636,16.938,0.081
54083.439828,16.825,0.102
54083.453028,16.668,0.15
54084.33231,16.838,0.109
54084.345331,16.867,0.114
54084.358493,16.795,0.101
54084.371656,16.884,0.107
54084.384869,16.815,0.101
54086.358188,16.799,0.078
54086.371699,16.785,0.074
54086.384628,16.821,0.076
54086.397565,16.978,0.081
54086.410506,17.269,0.107
54091.313038,16.812,0.061
54091.325701,16.783,0.059
54091.338514,16.79,0.057
54091.351284,16.801,0.061
54091.364297,16.796,0.059
54098.322873,16.758,0.081
54098.334482,16.771,0.074
54098.346136,16.774,0.074
54098.357898,16.744,0.07
54110.327042,16.737,0.106
54110.339649,16.838,0.112
54110.352227,16.877,0.112
54110.364794,16.723,0.101
54110.377439,16.847,0.112
54113.32433,16.7,0.106
54113.35013,16.887,0.119
54115.345015,16.868,0.092
54115.358131,16.778,0.086
54115.371139,16.747,0.083
54115.383997,16.752,0.083
54115.396935,16.7,0.081
54121.271989,16.758,0.072
54121.28421,16.75,0.055
54121.296439,16.75,0.055
54121.308684,16.784,0.057
54121.32103,16.766,0.054
54123.279481,16.81,0.084
54123.291957,16.816,0.083
54123.304503,17.014,0.094
54123.317112,17.272,0.129
54123.329598,17.361,0.137
54144.303214,16.751,0.052
54144.314329,16.793,0.055
54144.325438,16.82,0.065
54144.336638,16.838,0.059
54144.347739,16.961,0.065
54148.277473,16.833,0.079
54148.289619,16.923,0.086
54148.301308,16.835,0.079
54148.313083,16.876,0.083
54148.324775,16.782,0.076
54154.220966,17.281,0.087
54154.222687,17.519,0.153
54154.23252,17.512,0.107
54154.234534,17.676,0.178
54154.243967,17.236,0.083
54154.246936,17.444,0.145
54154.255404,16.994,0.067
54154.258869,17.112,0.106
54154.266843,16.819,0.057
54154.270436,16.873,0.084
54169.218288,16.858,0.078
54169.22925,16.865,0.076
54169.240258,17.009,0.087
54169.251277,16.914,0.092
54169.262283,17.006,0.094
54173.214847,16.833,0.057
54173.225495,16.807,0.055
54173.236174,16.835,0.057
54173.246849,16.84,0.059
54173.25763,16.772,0.057
54176.21968,16.823,0.061
54176.230439,16.781,0.059
54176.241311,16.79,0.061
54176.251858,16.838,0.065
54176.262911,16.774,0.061
54179.232137,16.779,0.057
54179.243267,16.784,0.059
54179.254529,16.83,0.063
54179.265886,16.809,0.059
54179.277329,16.806,0.061
54205.175108,16.77,0.091
54205.184422,16.867,0.099
54205.193848,16.785,0.094
54205.203302,16.775,0.096
54205.212646,16.824,0.104
54206.177444,16.944,0.076
54206.18654,16.811,0.067
54206.195555,16.797,0.067
54206.204689,16.816,0.068
54206.213737,16.801,0.07
54209.172671,17.47,0.13
54209.181659,17.245,0.117
54209.190643,17.08,0.224
54209.19965,17.021,0.15
54209.208648,16.784,0.102
54387.430236,16.725,0.07
54387.441512,16.762,0.068
54387.452794,16.753,0.067
54387.464074,16.758,0.061
54387.475467,16.736,0.059
54393.428702,16.855,0.109
54393.440261,16.766,0.097
54393.452579,16.796,0.101
54393.466628,16.749,0.094
54393.478301,16.792,0.101
54395.436141,17.418,0.12
54395.447967,17.098,0.093
54395.460066,16.905,0.074
54395.471894,16.985,0.105
54395.483714,16.839,0.067
54410.433653,16.985,0.115
54410.445988,17.01,0.139
54410.458182,16.984,0.148
54410.470384,16.91,0.168
54410.48267,16.808,0.076
54419.445924,17.319,0.076
54419.458769,17.426,0.081
54419.471504,17.287,0.072
54419.484242,16.962,0.054
54419.496992,16.792,0.046
54440.405331,16.832,0.044
54440.418244,16.845,0.041
54440.431324,16.792,0.041
54440.444397,16.861,0.046
54440.457322,16.833,0.048
54444.382543,16.748,0.05
54444.395576,16.812,0.052
54444.408575,16.755,0.054
54444.421581,16.671,0.178
54444.434571,16.742,0.104
54448.381846,16.781,0.055
54448.394895,16.739,0.044
54448.40803,16.809,0.052
54448.421058,16.772,0.043
54448.434078,16.699,0.037
54464.456097,16.746,0.054
54464.469148,16.815,0.059
54464.482217,16.765,0.059
54464.495283,16.88,0.067
54464.508348,16.969,0.072
54474.329237,16.878,0.154
54474.355367,16.87,0.107
54474.368337,17.095,0.091
54474.381317,17.352,0.117
54508.232853,16.755,0.039
54508.24501,16.739,0.039
54508.257245,16.82,0.044
54508.269763,16.851,0.061
54508.282047,16.902,0.078
54523.280568,16.901,0.048
54523.292319,17.183,0.065
54523.3039,17.467,0.089
54523.315497,17.552,0.1
54523.327255,17.175,0.076
54530.224975,16.76,0.065
54530.236334,16.723,0.068
54530.247719,16.721,0.15
54530.259098,16.711,0.098
54530.270635,16.825,0.094
54537.162294,16.636,0.044
54537.173356,16.813,0.074
54537.184292,16.753,0.085
54537.195218,16.676,0.039
54537.206175,16.686,0.041
54554.23773,17.022,0.059
54554.249635,16.773,0.041
54554.26157,16.778,0.043
54554.273687,16.762,0.043
54554.285598,16.774,0.044
54563.187584,16.667,0.043
54563.199058,16.763,0.048
54563.210638,16.8,0.05
54563.222214,16.881,0.055
54563.233704,16.941,0.057
54581.142919,16.522,0.096
54581.152591,16.48,0.094
54581.162614,16.526,0.099
54581.172291,16.63,0.109
54581.181979,16.736,0.117
54585.144519,16.886,0.144
54585.155271,16.842,0.185
54585.187567,16.857,0.344
54592.141266,16.686,0.059
54592.151687,16.75,0.065
54592.162105,16.711,0.065
54592.172541,16.669,0.063
54592.182967,16.729,0.07
54594.156182,17.033,0.2
54594.175202,17.035,0.244
54594.194274,16.825,0.214
