mjd,m,merr
52610.389591,17.292,0.159
52610.404719,16.97,0.141
52610.419888,16.685,0.067
52610.435057,16.497,0.141
52610.450176,16.628,0.187
52614.379222,16.556,0.065
52614.394323,16.678,0.072
52614.424656,17.208,0.124
52614.439832,16.835,0.124
52619.384069,16.759,0.074
52619.399311,16.966,0.091
52619.414551,17.135,0.105
52619.429943,16.87,0.08
52619.445298,16.661,0.07
52620.39171,16.877,0.629
52620.407546,16.66,0.089
52620.423344,16.583,0.065
52620.438754,16.608,0.063
52639.304941,16.723,0.061
52639.319678,16.792,0.065
52639.334428,17.159,0.218
52639.349132,17.237,0.098
52639.363846,17.018,0.083
52644.311588,16.904,0.067
52644.327372,17.192,0.087
52644.342724,17.24,0.089
52644.358274,16.909,0.067
52644.374185,16.736,0.059
52648.254789,16.995,0.087
52648.269545,16.742,0.068
52648.284157,16.638,0.063
52648.299351,16.59,0.059
52648.314138,16.568,0.061
52671.313126,16.713,0.061
52671.328311,16.66,0.059
52671.34347,16.607,0.055
52671.358687,16.578,0.055
52671.373991,16.635,0.061
52674.252457,17.135,0.096
52674.267794,16.824,0.093
52674.283032,16.673,0.08
52674.298506,16.633,0.059
52674.313968,16.623,0.057
52677.246093,16.681,0.065
52677.260636,16.577,0.055
52677.275115,16.673,0.061
52677.289509,16.589,0.057
52677.304012,16.663,0.061
52697.274715,17.27,0.147
52704.238363,16.595,0.052
52704.251691,16.623,0.054
52704.265023,16.782,0.063
52704.278349,17.033,0.081
52704.291667,17.176,0.093
52706.180119,17.17,0.116
52706.193766,17.046,0.101
52706.207053,16.814,0.081
52706.220679,16.766,0.076
52706.233807,16.699,0.069
52707.173285,16.633,0.061
52707.186445,16.606,0.057
52707.199499,16.648,0.059
52707.212647,16.654,0.057
52707.225711,16.804,0.063
52708.16952,16.865,0.08
52708.182559,17.1,0.102
52708.19591,17.348,0.124
52708.20883,17.163,0.104
52708.22185,16.929,0.08
52724.181814,16.635,0.059
52724.193455,16.669,0.061
52724.205107,16.816,0.07
52724.216764,16.954,0.078
52724.228629,17.097,0.089
52728.17181,16.697,0.063
52728.184205,16.624,0.061
52728.195991,16.573,0.057
52728.207964,16.534,0.055
52728.219895,16.526,0.057
52731.17843,16.6,0.172
52753.133099,16.516,0.057
52753.144981,16.557,0.059
52753.156873,16.639,0.067
52753.168762,16.69,0.072
52753.18066,16.804,0.083
52760.141571,16.513,0.057
52760.153384,16.605,0.063
52760.16517,16.671,0.068
52760.17705,16.699,0.072
52760.188895,16.952,0.091
52934.449677,16.823,0.12
52934.461549,16.783,0.112
52934.473517,16.721,0.104
52934.485494,16.732,0.097
52934.497477,16.761,0.101
52937.448233,16.504,0.07
52937.461065,16.491,0.048
52937.473054,16.576,0.05
52937.48577,16.724,0.054
52937.498189,16.967,0.074
52945.442015,16.842,0.097
52945.454163,17.024,0.116
52945.466283,17.085,0.12
52945.478487,17.04,0.114
52945.490672,16.835,0.096
52963.45612,16.548,0.044
52963.469072,16.635,0.048
52963.481509,16.71,0.052
52963.494001,16.835,0.059
52963.506622,17.023,0.072
52967.37916,16.682,0.065
52967.391779,16.726,0.067
52967.404231,16.909,0.08
52967.416741,17.123,0.094
52967.429245,17.28,0.105
52992.337594,17.042,0.076
52992.350842,17.188,0.091
52992.364192,16.961,0.08
52992.377434,16.81,0.074
52992.390551,16.756,0.072
52995.341406,16.669,0.043
52995.354401,16.552,0.039
52995.367632,16.551,0.037
52995.38068,16.559,0.037
52995.393601,16.587,0.037
53000.348731,16.611,0.039
53000.363148,16.614,0.041
53000.376856,16.601,0.041
53000.389997,16.657,0.043
53000.403161,16.685,0.044
53026.293196,17.127,0.055
53026.306086,17.056,0.054
53026.318986,16.871,0.046
53026.331854,16.648,0.037
53026.344864,16.602,0.037
53029.340444,16.676,0.118
53029.371875,16.918,0.215
53034.278808,16.716,0.067
53034.291433,16.61,0.059
53034.304088,16.586,0.057
53034.3166,16.572,0.057
53034.328992,16.603,0.061
53035.274136,16.626,0.068
53035.287874,16.726,0.074
53035.300297,16.888,0.089
53035.314919,17.058,0.098
53035.327874,17.21,0.111
53050.21978,16.63,0.048
53050.231545,16.654,0.05
53050.243311,16.702,0.052
53050.255019,16.78,0.054
53050.2667,17.033,0.068
53058.220189,17.152,0.055
53058.231713,17.132,0.055
53058.243101,17.018,0.052
53058.254495,16.851,0.044
53058.265889,16.699,0.037
53061.212581,16.915,0.05
53061.224435,16.771,0.043
53061.235688,16.624,0.037
53061.24692,16.596,0.037
53061.258321,16.57,0.035
53078.22476,16.652,0.065
53078.235412,16.61,0.055
53078.246191,16.606,0.126
53078.256881,16.626,0.122
53078.267542,16.702,0.059
53083.226427,16.616,0.043
53083.237316,16.597,0.039
53083.24803,16.641,0.039
53083.258923,16.753,0.043
53083.269634,16.847,0.048
53086.231094,16.888,0.141
53086.242169,16.983,0.237
53086.253574,17.62,0.316
53086.264869,17.081,0.15
53086.276222,16.916,0.102
53092.225316,16.665,0.076
53092.235661,16.603,0.072
53092.246225,16.595,0.074
53092.256779,16.607,0.074
53092.267071,16.656,0.078
53109.183613,16.804,0.072
53109.194312,16.683,0.065
53109.205014,16.671,0.067
53109.215703,16.615,0.063
53109.226494,16.538,0.061
53114.190388,16.59,0.046
53114.201502,16.563,0.046
53114.21277,16.635,0.048
53114.223833,16.613,0.048
53114.234897,16.62,0.05
53117.191182,16.6,0.048
53117.201916,16.675,0.05
53117.212757,16.782,0.057
53117.223629,16.861,0.063
53117.234475,17.05,0.078
53137.151425,16.729,0.081
53137.16099,16.833,0.091
53137.17052,16.971,0.105
53137.18006,17.243,0.15
53137.189562,17.177,0.152
53288.432949,16.669,0.104
53288.443802,16.725,0.104
53288.454532,16.728,0.102
53288.465479,16.859,0.114
53288.476235,17.077,0.134
53293.430492,16.65,0.092
53293.441406,16.73,0.096
53293.4523,16.895,0.107
53293.463258,17.123,0.129
53293.474213,17.337,0.153
53299.442046,16.687,0.096
53299.453718,16.631,0.087
53299.46539,16.669,0.178
53299.477132,16.666,0.15
53299.488813,16.589,0.115
53328.374046,17.137,0.139
53328.398397,16.837,0.098
53328.422759,16.603,0.085
53331.446492,16.87,0.102
53331.458925,17.186,0.137
53331.483877,17.103,0.13
53331.50002,16.885,0.109
53348.333674,16.839,0.139
53348.346514,16.678,0.089
53348.358808,16.607,0.078
53348.37111,16.653,0.102
53348.383406,16.616,0.087
53354.32187,16.683,0.068
53354.335213,16.733,0.07
53354.348559,16.815,0.074
53354.367131,17.232,0.105
53354.380541,17.079,0.089
53377.33712,16.594,0.052
53377.350451,16.61,0.054
53377.363759,16.619,0.055
53377.377099,16.772,0.065
53377.390443,16.899,0.072
53382.365294,16.698,0.063
53382.394769,17.223,0.109
53382.409182,16.953,0.093
53382.423582,16.726,0.078
53382.425284,16.811,0.081
53382.440156,16.674,0.072
53382.469604,16.645,0.067
53382.484294,16.722,0.078
53386.346259,16.648,0.057
53386.359267,16.634,0.055
53386.372292,16.565,0.054
53386.385803,16.636,0.057
53386.398828,16.729,0.063
53389.347406,16.663,0.076
53389.360675,16.752,0.08
53389.374168,16.883,0.093
53389.387913,17.163,0.113
53389.402577,17.219,0.111
53404.298624,16.596,0.046
53404.316068,16.627,0.048
53404.328594,16.804,0.057
53404.341047,16.995,0.067
53404.354092,17.107,0.076
53415.288924,16.836,0.067
53415.301165,16.668,0.061
53415.313909,16.7,0.067
53415.326143,16.562,0.059
53415.338576,16.563,0.057
53433.230719,16.673,0.055
53433.242661,16.617,0.054
53433.256382,16.621,0.054
53433.267844,16.638,0.054
53433.280286,16.682,0.055
53473.178068,16.736,0.081
53473.187685,16.965,0.1
53473.197471,17.08,0.111
53473.207237,17.024,0.109
53473.216913,17.009,0.109
53500.138018,17.021,0.104
53500.149189,17.148,0.117
53500.159318,17.258,0.135
53500.169402,17.031,0.111
53500.179441,16.784,0.091
53656.423842,17.077,0.142
53656.435005,17.467,0.198
53656.446047,17.204,0.155
53656.457102,17.03,0.13
53656.468144,16.704,0.094
53672.455973,16.869,0.098
53672.469223,17.243,0.139
53672.482537,17.037,0.115
53672.497199,16.77,0.085
53675.442065,17.039,0.096
53675.454244,16.982,0.094
53675.466267,16.742,0.074
53675.47863,16.652,0.068
53675.491546,16.642,0.068
53681.474838,16.667,0.126
53681.48826,17.099,0.096
53681.501852,17.219,0.109
53703.392845,16.657,0.061
53703.405559,16.654,0.063
53703.420161,16.698,0.067
53703.433324,16.861,0.074
53703.446576,17.035,0.085
53706.404345,16.903,0.072
53706.418217,17.029,0.081
53706.431017,17.11,0.131
53706.443941,16.688,0.203
53706.457206,16.715,0.078
53709.375539,16.981,0.083
53709.388288,17.125,0.098
53709.401006,16.929,0.083
53709.413703,16.801,0.074
53709.426665,16.673,0.067
53714.387559,17.007,0.085
53714.400479,16.84,0.072
53714.413529,16.714,0.063
53714.426277,16.672,0.059
53714.439055,16.666,0.059
53733.331113,16.706,0.067
53733.344263,16.838,0.076
53733.357089,16.945,0.085
53733.369742,17.132,0.098
53733.38241,16.879,0.078
53740.33832,16.767,0.068
53740.351277,16.841,0.068
53740.364098,17.084,0.087
53740.376865,17.207,0.098
53740.389693,16.941,0.078
53770.2219,16.591,0.059
53770.234971,16.628,0.061
53770.247969,16.652,0.061
53770.26113,16.853,0.07
53770.274162,17.117,0.089
53787.24172,16.882,0.071
53788.348164,16.948,0.076
53788.360342,16.899,0.078
53788.384471,16.681,0.068
53788.396654,16.638,0.07
53794.279962,16.876,0.25
53794.292306,16.829,0.08
53794.304162,16.686,0.083
53794.315945,16.63,0.059
53794.328051,16.602,0.278
53813.248057,17.029,0.122
53813.259144,17.258,0.155
53813.270362,17.189,0.15
53813.281427,16.93,0.126
53813.292927,16.725,0.105
53817.279894,16.783,0.081
53817.290725,16.927,0.102
53817.301577,17.258,0.139
53817.312458,17.11,0.128
53817.323543,16.986,0.118
53818.224018,16.743,0.083
53818.234568,16.972,0.102
53818.245111,17.06,0.109
53818.255666,17.151,0.122
53818.266274,16.934,0.1
53823.196867,16.681,0.07
53823.208886,16.822,0.078
53823.222086,17.063,0.1
53823.233976,17.16,0.107
53823.246146,17.021,0.096
53825.181374,16.593,0.065
53825.191748,16.55,0.065
53825.203116,16.577,0.063
53825.214263,16.67,0.12
53825.224683,16.762,0.078
53829.174642,17.059,0.172
53829.185431,16.915,0.154
53829.195565,16.746,0.115
53829.205702,16.661,0.126
53829.215878,16.559,0.137
53844.179725,16.608,0.08
53844.189973,16.633,0.081
53844.200243,16.616,0.081
53844.21051,16.74,0.096
53844.22079,16.781,0.104
53848.184181,16.753,0.104
53848.194789,16.768,0.105
53848.205462,16.604,0.089
53848.216128,16.59,0.093
53848.226773,16.558,0.094
53849.145168,16.646,0.076
53849.155933,16.583,0.07
53849.166744,16.571,0.07
53849.177785,16.58,0.072
53849.189269,16.627,0.076
53852.14579,16.567,0.074
53852.156255,16.61,0.08
53852.166773,16.766,0.093
53852.177304,16.755,0.096
53852.188034,16.988,0.122
53853.136238,17.598,0.267
53853.149831,17.34,0.214
53853.160943,17.064,0.175
53853.171876,17.059,0.167
53853.182748,16.816,0.134
53855.14663,16.839,0.096
53855.156939,16.978,0.113
53855.167198,17.109,0.131
53855.17813,16.934,0.117
53855.188471,16.966,0.118
53858.141277,16.931,0.146
54027.44932,16.668,0.092
54027.461039,16.894,0.119
54027.475162,16.862,0.17
54027.487315,17.175,0.139
54027.498837,17.169,0.14
54029.431703,16.707,0.092
54029.4445,16.715,0.091
54029.45707,16.679,0.084
54029.468919,16.662,0.083
54029.480835,16.907,0.101
54037.433802,16.82,0.089
54037.446612,17.139,0.119
54037.458584,17.371,0.144
54037.470661,17.133,0.117
54037.483294,16.879,0.092
54054.361582,16.616,0.063
54054.372984,16.587,0.065
54054.384357,16.642,0.065
54054.395738,16.751,0.074
54054.407121,16.861,0.081
54055.411753,16.588,0.055
54055.423425,16.587,0.055
54055.435093,16.561,0.055
54055.44676,16.559,0.057
54055.458432,16.608,0.057
54056.379371,16.612,0.079
54056.392073,16.63,0.081
54056.407546,16.727,0.087
54056.420797,16.789,0.089
54056.433359,16.854,0.092
54058.375592,16.736,0.067
54058.387815,16.602,0.057
54058.400074,16.602,0.057
54058.412311,16.54,0.055
54058.424557,16.611,0.057
54061.376344,16.609,0.059
54061.389263,16.645,0.059
54061.401705,16.635,0.057
54061.414143,16.832,0.067
54061.426598,17.134,0.089
54066.392109,16.928,0.187
54066.398145,16.943,0.175
54066.404301,16.959,0.144
54070.382092,16.709,0.074
54070.395038,16.641,0.068
54070.408267,16.688,0.065
54070.42133,16.662,0.057
54070.434281,16.854,0.065
54084.331264,17.196,0.15
54084.338,17.154,0.104
54084.344289,17.236,0.16
54084.351488,17.088,0.098
54084.357445,17.24,0.155
54084.36498,16.82,0.074
54084.37061,16.659,0.089
54084.378476,16.63,0.059
54084.383823,16.86,0.106
54084.39198,16.635,0.063
54087.395279,16.693,0.068
54087.408289,16.671,0.115
54087.421299,16.776,0.117
54087.434312,17.144,0.17
54087.447326,16.998,0.08
54098.310079,16.702,0.076
54098.321922,16.73,0.08
54098.333531,16.901,0.085
54098.345183,17.133,0.107
54098.356947,17.225,0.109
54110.326006,17.183,0.158
54110.338617,17.285,0.185
54110.351179,17.29,0.163
54110.363759,16.921,0.12
54110.376404,16.807,0.107
54121.270978,17.101,0.105
54121.276206,16.942,0.092
54121.283201,16.804,0.065
54121.288725,16.762,0.081
54121.295427,16.639,0.055
54121.301946,16.653,0.071
54121.307674,16.592,0.054
54121.31482,16.618,0.066
54121.320019,16.565,0.052
54121.327408,16.602,0.066
54124.268057,16.67,0.048
54124.280412,16.583,0.044
54124.292678,16.564,0.044
54124.304939,16.651,0.048
54124.317211,16.684,0.05
54149.272707,17.258,0.114
54149.284572,17.379,0.125
54149.296402,17.064,0.092
54149.308176,16.756,0.071
54149.319968,16.718,0.069
54175.217337,16.586,0.05
54175.227866,16.586,0.05
54175.238505,16.604,0.052
54175.249072,16.671,0.055
54175.259713,16.848,0.065
54206.175191,16.767,0.091
54206.184368,16.66,0.081
54206.193589,16.609,0.078
54206.20278,16.64,0.081
54206.212489,16.629,0.083
54207.175263,16.632,0.07
54207.184425,16.68,0.074
54207.193574,16.732,0.074
54207.203053,16.947,0.096
54207.212231,17.077,0.105
54210.175737,17.097,0.1
54210.184654,17.261,0.113
54210.193561,17.086,0.098
54210.20245,16.895,0.081
54210.211331,16.811,0.076
54388.429048,17.219,0.107
54388.440404,17.187,0.1
54388.451718,16.903,0.074
54388.463093,16.803,0.067
54388.474386,16.711,0.059
54396.435563,16.674,0.061
54396.447318,16.644,0.055
54396.458973,16.653,0.054
54396.470623,16.675,0.055
54396.482286,16.754,0.057
54410.433019,16.703,0.083
54410.445342,16.647,0.093
54410.457554,16.679,0.104
54410.469756,16.6,0.111
54410.48204,16.592,0.063
54411.447105,16.803,0.059
54411.459643,17.062,0.076
54411.472008,17.203,0.087
54411.48437,16.933,0.068
54411.496725,16.83,0.061
54422.409345,16.781,0.048
54422.422004,16.696,0.044
54422.434534,16.583,0.039
54422.447082,16.56,0.037
54422.459639,16.541,0.037
54424.33065,16.598,0.063
54424.343232,16.599,0.057
54424.355818,16.635,0.055
54424.36842,16.719,0.054
54424.38098,16.876,0.054
54447.331431,16.793,0.046
54447.344336,16.744,0.044
54447.357237,16.642,0.039
54447.370137,16.564,0.035
54447.383029,16.617,0.039
54454.263886,16.621,0.065
54454.276986,16.698,0.067
54454.290076,16.838,0.074
54454.303157,17.07,0.089
54454.316247,17.193,0.094
54465.46073,16.808,0.055
54465.473631,16.937,0.063
54465.486543,17.24,0.085
54465.499449,17.246,0.087
54465.51236,16.929,0.067
54474.328422,16.53,0.139
54474.354556,16.697,0.091
54474.367527,16.947,0.076
54474.380506,17.235,0.146
54495.337346,16.501,0.046
54495.349806,16.63,0.055
54495.362254,16.649,0.055
54495.374878,16.736,0.063
54495.388459,16.896,0.072
54508.232073,16.719,0.037
54508.244231,16.685,0.037
54508.256465,16.635,0.039
54508.268985,16.562,0.048
54508.281272,16.599,0.059
54524.275166,16.696,0.052
54524.28662,16.637,0.057
54524.298055,16.557,0.059
54524.309469,16.643,0.074
54524.32091,16.624,0.05
54537.161532,16.968,0.052
54537.172598,17.14,0.081
54537.183536,16.954,0.105
54537.194463,16.801,0.044
54537.205417,16.702,0.041
54555.186365,16.692,0.044
54555.198036,16.746,0.046
54555.20969,16.908,0.054
54555.22138,17.18,0.072
54555.233134,17.163,0.072
54564.185279,16.613,0.043
54564.196574,16.636,0.044
54564.207939,16.601,0.041
54564.21939,16.698,0.046
54564.230674,16.85,0.055
54574.138787,16.657,0.115
54574.14942,16.579,0.109
54574.160055,16.496,0.102
54574.170642,16.609,0.115
54574.181249,16.553,0.111
54582.143184,16.84,0.08
54582.153702,16.903,0.083
54582.164573,17.13,0.102
54582.175058,17.282,0.12
54582.185559,17.167,0.117
54585.143947,17.222,0.213
54585.154697,16.804,0.191
54585.186995,16.509,0.316
54592.140693,17.128,0.091
54592.151112,17.115,0.091
54592.161534,16.878,0.078
54592.171963,16.757,0.07
54592.18239,16.711,0.068
