mjd,m,merr
52610.389724,15.743,0.035
52610.404851,15.981,0.05
52610.420021,15.955,0.033
52610.450309,15.493,0.063
52614.440814,15.516,0.037
52614.456209,15.634,0.041
52614.471641,15.89,0.044
52614.487067,15.898,0.031
52614.502215,15.637,0.024
52619.384461,15.426,0.02
52619.399709,15.46,0.022
52619.414942,15.566,0.026
52619.430384,15.832,0.031
52619.445691,15.985,0.037
52639.305317,15.653,0.022
52639.320053,15.919,0.028
52639.334805,15.962,0.039
52639.349508,15.808,0.024
52639.364221,15.573,0.022
52644.311973,15.865,0.026
52644.327755,15.654,0.02
52644.343108,15.498,0.018
52644.358663,15.453,0.017
52644.374592,15.361,0.017
52648.255315,15.555,0.022
52648.27005,15.473,0.02
52648.284694,15.403,0.02
52648.299941,15.411,0.02
52648.314642,15.454,0.022
52649.358963,15.388,0.02
52649.374266,15.436,0.021
52649.389959,15.553,0.025
52671.313516,15.471,0.018
52671.328699,15.423,0.018
52671.343857,15.389,0.018
52671.359075,15.423,0.018
52671.374379,15.444,0.02
52674.252981,15.651,0.024
52674.268317,15.934,0.031
52674.283557,16.044,0.039
52674.299031,15.854,0.028
52674.3145,15.6,0.022
52677.246539,15.483,0.02
52677.260999,15.605,0.02
52677.275483,15.78,0.024
52677.289878,16.018,0.031
52677.304379,15.925,0.03
52697.274594,15.471,0.03
52704.23903,15.681,0.022
52704.252346,15.92,0.028
52704.265678,15.929,0.028
52704.279017,15.748,0.024
52704.292321,15.565,0.02
52706.180242,15.524,0.026
52706.19389,15.677,0.03
52706.207175,15.903,0.036
52706.220801,16.009,0.038
52706.23393,15.918,0.035
52707.172796,15.482,0.022
52707.185953,15.424,0.02
52707.199005,15.422,0.018
52707.212152,15.418,0.018
52707.225217,15.483,0.02
52708.16922,15.982,0.037
52708.182312,15.96,0.035
52708.195665,15.79,0.031
52708.208578,15.58,0.026
52708.221597,15.504,0.022
52724.182171,15.518,0.02
52724.193812,15.475,0.02
52724.205465,15.417,0.02
52724.217124,15.395,0.018
52724.228987,15.411,0.018
52728.172398,15.551,0.022
52728.184797,15.617,0.024
52728.196693,15.825,0.028
52728.208553,16.003,0.033
52728.220495,16.025,0.033
52731.179024,15.467,0.035
52753.133541,15.426,0.02
52753.145424,15.395,0.02
52753.157316,15.426,0.022
52753.169206,15.443,0.022
52753.181104,15.45,0.024
52760.142123,15.909,0.033
52760.153932,16.001,0.035
52760.165718,15.961,0.035
52760.177599,15.743,0.03
52760.189445,15.592,0.026
52934.449897,15.877,0.048
52934.46177,16.019,0.053
52934.473738,15.749,0.041
52934.485716,15.598,0.035
52934.497698,15.49,0.03
52937.448482,15.672,0.024
52937.461314,15.846,0.024
52937.473303,15.905,0.024
52937.486019,15.676,0.02
52937.498438,15.551,0.018
52945.442157,15.919,0.04
52945.454308,15.951,0.043
52945.466427,15.879,0.038
52945.478631,15.659,0.031
52945.490816,15.53,0.028
52963.45663,15.403,0.015
52963.469581,15.444,0.017
52963.482019,15.471,0.017
52963.494512,15.576,0.018
52963.507132,15.744,0.022
52967.379836,15.398,0.018
52967.392366,15.448,0.02
52967.404819,15.531,0.022
52967.417328,15.639,0.022
52967.429832,15.862,0.026
52991.352281,15.503,0.015
52991.365336,15.585,0.017
52991.378297,15.71,0.02
52991.391262,15.874,0.03
52991.404298,15.836,0.024
52996.336693,15.587,0.017
52996.350036,15.837,0.02
52996.363147,15.996,0.024
52996.375976,15.96,0.022
52996.38911,15.713,0.017
53001.338629,15.868,0.018
53001.351756,15.755,0.017
53001.364973,15.596,0.015
53001.378307,15.426,0.013
53001.391265,15.429,0.013
53024.279674,15.473,0.028
53024.292555,15.391,0.013
53024.305386,15.372,0.011
53034.279232,15.469,0.02
53034.291856,15.537,0.022
53034.30451,15.706,0.026
53034.317044,15.926,0.031
53034.329417,15.979,0.033
53050.219885,15.413,0.015
53050.231649,15.412,0.015
53050.243416,15.451,0.017
53050.255123,15.534,0.017
53050.266804,15.622,0.018
53078.224859,15.445,0.02
53078.235512,15.414,0.018
53078.24629,15.433,0.039
53078.25698,15.419,0.033
53078.267641,15.464,0.018
53084.22415,15.581,0.015
53084.234845,15.479,0.013
53084.256852,15.387,0.013
53084.2678,15.393,0.013
53086.238314,15.435,0.046
53086.261064,15.485,0.038
53086.273007,15.584,0.033
53086.284098,15.707,0.03
53109.183704,15.708,0.026
53109.194404,15.86,0.03
53109.205106,15.936,0.031
53109.215795,15.831,0.03
53109.226585,15.678,0.028
53115.192353,15.461,0.017
53115.203521,15.582,0.018
53115.214855,15.725,0.022
53115.225945,15.906,0.028
53115.237037,15.895,0.028
53117.191015,16.047,0.03
53117.201997,15.949,0.026
53117.212605,15.766,0.023
53117.223589,15.573,0.02
53117.24101,15.501,0.02
53137.15151,15.425,0.024
53137.161075,15.403,0.024
53137.170605,15.453,0.028
53137.180145,15.469,0.03
53137.189647,15.486,0.031
53288.433631,15.428,0.033
53288.444484,15.528,0.035
53288.455213,15.626,0.038
53288.466161,15.816,0.043
53288.476917,15.912,0.045
53293.431134,15.856,0.043
53293.442048,16.028,0.049
53293.452942,15.987,0.045
53293.4639,15.9,0.041
53293.474854,15.731,0.035
53299.442789,15.639,0.035
53299.45446,15.834,0.05
53299.466135,16.012,0.067
53299.489555,15.95,0.07
53328.374334,15.763,0.044
53328.398686,16.06,0.046
53328.423048,15.661,0.03
53331.446586,15.548,0.03
53331.459019,15.453,0.028
53331.500114,15.361,0.026
53348.33399,15.513,0.055
53348.34683,15.397,0.03
53348.359125,15.414,0.031
53348.371427,15.451,0.03
53348.383723,15.471,0.028
53354.322195,15.86,0.03
53354.335538,15.614,0.024
53354.348885,15.504,0.022
53354.367458,15.437,0.02
53354.380868,15.389,0.018
53377.33745,15.786,0.024
53377.35078,15.898,0.028
53377.364088,15.85,0.026
53377.377428,15.645,0.022
53377.390773,15.514,0.02
53382.365996,15.531,0.035
53382.395474,15.406,0.02
53382.409884,15.419,0.022
53382.424285,15.438,0.022
53386.346643,15.445,0.018
53386.359651,15.545,0.02
53386.372676,15.713,0.024
53386.386187,15.936,0.028
53386.399212,15.899,0.028
53389.34777,15.382,0.022
53389.36104,15.444,0.022
53389.374532,15.543,0.024
53389.388277,15.722,0.026
53389.40294,15.913,0.03
53404.299552,15.814,0.02
53404.316684,16.02,0.026
53404.32921,15.958,0.024
53404.341663,15.736,0.02
53404.35471,15.565,0.018
53415.28954,15.628,0.022
53415.301781,15.823,0.028
53415.31453,15.873,0.03
53415.326763,15.855,0.03
53415.339194,15.681,0.024
53433.231318,15.911,0.028
53433.243261,16.026,0.03
53433.256984,15.897,0.026
53433.268446,15.697,0.022
53433.280886,15.529,0.02
53443.324136,15.81,0.028
53443.334805,15.938,0.031
53443.345497,15.89,0.031
53443.356145,15.75,0.03
53443.366809,15.59,0.044
53473.17817,15.89,0.037
53473.187787,15.744,0.031
53473.197573,15.608,0.028
53473.207338,15.547,0.028
53473.217012,15.472,0.026
53500.138414,16.046,0.043
53500.149586,15.949,0.039
53500.15972,15.749,0.033
53500.169831,15.602,0.03
53500.179838,15.53,0.028
53651.425404,15.612,0.035
53651.436311,15.491,0.03
53651.447201,15.462,0.028
53651.458082,15.442,0.026
53651.468983,15.441,0.026
53656.424481,15.38,0.03
53656.435645,15.38,0.028
53656.446688,15.398,0.03
53656.457741,15.447,0.03
53656.468796,15.512,0.031
53673.442699,15.403,0.024
53673.455494,15.35,0.022
53673.467626,15.396,0.024
53673.479792,15.417,0.024
53673.49254,15.5,0.026
53676.445923,15.47,0.03
53676.458049,15.434,0.026
53676.470051,15.384,0.026
53676.482039,15.413,0.024
53676.493989,15.455,0.028
53682.459833,15.469,0.026
53682.472408,15.455,0.024
53682.484809,15.389,0.024
53682.497496,15.415,0.024
53703.393721,15.519,0.02
53703.406604,15.477,0.02
53703.421037,15.402,0.02
53703.434197,15.423,0.018
53703.447449,15.429,0.018
53706.405003,15.525,0.02
53706.418874,15.452,0.02
53706.431673,15.399,0.024
53706.457864,15.394,0.022
53709.376257,15.906,0.03
53709.388959,15.881,0.031
53709.401693,15.717,0.026
53709.414364,15.533,0.022
53709.427327,15.485,0.022
53714.388182,15.559,0.022
53714.401147,15.457,0.02
53714.414106,15.423,0.018
53714.426906,15.385,0.018
53714.439657,15.37,0.017
53733.331773,16.002,0.035
53733.344921,15.883,0.031
53733.357747,15.716,0.026
53733.370402,15.522,0.022
53733.383068,15.477,0.02
53740.338893,15.429,0.018
53740.351849,15.408,0.018
53740.364669,15.465,0.018
53740.377438,15.545,0.02
53740.390284,15.684,0.024
53771.224684,15.46,0.044
53771.237394,15.484,0.035
53771.250054,15.571,0.054
53771.262701,15.67,0.05
53771.275347,15.828,0.033
53786.227042,15.751,0.031
53786.238973,15.576,0.02
53786.250912,15.508,0.018
53786.263019,15.442,0.017
53786.274967,15.405,0.017
53788.349771,15.547,0.018
53788.361952,15.489,0.018
53788.386087,15.397,0.022
53788.398292,15.412,0.02
53794.292836,15.429,0.02
53794.30469,15.573,0.037
53794.316476,15.588,0.022
53813.248791,15.397,0.028
53813.259878,15.404,0.028
53813.271097,15.441,0.03
53813.282161,15.456,0.031
53813.293654,15.607,0.037
53817.280245,15.552,0.026
53817.291083,15.476,0.026
53817.301926,15.455,0.026
53817.312814,15.398,0.026
53817.323901,15.418,0.028
53818.224623,15.429,0.026
53818.235172,15.438,0.024
53818.245714,15.493,0.026
53818.256276,15.508,0.028
53818.266881,15.611,0.03
53823.197466,15.389,0.022
53823.209486,15.431,0.022
53823.222689,15.458,0.024
53823.234574,15.538,0.026
53823.246746,15.688,0.028
53825.225267,15.99,0.039
53825.235639,15.953,0.037
53825.24602,15.788,0.031
53825.256404,15.604,0.028
53825.266788,15.537,0.026
53829.175265,15.66,0.044
53829.196191,15.49,0.037
53829.206328,15.486,0.043
53844.180385,15.616,0.033
53844.190629,15.755,0.037
53844.200901,15.932,0.044
53844.211169,16.016,0.05
53844.221453,15.933,0.048
53848.184411,15.441,0.031
53848.19502,15.372,0.03
53848.205692,15.408,0.031
53848.21636,15.444,0.031
53848.227005,15.447,0.035
53849.190819,15.95,0.041
53849.20161,15.76,0.035
53849.212495,15.634,0.031
53849.223421,15.561,0.031
53849.234533,15.461,0.03
53852.146335,15.436,0.026
53852.156805,15.503,0.03
53852.167315,15.58,0.031
53852.177853,15.766,0.039
53852.188586,15.877,0.044
53853.136855,15.517,0.04
53853.150422,15.494,0.04
53853.161596,15.456,0.04
53853.17245,15.422,0.036
53853.183327,15.395,0.035
53855.147144,15.429,0.028
53855.157451,15.443,0.028
53855.167709,15.475,0.03
53855.178644,15.581,0.033
53855.188983,15.741,0.039
54027.449941,15.436,0.028
54027.461662,15.448,0.03
54027.475783,15.399,0.036
54027.487935,15.39,0.026
54027.49946,15.464,0.03
54029.432247,15.382,0.023
54029.445045,15.45,0.025
54029.457614,15.488,0.025
54029.469467,15.507,0.025
54029.481401,15.668,0.026
54037.43444,15.453,0.023
54037.447249,15.483,0.025
54037.459222,15.564,0.026
54037.471297,15.696,0.028
54037.48393,15.928,0.035
54042.463386,15.954,0.045
54042.475877,15.819,0.03
54042.488453,15.634,0.025
54054.362206,15.906,0.031
54054.373607,15.823,0.03
54054.38498,15.626,0.024
54054.396362,15.509,0.02
54054.407742,15.451,0.02
54055.378964,15.55,0.028
54055.391973,15.692,0.03
54055.404618,15.935,0.035
54055.41239,15.988,0.028
54055.417642,15.937,0.036
54055.424062,15.928,0.026
54055.430196,15.884,0.035
54055.43573,15.716,0.022
54055.447397,15.58,0.02
54055.45907,15.496,0.018
54058.376235,15.463,0.02
54058.38846,15.503,0.02
54058.40072,15.618,0.022
54058.412971,15.869,0.028
54058.425201,15.966,0.03
54061.376995,15.389,0.018
54061.389913,15.473,0.018
54061.402355,15.481,0.018
54061.414794,15.647,0.022
54061.42725,15.895,0.028
54066.392778,15.741,0.026
54066.404971,15.927,0.033
54067.390484,15.388,0.02
54067.403297,15.43,0.021
54067.416169,15.439,0.021
54067.429493,15.553,0.021
54067.442335,15.69,0.025
54070.382965,15.409,0.02
54070.395911,15.391,0.02
54070.409142,15.387,0.018
54070.422204,15.426,0.017
54070.435156,15.481,0.017
54084.331962,15.943,0.046
54084.344982,15.934,0.046
54084.358144,15.715,0.038
54084.371307,15.529,0.031
54084.38452,15.49,0.03
54084.393088,15.434,0.018
54084.411099,15.4,0.018
54084.428225,15.443,0.018
54084.444842,15.473,0.03
54084.46102,15.657,0.03
54087.395945,15.484,0.022
54087.408955,15.423,0.041
54087.421966,15.394,0.031
54087.434978,15.407,0.037
54087.447993,15.441,0.018
54098.322551,15.669,0.028
54098.33416,15.798,0.03
54098.345813,15.88,0.033
54098.357575,15.809,0.028
54110.32669,15.382,0.031
54110.339301,15.394,0.03
54110.351862,15.466,0.031
54110.364448,15.543,0.033
54110.377091,15.699,0.038
54121.271644,15.56,0.02
54121.276861,15.506,0.023
54121.283867,15.475,0.015
54121.28938,15.435,0.023
54121.296094,15.414,0.015
54121.3026,15.385,0.021
54121.30834,15.385,0.015
54121.315477,15.345,0.02
54121.320688,15.353,0.013
54121.328068,15.379,0.02
54124.268772,15.8,0.018
54124.281126,15.599,0.015
54124.293392,15.499,0.013
54124.305652,15.411,0.013
54124.317925,15.366,0.013
54149.273161,15.829,0.03
54149.284957,15.654,0.025
54149.296786,15.49,0.021
54149.308562,15.434,0.021
54149.320351,15.41,0.021
54175.21795,15.478,0.018
54175.228478,15.446,0.017
54175.239124,15.414,0.017
54175.249688,15.411,0.017
54175.260331,15.378,0.017
54206.175661,15.532,0.028
54206.184842,15.616,0.031
54206.194062,15.755,0.035
54206.203252,15.946,0.041
54206.212965,15.882,0.04
54207.175818,15.416,0.024
54207.184973,15.368,0.022
54207.19412,15.395,0.022
54207.203609,15.392,0.024
54207.212781,15.437,0.024
54210.176282,15.433,0.024
54210.185191,15.41,0.024
54210.194099,15.399,0.022
54210.202985,15.379,0.022
54210.211863,15.388,0.022
54388.429677,15.427,0.02
54388.441034,15.434,0.02
54388.452349,15.507,0.02
54388.463724,15.551,0.02
54388.475017,15.712,0.024
54396.436135,15.455,0.018
54396.447886,15.545,0.02
54396.459543,15.71,0.022
54396.471194,15.908,0.026
54396.482858,15.909,0.026
54411.447292,15.396,0.017
54411.45983,15.347,0.015
54411.472194,15.362,0.017
54411.484557,15.379,0.017
54411.496911,15.441,0.017
54422.409937,15.663,0.017
54422.422594,15.528,0.015
54422.435126,15.432,0.013
54422.447673,15.419,0.013
54422.460228,15.384,0.013
54424.331536,15.819,0.03
54424.344117,15.885,0.03
54424.356705,15.749,0.024
54424.369304,15.595,0.018
54424.381872,15.489,0.015
54447.331624,15.363,0.011
54447.344526,15.431,0.013
54447.357427,15.523,0.013
54447.370327,15.729,0.015
54447.383219,15.942,0.018
54454.264825,15.383,0.02
54454.277929,15.45,0.02
54454.291018,15.564,0.022
54454.304103,15.821,0.026
54454.317192,15.959,0.03
54465.461448,15.973,0.024
54465.47435,15.949,0.024
54465.487263,15.75,0.02
54465.50017,15.559,0.017
54465.513083,15.471,0.017
54475.327315,15.383,0.013
54475.340059,15.386,0.013
54475.352788,15.43,0.013
54475.36559,15.484,0.015
54475.378319,15.608,0.017
54495.337543,15.452,0.018
54495.350002,15.408,0.017
54495.362615,15.377,0.017
54495.375074,15.375,0.017
54495.388655,15.379,0.017
54508.233613,15.865,0.017
54508.245771,15.996,0.018
54508.258008,15.966,0.02
54508.270526,15.766,0.024
54508.282813,15.6,0.022
54524.275344,15.435,0.017
54524.286797,15.428,0.018
54524.298234,15.394,0.02
54524.309645,15.41,0.022
54524.321086,15.438,0.017
54537.163036,15.942,0.022
54537.174096,16.016,0.026
54537.185034,15.955,0.035
54537.195959,15.747,0.017
54537.206917,15.578,0.015
54555.186518,15.398,0.013
54555.19819,15.422,0.013
54555.209844,15.486,0.013
54555.221533,15.57,0.015
54555.233287,15.733,0.018
54564.185802,15.459,0.015
54564.197175,15.416,0.013
54564.20846,15.386,0.013
54564.219913,15.408,0.013
54564.231196,15.413,0.015
54574.18161,15.441,0.039
54574.192249,15.513,0.041
54574.202768,15.556,0.044
54574.213388,15.723,0.054
54574.223934,15.966,0.067
54582.143425,15.396,0.02
54582.153946,15.376,0.02
54582.164816,15.408,0.02
54582.175301,15.423,0.022
54582.185804,15.488,0.024
54586.143569,15.941,0.035
54586.1537,15.819,0.035
54586.174057,15.599,0.044
54586.184218,15.481,0.022
54594.151639,15.626,0.028
54594.193182,15.399,0.031
