mjd,m,merr
52620.399553,15.001,0.024
52620.415399,14.9,0.017
52620.431186,14.853,0.017
52620.4463,14.832,0.013
52636.356605,14.919,0.017
52636.370734,14.942,0.017
52636.384907,14.96,0.017
52636.399128,14.964,0.017
52636.413288,14.98,0.017
52637.38441,14.904,0.059
52637.398466,14.803,0.063
52638.214296,15.166,0.017
52638.229449,15.149,0.017
52638.244478,15.047,0.08
52638.274777,15.009,0.015
52638.28945,14.885,0.013
52638.290194,14.909,0.015
52638.304357,14.9,0.015
52638.305862,14.902,0.015
52638.319472,14.856,0.011
52638.33431,14.81,0.011
52638.336099,14.832,0.013
52638.349561,14.796,0.011
52638.351165,14.804,0.013
52638.365561,14.77,0.011
52638.380342,14.797,0.011
52638.395138,14.8,0.013
52638.409923,14.811,0.015
52653.310874,15.055,0.018
52653.326216,15.092,0.02
52653.341589,15.052,0.018
52653.356959,15.099,0.018
52653.372315,15.09,0.018
52660.302486,15.008,0.028
52660.317306,14.996,0.028
52660.332039,14.99,0.028
52695.247154,14.802,0.013
52695.264169,14.829,0.011
52695.279943,14.849,0.011
52695.296377,14.857,0.011
52695.312772,14.866,0.013
52722.197685,15.086,0.013
52722.211875,15.008,0.013
52722.225251,14.935,0.011
52722.238229,14.873,0.011
52722.255652,14.84,0.011
52739.182496,14.846,0.018
52739.193956,14.865,0.018
52739.205437,14.896,0.018
52739.216989,14.914,0.02
52739.228488,14.93,0.022
52751.142335,14.915,0.015
52751.152934,14.941,0.024
52751.163623,14.874,0.05
52751.174251,14.956,0.018
52751.185052,14.948,0.017
52770.147981,14.957,0.026
52770.159608,14.945,0.026
52770.171174,14.986,0.028
52770.182926,15.031,0.03
52770.194685,14.995,0.03
52927.43405,15.101,0.037
52927.445943,15.088,0.033
52927.457491,15.027,0.031
52927.469132,14.961,0.028
52927.480717,14.932,0.028
52967.242867,14.958,0.018
52967.25085,14.931,0.016
52967.259633,14.938,0.018
52967.267649,14.96,0.018
52967.275557,14.981,0.018
52977.388,14.763,0.013
52977.399167,14.751,0.013
52977.410269,14.797,0.013
52977.421591,14.795,0.012
52977.432882,14.785,0.012
52978.381936,14.911,0.017
52978.394748,14.883,0.017
52978.407394,14.833,0.015
52978.420238,14.798,0.015
52978.432986,14.756,0.013
52988.329416,14.861,0.015
52988.342481,14.882,0.015
52988.355459,14.918,0.015
52988.368432,14.93,0.015
52988.381308,14.943,0.015
53006.321973,15.015,0.03
53006.334516,15.046,0.018
53006.347089,15.018,0.021
53006.359642,15.017,0.018
53006.372244,15.038,0.018
53008.375227,14.886,0.017
53038.291147,14.972,0.021
53038.303344,14.947,0.025
53038.315715,14.997,0.021
53038.328055,14.95,0.021
53045.277802,14.955,0.015
53045.290059,15.009,0.016
53045.307572,15.009,0.018
53045.332205,15.005,0.018
53065.220241,14.894,0.015
53065.232087,14.913,0.015
53065.243984,14.918,0.015
53065.255733,14.939,0.015
53065.267257,14.949,0.015
53093.187592,14.761,0.018
53093.197947,14.713,0.02
53093.208522,14.681,0.017
53093.218878,14.687,0.015
53121.144869,14.997,0.017
53121.155633,15.021,0.017
53121.166503,15.023,0.018
53121.17719,14.989,0.018
53121.18791,15.035,0.018
53125.147657,14.991,0.041
53125.157248,14.964,0.04
53134.152481,15.017,0.02
53134.161566,15.044,0.02
53134.17063,15.062,0.02
53134.179904,15.058,0.018
53134.18907,15.134,0.021
53150.158805,14.786,0.017
53150.167585,14.783,0.017
53150.176291,14.831,0.02
53150.193911,14.861,0.046
53281.426189,14.983,0.04
53281.436989,14.948,0.036
53281.447969,14.959,0.035
53281.459065,15.015,0.035
53281.470335,14.979,0.033
53294.416423,14.996,0.017
53294.427453,15.016,0.015
53294.43846,14.996,0.015
53294.449481,15.009,0.015
53294.460489,14.999,0.015
53301.431152,14.971,0.018
53301.442824,14.987,0.018
53301.45455,14.987,0.018
53301.46622,14.971,0.018
53301.477893,14.991,0.018
53312.379832,15.016,0.033
53312.391935,15.021,0.033
53312.403979,14.987,0.033
53312.416034,14.99,0.031
53312.428077,15.022,0.033
53319.402655,15.033,0.017
53319.414747,15.041,0.017
53319.426835,15.046,0.017
53319.438944,15.058,0.018
53319.451035,15.06,0.017
53329.4395,14.805,0.015
53329.451915,14.816,0.015
53329.464741,14.836,0.015
53329.477092,14.831,0.015
53329.489436,14.867,0.015
53349.398906,14.76,0.015
53349.411002,14.783,0.015
53349.424875,14.724,0.015
53349.437457,14.748,0.015
53349.449533,14.769,0.015
53355.486179,14.882,0.015
53355.500479,14.908,0.015
53355.513311,14.916,0.015
53359.329096,14.973,0.016
53359.345191,14.984,0.015
53359.361219,14.988,0.015
53359.377254,15.03,0.015
53359.393357,15.047,0.015
53362.377527,14.814,0.025
53389.419381,14.797,0.013
53389.432367,14.826,0.015
53389.44535,14.767,0.013
53389.458382,14.749,0.013
53389.47138,14.725,0.013
53480.179996,14.911,0.035
53480.189033,14.966,0.039
53480.198028,14.949,0.039
53480.207334,14.919,0.037
53480.216353,15.013,0.039
53490.14773,14.95,0.015
53490.158171,14.884,0.015
53490.168809,14.855,0.015
53686.392088,14.779,0.017
53686.404676,14.808,0.015
53686.417262,14.853,0.013
53686.42989,14.873,0.011
53686.442456,14.897,0.011
53697.405101,14.902,0.024
53697.417852,14.956,0.022
53697.431036,14.948,0.028
53697.445057,14.995,0.022
53697.458196,14.912,0.022
53726.349381,14.753,0.017
53726.363907,14.758,0.013
53726.377379,14.758,0.013
53726.395569,14.777,0.013
53726.409362,14.785,0.015
53756.279799,14.958,0.039
53756.293499,14.973,0.022
53756.306302,14.99,0.048
53756.319538,14.95,0.02
53756.333053,14.963,0.039
53774.286593,15.003,0.022
53774.29906,15.014,0.02
53774.311713,15.038,0.02
53774.324287,15.064,0.022
53774.336884,15.076,0.022
53802.246593,14.817,0.018
53802.258901,14.838,0.018
53802.271221,14.871,0.018
53802.283576,14.858,0.02
53802.295993,14.887,0.021
53828.182637,14.771,0.013
53828.193305,14.758,0.013
53828.203897,14.827,0.016
53828.214547,14.825,0.018
53828.225221,14.853,0.013
53842.185135,14.828,0.015
53842.196871,14.809,0.015
53842.208112,14.769,0.015
53842.21958,14.79,0.018
53842.230967,14.768,0.02
53876.152421,15.076,0.03
53876.163257,15.082,0.028
53876.174341,15.1,0.03
53876.185391,15.106,0.033
53876.196458,15.067,0.064
54051.43007,14.856,0.031
54051.442256,14.842,0.022
54051.45447,14.848,0.018
54072.325631,14.868,0.031
54072.341452,14.85,0.028
54072.355711,14.811,0.026
54072.369358,14.783,0.026
54072.382179,14.797,0.026
54080.357645,15.101,0.02
54080.369664,15.128,0.02
54080.381692,15.107,0.02
54108.330454,14.969,0.023
54108.34277,14.983,0.023
54108.354872,15.0,0.023
54108.367013,14.996,0.023
54108.379151,15.032,0.026
54125.264736,15.08,0.018
54125.27633,15.091,0.018
54125.288736,15.11,0.018
54125.300335,15.135,0.018
54125.311982,15.141,0.02
54140.293918,14.957,0.013
54140.306537,14.944,0.013
54140.31837,14.921,0.013
54140.330354,15.007,0.015
54140.34267,15.037,0.015
54212.175716,14.821,0.023
54212.184167,14.81,0.023
54212.192746,14.841,0.026
54212.20122,14.852,0.026
54212.209801,14.858,0.028
54407.454093,15.091,0.021
54407.466349,15.133,0.021
54407.478555,15.111,0.021
54416.382004,14.857,0.016
54416.393934,14.876,0.016
54416.405829,14.899,0.016
54416.41783,14.906,0.016
54416.429943,14.916,0.018
54470.344504,14.962,0.041
54483.271817,15.146,0.028
54483.283886,15.14,0.026
54483.29615,15.145,0.026
54483.308342,15.137,0.026
54483.32058,15.075,0.025
54497.266886,15.042,0.02
54497.278787,15.045,0.02
54497.290997,15.047,0.021
54497.302881,15.066,0.021
54497.316114,15.094,0.03
54525.226139,14.856,0.021
54525.237948,14.868,0.023
54525.24924,14.876,0.021
54525.260619,14.879,0.021
54525.272461,14.913,0.021
54558.184204,14.766,0.036
54558.195761,14.813,0.031
54558.207416,14.771,0.033
54558.219215,14.785,0.033
54558.230795,14.82,0.036
54570.183272,14.854,0.031
54570.194338,14.866,0.031
54570.206061,14.861,0.031
54570.217084,14.916,0.031
54570.228504,14.925,0.03
54586.143615,15.061,0.028
54586.153667,15.108,0.038
54586.163653,15.086,0.03
54586.173649,15.122,0.033
54586.183705,15.089,0.03
