mjd,m,merr
52636.352632,15.833,0.039
52636.366765,15.772,0.037
52636.38092,15.895,0.041
52636.395132,16.021,0.043
52636.409296,16.249,0.055
52638.3644,16.328,0.044
52638.379173,16.356,0.044
52638.393963,16.139,0.037
52638.408751,15.961,0.033
52693.245568,15.9,0.033
52693.260359,15.931,0.035
52693.274873,16.039,0.036
52693.290765,16.198,0.043
52693.304648,16.355,0.048
52721.179476,16.262,0.046
52721.191707,16.108,0.041
52721.203825,15.983,0.036
52721.215989,15.949,0.033
52721.228202,15.926,0.033
52750.132328,15.994,0.092
52750.143972,15.919,0.045
52750.155787,16.007,0.04
52750.16694,16.045,0.041
52750.178088,16.241,0.051
52771.149007,16.367,0.085
52771.161067,16.318,0.08
52771.172991,16.23,0.078
52771.18508,16.016,0.065
52771.196998,15.904,0.059
52926.449784,16.465,0.109
52926.46144,16.376,0.098
52926.473528,16.188,0.081
52926.485819,16.064,0.07
52926.497419,16.008,0.065
52948.402123,15.948,0.051
52948.414635,16.073,0.054
52948.440153,16.542,0.074
52979.380322,15.861,0.064
52979.391527,15.973,0.084
52979.402749,15.999,0.079
52979.42322,16.409,0.13
53009.352187,16.086,0.058
53009.369241,16.268,0.068
53009.383734,16.13,0.059
53009.398276,15.998,0.053
53009.413916,15.944,0.053
53017.305396,16.375,0.049
53017.321581,16.255,0.046
53017.35476,15.942,0.035
53017.371371,15.864,0.033
53044.278747,16.067,0.051
53044.291262,15.937,0.056
53044.330064,15.93,0.086
53074.225681,16.03,0.043
53074.237122,15.972,0.041
53074.248732,15.902,0.04
53074.26026,15.9,0.04
53074.271745,15.863,0.04
53097.203792,16.007,0.112
53104.196059,15.881,0.033
53104.206846,15.9,0.033
53104.217722,15.933,0.035
53104.228538,15.945,0.035
53104.239417,16.063,0.041
53133.161357,16.493,0.079
53133.17075,16.521,0.074
53133.179859,16.54,0.079
53156.162792,15.944,0.068
53156.171238,15.915,0.068
53156.179615,15.982,0.076
53156.18799,16.004,0.078
53156.196428,16.218,0.096
53263.413918,15.878,0.038
53263.426177,15.865,0.036
53263.438725,15.932,0.036
53263.450744,16.143,0.045
53263.462989,16.279,0.049
53275.476339,16.023,0.061
53280.439148,16.015,0.083
53280.450137,15.902,0.066
53290.417818,16.378,0.07
53290.429005,16.202,0.059
53290.440427,16.027,0.048
53290.451611,15.895,0.041
53290.462802,15.913,0.043
53330.418278,16.068,0.059
53330.433242,15.967,0.043
53330.447447,16.011,0.049
53356.402107,16.37,0.051
53356.415257,16.318,0.046
53356.429358,16.129,0.04
53356.443321,15.963,0.036
53356.45754,15.925,0.035
53358.336915,16.13,0.037
53358.352026,16.362,0.046
53358.364972,16.337,0.046
53358.37832,16.171,0.039
53358.391581,16.022,0.035
53360.350638,15.989,0.041
53360.364492,15.87,0.037
53360.377936,15.901,0.037
53360.392426,15.944,0.037
53360.409527,16.045,0.039
53362.395296,16.544,0.128
53362.409774,16.339,0.133
53390.275812,16.03,0.048
53390.288565,15.918,0.043
53390.302229,15.85,0.039
53390.315099,15.84,0.039
53390.328459,15.91,0.041
53429.221067,15.952,0.035
53429.232372,15.864,0.033
53429.243708,15.862,0.033
53429.254999,15.874,0.035
53429.266303,15.876,0.037
53442.167825,16.083,0.033
53442.178734,16.246,0.039
53442.189654,16.349,0.041
53442.200558,16.322,0.041
53442.224291,16.029,0.031
53452.216863,16.308,0.107
53452.227586,16.241,0.1
53460.176032,16.119,0.039
53460.186362,15.983,0.033
53460.196664,15.941,0.033
53460.207399,15.87,0.031
53460.217908,15.881,0.031
53488.188862,15.93,0.035
53488.198935,15.865,0.033
53488.208954,15.868,0.033
53488.21921,15.884,0.035
53488.23014,15.906,0.037
53637.448434,16.264,0.117
53637.459139,16.191,0.115
53637.470034,16.296,0.107
53687.38188,15.897,0.048
53687.394287,15.946,0.05
53687.40699,16.009,0.052
53687.419457,16.161,0.057
53687.432145,16.333,0.063
53724.332871,15.883,0.046
53724.345827,15.846,0.044
53724.358803,15.956,0.05
53724.371779,16.087,0.067
53775.28857,16.118,0.063
53775.301098,16.298,0.074
53775.313938,16.207,0.067
53775.32293,16.157,0.074
53775.327254,16.002,0.055
53775.336877,15.953,0.054
53775.34076,15.914,0.052
53775.378982,16.029,0.084
53860.149321,15.961,0.069
53860.159588,16.011,0.066
53860.169775,16.12,0.084
53860.179938,16.283,0.079
53860.189992,16.161,0.073
54013.420196,16.166,0.134
54013.434965,15.951,0.089
54013.463019,15.97,0.061
54013.476543,16.032,0.058
54021.430854,16.109,0.096
54021.455108,16.442,0.125
54021.467356,16.424,0.12
54021.479736,16.326,0.111
54050.374045,16.286,0.063
54050.386231,16.125,0.054
54050.398423,15.995,0.054
54050.410633,15.994,0.057
54050.422857,15.94,0.054
54078.333223,16.22,0.07
54078.35955,16.292,0.076
54078.385915,16.042,0.076
54107.35533,16.098,0.097
54107.368311,16.425,0.13
54107.381648,16.649,0.157
54107.407329,15.984,0.089
54126.267114,16.282,0.061
54126.279052,16.072,0.049
54126.314713,16.014,0.083
54139.267829,16.346,0.039
54139.27953,16.291,0.041
54139.291451,16.135,0.055
54139.303201,16.025,0.041
54139.314881,15.948,0.033
54167.233631,16.083,0.072
54167.24478,16.219,0.043
54167.255971,16.407,0.052
54167.267186,16.372,0.055
54419.462058,15.872,0.033
54419.475046,15.882,0.035
54419.487335,15.911,0.035
54419.499705,16.004,0.038
54464.331674,16.193,0.048
54464.344178,16.006,0.041
54464.357073,15.93,0.04
54464.369627,15.891,0.038
54484.268519,15.976,0.059
54484.28132,15.938,0.056
54484.294275,15.912,0.056
54484.306466,15.984,0.058
54484.318764,15.905,0.054
54495.282663,16.378,0.054
54495.294684,16.416,0.059
54495.306822,16.409,0.056
54495.319027,16.2,0.049
54495.331362,16.03,0.043
54523.220075,15.902,0.03
54523.231565,15.937,0.031
54523.243013,15.966,0.031
54523.254451,16.055,0.035
54523.265999,16.187,0.038
54540.216731,16.217,0.056
54540.227729,16.08,0.049
54540.239247,15.975,0.045
54540.250199,15.899,0.041
54540.261011,15.844,0.04
54554.210938,15.828,0.054
54554.222812,15.973,0.038
54554.235739,16.005,0.038
