mjd,m,merr
52610.396071,15.577,0.031
52610.410575,15.587,0.028
52610.425104,15.567,0.035
52610.439631,15.591,0.073
52613.376722,15.252,0.018
52613.39205,15.301,0.018
52613.407375,15.316,0.018
52613.42293,15.381,0.018
52613.43823,15.42,0.02
52618.381927,15.64,0.087
52618.397358,15.697,0.089
52618.41305,15.576,0.026
52618.428699,15.546,0.03
52618.444061,15.477,0.03
52639.393139,15.262,0.02
52639.408312,15.282,0.02
52639.423524,15.361,0.021
52639.438486,15.373,0.021
52639.454314,15.461,0.023
52643.371385,15.567,0.022
52643.385659,15.572,0.022
52643.399806,15.565,0.024
52643.414114,15.504,0.024
52643.428242,15.463,0.022
52647.385538,15.293,0.018
52647.400611,15.304,0.02
52647.414949,15.335,0.02
52647.429392,15.419,0.022
52647.443786,15.437,0.024
52666.310321,15.416,0.02
52666.325689,15.354,0.018
52666.341031,15.303,0.018
52667.309817,15.624,0.024
52667.325139,15.595,0.024
52667.340526,15.593,0.024
52667.35602,15.532,0.022
52667.371243,15.487,0.022
52670.322843,15.464,0.022
52670.328256,15.351,0.02
52670.336828,15.442,0.024
52670.342231,15.462,0.022
52670.350804,15.469,0.024
52670.356202,15.466,0.024
52670.364797,15.542,0.028
52670.370221,15.481,0.026
52670.378812,15.511,0.026
52670.384227,15.53,0.026
52673.227344,15.676,0.033
52673.242858,15.639,0.031
52673.258458,15.666,0.031
52673.273944,15.528,0.028
52673.289497,15.505,0.026
52697.268355,15.278,0.03
52703.24303,15.266,0.017
52703.256457,15.265,0.043
52703.27033,15.254,0.046
52703.283907,15.382,0.02
52703.297222,15.422,0.02
52704.235582,15.245,0.017
52704.248892,15.256,0.017
52704.26223,15.261,0.017
52704.275497,15.256,0.017
52704.281505,15.267,0.021
52704.288876,15.295,0.018
52704.294591,15.327,0.025
52704.320971,15.382,0.025
52704.333984,15.371,0.026
52706.23787,15.385,0.018
52706.251138,15.341,0.018
52706.26434,15.313,0.018
52706.277281,15.283,0.017
52706.290494,15.267,0.017
52724.179595,15.585,0.028
52724.192206,15.586,0.03
52724.204972,15.589,0.028
52724.217168,15.598,0.028
52724.229272,15.544,0.026
52730.17825,15.393,0.02
52730.190617,15.324,0.018
52730.202256,15.293,0.017
52730.214383,15.289,0.017
52730.225917,15.258,0.017
52733.188932,15.538,0.024
52733.201058,15.543,0.024
52733.21321,15.547,0.024
52733.225487,15.564,0.024
52733.237625,15.592,0.026
52753.139578,15.231,0.023
52753.152136,15.226,0.025
52753.164511,15.203,0.023
52753.177091,15.225,0.025
52753.189486,15.235,0.026
52758.144001,15.448,0.022
52758.155994,15.502,0.022
52758.168015,15.479,0.022
52758.180087,15.526,0.024
52758.192253,15.529,0.024
52936.449643,15.416,0.018
52936.46237,15.44,0.018
52936.474389,15.47,0.018
52936.486309,15.488,0.018
52936.498189,15.498,0.018
52941.39725,15.477,0.022
52941.410002,15.53,0.022
52941.422464,15.492,0.02
52941.434966,15.409,0.018
52941.44733,15.45,0.017
52945.433555,15.338,0.024
52945.445525,15.356,0.024
52945.457521,15.366,0.024
52945.46947,15.417,0.024
52945.481386,15.435,0.024
52964.454023,15.203,0.013
52964.466844,15.221,0.015
52964.480149,15.214,0.015
52964.493223,15.247,0.013
52964.50954,15.276,0.015
52966.401442,15.619,0.024
52966.414178,15.585,0.022
52966.426969,15.507,0.02
52966.439671,15.46,0.02
52966.452381,15.369,0.018
52974.395407,15.525,0.021
52974.40706,15.547,0.021
52974.446604,15.465,0.02
52992.411985,15.588,0.023
52992.424756,15.518,0.02
52992.437782,15.524,0.018
52992.45049,15.45,0.016
52995.343058,15.234,0.011
52995.356054,15.232,0.011
52995.369285,15.257,0.011
52995.382332,15.286,0.011
52995.395341,15.325,0.011
53000.350522,15.543,0.015
53000.364782,15.555,0.015
53000.378506,15.548,0.015
53000.391631,15.563,0.015
53000.404794,15.549,0.015
53026.294838,15.343,0.011
53026.307728,15.386,0.013
53026.320735,15.411,0.013
53026.333495,15.461,0.013
53026.346522,15.5,0.013
53029.342093,15.248,0.022
53034.274687,15.43,0.023
53034.325272,15.542,0.026
53051.270983,15.364,0.017
53051.282659,15.43,0.017
53051.29439,15.427,0.017
53051.306066,15.513,0.017
53051.317762,15.495,0.017
53058.221746,15.406,0.011
53058.233254,15.418,0.013
53058.244642,15.46,0.013
53058.256035,15.479,0.013
53058.26743,15.526,0.013
53078.261392,15.247,0.026
53078.272646,15.247,0.02
53078.283631,15.254,0.02
53078.294769,15.239,0.02
53078.305655,15.27,0.02
53083.227957,15.448,0.015
53083.238845,15.466,0.015
53083.249684,15.51,0.015
53083.260452,15.539,0.015
53083.271163,15.555,0.015
53086.23262,15.159,0.035
53086.243697,15.154,0.052
53086.255101,15.197,0.031
53086.266397,15.241,0.03
53086.277751,15.256,0.022
53092.226816,15.391,0.022
53092.237161,15.448,0.022
53092.247875,15.518,0.026
53092.258278,15.44,0.024
53092.26857,15.481,0.024
53109.182296,15.307,0.023
53109.192615,15.312,0.023
53109.203054,15.321,0.023
53109.213503,15.433,0.025
53109.22376,15.395,0.025
53114.191431,15.541,0.018
53114.202544,15.554,0.018
53114.213812,15.548,0.018
53114.224875,15.461,0.017
53114.235939,15.432,0.017
53117.192535,15.227,0.015
53117.203268,15.3,0.017
53117.214279,15.372,0.017
53117.224981,15.461,0.018
53117.235828,15.482,0.018
53137.151527,15.431,0.028
53137.161365,15.381,0.026
53137.171373,15.286,0.026
53137.181361,15.285,0.03
53137.193102,15.28,0.031
53142.155985,15.314,0.02
53142.166373,15.302,0.02
53142.176639,15.334,0.022
53142.18706,15.349,0.02
53142.196969,15.421,0.024
53292.404765,15.34,0.035
53292.414327,15.366,0.033
53292.423888,15.431,0.033
53292.433456,15.485,0.033
53292.443026,15.512,0.033
53297.411051,15.581,0.041
53297.420799,15.542,0.037
53297.430548,15.51,0.035
53297.440294,15.399,0.031
53297.450032,15.357,0.03
53316.4406,15.522,0.043
53316.464802,15.552,0.041
53316.4769,15.532,0.054
53327.372339,15.204,0.026
53327.384739,15.248,0.024
53327.397137,15.279,0.028
53327.409524,15.277,0.024
53327.421962,15.303,0.024
53347.46321,15.222,0.017
53347.480097,15.201,0.017
53347.494581,15.224,0.017
53347.513258,15.235,0.017
53353.335684,15.279,0.018
53353.348677,15.258,0.018
53353.36219,15.243,0.018
53353.375187,15.212,0.017
53353.388177,15.198,0.018
53357.460911,15.317,0.026
53357.475454,15.246,0.025
53357.490038,15.242,0.026
53357.504554,15.221,0.025
53376.353678,15.356,0.018
53376.366962,15.391,0.018
53376.382003,15.416,0.02
53376.395243,15.473,0.02
53376.408536,15.508,0.02
53381.351671,15.546,0.022
53381.364987,15.506,0.026
53381.378836,15.502,0.035
53381.392269,15.381,0.024
53381.406939,15.341,0.024
53385.353466,15.291,0.018
53385.366774,15.32,0.018
53385.380764,15.373,0.02
53385.393974,15.401,0.02
53385.40725,15.408,0.022
53387.411958,15.241,0.018
53387.425387,15.243,0.018
53387.438655,15.296,0.02
53387.452557,15.333,0.02
53387.465879,15.37,0.022
53403.286769,15.275,0.015
53403.29958,15.273,0.015
53403.312429,15.261,0.015
53403.325125,15.245,0.015
53405.222459,15.543,0.021
53405.222584,15.537,0.02
53405.234393,15.512,0.02
53405.234518,15.573,0.021
53405.246364,15.564,0.02
53405.246489,15.547,0.02
53405.258362,15.588,0.02
53405.270723,15.614,0.02
53405.270848,15.58,0.02
53410.283025,15.196,0.037
53410.295636,15.207,0.024
53410.308966,15.246,0.017
53410.322829,15.296,0.018
53410.336456,15.308,0.015
53432.279612,15.513,0.041
53432.29402,15.506,0.043
53432.333882,15.602,0.067
53464.235609,15.561,0.024
53464.246033,15.567,0.024
53464.256441,15.564,0.024
53464.267274,15.585,0.026
53464.277886,15.546,0.026
53495.149401,15.565,0.03
53495.159536,15.518,0.03
53495.169704,15.532,0.03
53495.179883,15.507,0.03
53495.189993,15.417,0.037
53501.139595,15.3,0.026
53501.150771,15.279,0.026
53501.161137,15.281,0.026
53501.172677,15.259,0.026
53501.183391,15.248,0.026
53655.423473,15.602,0.041
53655.434505,15.524,0.037
53655.445971,15.563,0.037
53655.456998,15.543,0.035
53655.468021,15.515,0.035
53672.457,15.521,0.03
53672.470249,15.51,0.03
53672.483899,15.406,0.028
53672.498227,15.352,0.026
53675.443091,15.391,0.022
53675.455272,15.425,0.024
53675.467298,15.473,0.024
53675.479728,15.51,0.024
53675.492574,15.503,0.026
53681.460009,15.571,0.043
53681.475539,15.554,0.033
53681.488965,15.501,0.022
53681.502555,15.454,0.022
53705.395167,15.581,0.026
53705.408482,15.532,0.026
53705.421585,15.531,0.024
53705.434695,15.459,0.024
53705.447553,15.356,0.022
53708.393025,15.367,0.018
53708.406264,15.401,0.02
53708.419383,15.47,0.02
53708.432477,15.499,0.02
53708.445355,15.512,0.022
53713.413733,15.474,0.035
53713.426762,15.388,0.037
53713.440039,15.247,0.03
53713.452975,15.268,0.028
53732.350698,15.481,0.03
53732.363414,15.464,0.024
53732.381419,15.534,0.028
53732.395919,15.537,0.035
53732.408782,15.528,0.03
53735.399738,15.216,0.031
53735.412981,15.286,0.02
53739.348826,15.536,0.03
53739.362144,15.583,0.037
53739.375377,15.598,0.087
53759.35397,15.264,0.018
53759.366744,15.292,0.02
53759.379446,15.31,0.02
53759.39211,15.367,0.02
53762.345014,15.388,0.02
53762.357873,15.344,0.018
53762.370545,15.301,0.017
53762.383666,15.289,0.017
53762.396671,15.264,0.017
53770.222741,15.53,0.024
53770.235813,15.562,0.024
53770.248812,15.544,0.022
53770.261975,15.555,0.022
53770.275005,15.559,0.022
53787.243067,15.552,0.02
53788.349237,15.498,0.02
53788.361417,15.42,0.02
53788.385546,15.318,0.02
53788.39773,15.302,0.02
53790.27996,15.407,0.022
53790.291702,15.431,0.022
53790.303499,15.441,0.024
53790.315251,15.493,0.024
53790.326995,15.513,0.024
53793.296018,15.216,0.028
53799.227879,15.239,0.02
53799.239357,15.213,0.02
53799.251066,15.247,0.02
53799.262529,15.291,0.018
53799.274279,15.31,0.018
53813.249405,15.539,0.033
53813.260494,15.547,0.033
53813.271717,15.57,0.035
53813.282781,15.563,0.037
53813.294268,15.574,0.039
53817.281185,15.226,0.02
53817.292025,15.271,0.022
53817.302874,15.275,0.024
53817.313923,15.288,0.026
53817.324849,15.33,0.028
53819.231061,15.498,0.028
53819.241805,15.394,0.024
53819.252545,15.327,0.022
53819.263519,15.307,0.022
53819.275052,15.303,0.022
53827.238934,15.322,0.022
53827.249922,15.318,0.022
53827.260808,15.274,0.022
53827.271618,15.292,0.024
53827.282202,15.209,0.022
53844.183141,15.567,0.031
53844.194556,15.531,0.03
53844.205694,15.532,0.031
53844.216895,15.456,0.028
53848.184877,15.272,0.028
53848.195485,15.303,0.03
53848.206156,15.349,0.03
53848.216826,15.36,0.031
53848.227472,15.424,0.035
53850.214953,15.251,0.022
53850.225576,15.23,0.024
53850.236258,15.219,0.031
53850.247149,15.222,0.024
53850.258162,15.261,0.026
53853.137549,15.738,0.051
53853.150914,15.659,0.048
53853.162083,15.766,0.054
53853.185813,15.559,0.033
53853.196429,15.524,0.031
53853.207838,15.545,0.033
53853.218239,15.549,0.035
53853.22866,15.501,0.035
54031.432771,15.521,0.031
54031.444951,15.549,0.03
54031.457277,15.531,0.03
54031.469143,15.576,0.03
54031.481105,15.592,0.03
54036.430254,15.393,0.03
54036.443634,15.338,0.028
54036.456763,15.313,0.025
54036.469033,15.32,0.023
54036.480893,15.303,0.023
54042.46397,15.287,0.025
54042.476592,15.297,0.021
54042.489063,15.374,0.02
54056.380653,15.391,0.026
54056.394662,15.419,0.028
54056.408824,15.496,0.028
54056.422073,15.534,0.028
54056.434636,15.509,0.028
54057.449604,15.47,0.02
54057.46235,15.5,0.02
54057.474833,15.532,0.02
54057.487321,15.558,0.02
54057.499804,15.557,0.02
54060.374483,15.335,0.018
54060.386911,15.32,0.018
54060.399346,15.299,0.018
54060.411794,15.276,0.017
54060.424247,15.248,0.017
54066.386127,15.244,0.036
54068.389793,15.257,0.017
54068.402835,15.274,0.017
54068.415884,15.251,0.017
54068.428941,15.232,0.015
54068.442001,15.261,0.017
54083.40039,15.287,0.02
54083.41358,15.321,0.02
54083.426774,15.357,0.02
54083.439966,15.402,0.026
54083.453166,15.419,0.055
54084.332539,15.311,0.028
54084.345559,15.26,0.028
54084.358721,15.217,0.025
54084.371885,15.266,0.025
54084.385099,15.202,0.025
54086.358312,15.498,0.026
54086.371823,15.437,0.022
54086.384752,15.363,0.022
54086.397689,15.296,0.018
54086.410631,15.327,0.02
54091.313159,15.25,0.015
54091.325822,15.248,0.015
54091.338635,15.231,0.015
54091.351405,15.26,0.015
54091.364418,15.298,0.015
54098.323084,15.292,0.022
54098.334693,15.33,0.02
54098.346346,15.376,0.022
54098.358108,15.386,0.022
54110.32727,15.368,0.031
54110.339877,15.331,0.03
54110.352455,15.28,0.028
54110.365021,15.249,0.026
54110.37767,15.274,0.028
54113.32446,15.515,0.046
54113.350273,15.53,0.036
54115.345158,15.378,0.025
54115.358257,15.403,0.025
54115.371265,15.437,0.025
54115.384139,15.5,0.026
54115.397061,15.504,0.028
54121.27221,15.445,0.022
54121.284431,15.48,0.018
54121.296662,15.52,0.018
54121.308907,15.54,0.018
54121.321252,15.562,0.018
54123.279611,15.211,0.021
54123.292081,15.309,0.023
54123.304627,15.294,0.021
54123.317236,15.344,0.025
54123.329722,15.389,0.025
54144.303331,15.448,0.017
54144.314448,15.388,0.017
54144.325556,15.332,0.017
54144.336755,15.292,0.015
54144.347856,15.277,0.015
54148.277594,15.273,0.02
54148.289739,15.331,0.021
54148.301428,15.352,0.021
54148.313204,15.385,0.023
54148.324895,15.443,0.023
54154.221099,15.441,0.017
54154.232653,15.445,0.017
54154.2441,15.49,0.018
54154.255538,15.529,0.018
54154.266976,15.533,0.018
54173.214965,15.223,0.015
54173.225612,15.241,0.015
54173.236291,15.238,0.015
54173.246967,15.277,0.015
54176.2198,15.479,0.018
54176.230559,15.417,0.018
54176.24143,15.37,0.017
54176.251978,15.338,0.017
54176.263031,15.338,0.017
54179.232255,15.5,0.018
54179.243389,15.517,0.018
54179.254709,15.536,0.02
54179.266022,15.536,0.02
54205.175723,15.325,0.025
54205.185018,15.344,0.026
54205.194446,15.342,0.026
54205.2039,15.387,0.028
54205.213243,15.453,0.03
54206.177557,15.211,0.017
54206.186654,15.222,0.017
54206.195669,15.233,0.017
54206.204802,15.276,0.018
54206.213851,15.289,0.018
54209.172784,15.51,0.022
54209.181774,15.47,0.024
54209.190759,15.306,0.063
54209.199764,15.345,0.03
54209.208761,15.33,0.028
54387.430361,15.526,0.024
54387.441635,15.566,0.024
54387.452913,15.556,0.022
54387.464195,15.591,0.022
54387.475587,15.603,0.022
54395.436856,15.561,0.022
54395.448753,15.591,0.024
54395.460776,15.584,0.022
54395.472606,15.551,0.022
54395.484422,15.537,0.02
54410.434597,15.396,0.03
54410.446934,15.351,0.031
54410.459126,15.296,0.035
54410.471331,15.245,0.035
54410.483615,15.282,0.018
54419.446525,15.454,0.015
54419.459366,15.392,0.013
54419.472102,15.321,0.013
54419.48484,15.297,0.011
54419.49759,15.275,0.013
54440.406148,15.269,0.011
54440.419061,15.307,0.011
54440.43214,15.325,0.011
54440.445214,15.385,0.013
54440.458138,15.42,0.013
54444.383355,15.56,0.02
54444.396388,15.574,0.017
54444.409383,15.54,0.02
54448.382458,15.252,0.013
54448.395505,15.296,0.013
54448.40864,15.339,0.013
54448.421667,15.356,0.011
54448.434687,15.41,0.011
54464.456324,15.548,0.018
54464.469375,15.547,0.018
54464.482443,15.552,0.018
54464.495508,15.571,0.018
54464.508575,15.58,0.02
54474.330243,15.21,0.041
54474.35637,15.185,0.033
54474.369342,15.255,0.022
54474.382321,15.182,0.022
54508.234206,15.578,0.013
54508.246365,15.546,0.013
54508.2586,15.495,0.015
54508.271117,15.445,0.018
54508.283404,15.356,0.018
54523.28115,15.226,0.011
54523.2929,15.225,0.011
54523.316079,15.255,0.013
54523.327837,15.262,0.013
54530.225559,15.254,0.018
54530.236921,15.22,0.018
54530.248305,15.255,0.046
54530.259684,15.252,0.026
54530.27122,15.265,0.026
54537.163612,15.228,0.013
54537.174674,15.242,0.013
54537.185611,15.232,0.022
54537.196552,15.246,0.011
54537.207494,15.261,0.011
54554.238247,15.332,0.015
54554.250151,15.38,0.013
54554.262087,15.427,0.013
54554.274204,15.452,0.013
54554.286116,15.484,0.015
54563.18816,15.234,0.011
54563.199634,15.248,0.013
54563.211212,15.254,0.013
54563.222788,15.253,0.013
54563.234278,15.301,0.013
54585.229787,15.565,0.043
54592.142099,15.556,0.022
54592.15252,15.554,0.022
54592.162936,15.596,0.024
54592.173373,15.555,0.024
54592.183798,15.54,0.024
