mjd,m,merr
52610.390756,15.489,0.026
52610.405889,15.393,0.026
52610.421051,15.364,0.022
52610.436227,15.389,0.054
52610.45134,15.458,0.083
52614.441448,15.648,0.046
52614.456867,15.435,0.037
52614.472274,15.356,0.035
52614.487699,15.363,0.022
52614.502846,15.344,0.02
52619.385104,15.904,0.031
52619.400353,15.931,0.033
52619.41558,15.502,0.024
52619.431023,15.418,0.022
52619.446334,15.371,0.02
52639.306192,15.366,0.018
52639.320933,15.367,0.018
52639.335684,15.423,0.018
52639.350388,15.591,0.022
52639.365099,16.04,0.033
52644.376268,15.395,0.017
52644.399617,15.402,0.017
52644.435157,15.82,0.026
52644.450183,16.019,0.03
52644.465097,15.551,0.02
52648.256194,15.477,0.022
52648.270924,15.822,0.03
52648.285782,16.112,0.039
52648.300817,15.577,0.024
52648.315516,15.434,0.022
52671.314214,15.82,0.028
52671.329335,15.453,0.02
52671.344493,15.401,0.018
52671.359715,15.334,0.018
52671.37502,15.39,0.018
52674.318148,15.375,0.018
52674.334708,15.574,0.024
52674.349283,16.063,0.035
52674.363587,15.689,0.026
52674.377614,15.455,0.022
52677.247394,15.407,0.022
52677.261859,15.462,0.02
52677.276345,15.851,0.028
52677.290743,15.932,0.031
52677.305242,15.565,0.022
52697.262479,16.19,0.091
52697.275671,15.642,0.035
52704.23941,15.583,0.02
52704.252726,16.026,0.031
52704.266054,15.925,0.028
52704.279394,15.543,0.02
52704.292702,15.404,0.018
52706.18132,15.988,0.04
52706.194967,15.565,0.026
52706.208251,15.429,0.025
52706.221876,15.38,0.023
52706.235388,15.406,0.021
52706.249329,15.42,0.025
52706.276248,15.706,0.031
52706.290343,16.212,0.048
52724.183005,15.338,0.018
52724.194649,15.363,0.018
52724.206301,15.428,0.02
52724.217963,15.545,0.022
52724.229819,15.925,0.031
52728.172753,15.749,0.026
52728.185154,16.222,0.039
52728.197052,15.764,0.026
52728.208912,15.52,0.022
52728.220854,15.427,0.02
52731.17938,15.345,0.026
52731.191481,15.296,0.068
52731.227751,16.029,0.154
52753.134315,15.933,0.031
52753.146198,15.585,0.024
52753.15809,15.448,0.022
52753.16998,15.433,0.022
52753.181879,15.377,0.022
52760.142348,15.628,0.024
52760.154157,15.45,0.022
52760.165943,15.401,0.022
52760.177824,15.407,0.022
52760.18967,15.406,0.022
52945.443027,15.866,0.04
52945.455168,15.54,0.03
52945.467287,15.459,0.028
52945.479507,15.407,0.025
52945.49169,15.38,0.025
52963.457268,15.426,0.017
52963.470218,15.522,0.018
52963.482657,15.918,0.024
52963.495149,15.911,0.024
52963.507769,15.603,0.018
52967.380193,15.374,0.02
52967.392721,15.39,0.018
52967.405176,15.447,0.02
52967.417684,15.545,0.022
52967.430188,15.909,0.028
52991.352834,15.876,0.022
52991.365889,16.079,0.026
52991.37885,15.671,0.02
52991.391815,15.467,0.02
52991.404851,15.398,0.017
52996.337249,15.881,0.02
52996.35059,15.57,0.017
52996.363702,15.488,0.015
52996.376531,15.481,0.015
52996.389665,15.465,0.013
53001.339184,15.427,0.013
53001.352311,15.4,0.013
53001.365528,15.415,0.013
53001.378862,15.453,0.013
53001.39182,15.693,0.017
53024.280216,15.414,0.033
53024.293095,15.523,0.013
53024.305928,15.914,0.018
53024.318652,16.063,0.076
53034.279975,15.415,0.02
53034.292599,15.35,0.018
53034.305271,15.337,0.018
53034.317787,15.374,0.018
53034.330179,15.422,0.02
53050.220725,15.387,0.015
53050.232488,15.393,0.015
53050.244256,15.469,0.017
53050.255962,15.645,0.018
53050.267646,16.09,0.028
53078.225654,15.377,0.022
53078.236388,15.459,0.02
53078.247086,15.76,0.067
53078.257776,16.162,0.067
53078.268437,15.871,0.028
53084.224651,15.582,0.015
53084.235345,15.923,0.02
53084.246498,15.973,0.02
53084.257352,15.627,0.015
53084.2683,15.474,0.013
53086.238704,15.443,0.041
53086.250006,15.395,0.056
53086.261548,15.773,0.049
53086.273396,16.106,0.049
53086.284488,15.765,0.03
53109.184444,16.126,0.037
53109.195145,15.757,0.026
53109.205847,15.517,0.022
53109.216535,15.438,0.02
53109.227328,15.398,0.02
53115.192703,15.481,0.017
53115.203871,15.422,0.017
53115.215205,15.407,0.017
53115.226295,15.402,0.017
53115.237387,15.423,0.017
53117.191352,15.914,0.025
53117.20232,16.027,0.028
53117.212928,15.663,0.02
53117.2281,15.451,0.018
53117.241333,15.407,0.018
53137.152192,15.456,0.026
53137.161756,15.713,0.031
53137.171286,16.081,0.044
53137.180828,15.956,0.044
53137.190328,15.654,0.035
53299.443535,15.558,0.033
53299.455207,15.871,0.048
53299.466881,15.559,0.048
53299.478624,15.148,0.037
53299.490302,15.18,0.031
53328.375011,15.449,0.031
53328.399364,15.393,0.026
53328.423726,15.391,0.024
53331.446783,15.431,0.026
53331.459204,15.409,0.026
53331.484157,15.513,0.03
53331.5003,15.96,0.045
53348.347362,15.513,0.041
53348.359655,15.439,0.035
53348.371958,15.386,0.024
53348.384254,15.326,0.024
53354.322742,15.548,0.024
53354.336086,15.428,0.02
53354.34943,15.421,0.02
53354.368004,15.365,0.02
53354.381413,15.393,0.02
53377.338001,15.673,0.022
53377.351331,15.402,0.018
53377.364641,15.432,0.018
53377.37798,15.364,0.018
53377.391325,15.351,0.017
53382.395902,15.902,0.031
53382.410293,15.922,0.033
53382.424696,15.515,0.024
53386.347286,15.984,0.03
53386.360294,15.868,0.028
53386.37332,15.488,0.02
53386.386831,15.394,0.018
53386.399855,15.371,0.018
53387.348642,15.529,0.022
53387.362307,15.961,0.03
53387.375784,15.867,0.03
53387.389289,15.533,0.022
53387.402233,15.444,0.022
53389.348454,15.353,0.022
53389.361649,15.387,0.022
53389.375139,15.385,0.022
53389.388885,15.723,0.03
53389.404677,15.918,0.033
53404.299926,15.997,0.026
53404.31705,15.511,0.017
53404.329577,15.453,0.017
53404.342029,15.391,0.015
53404.355078,15.345,0.015
53415.289906,15.405,0.018
53415.302149,15.361,0.018
53415.314895,15.359,0.018
53415.327132,15.448,0.02
53415.339561,15.595,0.022
53433.231674,15.432,0.018
53433.243618,15.384,0.017
53433.25734,15.376,0.017
53433.268804,15.42,0.018
53433.281244,15.555,0.02
53443.324384,15.511,0.02
53443.335052,15.813,0.028
53443.345742,16.114,0.037
53443.356392,15.755,0.03
53443.367055,15.532,0.037
53473.178369,15.397,0.024
53473.187987,15.367,0.022
53473.197773,15.34,0.022
53473.207536,15.351,0.022
53473.217209,15.404,0.024
53500.139113,15.485,0.026
53500.150322,15.457,0.024
53500.160418,15.391,0.024
53500.170532,15.379,0.024
53500.180569,15.383,0.024
53673.442955,15.545,0.028
53673.455749,15.981,0.041
53673.467881,15.906,0.037
53673.480048,15.559,0.026
53673.492797,15.436,0.022
53676.446177,15.371,0.028
53676.458301,15.358,0.024
53676.470303,15.402,0.026
53676.48229,15.454,0.026
53676.494241,15.738,0.035
53682.460706,15.417,0.024
53682.473279,15.606,0.03
53682.48568,16.117,0.052
53682.498365,15.816,0.033
53703.393862,15.47,0.02
53703.406745,15.403,0.02
53703.421179,15.363,0.02
53703.434339,15.411,0.02
53703.44759,15.415,0.018
53706.405396,15.983,0.031
53706.419267,15.935,0.031
53706.432065,15.511,0.024
53706.444988,15.494,0.078
53706.458256,15.335,0.028
53709.376676,15.436,0.02
53709.389354,15.387,0.02
53709.402087,15.367,0.02
53709.414758,15.363,0.02
53709.427722,15.438,0.02
53714.388909,15.367,0.018
53714.401866,15.459,0.02
53714.414828,15.801,0.028
53714.427628,15.925,0.03
53714.44038,15.577,0.02
53733.332168,15.363,0.02
53733.345315,15.426,0.02
53733.358141,15.492,0.022
53733.370796,15.771,0.028
53733.383463,16.046,0.035
53740.339611,15.415,0.018
53740.352568,15.465,0.018
53740.365387,15.685,0.024
53740.378154,16.023,0.031
53740.391003,15.655,0.024
53771.224961,15.409,0.041
53771.237672,15.374,0.028
53771.250334,15.352,0.046
53771.262982,15.39,0.044
53771.275627,15.473,0.026
53786.227902,15.428,0.02
53786.239836,15.415,0.017
53786.251775,15.368,0.017
53786.263879,15.37,0.017
53786.275825,15.406,0.017
53788.350171,15.81,0.028
53788.362353,15.516,0.022
53788.386491,15.375,0.024
53788.398695,15.403,0.022
53794.293488,15.434,0.022
53794.305345,15.619,0.048
53794.317127,15.986,0.031
53794.329236,15.881,0.083
53813.248912,15.424,0.028
53813.260001,15.483,0.03
53813.271222,15.716,0.037
53813.282286,16.078,0.052
53813.293776,15.732,0.041
53817.281653,15.349,0.022
53817.292496,15.387,0.024
53817.303343,15.436,0.026
53817.314399,15.399,0.026
53817.325331,15.533,0.03
53818.224987,15.479,0.026
53818.235537,15.717,0.031
53818.246078,16.061,0.043
53818.256644,15.879,0.037
53818.267248,15.594,0.03
53823.197828,15.6,0.026
53823.209846,15.948,0.035
53823.223055,15.858,0.033
53823.234934,15.576,0.024
53823.247109,15.436,0.022
53825.225619,15.51,0.026
53825.23599,15.784,0.031
53825.246369,16.097,0.039
53825.256753,15.771,0.031
53825.267136,15.517,0.026
53829.175639,15.578,0.039
53829.18643,15.822,0.061
53829.196568,16.238,0.068
53829.206706,15.851,0.054
53829.216883,15.619,0.052
53844.180493,15.43,0.026
53844.190734,15.607,0.031
53844.201006,15.875,0.041
53844.211278,15.963,0.044
53844.22156,15.699,0.035
53848.185189,15.516,0.033
53848.195799,15.417,0.03
53848.206467,15.393,0.03
53848.217139,15.365,0.031
53848.227786,15.373,0.031
53849.191482,15.581,0.03
53849.202273,15.48,0.026
53849.213156,15.457,0.028
53849.224088,15.394,0.026
53849.235203,15.416,0.026
53852.146662,15.395,0.026
53852.157133,15.404,0.026
53852.167645,15.362,0.026
53852.178181,15.418,0.028
53852.188917,15.409,0.028
53853.136945,15.782,0.049
53853.172542,15.433,0.036
53853.18342,15.395,0.035
53855.147456,15.869,0.039
53855.157762,16.089,0.048
53855.168037,15.734,0.037
53855.178962,15.479,0.03
53855.189297,15.453,0.028
53858.142147,15.436,0.039
53858.172945,15.559,0.078
54027.450319,15.396,0.028
54027.462037,15.451,0.03
54027.476157,15.737,0.053
54027.488311,16.053,0.049
54027.499835,15.636,0.035
54029.432937,15.451,0.03
54029.445731,15.379,0.028
54029.458301,15.356,0.026
54029.470155,15.389,0.028
54029.482089,15.411,0.026
54037.434818,15.555,0.028
54037.447633,15.429,0.025
54037.459599,15.378,0.023
54037.471674,15.397,0.023
54037.484308,15.415,0.023
54042.438081,15.474,0.054
54042.451016,15.4,0.051
54042.47609,15.55,0.043
54042.488565,15.975,0.063
54054.362578,15.508,0.024
54054.373981,15.407,0.022
54054.385352,15.404,0.022
54054.396738,15.359,0.022
54054.408115,15.384,0.022
54055.379831,15.468,0.028
54055.392839,15.377,0.023
54055.405484,15.393,0.023
54055.412772,15.379,0.018
54055.418505,15.372,0.023
54055.424444,15.394,0.018
54055.431062,15.395,0.023
54055.436112,15.417,0.02
54055.447779,15.469,0.022
54055.459453,15.735,0.026
54058.37662,15.421,0.02
54058.388846,15.56,0.022
54058.401105,15.89,0.03
54058.413357,15.763,0.028
54058.425586,15.479,0.02
54061.377386,15.436,0.02
54061.390303,15.402,0.018
54061.402745,15.392,0.018
54061.415182,15.373,0.018
54061.42764,15.437,0.018
54066.393178,15.403,0.052
54066.40537,15.737,0.026
54067.391372,15.409,0.021
54067.40418,15.392,0.021
54067.417051,15.589,0.025
54067.430377,16.049,0.035
54067.443218,15.738,0.026
54070.383107,15.593,0.026
54070.396053,15.471,0.022
54070.409284,15.429,0.02
54070.422346,15.397,0.018
54070.435297,15.395,0.017
54084.345095,15.683,0.038
54084.358257,16.14,0.056
54084.384633,15.482,0.03
54084.3935,15.47,0.022
54084.411512,15.416,0.022
54084.42864,15.427,0.02
54084.445257,15.435,0.026
54084.461916,15.774,0.031
54087.396337,15.766,0.031
54087.409346,16.097,0.083
54087.422357,15.664,0.037
54087.43537,15.43,0.043
54087.448384,15.371,0.018
54098.322653,15.434,0.024
54098.334262,15.54,0.024
54098.345915,15.892,0.035
54098.357677,15.897,0.031
54110.326804,15.722,0.043
54110.339409,15.478,0.035
54110.351987,15.419,0.031
54110.364555,15.419,0.031
54110.3772,15.342,0.03
54121.271752,15.787,0.033
54121.27725,15.613,0.026
54121.283974,15.462,0.02
54121.289769,15.406,0.023
54121.296203,15.406,0.02
54121.302989,15.4,0.021
54121.308448,15.362,0.018
54121.315866,15.374,0.02
54121.320794,15.386,0.018
54121.328456,15.393,0.02
54124.269199,15.429,0.017
54124.281551,15.437,0.017
54124.293818,15.646,0.018
54124.306078,15.996,0.028
54124.318353,15.737,0.022
54149.273805,15.457,0.023
54149.285602,15.384,0.021
54149.297429,15.347,0.02
54149.309223,15.387,0.021
54149.320996,15.387,0.021
54175.218309,15.737,0.024
54175.228837,15.497,0.018
54175.239485,15.419,0.017
54175.250048,15.381,0.017
54175.260692,15.349,0.017
54177.158504,15.463,0.02
54177.162092,15.52,0.018
54177.169271,15.42,0.018
54177.180079,15.367,0.018
54177.185659,15.397,0.017
54177.190893,15.39,0.018
54177.201876,15.438,0.018
54177.209403,15.429,0.017
54206.176264,15.355,0.025
54206.194666,15.355,0.025
54206.204066,15.391,0.026
54206.213568,15.438,0.028
54207.176139,15.47,0.024
54207.185294,15.298,0.02
54207.19444,15.397,0.022
54207.203931,15.412,0.022
54207.213103,15.423,0.022
54210.176597,15.553,0.024
54210.185506,15.829,0.031
54210.194415,16.158,0.044
54210.203301,15.868,0.033
54210.212179,15.576,0.024
54388.430053,15.44,0.022
54388.441442,15.395,0.02
54388.452727,15.388,0.018
54388.464103,15.409,0.018
54388.475395,15.45,0.018
54422.410335,15.416,0.013
54422.42299,15.398,0.013
54422.435524,15.444,0.013
54422.448071,15.502,0.013
54422.460626,15.713,0.017
54424.382584,15.766,0.018
54424.395173,16.023,0.022
54424.407751,15.605,0.017
54424.420339,15.42,0.013
54424.432919,15.41,0.013
54447.332219,15.475,0.013
54447.345116,15.471,0.013
54447.358017,15.431,0.013
54447.370915,15.442,0.013
54447.383807,15.513,0.013
54454.27887,15.558,0.024
54454.291959,15.96,0.031
54454.305041,15.797,0.026
54454.318133,15.506,0.02
54465.46272,15.953,0.024
54465.475618,15.867,0.022
54465.488531,15.491,0.017
54465.501438,15.403,0.017
54465.514354,15.389,0.015
54475.327629,15.424,0.013
54475.340374,15.383,0.013
54475.353104,15.396,0.013
54475.365905,15.436,0.013
54475.378636,15.53,0.017
54495.338759,15.427,0.017
54495.351218,15.486,0.018
54495.363827,15.77,0.024
54495.376287,16.009,0.03
54495.389869,15.604,0.02
54509.213282,15.438,0.015
54509.225185,15.475,0.015
54509.237196,15.57,0.017
54509.249228,15.979,0.022
54509.261146,15.933,0.02
54524.27647,15.739,0.024
54524.287892,15.501,0.02
54524.299325,15.327,0.018
54524.310741,15.351,0.02
54524.322181,15.406,0.015
54555.18747,15.986,0.024
54555.19914,15.781,0.02
54555.210793,15.531,0.017
54555.222482,15.439,0.015
54555.234236,15.42,0.015
54564.186156,15.442,0.015
54564.197527,15.512,0.015
54564.208812,15.772,0.018
54564.220266,16.006,0.024
54564.231549,15.704,0.018
54574.181968,15.428,0.039
54574.192609,15.442,0.039
54574.203129,15.382,0.037
54574.213748,15.429,0.039
54574.224294,15.428,0.039
54582.144278,15.518,0.022
54582.154802,15.81,0.03
54582.165668,16.066,0.037
54582.176158,15.722,0.028
54582.186659,15.468,0.024
54586.143823,15.454,0.022
54586.153957,15.389,0.024
54586.184476,15.363,0.02
54594.151908,15.461,0.024
54594.193447,15.379,0.03
