mjd,m,merr
52618.40529,15.254,0.049
52618.420463,15.327,0.023
52618.43562,15.352,0.025
52623.374019,15.106,0.018
52623.389265,15.049,0.018
52623.404515,15.011,0.017
52623.419804,15.012,0.015
52623.435288,15.012,0.017
52638.214878,15.321,0.022
52638.230033,15.281,0.02
52638.245057,15.175,0.03
52638.275356,15.054,0.018
52638.289921,15.043,0.015
52638.304822,15.019,0.015
52638.319937,15.006,0.015
52638.334776,14.967,0.015
52638.350024,15.016,0.015
52650.247537,15.086,0.025
52650.263516,15.13,0.021
52650.279119,15.247,0.021
52650.294497,15.327,0.023
52650.309917,15.385,0.023
52652.310801,14.949,0.015
52652.325945,14.982,0.015
52652.340907,15.009,0.015
52652.355974,15.084,0.017
52652.370988,15.176,0.017
52664.274586,15.405,0.018
52664.289793,15.399,0.017
52664.30507,15.31,0.017
52664.320342,15.209,0.015
52664.335686,15.125,0.015
52695.248149,15.29,0.039
52695.265082,15.232,0.015
52695.280862,15.145,0.015
52695.297287,15.051,0.013
52695.313703,15.021,0.013
52711.180102,14.906,0.026
52711.19344,14.953,0.02
52711.207134,15.007,0.02
52711.220637,15.034,0.02
52711.234289,15.053,0.022
52722.198463,15.166,0.013
52722.21265,15.288,0.015
52722.226029,15.333,0.017
52722.239006,15.351,0.017
52722.256423,15.306,0.017
52739.182963,15.133,0.022
52739.19442,15.188,0.024
52739.205902,15.27,0.026
52739.217455,15.347,0.03
52739.228953,15.359,0.031
52751.143049,15.126,0.028
52751.153646,15.164,0.046
52751.164336,15.124,0.07
52751.174968,15.037,0.015
52751.185768,15.024,0.017
52769.148359,14.935,0.031
52769.183504,15.059,0.035
52914.450493,15.15,0.024
52914.476447,15.336,0.039
52914.490187,15.314,0.041
52928.43356,15.286,0.043
52928.444971,15.359,0.044
52928.456521,15.324,0.044
52928.468209,15.324,0.043
52928.479714,15.235,0.039
52947.468854,15.068,0.017
52947.481084,15.109,0.017
52947.49328,15.182,0.018
52948.455333,15.396,0.026
52948.467769,15.396,0.025
52948.480183,15.371,0.025
52948.492619,15.323,0.023
52948.505289,15.233,0.021
52949.432762,15.201,0.022
52949.444992,15.13,0.02
52949.457021,15.081,0.018
52949.481413,14.969,0.015
52964.416032,14.959,0.012
52964.429496,14.981,0.012
52964.443947,15.013,0.012
52964.458948,15.058,0.013
52964.481493,15.151,0.013
52967.277732,15.193,0.02
52976.346298,15.126,0.015
52976.357423,15.175,0.016
52976.368559,15.281,0.016
52976.379675,15.332,0.016
52976.390812,15.376,0.015
52978.383603,14.983,0.017
52978.396419,15.008,0.017
52978.409152,15.036,0.017
52978.421926,15.091,0.018
52978.434654,15.135,0.018
52988.331067,15.031,0.017
52988.34413,14.993,0.015
52988.357106,14.964,0.015
52988.370081,14.972,0.015
52988.382956,14.987,0.015
53006.322587,14.951,0.021
53006.335145,14.982,0.016
53006.347699,15.012,0.018
53006.360251,15.074,0.018
53006.372856,15.144,0.02
53008.37588,14.98,0.017
53008.388443,14.986,0.018
53038.279743,15.338,0.03
53038.291917,15.346,0.028
53038.304118,15.343,0.028
53038.316488,15.27,0.025
53038.328829,15.189,0.023
53045.27857,15.356,0.021
53045.290833,15.352,0.021
53045.308344,15.251,0.02
53045.320647,15.148,0.02
53045.333044,15.114,0.018
53093.184335,15.111,0.038
53093.196191,15.194,0.03
53093.216292,15.309,0.021
53121.144877,15.289,0.023
53121.154965,15.326,0.025
53121.164979,15.321,0.025
53121.175069,15.278,0.025
53121.18552,15.243,0.023
53134.152947,15.154,0.021
53134.162033,15.229,0.023
53134.171122,15.268,0.023
53134.180369,15.33,0.023
53134.189554,15.363,0.025
53150.159517,14.993,0.023
53150.168593,15.002,0.03
53155.172181,15.251,0.058
53155.181309,15.18,0.053
53155.190431,15.184,0.056
53281.426782,14.99,0.038
53281.437583,15.038,0.038
53281.448563,15.062,0.036
53281.45966,15.057,0.035
53281.470929,15.162,0.036
53294.417888,14.995,0.015
53294.428907,14.993,0.015
53294.439916,14.98,0.015
53294.450936,15.005,0.015
53294.461953,15.009,0.015
53301.431756,14.991,0.018
53301.443429,15.019,0.018
53301.455156,15.077,0.018
53301.466825,15.078,0.018
53301.478498,15.13,0.018
53319.416219,15.155,0.02
53319.429931,15.276,0.021
53319.445161,15.357,0.023
53319.458676,15.349,0.023
53319.476602,15.287,0.021
53329.456664,15.377,0.025
53329.469138,15.383,0.025
53329.481923,15.297,0.023
53329.494709,15.202,0.021
53329.5071,15.156,0.02
53340.392297,15.41,0.048
53340.404763,15.429,0.049
53340.417099,15.336,0.045
53340.44652,15.222,0.038
53349.400928,15.039,0.02
53349.414319,15.092,0.021
53349.428171,15.138,0.021
53349.441911,15.249,0.025
53349.455543,15.308,0.028
53355.415299,14.993,0.013
53355.428604,15.009,0.015
53355.441779,15.019,0.015
53355.455573,15.069,0.021
53355.468952,15.127,0.016
53360.352104,15.072,0.018
53360.365799,15.145,0.02
53360.379872,15.242,0.02
53360.394207,15.329,0.02
53360.408356,15.376,0.02
53385.422017,14.972,0.015
53385.434936,14.979,0.015
53385.447864,14.98,0.015
53385.46194,14.979,0.015
53385.474903,14.992,0.015
53401.28709,14.973,0.015
53401.299707,15.006,0.015
53401.312337,15.029,0.015
53401.325456,15.068,0.017
53401.338018,15.149,0.017
53415.29899,15.149,0.015
53415.31122,15.225,0.017
53415.323965,15.301,0.017
53415.336403,15.34,0.018
53415.349166,15.345,0.018
53430.23685,15.359,0.017
53430.248622,15.342,0.017
53430.263069,15.28,0.017
53430.276542,15.155,0.017
53430.295474,15.082,0.017
53437.240156,15.277,0.015
53437.252627,15.188,0.015
53437.264253,15.119,0.013
53437.27573,15.065,0.013
53437.287218,15.051,0.013
53480.216949,15.151,0.046
53491.15749,15.06,0.02
53491.167494,15.102,0.018
53685.400929,15.07,0.018
53685.41321,15.028,0.02
53685.4256,14.993,0.018
53700.387566,15.066,0.017
53700.400189,15.13,0.017
53700.412756,15.179,0.017
53700.425453,15.263,0.018
53700.438095,15.369,0.02
53727.341138,14.974,0.015
53727.35397,14.99,0.015
53727.366862,15.013,0.015
53727.379731,15.06,0.015
53727.392428,15.081,0.017
53757.263256,15.292,0.015
53757.275982,15.195,0.013
53757.288641,15.125,0.013
53757.301167,15.079,0.011
53757.313761,15.036,0.013
53762.274933,15.061,0.026
53762.28795,15.072,0.02
53762.300933,15.165,0.024
53762.314222,15.222,0.024
53762.327615,15.296,0.02
53773.29018,15.349,0.022
53773.303149,15.355,0.022
53773.315897,15.31,0.022
53773.328872,15.243,0.02
53773.34171,15.146,0.02
53827.201526,14.974,0.013
53827.2128,14.994,0.013
53827.223719,15.02,0.013
53827.234829,15.063,0.015
53827.245611,15.103,0.015
53842.185433,15.337,0.023
53842.196972,15.373,0.025
53842.208917,15.308,0.025
53842.220558,15.253,0.026
53842.23226,15.184,0.028
53866.157688,15.318,0.049
53866.167077,15.295,0.051
53866.176446,15.317,0.056
53877.163359,15.103,0.045
54011.421535,15.35,0.03
54011.436738,15.243,0.025
54011.450369,15.183,0.023
54011.463605,15.104,0.021
54024.426424,15.347,0.031
54024.439023,15.375,0.03
54024.453553,15.314,0.026
54024.467648,15.187,0.023
54052.394973,15.224,0.02
54052.407191,15.144,0.018
54052.419391,15.125,0.018
54052.431599,15.083,0.018
54052.44381,15.015,0.017
54071.386244,15.147,0.03
54071.399078,15.171,0.028
54071.411925,15.288,0.031
54071.424745,15.324,0.031
54071.437533,15.406,0.033
54080.35925,15.052,0.018
54080.371266,15.016,0.018
54080.383296,15.005,0.018
54098.315515,15.007,0.02
54098.327602,14.977,0.018
54098.33978,15.008,0.018
54098.351936,15.018,0.018
54098.364264,15.052,0.018
54109.342667,15.115,0.035
54109.355268,15.212,0.028
54109.393303,15.241,0.031
54124.273219,15.369,0.02
54124.285649,15.319,0.02
54124.298128,15.262,0.018
54124.310436,15.188,0.018
54124.323248,15.121,0.016
54128.2785,15.186,0.025
54128.278635,15.192,0.025
54128.291138,15.156,0.025
54128.291274,15.162,0.025
54128.303911,15.131,0.023
54128.316442,15.006,0.026
54128.329609,14.966,0.021
54128.329744,14.986,0.021
54140.294844,15.197,0.013
54140.307311,15.31,0.015
54140.319144,15.359,0.017
54140.331128,15.389,0.017
54140.343447,15.368,0.017
54198.178976,14.988,0.015
54198.188438,14.986,0.015
54198.198085,15.024,0.015
54198.207602,15.054,0.017
54198.217082,14.98,0.024
54212.176338,15.049,0.025
54212.184794,14.985,0.025
54212.210426,15.121,0.033
54218.181443,14.999,0.031
54218.190034,14.978,0.031
54218.198675,14.958,0.031
54218.207295,14.996,0.031
54218.21594,15.012,0.033
54397.430156,15.09,0.028
54397.443089,15.136,0.028
54397.456828,15.163,0.028
54397.470155,15.198,0.028
54397.481553,15.248,0.028
54498.268905,15.328,0.023
54498.28065,15.38,0.025
54498.292429,15.386,0.025
54498.304475,15.329,0.025
54498.316219,15.261,0.023
54526.222837,15.405,0.023
54526.234187,15.336,0.021
54526.245415,15.287,0.021
54526.257191,15.18,0.02
54526.268417,15.141,0.02
54537.211874,15.103,0.02
54537.222716,15.067,0.02
54537.233962,15.023,0.02
54537.24477,15.009,0.018
54537.255575,14.979,0.02
54559.184746,15.038,0.021
54559.196202,15.047,0.021
54559.207583,15.092,0.023
54559.219216,15.157,0.025
54559.231554,15.24,0.026
54569.195573,14.99,0.035
54569.206519,15.014,0.036
54569.228769,15.133,0.048
54589.14781,15.025,0.015
54589.158347,15.004,0.015
54589.168813,14.994,0.015
54589.179267,14.979,0.015
54589.189875,14.993,0.015
