mjd,m,merr
52602.367538,16.469,0.12
52602.383124,16.635,0.139
52602.413827,16.54,0.124
52620.398879,16.842,0.223
52620.414272,17.269,0.145
52620.428866,17.109,0.107
52636.367535,16.655,0.086
52636.382123,16.583,0.073
52636.396526,16.545,0.069
52636.411129,16.743,0.084
52636.425686,16.802,0.089
52653.313013,16.953,0.117
52653.328065,16.847,0.099
52653.342927,16.616,0.084
52653.357796,16.673,0.084
52653.372723,16.573,0.076
52660.318022,16.803,0.125
52660.348815,16.604,0.13
52660.36404,16.629,0.134
52684.298427,16.577,0.125
52684.313726,16.435,0.111
52684.328578,16.392,0.114
52684.343679,16.582,0.134
52693.264506,16.604,0.048
52693.280367,16.796,0.057
52693.296422,16.985,0.07
52693.312077,16.979,0.07
52693.327642,16.722,0.059
52721.184159,16.58,0.05
52721.196952,16.594,0.05
52721.209785,16.637,0.05
52721.222598,16.751,0.055
52721.235321,16.903,0.065
52742.13772,17.153,0.525
52750.178497,16.895,0.076
52750.189224,16.751,0.07
52750.200026,16.696,0.068
52750.210788,16.596,0.061
52750.221549,16.584,0.061
52771.1505,16.736,0.142
52771.161953,16.619,0.125
52771.173393,16.503,0.119
52771.184972,16.474,0.116
52771.196651,16.544,0.124
52927.433642,17.192,0.224
52927.44555,16.987,0.174
52927.457096,16.784,0.137
52927.468737,16.629,0.115
52927.480325,16.633,0.115
52948.393907,17.0,0.118
52948.406085,16.778,0.094
52948.41811,16.656,0.076
52948.430214,16.599,0.068
52948.442323,16.63,0.067
52978.354387,16.75,0.096
52978.373078,17.112,0.127
52978.3881,17.156,0.13
52978.401368,16.985,0.109
52978.416589,16.716,0.084
53038.290193,16.554,0.091
53038.30394,16.591,0.091
53038.316747,16.554,0.08
53038.332402,16.689,0.093
53038.347702,16.619,0.107
53045.264455,16.742,0.076
53045.276077,16.581,0.067
53045.287885,16.559,0.067
53045.299902,16.489,0.063
53045.311485,16.607,0.074
53065.223853,16.995,0.089
53065.235799,17.113,0.099
53065.247755,16.927,0.084
53065.259648,16.773,0.074
53065.271556,16.583,0.061
53108.193441,16.539,0.059
53108.204637,16.551,0.059
53108.215925,16.658,0.065
53108.227268,16.741,0.07
53108.238515,16.934,0.085
53122.167361,16.561,0.098
53125.148992,16.46,0.159
53125.158997,16.425,0.146
53125.169714,16.299,0.168
53125.180011,16.369,0.179
53134.152415,17.053,0.115
53134.161889,17.014,0.113
53134.171368,16.829,0.091
53134.180853,16.646,0.074
53134.190336,16.66,0.08
53153.162034,16.64,0.087
53153.171043,16.812,0.102
53153.180195,16.805,0.104
53153.18919,16.932,0.117
53153.198293,17.079,0.139
53155.163702,16.753,0.2
53155.172546,16.62,0.178
53155.18134,16.787,0.207
53155.19014,16.515,0.167
53155.198998,16.493,0.165
53263.414882,16.538,0.073
53263.42714,16.643,0.076
53263.439688,16.629,0.068
53263.451711,16.838,0.086
53303.434727,16.722,0.1
53303.446587,16.887,0.104
53303.458453,17.165,0.124
53330.42032,16.816,0.081
53330.434879,17.256,0.132
53330.449523,17.486,0.165
53358.338005,16.558,0.048
53358.353115,16.634,0.054
53358.366062,16.755,0.059
53358.379455,16.993,0.074
53358.392708,17.17,0.089
53360.351781,16.606,0.067
53360.365631,16.596,0.067
53360.379075,16.63,0.065
53360.393565,16.577,0.061
53360.410704,16.618,0.061
53362.364486,16.611,0.183
53362.379671,16.515,0.131
53362.396587,16.536,0.098
53390.277065,16.726,0.085
53390.289816,16.872,0.094
53390.303483,16.951,0.098
53390.316353,16.984,0.102
53390.329761,16.901,0.096
53429.222322,17.072,0.093
53429.233625,16.914,0.083
53429.244963,16.744,0.072
53429.256254,16.73,0.074
53429.267552,16.568,0.065
53441.170066,16.738,0.055
53441.181296,16.651,0.05
53441.192524,16.568,0.046
53441.203749,16.561,0.046
53441.21498,16.547,0.044
53461.224347,16.52,0.059
53461.234777,16.59,0.063
53461.245685,16.732,0.076
53461.256054,16.784,0.08
53461.266486,17.013,0.096
53489.189302,16.648,0.13
53489.21167,16.912,0.124
53489.22185,17.193,0.165
53489.232051,17.329,0.357
53635.424464,16.68,0.191
53635.434902,16.608,0.17
53687.383375,16.499,0.085
53687.395784,16.499,0.081
53687.408485,16.519,0.083
53687.420951,16.676,0.093
53687.433636,16.928,0.109
53696.394435,16.523,0.085
53725.338683,16.591,0.078
53725.351848,16.677,0.078
53725.364895,16.806,0.087
53725.377988,17.041,0.109
53725.391045,17.102,0.113
53755.280405,16.902,0.091
53755.29311,16.704,0.078
53755.305848,16.559,0.068
53755.318792,16.577,0.068
53755.331418,16.575,0.068
53756.335906,17.108,0.174
53756.361991,17.0,0.109
53756.374914,16.684,0.154
53756.388101,16.75,0.118
53775.289905,16.657,0.1
53775.302431,16.683,0.102
53775.31527,16.615,0.094
53775.328588,16.536,0.087
53775.342114,16.48,0.083
53775.380499,17.114,0.206
53807.256297,16.528,0.15
53858.146763,17.053,0.17
53876.152097,16.515,0.12
53876.162928,16.515,0.12
53876.174012,16.475,0.111
53876.185062,16.558,0.132
54050.375347,16.609,0.091
54050.387534,16.509,0.089
54050.399728,16.567,0.098
54050.411937,16.639,0.102
54050.424385,16.636,0.098
54079.306824,16.539,0.091
54079.318796,16.599,0.094
54079.330693,16.698,0.104
54079.342585,16.79,0.111
54079.354492,16.853,0.118
54108.321715,16.692,0.08
54108.334426,16.576,0.07
54108.347125,16.48,0.065
54108.359834,16.599,0.074
54108.372539,16.618,0.072
54126.268364,16.626,0.074
54139.269151,16.809,0.057
54139.280853,16.705,0.057
54139.292777,16.638,0.08
54139.304525,16.552,0.055
54139.316204,16.559,0.065
54167.223854,16.612,0.167
54167.234963,16.641,0.107
54167.246114,16.534,0.055
54167.25731,16.562,0.059
54167.268526,16.525,0.065
