mjd,m,merr
52620.399374,14.956,0.028
52620.429359,15.043,0.016
52636.367781,15.309,0.028
52636.382367,15.358,0.025
52636.396771,15.066,0.02
52636.411374,14.979,0.016
52636.425932,14.979,0.016
52653.329209,14.972,0.018
52653.358994,14.961,0.02
52653.373867,14.94,0.018
52684.314871,14.942,0.026
52684.344826,14.95,0.028
52693.247133,14.94,0.015
52693.262406,14.924,0.013
52693.276344,14.935,0.015
52693.292082,14.931,0.013
52693.305963,14.933,0.013
52721.180799,14.929,0.015
52721.193033,14.933,0.015
52721.205148,14.925,0.015
52721.217317,14.936,0.015
52721.229528,14.935,0.015
52750.133651,15.558,0.04
52750.145299,15.205,0.025
52750.157108,15.016,0.018
52750.168265,14.98,0.018
52750.179414,14.956,0.016
52771.15006,14.938,0.022
52771.162114,14.942,0.024
52771.174055,14.938,0.024
52771.18624,14.945,0.024
52771.198088,14.939,0.026
52781.156527,14.937,0.02
52781.167841,14.952,0.021
52781.17871,14.952,0.021
52781.189504,14.952,0.021
52781.20068,14.956,0.021
52926.451384,14.975,0.026
52926.463038,14.973,0.028
52926.475123,14.973,0.026
52926.487412,14.985,0.026
52926.499012,14.966,0.026
52978.355392,14.936,0.018
52978.37393,14.962,0.018
52978.388745,14.947,0.018
52978.402173,14.945,0.018
52978.417327,14.944,0.016
53038.290606,15.027,0.024
53038.304352,15.365,0.031
53038.318029,15.565,0.033
53038.332814,15.224,0.026
53038.348115,14.982,0.024
53045.265229,15.249,0.02
53045.276852,15.457,0.026
53045.288659,15.408,0.024
53045.300713,15.089,0.02
53045.31226,14.96,0.017
53075.22139,14.958,0.05
53096.241256,15.02,0.041
53096.251182,14.998,0.043
53096.26114,15.003,0.037
53108.194161,14.962,0.015
53108.205425,14.957,0.015
53108.216645,14.964,0.015
53108.228023,14.952,0.015
53108.239235,14.956,0.015
53125.191794,15.18,0.07
53125.201666,15.421,0.08
53125.211525,15.553,0.083
53125.221354,15.328,0.065
53125.231214,15.098,0.05
53134.152746,15.295,0.024
53134.162219,15.475,0.03
53134.171699,15.406,0.026
53134.181184,15.209,0.022
53134.190667,15.021,0.02
53155.164377,14.955,0.037
53155.173169,14.941,0.037
53155.181971,14.949,0.037
53155.190763,14.935,0.037
53155.199621,14.952,0.039
53263.415098,14.931,0.016
53263.427356,14.948,0.016
53263.439904,14.939,0.015
53263.451927,14.961,0.016
53263.464239,14.954,0.015
53290.41877,14.949,0.02
53290.429956,14.94,0.018
53290.441379,14.941,0.017
53290.452564,14.879,0.017
53290.463756,14.917,0.017
53303.435148,14.945,0.02
53303.447008,14.918,0.018
53303.458875,14.936,0.017
53303.47074,14.947,0.03
53303.482694,14.95,0.039
53330.420723,14.966,0.016
53330.43528,14.977,0.016
53330.449924,14.961,0.016
53358.338402,15.403,0.018
53358.353513,15.404,0.02
53358.366459,15.125,0.015
53358.37987,14.962,0.013
53358.393106,14.928,0.013
53360.35226,15.228,0.02
53360.366089,14.981,0.017
53360.379535,14.931,0.015
53360.394038,14.935,0.015
53360.411179,14.945,0.015
53362.380058,14.949,0.031
53362.396973,14.929,0.022
53390.277441,14.924,0.017
53390.290192,14.919,0.017
53390.30386,14.918,0.015
53390.316728,14.93,0.017
53390.330137,14.929,0.017
53429.222699,14.953,0.015
53429.234002,14.955,0.015
53429.24534,14.955,0.015
53429.256637,14.958,0.015
53429.267929,14.956,0.015
53441.170571,14.949,0.011
53441.181801,14.954,0.011
53441.193032,14.955,0.011
53441.204254,14.95,0.011
53441.215486,14.947,0.011
53461.225168,14.928,0.015
53461.235596,14.919,0.015
53461.246506,14.94,0.015
53461.25689,14.929,0.015
53461.267304,14.925,0.015
53489.189506,14.935,0.035
53489.200378,14.984,0.033
53489.211875,14.914,0.018
53489.222056,14.916,0.02
53489.232254,14.914,0.035
53635.42469,14.965,0.035
53635.435128,14.97,0.035
53635.445552,14.973,0.037
53635.455982,14.971,0.041
53635.466416,14.942,0.035
53687.383918,14.95,0.02
53687.39633,14.935,0.018
53687.409027,14.931,0.018
53687.421491,14.921,0.017
53687.434194,14.91,0.017
53696.394697,14.949,0.018
53725.338951,14.926,0.017
53725.352116,14.947,0.017
53725.365163,14.942,0.017
53725.378255,14.941,0.017
53725.391312,14.943,0.017
53755.28067,14.968,0.017
53755.293371,15.13,0.02
53755.306109,15.377,0.024
53755.319054,15.479,0.028
53755.33168,15.231,0.02
53775.290301,14.96,0.02
53775.302828,14.962,0.02
53775.315684,14.939,0.02
53775.328984,14.962,0.02
53775.342511,14.946,0.02
53775.380958,14.965,0.028
53858.146966,15.141,0.033
53858.157458,14.947,0.04
53864.166135,14.953,0.036
53864.175796,14.94,0.036
53864.18558,14.959,0.035
54050.375737,14.927,0.018
54050.387925,14.976,0.022
54050.400119,14.961,0.024
54050.412329,14.998,0.024
54050.424777,14.992,0.024
54079.30703,15.083,0.026
54079.319006,15.384,0.031
54079.330904,15.438,0.033
54079.342797,15.168,0.028
54079.354703,14.96,0.022
54108.321976,14.949,0.017
54108.334685,14.939,0.017
54108.347385,14.935,0.017
54108.360097,14.93,0.017
54108.3728,14.945,0.017
54126.268737,14.993,0.018
54126.280681,14.966,0.028
54139.269281,14.939,0.011
54139.280982,14.944,0.013
54139.292907,14.928,0.017
54139.304656,14.944,0.013
54139.316335,14.967,0.017
54167.223983,15.352,0.046
54167.235092,15.001,0.024
54167.246243,14.945,0.013
54167.25744,14.928,0.015
54167.268656,14.946,0.015
54554.212663,15.036,0.02
54554.237431,15.225,0.02
