mjd,m,merr
52610.391016,16.698,0.087
52610.406146,16.789,0.091
52610.421311,16.762,0.083
52610.436488,16.81,0.2
52610.451599,16.926,0.318
52614.44222,17.043,0.154
52614.457638,16.977,0.178
52614.473036,17.527,0.257
52614.488458,17.271,0.113
52614.503612,17.027,0.087
52619.385763,17.328,0.118
52619.401009,17.226,0.111
52619.416236,16.975,0.089
52619.431678,16.769,0.076
52619.44699,16.707,0.068
52639.306561,16.953,0.072
52639.321302,17.003,0.078
52639.336053,17.267,0.098
52639.350758,17.183,0.093
52639.365469,16.993,0.078
52644.376799,17.033,0.076
52644.400179,17.329,0.096
52644.435662,16.918,0.067
52644.450684,16.801,0.061
52644.465597,16.811,0.065
52648.25669,17.171,0.1
52648.271423,17.034,0.087
52648.286283,16.824,0.076
52648.301316,16.79,0.072
52648.316015,16.711,0.067
52671.314863,16.861,0.068
52671.329984,16.789,0.065
52671.345144,16.745,0.061
52671.360366,16.799,0.065
52671.375669,16.877,0.072
52674.318674,17.112,0.093
52674.33522,17.336,0.111
52674.349759,17.054,0.085
52674.364065,16.921,0.08
52674.378092,16.842,0.074
52677.247758,17.258,0.111
52677.262221,17.303,0.105
52677.276711,17.078,0.087
52677.291121,16.942,0.078
52677.305606,16.817,0.07
52697.262479,16.834,0.244
52697.276389,16.712,0.12
52704.240589,16.99,0.07
52704.253896,17.227,0.091
52704.26723,17.29,0.098
52704.280584,17.207,0.093
52704.293891,16.991,0.076
52706.23621,16.983,0.086
52706.249688,16.963,0.102
52706.262587,17.36,0.119
52724.183359,16.834,0.068
52724.195006,16.987,0.078
52724.206655,17.174,0.093
52724.21832,17.249,0.098
52724.230174,17.377,0.111
52728.17382,16.79,0.065
52728.186238,16.882,0.072
52728.19812,17.266,0.1
52728.209978,17.278,0.104
52728.221992,17.267,0.104
52731.18045,16.731,0.083
52731.192549,16.759,0.117
52731.2046,16.647,0.268
52731.228821,16.651,0.263
52753.134648,16.745,0.065
52753.146532,16.688,0.063
52753.158422,16.696,0.068
52753.170314,16.772,0.072
52753.182212,16.824,0.08
52760.143341,17.181,0.102
52760.155149,17.102,0.096
52760.166936,16.987,0.087
52760.178817,16.919,0.085
52760.190661,16.939,0.083
52767.142913,16.526,0.142
52767.154616,16.705,0.163
52767.167092,16.583,0.149
52767.190803,16.813,0.196
52942.4508,17.234,0.394
52945.443313,16.937,0.106
52945.455454,16.835,0.094
52945.467573,16.762,0.086
52945.479794,16.795,0.089
52945.491977,16.906,0.097
52963.458543,16.751,0.052
52963.471491,16.762,0.054
52963.483931,16.958,0.065
52963.496423,17.131,0.076
52963.509153,17.206,0.083
52967.381343,16.903,0.076
52967.393781,16.78,0.068
52967.406235,16.822,0.07
52967.418745,16.702,0.063
52967.431248,16.735,0.061
52991.353387,16.632,0.044
52991.366442,16.64,0.046
52991.392368,16.766,0.065
52991.405404,16.777,0.063
52996.337618,17.054,0.065
52996.350959,17.319,0.08
52996.36407,17.134,0.068
52996.377061,16.988,0.059
52996.390034,16.907,0.052
53001.339553,16.815,0.044
53001.35268,16.736,0.041
53001.365897,16.833,0.044
53001.379232,16.86,0.048
53001.39219,17.021,0.055
53002.424774,16.748,0.036
53002.48055,17.156,0.056
53024.280757,17.119,0.144
53024.293636,17.149,0.055
53024.30647,17.023,0.048
53024.319193,17.05,0.183
53034.280292,17.107,0.094
53034.292916,16.951,0.078
53034.305588,16.837,0.072
53034.318104,16.835,0.068
53034.330496,16.779,0.067
53050.220934,17.339,0.089
53050.232697,17.177,0.076
53050.244464,17.059,0.068
53050.256172,16.935,0.057
53050.267856,16.831,0.054
53078.225851,16.68,0.065
53078.236586,16.718,0.059
53078.247284,16.887,0.185
53078.257974,16.706,0.1
53078.268635,16.831,0.065
53084.224983,16.743,0.043
53084.235677,16.698,0.041
53084.246829,16.681,0.041
53084.25779,16.783,0.044
53084.268632,16.953,0.052
53086.239096,16.645,0.12
53086.250395,16.649,0.168
53086.261939,16.822,0.12
53086.273785,16.963,0.106
53086.284878,17.073,0.091
53109.184627,17.076,0.087
53109.195328,16.821,0.068
53109.206031,16.857,0.072
53109.216718,16.696,0.065
53109.227511,16.732,0.068
53115.215732,16.67,0.054
53115.226822,16.635,0.052
53117.19186,16.813,0.056
53117.202811,16.785,0.056
53117.213469,16.731,0.054
53117.229478,16.694,0.054
53117.22968,16.736,0.056
53117.241822,16.701,0.056
53137.152361,16.767,0.081
53137.161926,16.806,0.085
53137.171455,16.723,0.081
53137.180997,16.66,0.085
53137.190497,16.749,0.094
53147.156824,16.792,0.081
53147.16567,16.788,0.083
53147.174708,16.856,0.092
53147.183451,16.788,0.092
53147.192236,16.804,0.099
53299.444067,16.957,0.12
53299.45574,16.811,0.102
53299.467412,16.963,0.157
53299.479156,17.028,0.191
53299.490833,17.272,0.194
53328.375688,17.027,0.229
53328.412215,16.806,0.093
53331.447715,17.206,0.135
53331.460135,17.005,0.111
53331.472604,16.827,0.107
53331.485089,16.803,0.094
53331.501665,16.855,0.104
53348.348102,16.776,0.131
53348.360397,16.767,0.113
53348.372701,16.614,0.093
53348.384993,16.691,0.068
53354.323504,16.92,0.083
53354.336847,16.834,0.076
53354.350189,16.795,0.07
53354.368765,16.753,0.068
53354.382174,16.804,0.067
53377.338771,16.897,0.068
53377.352102,16.808,0.065
53377.365412,16.79,0.065
53377.378751,16.723,0.061
53377.392115,16.788,0.065
53382.426388,16.795,0.078
53382.441255,16.812,0.118
53382.470725,16.856,0.08
53382.485393,16.945,0.091
53386.348184,17.368,0.104
53386.361191,17.254,0.098
53386.374227,17.225,0.093
53386.387728,16.927,0.07
53386.400752,16.982,0.074
53387.348642,16.747,0.068
53387.362307,16.695,0.065
53387.375784,16.751,0.072
53387.389289,16.747,0.072
53387.402233,16.894,0.087
53389.349355,16.753,0.076
53389.362628,16.721,0.074
53389.375987,16.813,0.076
53389.389736,16.894,0.08
53389.405527,17.247,0.1
53404.301055,17.022,0.065
53404.318223,17.27,0.083
53404.330692,17.088,0.07
53404.343143,16.925,0.061
53404.356193,16.835,0.059
53415.291024,16.734,0.061
53415.303262,16.717,0.065
53415.316012,16.848,0.072
53415.328252,16.81,0.07
53415.340678,17.115,0.089
53433.287966,16.981,0.07
53433.302619,17.024,0.072
53433.316858,17.325,0.098
53433.333224,17.255,0.094
53433.346376,17.167,0.091
53443.325126,16.969,0.078
53443.335798,16.899,0.074
53443.346482,16.803,0.081
53443.357131,16.729,0.08
53443.367798,16.774,0.109
53473.17917,16.695,0.074
53473.188787,16.822,0.083
53473.198574,16.755,0.078
53473.208337,16.986,0.1
53473.218011,17.002,0.102
53500.139411,16.781,0.08
53500.150618,16.793,0.08
53500.16072,16.653,0.074
53500.170829,16.734,0.08
53500.180866,16.779,0.085
53673.44321,16.804,0.087
53673.456016,16.665,0.078
53673.468136,16.657,0.076
53673.480302,16.717,0.078
53673.493052,16.86,0.087
53676.44643,17.239,0.163
53676.458568,17.438,0.163
53676.470564,17.154,0.131
53676.482541,17.004,0.105
53676.494494,16.855,0.102
53682.460996,16.842,0.098
53682.473568,16.759,0.083
53682.485972,16.765,0.094
53682.498656,16.776,0.083
53703.394894,16.788,0.068
53703.408884,16.829,0.074
53703.422198,16.874,0.074
53703.435351,16.978,0.081
53703.448603,17.203,0.096
53706.45954,16.822,0.139
53706.472587,16.754,0.118
53706.485197,16.966,0.094
53706.510584,16.969,0.076
53709.377866,16.683,0.063
53709.390548,16.689,0.065
53709.403284,16.728,0.067
53709.415996,16.844,0.076
53709.428923,16.925,0.081
53714.389339,17.027,0.085
53714.402297,16.897,0.076
53714.415259,16.755,0.065
53714.428059,16.784,0.065
53714.440809,16.759,0.063
53733.33347,16.679,0.065
53733.346504,16.85,0.076
53733.359332,16.858,0.074
53733.371984,17.006,0.085
53733.384664,17.17,0.096
53740.340039,16.945,0.074
53740.352996,16.83,0.067
53740.365816,16.742,0.061
53740.378583,16.731,0.061
53740.391434,16.773,0.065
53771.22638,16.628,0.104
53771.239065,16.731,0.091
53771.25172,16.713,0.098
53771.264434,16.91,0.185
53771.277015,17.161,0.128
53786.228184,16.864,0.07
53786.240119,16.804,0.059
53786.252059,16.782,0.055
53786.264162,16.753,0.055
53786.27611,16.775,0.055
53788.400735,16.707,0.068
53788.412637,16.679,0.072
53788.424558,16.74,0.078
53788.436747,16.941,0.22
53794.282453,16.782,0.211
53794.294799,16.853,0.08
53794.306654,17.172,0.252
53794.318436,17.279,0.104
53794.330552,16.932,0.25
53813.249891,16.784,0.093
53813.260984,16.702,0.091
53813.272203,16.735,0.094
53813.283269,16.754,0.1
53813.294756,16.762,0.105
53817.283535,16.774,0.078
53817.294379,16.784,0.085
53817.305227,16.75,0.085
53817.316287,16.945,0.107
53817.327233,16.964,0.113
53818.226078,16.744,0.08
53818.236633,16.849,0.087
53818.247173,16.959,0.096
53818.257757,17.105,0.111
53818.268343,17.321,0.137
53823.198907,17.209,0.111
53823.210924,17.009,0.091
53823.224137,16.822,0.078
53823.236012,16.726,0.07
53823.248192,16.755,0.072
53825.226673,16.742,0.074
53825.237044,16.799,0.076
53825.247416,16.728,0.07
53825.257803,16.692,0.07
53825.268193,16.664,0.07
53829.176763,16.835,0.131
53829.187553,16.856,0.13
53829.197694,16.769,0.109
53829.207836,16.614,0.111
53829.218011,16.526,0.109
53844.181261,16.937,0.1
53844.191501,17.049,0.113
53844.201777,17.151,0.126
53844.212052,17.21,0.141
53844.222333,17.286,0.155
53848.185346,17.014,0.124
53848.195958,17.174,0.144
53848.206626,17.294,0.163
53848.217299,17.135,0.146
53848.227947,16.853,0.115
53849.191818,16.799,0.085
53849.202606,16.697,0.078
53849.2135,16.756,0.087
53849.224426,16.819,0.091
53849.235544,16.79,0.093
53852.192625,17.274,0.15
53852.204645,17.155,0.139
53852.216117,17.011,0.128
53852.227322,16.887,0.117
53852.239478,16.773,0.111
53853.138147,17.06,0.157
53853.151319,16.849,0.132
53853.162462,16.868,0.135
53853.17331,16.882,0.13
53853.184188,16.62,0.107
53855.148414,16.887,0.098
53855.158706,16.729,0.087
53855.168975,16.796,0.093
53855.179901,16.707,0.087
53855.190252,16.803,0.098
53858.143146,16.618,0.117
54027.451444,16.828,0.107
54027.463164,17.18,0.144
54027.477278,17.208,0.168
54027.489606,17.262,0.147
54027.500961,16.954,0.116
54029.433544,16.791,0.089
54029.44614,16.938,0.101
54029.458711,17.313,0.137
54029.470564,17.273,0.127
54029.482537,17.216,0.119
54037.435972,16.949,0.094
54037.448785,17.225,0.116
54037.46075,17.184,0.109
54037.47303,17.078,0.099
54037.485458,16.904,0.081
54042.451961,16.628,0.114
54042.464405,16.663,0.091
54042.477022,16.853,0.091
54042.489496,16.872,0.086
54054.363708,16.902,0.081
54054.375112,16.847,0.076
54054.386479,16.825,0.074
54054.39787,16.756,0.07
54054.409243,16.719,0.07
54055.38012,16.976,0.104
54055.393128,17.017,0.101
54055.405771,17.306,0.124
54055.413928,17.295,0.096
54055.418793,17.147,0.111
54055.425599,16.989,0.072
54055.43135,16.974,0.097
54055.437266,16.944,0.072
54055.448932,16.915,0.072
54055.460607,16.836,0.067
54058.426965,16.746,0.063
54058.439488,16.831,0.067
54058.451995,16.946,0.072
54058.464529,17.066,0.081
54058.477031,17.15,0.087
54061.378561,17.083,0.087
54061.39148,17.329,0.107
54061.403923,17.349,0.105
54061.41636,17.119,0.085
54061.428821,16.913,0.07
54066.394389,16.678,0.203
54066.40658,16.851,0.076
54067.391667,17.248,0.111
54067.404476,16.997,0.086
54067.417344,16.881,0.074
54067.430671,16.75,0.063
54067.443513,16.723,0.063
54070.38413,16.82,0.08
54070.3971,16.869,0.08
54070.410307,16.878,0.074
54070.423368,17.024,0.074
54070.436318,17.205,0.085
54084.38604,16.993,0.116
54084.394204,17.178,0.098
54084.399239,17.149,0.14
54084.412375,17.143,0.135
54084.412919,17.395,0.118
54084.425246,17.265,0.152
54084.429931,17.269,0.1
54084.438288,17.117,0.134
54084.446699,16.965,0.096
54084.462995,16.877,0.072
54087.397544,16.797,0.085
54087.410551,16.68,0.155
54087.423565,16.78,0.107
54087.436577,16.84,0.133
54087.449593,16.963,0.089
54098.31167,16.751,0.08
54098.323494,16.777,0.081
54098.335103,16.793,0.076
54098.346757,16.829,0.08
54098.358519,17.034,0.089
54110.327725,17.037,0.134
54110.340329,17.032,0.142
54110.352906,17.286,0.16
54110.365472,17.128,0.14
54110.378123,16.925,0.117
54121.272644,17.092,0.091
54121.284865,16.856,0.061
54121.297097,16.788,0.057
54121.309342,16.813,0.055
54121.321689,16.721,0.05
54121.342187,16.725,0.066
54121.354654,16.736,0.066
54121.36715,16.768,0.069
54121.379775,16.829,0.073
54124.270491,16.854,0.05
54124.282843,16.923,0.055
54124.295111,17.072,0.059
54124.307368,17.268,0.074
54124.319647,17.356,0.08
54149.275084,16.881,0.079
54149.286884,16.795,0.071
54149.298714,16.85,0.074
54149.310505,16.965,0.083
54149.322281,17.172,0.102
54175.219416,16.712,0.055
54175.229953,16.797,0.061
54175.240603,16.877,0.063
54175.251248,16.925,0.067
54175.261796,17.066,0.078
54206.176634,16.756,0.084
54206.185796,16.715,0.079
54206.195018,16.752,0.083
54206.20442,16.698,0.079
54206.213921,16.699,0.081
54207.177141,16.91,0.089
54207.186284,17.063,0.104
54207.195442,17.159,0.109
54207.20493,17.341,0.131
54207.214098,17.259,0.122
54210.177573,16.819,0.078
54210.186468,16.765,0.074
54210.195388,16.736,0.074
54210.204269,16.738,0.074
54210.213146,16.736,0.07
54388.431191,16.73,0.07
54388.44258,16.779,0.07
54388.453867,16.929,0.076
54388.46524,17.014,0.08
54388.476534,17.28,0.1
54422.411725,17.194,0.068
54422.424374,17.059,0.059
54422.436912,16.856,0.048
54424.38419,17.316,0.078
54424.396779,17.319,0.074
54424.409358,17.164,0.065
54424.421942,16.965,0.054
54424.434529,16.887,0.052
54447.384795,16.998,0.05
54447.397784,17.18,0.057
54447.410762,17.304,0.067
54447.42373,17.223,0.061
54447.436697,17.104,0.055
54454.267468,16.845,0.08
54454.280571,16.887,0.078
54454.293658,17.042,0.083
54454.306743,17.34,0.107
54454.319835,17.393,0.105
54465.463258,16.793,0.052
54465.476158,16.964,0.061
54465.48907,16.966,0.063
54465.501976,17.158,0.074
54465.514895,17.272,0.085
54475.327944,17.085,0.057
54475.340687,17.22,0.065
54475.353416,17.227,0.065
54475.36622,17.025,0.055
54475.378951,16.894,0.054
54495.339573,16.924,0.065
54495.352031,16.898,0.067
54495.364639,16.817,0.059
54495.377103,16.793,0.061
54495.390682,16.83,0.065
54509.214614,16.843,0.054
54509.226512,16.873,0.054
54509.238527,17.005,0.057
54509.25056,17.224,0.068
54509.262479,17.339,0.072
54524.277205,16.986,0.074
54524.288628,17.232,0.109
54524.300057,17.426,0.115
54524.311477,17.381,0.122
54524.322921,17.3,0.083
54555.188109,17.019,0.055
54555.199777,16.962,0.052
54555.211436,16.873,0.048
54555.223204,16.814,0.046
54555.234877,16.864,0.048
54564.187404,16.947,0.052
54564.198759,17.083,0.061
54564.210154,17.264,0.068
54564.221493,17.339,0.076
54564.232876,17.333,0.078
54574.182648,17.286,0.215
54574.193212,17.433,0.242
54574.203731,17.348,0.231
54574.214353,17.304,0.226
54574.224947,17.191,0.213
54582.144405,16.896,0.078
54582.15493,17.061,0.091
54582.165795,17.182,0.102
54582.176286,17.239,0.109
54582.186786,17.274,0.12
54586.144078,16.964,0.081
54586.154215,17.066,0.113
54586.174573,17.416,0.144
54586.184733,17.015,0.083
54594.152174,17.078,0.105
54594.193713,16.9,0.117
