mjd,m,merr
52610.388044,15.636,0.033
52610.40317,15.654,0.111
52610.418341,15.661,0.028
52610.433485,15.703,0.059
52610.448622,15.68,0.08
52614.377538,15.607,0.031
52614.392636,15.624,0.03
52614.422976,15.623,0.031
52614.438148,15.678,0.046
52619.382379,14.899,0.017
52619.397621,14.952,0.017
52619.41286,15.02,0.018
52619.428256,15.081,0.018
52619.443611,15.109,0.02
52639.302588,14.846,0.013
52639.317529,14.918,0.015
52639.332286,15.035,0.02
52639.346989,15.052,0.017
52639.361702,15.118,0.017
52644.309914,15.438,0.02
52644.325556,15.445,0.02
52644.341059,15.566,0.022
52644.356602,15.589,0.022
52644.37225,15.631,0.024
52648.253425,15.556,0.026
52648.268178,15.57,0.026
52648.282792,15.623,0.028
52648.297985,15.653,0.028
52648.312773,15.622,0.028
52671.235023,15.705,0.024
52671.250294,15.695,0.024
52671.265539,15.692,0.024
52671.280773,15.737,0.024
52671.296078,15.694,0.024
52671.311446,15.446,0.022
52671.326635,15.005,0.015
52671.341792,14.88,0.013
52671.357004,14.954,0.015
52671.372309,15.011,0.015
52674.251033,14.917,0.015
52674.266367,14.958,0.015
52674.281609,15.034,0.018
52674.297003,15.103,0.018
52674.312523,15.144,0.017
52677.243922,15.248,0.018
52677.258533,15.308,0.02
52677.273015,15.331,0.018
52677.287403,15.366,0.02
52677.301904,15.416,0.022
52697.17521,15.322,0.023
52697.188596,15.369,0.023
52697.202335,15.415,0.026
52704.236381,15.694,0.026
52704.249699,15.676,0.026
52704.263033,15.654,0.024
52704.276286,15.616,0.024
52704.289661,15.671,0.026
52706.177867,15.698,0.031
52706.191611,15.712,0.031
52706.191727,15.522,0.033
52706.204901,15.666,0.031
52706.218103,15.65,0.03
52706.231656,15.724,0.031
52708.169653,15.711,0.03
52708.18269,15.756,0.033
52708.196045,15.769,0.031
52708.208963,15.632,0.028
52708.221985,15.344,0.022
52724.179763,15.664,0.028
52724.191415,15.74,0.03
52724.203068,15.758,0.03
52724.214721,15.749,0.028
52724.226589,15.75,0.03
52728.170016,14.87,0.013
52728.182341,14.95,0.015
52728.194199,15.012,0.017
52728.206172,15.093,0.017
52728.218039,15.146,0.018
52731.176636,15.323,0.044
52731.200799,15.419,0.087
52731.224927,15.424,0.068
52753.131554,15.557,0.026
52753.143434,15.583,0.028
52753.155328,15.611,0.03
52753.167217,15.603,0.03
52753.179108,15.65,0.033
52760.140134,15.688,0.031
52760.151943,15.674,0.031
52760.163731,15.698,0.031
52760.175611,15.726,0.033
52760.187453,15.492,0.028
52934.447805,15.697,0.041
52945.477038,15.596,0.03
52945.489239,15.654,0.033
52963.402728,15.406,0.018
52963.415729,15.479,0.018
52963.428378,15.434,0.018
52963.440899,15.404,0.018
52963.454169,15.488,0.02
52967.377386,15.623,0.028
52967.390004,15.619,0.028
52967.402455,15.594,0.028
52967.414946,15.597,0.028
52967.427471,15.694,0.026
52995.365984,15.059,0.013
52995.379032,15.166,0.013
52995.391952,15.187,0.013
53000.346952,15.418,0.017
53000.361479,15.384,0.017
53000.375227,15.392,0.017
53000.388366,15.384,0.018
53000.401424,15.491,0.018
53026.330219,14.713,0.009
53029.338802,15.254,0.024
53034.277175,15.372,0.022
53034.289853,15.456,0.024
53034.302589,15.437,0.024
53034.315116,15.434,0.024
53034.327508,15.423,0.026
53050.218523,15.22,0.015
53050.230287,15.266,0.017
53050.242053,15.281,0.017
53050.253761,15.246,0.017
53050.265443,15.3,0.017
53058.21862,15.492,0.017
53058.241564,15.465,0.017
53058.264352,15.446,0.017
53061.224607,15.439,0.017
53061.247093,15.725,0.018
53061.258494,15.624,0.017
53078.223571,15.756,0.031
53078.234222,15.742,0.03
53078.245,15.974,0.072
53078.255673,15.842,0.054
53078.266351,15.629,0.026
53083.224901,15.123,0.013
53083.23579,14.986,0.011
53083.246504,15.224,0.013
53083.257349,15.214,0.013
53083.268108,15.123,0.015
53086.229569,15.466,0.048
53086.251816,15.512,0.065
53086.263344,15.541,0.041
53086.274697,15.602,0.037
53109.138363,15.569,0.028
53109.149298,15.587,0.028
53109.160361,15.612,0.026
53109.171311,15.648,0.028
53109.182506,15.698,0.03
53114.165641,15.416,0.02
53117.189802,14.798,0.013
53117.200569,14.799,0.013
53117.211411,14.902,0.015
53117.222282,15.097,0.017
53117.233128,15.248,0.018
53137.150406,15.247,0.024
53137.15997,15.272,0.026
53137.169501,15.338,0.028
53137.179001,15.353,0.031
53137.188542,15.395,0.033
53288.431506,15.665,0.041
53288.442623,15.685,0.041
53288.453353,15.613,0.038
53288.464298,15.612,0.036
53293.42938,15.144,0.023
53293.451186,14.903,0.018
53293.473102,14.998,0.018
53299.440769,15.481,0.033
53299.452438,15.514,0.035
53299.464113,15.56,0.052
53299.475854,15.605,0.076
53299.487535,15.632,0.046
53328.371738,15.633,0.039
53328.383916,15.261,0.067
53328.39609,15.019,0.02
53328.420449,14.793,0.044
53331.456876,15.464,0.03
53331.481808,15.493,0.03
53331.497974,15.533,0.031
53348.344295,14.966,0.017
53348.356591,15.079,0.022
53348.368887,15.122,0.033
53348.381185,15.155,0.022
53354.319587,15.447,0.024
53354.332932,15.494,0.024
53354.346279,15.527,0.024
53354.364849,15.556,0.024
53354.378261,15.605,0.026
53377.28083,15.713,0.076
53377.29482,15.653,0.024
53377.308304,15.722,0.043
53377.321805,15.69,0.026
53377.334785,15.71,0.026
53382.363165,15.075,0.03
53382.392631,15.233,0.018
53382.407047,15.188,0.022
53382.42145,15.287,0.024
53386.343613,15.281,0.02
53386.356701,15.267,0.02
53386.369724,15.3,0.022
53386.383234,15.366,0.022
53386.396261,15.37,0.024
53389.344285,15.504,0.028
53389.358245,15.52,0.03
53389.371737,15.466,0.03
53389.38548,15.428,0.028
53389.400147,15.547,0.026
53404.296671,15.365,0.017
53404.314209,15.425,0.018
53404.326733,15.467,0.018
53404.339186,15.454,0.018
53404.352229,15.487,0.02
53415.231277,15.513,0.026
53415.243573,15.502,0.024
53415.256597,15.627,0.026
53415.268906,15.697,0.026
53415.281219,15.643,0.026
53433.228908,15.739,0.026
53433.24083,15.751,0.026
53433.254567,15.757,0.026
53433.266022,15.606,0.024
53433.278471,15.307,0.018
53473.176187,15.1,0.02
53473.185881,15.153,0.022
53473.195619,15.18,0.022
53473.205358,15.241,0.024
53473.215059,15.232,0.026
53656.422462,15.491,0.035
53656.433617,15.472,0.033
53656.444668,15.518,0.035
53656.455722,15.536,0.035
53656.466764,15.537,0.033
53672.454307,15.532,0.031
53672.467555,15.417,0.03
53672.48087,15.538,0.031
53672.49553,15.509,0.031
53675.440392,15.652,0.03
53675.452521,15.53,0.03
53675.464598,15.508,0.03
53675.47691,15.466,0.028
53675.489877,15.586,0.03
53681.472568,14.879,0.018
53681.485988,14.811,0.015
53681.499583,14.82,0.015
53703.391257,15.218,0.017
53703.403972,15.26,0.018
53703.418573,15.297,0.02
53703.431726,15.356,0.02
53703.444988,15.397,0.022
53706.40232,15.494,0.02
53706.416212,15.52,0.022
53706.428943,15.583,0.035
53706.441954,15.535,0.087
53706.455134,15.568,0.024
53709.373387,15.586,0.024
53709.386286,15.597,0.026
53709.399006,15.646,0.026
53709.411691,15.662,0.028
53709.42458,15.684,0.028
53714.334271,15.539,0.03
53714.347221,15.501,0.03
53714.360237,15.523,0.028
53714.373114,15.636,0.026
53714.38608,15.609,0.026
53733.329095,15.633,0.028
53733.342277,15.664,0.03
53733.355006,15.638,0.03
53733.367756,15.619,0.03
53733.38041,15.641,0.03
53740.33687,15.289,0.02
53740.349846,15.336,0.02
53740.362667,15.35,0.018
53740.375412,15.452,0.02
53740.388203,15.43,0.022
53770.218631,15.626,0.028
53770.231695,15.635,0.028
53770.244668,15.57,0.026
53770.257623,15.618,0.026
53770.270854,15.714,0.028
53787.240357,15.718,0.033
53787.253536,15.795,0.035
53788.345348,15.083,0.015
53788.357536,15.128,0.017
53788.381617,15.299,0.031
53788.393782,15.278,0.022
53794.26446,15.413,0.031
53813.24647,15.522,0.033
53813.257551,15.555,0.035
53813.268774,15.584,0.037
53813.279834,15.602,0.039
53813.291339,15.639,0.043
53817.277189,15.659,0.033
53817.288016,15.714,0.039
53817.298858,15.692,0.039
53817.309728,15.674,0.039
53817.320784,15.695,0.041
53818.2222,15.707,0.035
53818.232741,15.704,0.035
53818.243287,15.705,0.035
53818.253842,15.69,0.035
53818.264445,15.71,0.035
53823.195055,15.719,0.031
53823.207072,15.759,0.031
53823.220278,15.735,0.031
53823.232164,15.711,0.031
53823.244327,15.523,0.026
53825.17962,15.663,0.035
53825.189989,15.453,0.031
53825.201355,15.104,0.018
53825.212499,14.912,0.017
53825.222922,14.902,0.017
53829.173156,15.193,0.041
53829.183843,15.248,0.039
53829.194071,15.318,0.039
53829.204211,15.395,0.044
53829.214376,15.536,0.068
53844.136792,15.242,0.026
53844.147249,15.002,0.02
53844.1576,14.972,0.02
53844.168013,15.007,0.02
53844.17863,15.037,0.022
53849.143491,15.447,0.028
53849.154265,15.467,0.028
53849.165068,15.468,0.028
53849.175896,15.513,0.031
53849.187583,15.498,0.03
53852.144157,15.586,0.033
53852.154617,15.607,0.035
53852.165142,15.652,0.037
53852.175668,15.69,0.041
53852.186374,15.685,0.041
53853.134765,15.559,0.046
53853.148338,15.656,0.051
53853.159687,15.665,0.053
53853.170596,15.691,0.053
53853.181491,15.674,0.051
53855.145043,15.694,0.039
53855.155298,15.68,0.037
53855.165613,15.71,0.041
53855.176555,15.708,0.041
53855.186889,15.717,0.043
53858.139596,16.024,0.098
54027.447436,15.571,0.035
54027.459153,15.53,0.033
54027.473219,15.663,0.092
54027.485432,15.628,0.035
54027.496957,15.645,0.035
54029.430298,15.668,0.035
54029.443131,15.606,0.03
54029.455344,15.623,0.031
54029.467552,15.744,0.035
54029.479322,15.807,0.036
54037.432133,15.036,0.018
54037.444997,14.943,0.016
54037.457059,14.983,0.016
54037.469125,15.039,0.018
54037.481558,15.13,0.02
54054.359698,15.717,0.028
54054.371104,15.717,0.028
54054.382474,15.747,0.03
54054.393854,15.689,0.028
54054.405235,15.524,0.024
54055.409831,14.894,0.013
54055.421504,14.905,0.013
54055.433166,14.964,0.013
54055.444834,15.063,0.015
54055.456505,15.11,0.017
54056.378084,14.894,0.018
54056.39079,14.884,0.016
54056.406262,14.972,0.018
54056.419515,15.077,0.018
54056.432076,15.152,0.02
54058.373646,15.099,0.017
54058.385874,15.191,0.017
54058.398129,15.236,0.018
54058.410365,15.284,0.018
54058.422614,15.333,0.018
54061.374381,15.371,0.02
54061.386802,15.408,0.02
54061.399742,15.464,0.02
54061.412179,15.456,0.02
54061.424633,15.491,0.022
54066.390088,15.659,0.026
54066.422507,15.833,0.061
54066.435526,15.729,0.036
54070.380497,15.537,0.028
54070.393444,15.581,0.028
54070.406666,15.614,0.028
54070.419626,15.507,0.022
54070.432686,15.302,0.017
54084.329754,15.668,0.038
54084.335884,15.542,0.026
54084.34278,15.656,0.038
54084.349375,15.507,0.026
54084.355942,15.686,0.038
54084.362866,15.508,0.026
54084.369099,15.691,0.038
54084.376363,15.529,0.026
54084.382316,15.693,0.038
54084.389865,15.619,0.026
54087.341346,15.605,0.028
54087.35433,15.646,0.03
54087.367256,15.638,0.028
54087.380182,15.68,0.03
54087.393114,15.743,0.035
54098.320551,15.53,0.028
54098.332163,15.524,0.026
54098.343812,15.572,0.028
54098.355575,15.609,0.026
54110.273143,14.976,0.021
54110.286161,14.955,0.02
54110.299006,15.011,0.021
54110.311789,15.075,0.025
54110.324517,15.123,0.026
54121.269525,15.733,0.03
54121.274234,15.75,0.031
54121.281753,15.722,0.024
54121.286757,15.734,0.03
54121.29398,15.722,0.024
54121.29998,15.755,0.031
54121.306223,15.694,0.024
54121.312719,15.754,0.028
54121.318574,15.722,0.024
54121.32543,15.719,0.028
54124.265899,15.639,0.02
54124.278256,15.606,0.02
54124.290525,15.545,0.02
54124.302783,15.588,0.02
54124.315056,15.671,0.02
54149.222934,15.293,0.02
54149.234635,15.323,0.02
54149.246929,15.362,0.021
54149.258663,15.391,0.021
54149.270369,15.411,0.021
54175.215466,15.692,0.024
54175.225999,15.669,0.024
54175.236632,15.687,0.024
54175.247197,15.727,0.026
54175.257843,15.687,0.024
54206.173997,15.599,0.033
54206.183171,15.615,0.035
54206.192391,15.601,0.033
54206.201582,15.609,0.035
54206.211295,15.631,0.036
54207.173581,15.628,0.031
54207.182743,15.681,0.035
54207.191882,15.651,0.033
54207.201368,15.626,0.033
54207.210532,15.686,0.035
54210.174093,15.754,0.035
54210.183012,15.78,0.035
54210.191893,15.707,0.033
54210.20079,15.704,0.031
54210.20967,15.697,0.031
54385.426431,15.648,0.026
54385.437674,15.609,0.026
54385.448908,15.609,0.024
54385.460254,15.623,0.024
54385.471469,15.618,0.024
54388.427145,15.651,0.026
54388.43851,15.619,0.026
54388.449818,15.607,0.024
54388.461106,15.602,0.024
54388.472489,15.651,0.024
54396.434126,15.186,0.017
54396.445869,15.228,0.017
54396.457541,15.36,0.018
54396.469192,15.389,0.017
54396.48085,15.4,0.017
54410.431297,14.969,0.017
54410.443624,15.038,0.022
54410.455836,15.105,0.026
54410.468039,15.153,0.031
54410.480304,15.207,0.02
54419.442926,15.541,0.018
54419.455779,15.545,0.017
54419.468512,15.496,0.017
54419.481249,15.587,0.018
54419.493999,15.537,0.018
54424.327625,15.617,0.026
54424.340126,15.608,0.026
54424.352797,15.536,0.022
54424.365395,15.504,0.02
54424.377958,15.572,0.018
54440.351629,15.569,0.017
54440.364415,15.475,0.017
54440.377303,15.608,0.017
54440.390097,15.617,0.018
54440.4029,15.572,0.017
54444.328214,15.513,0.02
54444.341129,15.652,0.028
54444.354037,15.477,0.02
54444.367031,15.37,0.018
54444.380126,15.041,0.013
54448.326837,14.846,0.009
54448.339831,14.908,0.011
54448.352821,14.987,0.013
54448.365798,15.024,0.013
54448.378784,15.098,0.015
54454.287434,15.235,0.022
54454.300516,15.358,0.022
54454.313602,15.369,0.022
54465.458014,15.478,0.017
54465.470917,15.457,0.018
54465.483824,15.45,0.018
54465.496729,15.517,0.02
54465.509639,15.504,0.02
54474.27474,15.643,0.048
54474.287947,15.783,0.065
54474.313738,15.776,0.107
54474.326634,15.777,0.052
54508.22977,15.369,0.015
54508.241927,15.394,0.015
54508.254087,15.54,0.015
54508.266325,15.645,0.026
54508.278837,15.636,0.028
54523.277094,15.531,0.015
54523.288724,15.521,0.017
54523.300444,15.496,0.017
54523.312037,15.505,0.018
54523.323796,15.483,0.02
54530.222054,15.622,0.03
54530.233395,15.726,0.033
54530.244795,15.703,0.052
54530.256158,15.706,0.067
54530.267715,15.657,0.035
54537.159291,14.676,0.009
54537.170223,14.804,0.013
54537.181292,14.796,0.011
54537.192219,14.817,0.009
54537.203174,14.858,0.011
54554.19859,15.077,0.018
54554.210636,15.19,0.011
54554.22257,15.222,0.011
54554.234638,15.293,0.015
54563.18472,15.429,0.018
54563.1962,15.543,0.02
54563.207774,15.525,0.02
54563.219245,15.473,0.02
54563.230837,15.526,0.02
54574.137107,15.167,0.031
54574.147749,15.223,0.033
54574.158374,15.268,0.033
54574.168961,15.264,0.035
54574.179563,15.316,0.037
54582.141584,15.617,0.03
54582.152098,15.676,0.031
54582.162977,15.641,0.03
54582.173459,15.617,0.03
54582.183954,15.684,0.033
54585.142401,15.905,0.098
54592.139151,15.318,0.02
54592.149571,15.385,0.02
54592.159995,15.398,0.024
54592.170416,15.434,0.024
54592.180852,15.44,0.024
