mjd,m,merr
52649.377379,15.784,0.024
52649.393724,15.827,0.028
52649.409553,15.901,0.03
52649.427977,15.943,0.031
52649.44429,15.969,0.031
52664.275384,16.098,0.041
52664.292792,16.041,0.04
52664.30967,15.964,0.038
52664.326767,15.922,0.04
52672.317559,16.114,0.051
52672.332675,16.034,0.043
52672.362107,16.195,0.049
52672.377145,16.05,0.051
52675.254455,16.209,0.118
52696.271862,15.863,0.021
52696.272475,15.872,0.031
52696.285956,15.895,0.033
52696.299434,15.961,0.033
52696.312913,16.059,0.038
52696.325776,16.005,0.026
52696.326389,16.041,0.038
52710.18184,16.165,0.058
52710.208557,16.129,0.054
52710.222348,16.172,0.056
52710.236439,16.251,0.069
52723.177704,16.224,0.045
52723.190523,16.11,0.041
52723.202675,15.79,0.04
52723.214889,15.478,0.03
52723.226967,15.225,0.028
52733.185775,15.621,0.028
52733.198204,15.726,0.031
52733.210165,15.732,0.031
52733.22204,15.812,0.035
52733.233904,15.797,0.033
52752.135419,16.208,0.051
52752.146022,16.136,0.048
52752.156625,16.154,0.046
52752.16723,16.151,0.051
52752.177996,16.218,0.053
52935.440524,15.703,0.048
52935.451975,15.788,0.049
52935.46342,15.824,0.049
52935.475235,15.889,0.051
52935.486735,15.934,0.053
52946.447713,15.842,0.059
52976.391363,15.775,0.02
52976.404349,15.789,0.02
52976.417718,15.805,0.02
52976.430711,15.872,0.022
52976.443937,15.925,0.024
52990.393993,16.17,0.036
52990.406475,16.098,0.035
52990.419089,16.201,0.038
52990.432106,16.165,0.036
52990.444572,16.218,0.046
53001.353964,16.196,0.025
53001.367277,16.087,0.021
53001.380582,15.665,0.015
53001.393901,15.332,0.012
53003.317291,16.212,0.024
53003.330048,16.171,0.024
53003.341978,16.05,0.02
53003.353873,15.612,0.015
53003.366081,15.298,0.011
53023.276139,15.894,0.021
53023.288637,15.937,0.023
53023.300955,15.974,0.023
53023.3139,16.001,0.025
53023.326907,16.022,0.025
53035.289418,16.196,0.048
53035.302279,16.29,0.051
53035.315261,16.311,0.051
53035.327566,16.3,0.051
53035.339855,16.471,0.058
53037.28622,16.117,0.045
53037.298851,16.134,0.045
53037.311327,16.221,0.048
53037.323772,16.247,0.049
53037.336147,16.334,0.051
53049.272263,15.329,0.013
53049.284599,15.397,0.013
53049.296397,15.462,0.015
53049.308199,15.525,0.017
53049.320039,15.599,0.017
53062.225706,16.063,0.078
53062.237745,16.451,0.174
53062.276169,16.68,0.194
53077.262514,16.238,0.241
53087.253418,15.348,0.013
53087.264462,15.411,0.015
53087.275579,15.49,0.016
53089.228616,15.358,0.015
53089.239585,15.474,0.016
53089.250552,15.477,0.016
53089.261489,15.513,0.016
53089.272357,15.588,0.018
53107.183756,16.058,0.038
53107.194169,16.054,0.038
53107.204601,16.098,0.041
53107.215134,16.077,0.038
53107.225616,16.127,0.041
53127.148504,15.999,0.084
53127.157777,15.633,0.061
53127.167017,15.301,0.045
53127.176231,15.273,0.045
53127.185563,15.344,0.049
53136.152793,15.683,0.033
53136.161572,15.751,0.036
53136.170379,15.747,0.038
53136.179175,15.808,0.043
53136.188044,15.779,0.043
53149.158436,16.178,0.054
53149.16755,16.218,0.057
53149.178032,16.136,0.057
53149.187016,16.108,0.061
53149.195949,16.049,0.061
53282.451272,16.351,0.111
53282.463231,16.327,0.104
53282.474553,16.425,0.104
53282.485384,16.411,0.106
53294.456023,15.619,0.026
53294.467463,15.664,0.026
53294.478987,15.757,0.028
53294.490391,15.75,0.028
53302.437052,15.739,0.035
53302.448946,15.749,0.035
53302.460849,15.807,0.037
53302.472764,15.81,0.037
53302.484683,15.832,0.037
53313.42743,15.929,0.067
53313.439358,15.942,0.065
53313.451286,15.925,0.063
53313.463206,15.953,0.065
53313.475134,15.96,0.067
53328.420311,15.281,0.025
53331.390843,15.171,0.024
53331.403728,15.269,0.022
53331.41641,15.317,0.022
53331.428768,15.417,0.024
53331.441128,15.307,0.043
53341.41743,16.352,0.133
53341.429437,16.504,0.152
53348.351667,15.945,0.076
53348.365662,16.029,0.076
53348.379849,16.099,0.051
53348.393781,16.088,0.041
53348.407644,16.124,0.043
53354.360914,16.177,0.045
53354.375663,16.18,0.045
53354.39002,16.147,0.041
53354.404298,16.23,0.045
53354.41883,16.174,0.038
53387.488284,16.095,0.039
53387.503082,16.172,0.044
53387.516996,16.189,0.044
53387.53107,16.196,0.048
53401.313883,16.357,0.058
53401.326393,16.414,0.061
53401.338918,16.541,0.069
53401.351464,16.417,0.066
53401.364026,16.33,0.063
53474.194408,16.23,0.054
53474.20401,16.175,0.054
53474.214266,16.23,0.055
53474.223989,16.19,0.055
53474.233595,16.185,0.055
53683.4453,16.19,0.052
53683.457694,16.229,0.048
53683.469932,16.236,0.052
53683.482247,16.154,0.08
53683.494604,15.971,0.044
53701.441897,15.81,0.052
53728.337541,16.208,0.044
53728.350655,16.175,0.055
53728.363752,16.177,0.067
53728.377523,15.839,0.048
53728.390842,15.408,0.026
53742.350781,15.771,0.022
53742.363718,15.799,0.022
53742.376719,15.839,0.024
53742.389761,15.855,0.024
53742.402521,15.913,0.026
53744.330747,15.846,0.037
53744.343884,15.883,0.037
53744.357619,15.941,0.037
53744.370878,15.962,0.039
53744.383991,15.978,0.041
53772.225046,16.336,0.05
53772.237876,16.325,0.048
53772.250642,16.298,0.046
53772.263484,16.176,0.041
53772.277437,15.743,0.028
53786.293015,15.959,0.03
53786.306012,15.992,0.031
53786.31904,16.072,0.035
53786.332053,16.13,0.036
53786.345122,16.166,0.043
53812.253368,15.191,0.022
53812.275509,15.308,0.026
53812.286582,15.351,0.03
53812.297671,15.44,0.031
53824.257521,15.901,0.031
53824.269803,15.923,0.03
53824.281488,15.967,0.048
53824.292966,16.037,0.061
53824.30451,16.106,0.104
53843.192936,16.177,0.052
53843.204442,16.188,0.054
53843.215759,16.146,0.052
53843.227094,16.177,0.055
53843.239002,16.16,0.057
53855.144017,15.739,0.036
53855.15415,15.442,0.028
53855.164274,15.328,0.026
53855.17444,15.312,0.026
53855.184607,15.35,0.028
53878.156205,16.257,0.091
53878.168655,16.161,0.089
53878.203864,16.08,0.089
53878.220657,16.263,0.116
54025.432566,15.789,0.048
54025.445139,15.899,0.051
54025.45745,15.81,0.048
54025.469667,15.946,0.049
54025.481628,15.957,0.048
54054.399012,15.72,0.035
54054.411598,15.421,0.026
54054.424218,15.283,0.021
54054.436798,15.336,0.023
54054.449244,15.367,0.023
54068.393665,15.881,0.033
54068.406718,15.879,0.035
54068.41959,15.939,0.036
54068.43277,15.935,0.036
54068.445765,15.941,0.036
54086.299189,15.906,0.168
54086.329058,16.018,0.102
54086.342696,16.153,0.069
54086.356239,16.141,0.056
54109.316023,15.806,0.054
54109.327895,15.861,0.059
54109.339696,15.951,0.066
54109.351447,15.924,0.073
54109.363267,15.999,0.073
54126.263339,16.128,0.041
54126.275801,16.072,0.083
54126.288302,16.106,0.098
54169.219481,16.163,0.026
54169.230415,16.141,0.026
54169.241411,16.17,0.026
54169.25236,16.171,0.028
54169.263375,16.276,0.03
54200.17762,16.125,0.035
54200.189215,16.14,0.035
54200.199215,16.138,0.037
54200.208967,16.163,0.037
54200.218784,16.191,0.037
54209.172045,16.219,0.051
54209.180786,16.269,0.087
54209.189564,16.164,0.054
54209.198939,16.202,0.073
54209.207753,16.234,0.071
54396.432898,15.895,0.048
54396.459334,15.769,0.04
54413.436464,16.205,0.028
54413.448689,16.112,0.026
54413.460908,15.728,0.018
54413.473105,15.427,0.013
54413.485336,15.215,0.011
54437.454026,16.166,0.028
54437.466763,16.143,0.026
54437.479495,16.167,0.026
54437.492222,16.148,0.026
54437.504996,16.162,0.026
54452.329539,16.071,0.024
54452.342423,16.088,0.024
54452.355302,16.11,0.024
54452.368146,16.18,0.026
54452.380994,16.185,0.026
54477.330052,16.018,0.024
54477.342965,16.069,0.026
54477.355762,16.085,0.026
54477.368572,16.113,0.028
54477.381373,16.129,0.028
54509.265869,15.769,0.031
54509.277934,15.861,0.033
54509.289755,15.837,0.033
54509.301569,15.889,0.035
54509.313334,15.917,0.035
54536.213857,16.211,0.045
54536.225824,16.316,0.049
54536.236718,16.312,0.048
54536.247793,16.226,0.045
54536.258712,16.068,0.04
54567.17725,16.209,0.039
54567.188677,16.224,0.037
54567.199739,16.206,0.039
54567.210929,16.211,0.041
54567.222293,16.21,0.041
54583.146866,15.295,0.033
54583.157036,15.248,0.033
54583.167129,15.242,0.035
54583.177217,15.338,0.036
54583.18753,15.43,0.038
