mjd,m,merr
52608.451419,16.083,0.083
52608.46631,15.991,0.059
52608.481265,15.979,0.08
52608.496116,15.947,0.067
52622.459521,15.983,0.043
52622.475287,16.13,0.05
52622.490827,16.274,0.057
52622.506399,16.365,0.061
52622.521982,16.39,0.059
52640.380517,16.0,0.035
52640.395583,16.069,0.038
52640.410598,16.106,0.038
52640.42603,16.256,0.045
52640.441706,16.248,0.043
52644.387907,15.978,0.036
52644.402885,16.003,0.036
52644.417841,16.054,0.038
52644.432803,16.136,0.04
52644.44812,16.278,0.049
52648.325358,16.394,0.061
52648.340603,16.359,0.059
52648.355894,16.163,0.116
52648.371377,16.186,0.051
52648.386573,16.081,0.046
52667.315288,16.235,0.046
52667.329977,16.125,0.041
52667.344652,16.078,0.04
52667.359329,16.045,0.04
52667.374054,16.042,0.04
52669.311803,16.346,0.041
52669.327239,16.184,0.037
52669.342683,16.121,0.035
52669.358135,16.093,0.035
52669.373564,16.021,0.033
52671.35843,16.156,0.046
52671.373625,16.103,0.045
52671.389134,16.057,0.045
52671.404046,16.019,0.045
52671.419036,16.086,0.046
52700.288363,16.049,0.043
52700.304028,16.206,0.048
52700.319108,16.327,0.053
52700.334905,16.461,0.063
52700.350102,16.444,0.063
52707.24128,16.199,0.041
52707.2546,16.097,0.037
52707.267858,16.05,0.035
52707.281113,16.046,0.035
52707.294406,16.003,0.035
52728.176701,16.494,0.061
52728.188833,16.385,0.056
52728.201266,16.377,0.056
52728.213334,16.188,0.048
52728.225399,16.132,0.046
52731.184211,16.358,0.074
52731.208817,16.772,0.389
52738.178479,15.981,0.048
52738.189894,16.027,0.052
52738.201425,16.046,0.054
52738.212846,16.181,0.061
52738.224313,16.316,0.072
52755.141895,16.048,0.041
52755.153923,16.09,0.043
52755.166064,16.179,0.046
52755.178153,16.29,0.052
52755.190214,16.295,0.054
52973.376258,16.036,0.041
52973.38736,16.066,0.041
52973.398418,16.189,0.046
52973.409506,16.298,0.051
52973.420714,16.367,0.053
53033.275578,16.131,0.043
53033.287828,16.217,0.044
53033.299904,16.318,0.05
53033.312101,16.302,0.048
53033.324258,16.251,0.046
53053.283608,16.362,0.087
53053.29729,16.182,0.044
53053.309932,16.125,0.057
53053.324102,16.121,0.096
53053.335837,15.917,0.031
53079.245964,16.141,0.037
53079.256654,16.276,0.043
53079.267296,16.233,0.041
53079.278151,16.291,0.043
53079.288806,16.225,0.041
53110.139157,16.292,0.055
53110.150021,16.247,0.054
53110.160835,16.228,0.052
53110.171729,16.007,0.044
53110.182595,16.037,0.046
53138.150586,16.356,0.059
53138.160525,16.458,0.067
53138.170392,16.412,0.063
53138.180194,16.316,0.059
53138.19004,16.215,0.054
53287.42912,16.317,0.112
53287.440045,16.46,0.119
53287.450937,16.403,0.106
53287.462123,16.363,0.097
53287.473033,16.303,0.087
53292.427993,16.086,0.073
53292.437599,16.129,0.071
53292.447239,16.183,0.071
53292.457885,16.222,0.071
53292.467489,16.322,0.074
53296.437714,16.064,0.063
53296.44948,16.117,0.061
53296.460825,16.159,0.063
53296.472111,16.147,0.056
53296.484217,16.279,0.061
53315.457545,16.388,0.094
53315.469449,16.344,0.086
53327.381826,16.387,0.078
53327.394899,16.365,0.086
53327.407396,16.167,0.056
53327.419634,16.155,0.081
53327.4321,16.095,0.059
53346.379982,16.077,0.046
53346.392258,16.038,0.045
53346.40464,16.013,0.045
53346.417375,16.032,0.043
53346.429593,16.048,0.043
53347.435554,16.09,0.045
53347.449379,16.112,0.043
53347.463387,16.259,0.059
53347.477128,16.311,0.051
53351.418414,16.075,0.048
53351.432707,16.012,0.046
53351.447139,16.103,0.049
53351.462065,16.04,0.048
53351.476627,16.091,0.053
53352.443655,16.013,0.048
53352.458732,16.045,0.049
53352.47346,16.15,0.056
53352.488146,16.167,0.063
53352.502945,16.204,0.066
53353.411534,16.169,0.049
53353.425593,16.159,0.054
53353.439717,16.068,0.051
53353.453821,16.068,0.051
53353.468019,16.014,0.048
53466.220225,16.039,0.046
53466.229642,16.209,0.054
53466.238995,16.279,0.057
53466.248355,16.457,0.072
53466.257768,16.393,0.065
53468.211967,16.122,0.089
53468.221477,16.105,0.076
53710.443097,16.042,0.044
53710.455649,16.113,0.048
53710.469008,16.257,0.057
53710.481687,16.419,0.067
53710.494262,16.457,0.07
53746.338443,16.085,0.068
53746.352269,16.08,0.067
53746.364789,16.159,0.074
53746.377512,16.318,0.081
53746.390054,16.491,0.096
53790.235093,15.977,0.036
53790.246935,16.0,0.038
53790.258833,15.965,0.038
53790.270623,16.015,0.038
53790.282317,16.017,0.038
53818.226658,16.14,0.045
53818.237781,16.076,0.045
53818.248873,16.048,0.043
53818.260001,16.012,0.041
53818.271267,15.983,0.043
53845.136185,15.971,0.043
53845.147494,16.037,0.046
53845.158812,16.051,0.049
53845.170163,16.138,0.053
53845.181529,16.19,0.059
53850.142869,15.966,0.069
53850.153166,15.915,0.063
53850.163516,15.991,0.058
53850.173823,15.897,0.106
53850.184261,16.066,0.063
54039.446728,16.226,0.061
54039.458663,16.256,0.064
54039.470564,16.207,0.061
54039.482513,16.224,0.059
54039.494673,16.132,0.051
54059.387097,16.362,0.069
54059.400834,16.481,0.074
54059.4136,16.429,0.068
54059.426694,16.287,0.059
54059.43926,16.109,0.048
54091.297633,16.244,0.061
54091.309518,16.177,0.058
54091.321692,16.083,0.051
54091.333589,16.025,0.048
54091.345474,16.005,0.053
54152.228045,15.916,0.026
54152.240453,15.906,0.026
54152.252773,15.921,0.024
54152.265284,15.932,0.026
54152.27779,15.996,0.026
54173.212858,15.959,0.035
54173.223546,15.927,0.033
54173.234428,15.987,0.036
54173.24524,15.99,0.036
54173.256114,15.996,0.036
54185.177508,16.208,0.094
54185.187646,16.411,0.127
54185.208149,16.465,0.13
54185.21872,16.458,0.129
54200.170187,16.204,0.063
54200.179633,16.111,0.056
54200.18938,16.007,0.051
54200.199102,16.052,0.054
54200.208593,15.966,0.049
54415.439255,15.824,0.024
54415.451986,15.855,0.022
54415.464403,15.898,0.024
54415.476804,15.846,0.024
54415.489184,15.887,0.026
54448.383654,16.238,0.045
54448.397085,16.367,0.051
54448.409738,16.272,0.04
54448.42226,16.279,0.038
54448.434735,16.14,0.033
54480.270186,16.19,0.031
54480.283183,16.182,0.03
54480.296185,16.144,0.026
54480.309172,16.01,0.024
54480.32217,16.002,0.024
54497.332432,16.008,0.046
54497.345018,16.019,0.026
54497.357576,16.108,0.028
54497.37011,16.222,0.043
54497.382667,16.247,0.05
54505.283268,16.261,0.03
54505.29564,16.151,0.026
54505.307954,16.089,0.024
54505.320274,15.986,0.022
54505.33301,15.974,0.022
54507.337286,15.997,0.04
54507.349389,15.975,0.04
54507.3614,16.003,0.04
54507.373246,15.957,0.038
54507.385122,15.943,0.038
54521.352938,16.182,0.065
54521.376326,16.187,0.054
54521.388042,16.274,0.063
54526.278798,15.994,0.026
54526.290275,15.982,0.026
54526.301799,15.918,0.024
54526.313313,15.88,0.024
54526.324978,15.865,0.024
54534.271873,16.261,0.07
54534.293717,16.235,0.028
54534.304668,16.17,0.026
54534.315601,16.136,0.026
54535.284039,16.273,0.045
54535.295097,16.331,0.048
54535.306077,16.275,0.046
54535.317198,16.231,0.046
54535.32842,16.157,0.045
54540.11306,15.997,0.044
54540.123962,16.108,0.048
54540.13484,16.176,0.05
54540.145748,16.217,0.052
54540.156665,16.256,0.052
54552.245993,16.318,0.035
54552.258093,16.272,0.033
54552.27018,16.182,0.031
54552.282191,16.036,0.031
54552.294205,15.974,0.033
54580.142009,16.135,0.066
54580.152251,16.035,0.061
54580.16271,16.002,0.059
54580.1805,16.063,0.064
54580.191703,15.985,0.059
54583.194484,15.966,0.041
54583.205134,15.9,0.043
54590.194774,16.061,0.037
54590.205099,16.046,0.05
54590.215428,15.999,0.041
54590.22579,15.96,0.041
54590.236143,15.991,0.043
