mjd,m,merr
52602.382563,15.205,0.03
52602.397881,15.244,0.031
52602.413265,15.307,0.031
52602.428616,15.305,0.033
52602.443981,15.359,0.037
52621.367697,15.62,0.024
52621.382394,15.557,0.024
52621.397175,15.49,0.022
52621.411902,15.381,0.022
52621.426645,15.324,0.02
52635.364582,15.595,0.026
52635.378863,15.64,0.03
52635.393075,15.6,0.028
52635.407071,15.614,0.03
52635.421114,15.583,0.03
52654.307743,15.32,0.065
52654.322609,15.335,0.043
52654.337447,15.401,0.054
52654.352412,15.407,0.037
52654.367285,15.505,0.048
52662.305871,15.681,0.03
52662.320322,15.656,0.03
52662.334789,15.693,0.03
52662.349268,15.663,0.03
52662.363774,15.692,0.031
52692.271327,15.544,0.02
52692.28746,15.574,0.024
52692.304029,15.58,0.026
52692.319957,15.578,0.026
52692.335935,15.582,0.026
52720.214875,15.329,0.018
52743.185195,15.635,0.044
52743.19723,15.578,0.043
52743.209294,15.605,0.044
52743.221416,15.647,0.046
52743.23347,15.627,0.048
52749.133826,15.285,0.018
52749.144842,15.257,0.018
52749.155734,15.213,0.017
52749.166724,15.185,0.017
52749.177742,15.194,0.018
52772.150571,15.694,0.056
52772.162136,15.684,0.058
52772.1739,15.762,0.069
52772.185708,15.688,0.061
52772.186191,15.444,0.053
52772.197765,15.847,0.086
52925.439854,15.844,0.065
52925.45121,15.746,0.057
52925.46284,15.735,0.057
52925.474617,15.653,0.052
52925.486091,15.659,0.052
52949.433884,15.221,0.024
52949.446115,15.207,0.022
52949.458201,15.172,0.02
52949.470406,15.192,0.018
52949.482609,15.205,0.018
52979.390574,15.759,0.065
52979.403082,15.717,0.065
52979.415713,15.769,0.068
52984.330855,15.314,0.035
52984.343784,15.396,0.037
52984.356727,15.421,0.039
52984.369711,15.447,0.039
52984.38248,15.465,0.039
53009.338695,15.536,0.035
53009.351384,15.547,0.035
53009.36412,15.571,0.035
53009.377523,15.598,0.035
53009.391064,15.592,0.035
53017.325409,15.631,0.033
53017.337672,15.558,0.031
53017.349908,15.563,0.031
53017.362151,15.506,0.031
53017.374357,15.444,0.03
53018.330885,15.675,0.085
53018.343578,15.609,0.057
53018.356213,15.656,0.044
53018.368907,15.573,0.037
53018.381807,15.568,0.024
53044.283604,15.703,0.039
53044.297927,15.662,0.037
53044.311524,15.678,0.076
53074.22365,15.566,0.028
53074.23457,15.609,0.03
53074.245447,15.594,0.03
53074.256286,15.604,0.031
53074.267231,15.62,0.031
53104.1971,15.292,0.02
53104.208242,15.324,0.022
53104.219316,15.422,0.026
53104.2304,15.43,0.022
53104.241478,15.471,0.026
53133.154171,15.175,0.041
53133.163698,15.123,0.041
53133.173315,15.183,0.024
53133.182822,15.164,0.022
53156.164534,15.58,0.046
53156.173405,15.553,0.046
53156.182185,15.542,0.046
53156.191,15.517,0.046
53156.199805,15.571,0.05
53162.175689,15.221,0.072
53162.185868,15.144,0.03
53162.19605,15.173,0.028
53162.206223,15.082,0.091
53280.438905,15.412,0.054
53280.449452,15.356,0.044
53280.459983,15.445,0.046
53311.444367,15.697,0.052
53311.456486,15.682,0.05
53311.468596,15.722,0.059
53330.438789,15.358,0.024
53330.451297,15.402,0.026
53330.46382,15.433,0.026
53330.476326,15.478,0.035
53330.488836,15.466,0.028
53339.397093,15.635,0.054
53339.410082,15.674,0.057
53339.424722,15.674,0.057
53339.437522,15.703,0.057
53339.450206,15.777,0.061
53356.386879,15.265,0.02
53356.400745,15.27,0.022
53356.414908,15.323,0.022
53356.428876,15.434,0.024
53356.442057,15.427,0.024
53358.330476,15.446,0.021
53358.343442,15.379,0.02
53358.357111,15.212,0.018
53358.371415,15.01,0.015
53358.386808,15.054,0.015
53399.292159,15.533,0.031
53399.308597,15.44,0.03
53399.322436,15.344,0.028
53399.336595,15.308,0.028
53399.350686,15.205,0.024
53428.278717,15.63,0.041
53428.305411,15.66,0.043
53428.317436,15.699,0.043
53428.329477,15.66,0.041
53459.237282,15.536,0.026
53459.248826,15.536,0.028
53459.259315,15.554,0.03
53459.269802,15.615,0.033
53459.2803,15.593,0.035
53482.191606,15.595,0.052
53482.203079,15.618,0.054
53482.213786,15.681,0.057
53482.224588,15.645,0.055
53482.235149,15.647,0.055
53487.181976,15.321,0.02
53487.19062,15.313,0.02
53487.199239,15.377,0.022
53487.208515,15.414,0.026
53487.217199,15.38,0.031
53638.424779,15.716,0.048
53638.43549,15.745,0.048
53638.446147,15.749,0.05
53638.45682,15.753,0.048
53638.467488,15.768,0.048
53688.383346,15.463,0.043
53688.395888,15.279,0.035
53688.420633,15.048,0.026
53688.432997,14.874,0.022
53753.279766,15.036,0.02
53753.293187,15.035,0.02
53753.306624,15.067,0.022
53753.319576,15.129,0.024
53753.333204,15.138,0.022
53777.358472,15.544,0.049
53777.375431,15.527,0.048
53777.395156,15.561,0.051
53806.335133,15.253,0.041
53861.146037,15.647,0.033
53861.157691,15.638,0.033
53861.168577,15.594,0.033
53861.179096,15.552,0.031
53861.189104,15.407,0.03
54048.376722,15.691,0.046
54048.388774,15.704,0.044
54048.400821,15.671,0.043
54048.412873,15.664,0.043
54048.424918,15.667,0.043
54077.302098,15.517,0.041
54077.315574,15.526,0.041
54077.329099,15.599,0.044
54077.342583,15.681,0.046
54077.347697,15.575,0.046
54077.361094,15.656,0.044
54138.234917,15.729,0.033
54138.247259,15.713,0.033
54138.260118,15.697,0.036
54138.272319,15.671,0.031
54166.226039,15.613,0.053
54166.237384,15.686,0.053
54216.174997,15.227,0.033
54216.183459,15.193,0.031
54216.191838,15.172,0.031
54216.200221,15.156,0.031
54216.208611,15.161,0.03
54453.329413,15.296,0.025
54453.341982,15.111,0.02
54453.355218,14.833,0.016
54453.368036,14.888,0.016
54453.380565,14.943,0.018
54522.222975,15.701,0.026
54522.235999,15.701,0.028
54522.247517,15.722,0.03
54522.259171,15.786,0.03
54522.270675,15.762,0.03
54553.187474,15.478,0.016
54553.200421,15.474,0.016
54553.212768,15.575,0.016
54553.224979,15.523,0.018
54555.12808,15.174,0.026
54555.140438,15.2,0.026
54555.152447,15.234,0.028
54555.164701,15.224,0.028
54555.176838,15.289,0.028
54573.197871,15.15,0.031
54573.211428,15.063,0.028
54573.225112,15.061,0.03
54573.236993,15.099,0.033
54597.190505,15.277,0.049
