mjd,m,merr
52613.378548,15.198,0.02
52613.393874,15.364,0.022
52613.409201,15.381,0.02
52613.424783,15.159,0.017
52613.440062,15.019,0.015
52618.399194,15.194,0.044
52618.415047,15.032,0.017
52618.430539,14.962,0.017
52618.446015,15.005,0.024
52640.421209,15.142,0.015
52640.43666,15.263,0.017
52640.452278,15.4,0.018
52640.467292,15.362,0.018
52640.482125,15.181,0.015
52643.373066,15.047,0.015
52643.387337,15.151,0.017
52643.401493,15.272,0.018
52643.415785,15.281,0.018
52643.429913,15.178,0.017
52647.387871,14.914,0.015
52647.402837,14.918,0.015
52647.417172,15.001,0.017
52647.431668,15.131,0.018
52647.446028,15.268,0.02
52666.317181,15.068,0.016
52666.332222,14.996,0.015
52666.347285,14.978,0.015
52666.362457,14.973,0.015
52666.377182,15.034,0.016
52667.311212,14.999,0.013
52667.326532,15.071,0.015
52667.341938,15.19,0.017
52667.357415,15.227,0.018
52667.37264,15.186,0.017
52670.329929,15.278,0.017
52670.343899,15.146,0.015
52670.357886,15.027,0.015
52670.371892,14.98,0.015
52670.385895,14.981,0.015
52672.31307,15.181,0.022
52672.327,15.282,0.018
52672.341008,15.288,0.02
52672.355107,15.212,0.017
52672.369027,15.093,0.017
52673.22918,15.07,0.015
52673.244691,15.184,0.017
52673.26029,15.289,0.018
52673.275772,15.291,0.017
52673.291332,15.196,0.015
52673.292817,15.153,0.017
52673.308237,15.069,0.015
52673.323426,15.01,0.015
52673.338685,14.992,0.015
52673.354011,14.981,0.015
52674.316268,15.058,0.017
52674.333076,15.182,0.018
52674.347937,15.346,0.02
52674.362212,15.34,0.022
52674.376273,15.208,0.018
52678.307283,14.987,0.017
52678.321383,14.968,0.02
52678.335296,14.99,0.015
52678.34936,15.034,0.017
52678.363483,15.115,0.017
52698.237039,15.002,0.013
52698.250541,15.105,0.041
52698.264164,15.091,0.048
52698.277982,15.199,0.02
52698.29211,15.321,0.017
52703.244635,15.088,0.015
52703.258065,15.215,0.03
52703.272007,15.363,0.03
52703.285506,15.379,0.022
52703.298819,15.261,0.018
52725.275805,15.053,0.073
52727.228042,15.423,0.081
52730.179652,15.285,0.017
52730.192009,15.294,0.015
52730.204286,15.234,0.015
52730.215763,15.143,0.013
52730.227382,15.072,0.013
52733.190347,15.037,0.015
52733.202473,15.022,0.015
52733.214625,14.982,0.015
52733.226901,14.964,0.015
52733.239038,14.987,0.015
52754.145135,15.283,0.018
52754.157206,15.201,0.017
52754.16926,15.116,0.017
52754.181371,15.063,0.017
52754.193554,15.0,0.015
52758.145403,15.119,0.015
52758.157402,15.19,0.017
52758.169433,15.282,0.018
52758.18161,15.315,0.018
52758.193654,15.248,0.018
52933.474237,15.134,0.03
52933.486818,15.086,0.026
52936.485551,14.979,0.013
52936.497679,15.048,0.015
52940.459947,15.225,0.041
52940.495936,15.05,0.04
52944.447654,15.107,0.023
52944.460203,15.185,0.025
52944.472891,15.293,0.026
52944.485208,15.299,0.026
52944.497564,15.263,0.025
52964.45562,14.976,0.011
52964.468535,14.999,0.011
52964.481957,15.054,0.013
52964.497328,15.117,0.013
52964.511135,15.177,0.013
52966.402909,15.419,0.018
52966.415644,15.353,0.018
52966.428493,15.211,0.017
52966.44114,15.109,0.015
52966.453849,15.041,0.013
52974.410024,14.971,0.011
52974.422957,14.936,0.011
52974.435974,15.005,0.011
52974.448815,15.056,0.013
52993.390224,15.029,0.012
52993.402587,15.042,0.012
52993.415022,15.102,0.012
52993.427486,15.154,0.012
52993.439868,15.247,0.013
52994.398943,15.342,0.023
52994.411783,15.238,0.013
52994.424406,15.129,0.013
52994.438391,15.072,0.013
52994.451,15.015,0.013
52996.331723,14.976,0.01
52996.344419,14.983,0.012
52996.356969,14.986,0.012
52996.369533,15.044,0.012
52996.382349,15.111,0.012
53025.288802,15.052,0.01
53025.300203,15.094,0.01
53025.312519,15.158,0.012
53025.323984,15.282,0.015
53025.335748,15.323,0.02
53028.368637,14.988,0.008
53028.380814,15.003,0.008
53028.393683,15.062,0.008
53028.406102,15.11,0.01
53028.418326,15.174,0.013
53029.368471,15.265,0.063
53033.27607,15.37,0.021
53033.288572,15.248,0.02
53033.30128,15.138,0.016
53033.313769,15.087,0.016
53033.326228,15.055,0.015
53052.270924,15.183,0.013
53052.282676,15.085,0.013
53052.294524,15.019,0.011
53052.306453,14.991,0.011
53052.318277,14.965,0.011
53057.348501,15.222,0.041
53079.22255,14.987,0.015
53079.233631,15.01,0.015
53079.244689,15.012,0.015
53079.255621,15.083,0.015
53079.26658,15.147,0.016
53082.234705,15.209,0.012
53082.271285,15.236,0.012
53082.28264,15.149,0.012
53084.236852,15.054,0.01
53084.249316,15.101,0.012
53084.260693,15.27,0.012
53084.272018,15.317,0.013
53084.283827,15.4,0.013
53091.228887,15.013,0.012
53091.261249,15.202,0.015
53091.270984,15.271,0.015
53110.184666,14.982,0.018
53110.195676,15.008,0.018
53110.20673,15.082,0.02
53110.217659,15.153,0.021
53115.19794,15.163,0.013
53115.208687,15.229,0.015
53115.219943,15.316,0.016
53115.230751,15.291,0.016
53115.241768,15.197,0.016
53138.151929,15.002,0.018
53138.161764,15.001,0.02
53138.171535,14.95,0.018
53138.181832,15.071,0.02
53138.191515,15.102,0.02
53141.179272,15.257,0.02
53141.188298,15.36,0.021
53141.197273,15.389,0.023
53141.20629,15.39,0.025
53292.406018,15.06,0.03
53292.415579,15.015,0.028
53292.425151,14.985,0.024
53292.43471,14.976,0.022
53292.444278,14.975,0.022
53297.412298,14.943,0.024
53297.422046,14.992,0.024
53297.431793,14.982,0.024
53297.441538,15.025,0.024
53297.451277,15.041,0.024
53316.44237,15.245,0.048
53316.466573,15.279,0.043
53316.478688,15.262,0.061
53327.374052,15.186,0.026
53327.386462,15.115,0.022
53327.398851,15.044,0.02
53327.411241,14.998,0.018
53327.423669,15.007,0.02
53347.465481,14.996,0.015
53347.481967,14.963,0.013
53347.496427,15.003,0.015
53347.515094,15.055,0.015
53353.390718,14.963,0.015
53353.40366,14.953,0.015
53353.416598,14.983,0.015
53353.429547,15.077,0.017
53353.442527,15.187,0.018
53357.436475,14.985,0.013
53357.449874,15.003,0.013
53357.463209,15.031,0.013
53357.478199,15.135,0.015
53357.49326,15.248,0.017
53376.410741,14.939,0.013
53376.425196,14.972,0.013
53376.439119,15.079,0.015
53376.452836,15.168,0.015
53376.466361,15.254,0.017
53381.353247,15.016,0.015
53381.366572,15.0,0.015
53381.380531,14.986,0.02
53381.393844,14.99,0.015
53381.408521,15.057,0.02
53403.288306,15.006,0.011
53403.301118,14.982,0.011
53403.313949,14.974,0.011
53403.326682,15.044,0.013
53432.280589,15.239,0.028
53432.307579,15.369,0.041
53432.334862,15.153,0.035
53437.230643,15.083,0.013
53437.242228,15.113,0.015
53437.254705,15.191,0.015
53437.266306,15.292,0.017
53437.277782,15.441,0.018
53438.224689,15.416,0.017
53438.236297,15.269,0.015
53438.247892,15.156,0.015
53438.259527,15.116,0.013
53438.271184,15.038,0.013
53438.349844,15.182,0.017
53438.362015,15.291,0.02
53438.373541,15.335,0.02
53438.385165,15.287,0.02
53438.39677,15.185,0.02
53440.235579,15.303,0.017
53440.247283,15.293,0.017
53440.258908,15.224,0.017
53440.274093,15.095,0.015
53440.286809,15.077,0.015
53443.213747,15.221,0.018
53443.224748,15.161,0.018
53443.258778,15.058,0.07
53445.34711,15.274,0.018
53445.35842,15.412,0.022
53445.370082,15.463,0.024
53445.382637,15.408,0.022
53445.394388,15.233,0.02
53446.164787,15.239,0.018
53446.175388,15.179,0.017
53446.185975,15.144,0.017
53446.196584,15.101,0.017
53446.207177,15.043,0.015
53464.237373,15.031,0.017
53464.247788,15.019,0.015
53464.258663,14.989,0.015
53464.269037,14.998,0.015
53464.279644,15.002,0.017
53495.150892,15.342,0.024
53495.161041,15.214,0.022
53495.171212,15.142,0.02
53495.181375,15.098,0.02
53495.191496,15.015,0.026
53502.142045,15.297,0.024
53502.152839,15.239,0.022
53502.163103,15.163,0.022
53502.173618,15.105,0.022
53502.184442,15.046,0.02
53671.443995,15.085,0.033
53671.456048,15.157,0.03
53671.468083,15.274,0.035
53671.480146,15.408,0.054
53671.492274,15.354,0.041
53674.464698,15.102,0.02
53674.47684,15.03,0.018
53674.489107,15.06,0.017
53679.448356,15.154,0.018
53679.460604,15.07,0.017
53679.472745,15.023,0.015
53679.484921,15.008,0.015
53679.497759,15.012,0.015
53705.449295,14.977,0.015
53705.462228,14.973,0.015
53705.47495,15.002,0.015
53705.487664,15.034,0.015
53705.500235,15.073,0.015
53708.394631,15.037,0.015
53708.407895,15.015,0.013
53708.421089,15.021,0.013
53708.434081,15.053,0.015
53708.44696,15.072,0.015
53712.39376,15.262,0.02
53712.406612,15.209,0.018
53712.424583,15.085,0.017
53712.438163,15.029,0.015
53712.45191,15.02,0.015
53732.411008,15.185,0.022
53732.423779,15.286,0.028
53732.436556,15.393,0.028
53732.449227,15.309,0.028
53732.461996,15.166,0.024
53735.401359,15.262,0.031
53735.414603,15.191,0.018
53738.344443,15.409,0.022
53738.35872,15.381,0.02
53738.372378,15.198,0.018
53738.385433,15.086,0.017
53738.398663,15.041,0.015
53759.342799,15.284,0.017
53759.355587,15.239,0.018
53759.368389,15.151,0.017
53759.381065,15.131,0.017
53759.393756,15.017,0.015
53762.346721,15.042,0.013
53762.359479,14.989,0.013
53762.372269,14.971,0.013
53762.385288,14.973,0.013
53762.398279,14.994,0.013
53769.320604,15.186,0.015
53769.333812,15.113,0.013
53769.347303,15.039,0.013
53769.361301,15.009,0.013
53769.375146,15.013,0.013
53787.399735,15.047,0.035
53787.41158,15.048,0.031
53787.423468,15.026,0.054
53787.435432,15.096,0.02
53787.447459,15.124,0.022
53789.28913,15.093,0.023
53789.30174,15.096,0.02
53789.314734,15.18,0.03
53789.327233,15.214,0.053
53789.339768,15.417,0.054
53790.281532,15.447,0.022
53790.293277,15.414,0.022
53790.305077,15.289,0.02
53790.316828,15.164,0.018
53790.328569,15.111,0.017
53793.297602,15.046,0.041
53799.27745,15.193,0.015
53799.288929,15.279,0.017
53799.300425,15.416,0.018
53799.311939,15.428,0.022
53799.323635,15.331,0.02
53819.2326,15.269,0.022
53819.243351,15.134,0.018
53819.254092,15.07,0.018
53819.265064,15.004,0.018
53819.276595,14.959,0.022
53827.240458,15.046,0.017
53827.251442,15.111,0.017
53827.262327,15.145,0.018
53827.273134,15.225,0.02
53827.283717,15.321,0.022
53845.141626,15.052,0.018
53845.152313,15.125,0.02
53845.163017,15.217,0.024
53845.17374,15.284,0.026
53845.184454,15.321,0.028
53846.191661,15.014,0.022
53846.202313,15.003,0.024
53846.212992,15.03,0.024
53846.223723,15.089,0.026
53846.234451,15.133,0.028
53850.216513,15.081,0.018
53850.22714,14.992,0.018
53850.237818,15.054,0.054
53850.248715,15.022,0.02
53850.259824,15.009,0.02
53852.146098,15.141,0.023
53852.156242,15.184,0.025
53852.16644,15.312,0.028
53852.176878,15.429,0.031
53852.187018,15.394,0.031
53853.186826,14.972,0.02
53853.197441,14.977,0.018
53853.208852,14.998,0.026
53853.21926,15.035,0.02
53853.229685,15.062,0.022
54026.485954,15.202,0.031
54031.434291,14.993,0.021
54031.446473,15.061,0.021
54031.458797,15.119,0.021
54031.470663,15.236,0.021
54031.482626,15.304,0.023
54034.441319,15.357,0.054
54034.453539,15.364,0.03
54036.431789,15.127,0.023
54036.445161,15.207,0.025
54036.458304,15.312,0.026
54036.470564,15.316,0.025
54036.482422,15.225,0.021
54041.429575,15.268,0.03
54041.44321,15.306,0.028
54041.45563,15.301,0.028
54041.468181,15.153,0.023
54041.480396,15.057,0.021
54057.451377,15.355,0.018
54057.463932,15.377,0.018
54057.476414,15.226,0.017
54057.488902,15.129,0.015
54057.501386,15.067,0.013
54058.384693,15.402,0.026
54058.397047,15.406,0.026
54058.409509,15.244,0.023
54058.423538,15.125,0.02
54058.43661,15.072,0.018
54060.376069,15.098,0.017
54060.388495,15.165,0.017
54060.400931,15.284,0.018
54060.41338,15.306,0.017
54060.425835,15.261,0.017
54064.381624,14.979,0.018
54064.39428,15.007,0.018
54064.406844,15.026,0.018
54064.419575,15.092,0.018
54064.432526,15.181,0.02
54067.393716,15.337,0.015
54067.406683,15.454,0.015
54067.419649,15.368,0.015
54067.432751,15.21,0.011
54067.445884,15.106,0.011
54083.39108,15.111,0.023
54083.402131,15.196,0.02
54083.404196,15.212,0.033
54083.41532,15.286,0.02
54083.41701,15.271,0.03
54083.428513,15.332,0.02
54083.429997,15.325,0.03
54083.441706,15.245,0.02
54083.442832,15.207,0.028
54083.454904,15.138,0.035
54086.360254,15.302,0.022
54086.373461,15.394,0.022
54086.386393,15.357,0.022
54086.39933,15.238,0.018
54086.41227,15.124,0.017
54091.314757,15.128,0.013
54091.327421,15.18,0.013
54091.340236,15.297,0.015
54091.353006,15.427,0.017
54091.366023,15.317,0.015
54113.326068,15.072,0.03
54113.364906,14.971,0.018
54113.37788,15.039,0.018
54115.346782,15.059,0.02
54115.359879,14.957,0.018
54115.372891,14.969,0.016
54115.385767,14.975,0.016
54115.398687,15.001,0.018
54123.331295,15.05,0.018
54123.343722,15.08,0.018
54123.356109,15.152,0.02
54123.368671,15.275,0.021
54123.381301,15.399,0.025
54144.270889,15.111,0.013
54144.283074,15.077,0.012
54144.295107,14.981,0.012
54144.304787,14.947,0.009
54144.315901,14.975,0.011
54144.319025,15.045,0.012
54144.327005,14.976,0.011
54144.338202,15.034,0.011
54144.349304,15.09,0.013
54148.279111,15.367,0.021
54148.291255,15.223,0.02
54148.30301,15.13,0.016
54148.314722,15.044,0.016
54148.326513,14.993,0.016
54153.275456,15.153,0.016
54153.287243,15.082,0.016
54153.299426,15.034,0.015
54153.311104,15.001,0.015
54153.32317,14.972,0.015
54154.22279,15.066,0.011
54154.234347,15.006,0.011
54154.245796,14.97,0.011
54154.257232,14.95,0.011
54154.268701,14.941,0.011
54173.216461,14.946,0.011
54173.227109,14.937,0.011
54173.237791,14.925,0.011
54173.248483,14.941,0.013
54173.259248,15.027,0.013
54176.221402,15.102,0.013
54176.232085,15.138,0.015
54176.242944,15.237,0.015
54176.253494,15.367,0.017
54176.264553,15.374,0.018
54179.233894,15.234,0.015
54179.245064,15.151,0.015
54179.256408,15.094,0.013
54179.267534,15.034,0.013
54179.279107,15.009,0.013
54206.178992,14.986,0.013
54206.188087,14.986,0.013
54206.197112,14.968,0.013
54206.206244,14.948,0.013
54206.215292,14.955,0.015
54208.170047,15.162,0.02
54208.178742,15.12,0.02
54208.187599,15.094,0.018
54208.196242,15.058,0.018
54208.204749,15.014,0.018
54209.174237,15.012,0.015
54209.183218,15.03,0.015
54209.192208,15.062,0.028
54209.201211,15.133,0.02
54209.210213,15.217,0.024
54418.440386,14.985,0.011
54418.452891,14.953,0.009
54418.477893,14.902,0.009
54439.384996,15.386,0.013
54439.397868,15.24,0.011
54439.410728,15.119,0.011
54439.423621,15.083,0.009
54439.436496,15.01,0.009
54480.457495,15.154,0.03
54480.469786,15.074,0.028
54480.482076,15.034,0.026
54480.494689,14.964,0.028
54480.507011,14.902,0.028
54507.269168,14.938,0.009
54507.281399,14.946,0.009
54507.293651,14.998,0.009
54507.30606,15.048,0.011
54507.318478,15.131,0.011
54522.331606,14.966,0.013
54522.343515,14.929,0.013
54522.355455,14.938,0.013
54522.367441,14.99,0.013
54522.379241,15.057,0.015
54529.267884,15.324,0.011
54529.279441,15.279,0.011
54529.291031,15.173,0.011
54529.302881,15.077,0.011
54529.314249,14.999,0.011
54536.213717,14.981,0.009
54536.224805,15.012,0.009
54536.235738,15.11,0.009
54536.246686,15.201,0.011
54536.257753,15.278,0.011
54553.243491,15.16,0.011
54553.255415,15.048,0.011
54553.267347,15.016,0.011
54553.279234,14.975,0.011
54553.291088,14.953,0.011
54562.214171,15.184,0.011
54562.225669,15.314,0.013
54562.237192,15.297,0.013
54581.144507,15.024,0.015
54581.155222,15.094,0.015
54581.165884,15.115,0.017
54581.17658,15.172,0.017
54581.18742,15.261,0.018
54584.194178,15.169,0.017
54584.205057,15.118,0.015
54584.21595,15.052,0.015
54584.226849,15.046,0.015
54584.237746,15.021,0.017
54591.148545,15.322,0.018
54591.159163,15.412,0.02
54591.169528,15.39,0.02
54591.17986,15.257,0.018
54591.190077,15.175,0.017
54592.140221,15.105,0.028
54592.150031,15.049,0.026
54592.159893,14.971,0.028
54592.169614,14.957,0.026
54592.179142,14.943,0.026
