mjd,m,merr
52610.388833,16.381,0.167
52610.403961,16.258,0.054
52610.419134,16.195,0.043
52610.434299,16.156,0.083
52610.449415,16.253,0.12
52614.378582,16.763,0.076
52614.393682,16.644,0.07
52614.424021,16.712,0.078
52614.439193,16.804,0.113
52619.383429,16.44,0.054
52619.398668,16.305,0.048
52619.413907,16.12,0.043
52619.429302,16.061,0.041
52619.444664,16.096,0.043
52622.362061,16.753,0.086
52622.376668,16.625,0.074
52622.391361,16.508,0.063
52622.40589,16.3,0.053
52622.420782,16.092,0.043
52638.366998,16.586,0.061
52638.382022,16.608,0.061
52638.397049,16.607,0.061
52638.412284,16.597,0.063
52644.310949,16.495,0.046
52644.326707,16.589,0.05
52644.342094,16.536,0.05
52644.357635,16.589,0.05
52644.373292,16.648,0.052
52648.253164,16.68,0.065
52648.267919,16.746,0.067
52648.282532,16.723,0.067
52648.297728,16.573,0.057
52648.312514,16.449,0.054
52671.312485,16.275,0.041
52671.32767,16.362,0.044
52671.34283,16.306,0.043
52671.358048,16.309,0.044
52671.373348,16.352,0.046
52674.250768,16.557,0.055
52674.2661,16.459,0.052
52674.28134,16.433,0.059
52674.296734,16.341,0.044
52674.31225,16.381,0.046
52677.250022,16.693,0.069
52677.264907,16.472,0.053
52677.279709,16.428,0.051
52677.294525,16.403,0.051
52677.309181,16.413,0.053
52696.26713,16.586,0.05
52696.280729,16.613,0.052
52696.293349,16.652,0.054
52696.306367,16.696,0.057
52696.319513,16.688,0.059
52703.181261,16.68,0.071
52703.181376,16.682,0.066
52703.194571,16.31,0.048
52703.194686,16.386,0.049
52703.207651,16.251,0.046
52703.207766,16.26,0.043
52703.220649,16.183,0.043
52703.220766,16.129,0.04
52703.234017,16.09,0.04
52703.234132,16.038,0.036
52723.171805,16.259,0.041
52723.183342,16.283,0.041
52723.194788,16.353,0.044
52723.218864,16.404,0.07
52730.177476,16.644,0.068
52730.189664,16.55,0.061
52730.189779,16.588,0.058
52730.201722,16.677,0.068
52730.201838,16.622,0.059
52730.214937,16.617,0.066
52730.215053,16.698,0.066
52730.226976,16.653,0.069
52730.227091,16.623,0.063
52752.135227,16.233,0.048
52752.145513,16.221,0.046
52752.155769,16.286,0.05
52752.16602,16.3,0.055
52752.176278,16.277,0.055
52761.140654,16.159,0.046
52761.15243,16.153,0.046
52761.164201,16.212,0.054
52761.175971,16.202,0.102
52761.187731,16.315,0.098
52764.140627,16.145,0.051
52764.140736,16.214,0.053
52764.152957,16.177,0.053
52764.153066,16.202,0.053
52764.164991,16.183,0.054
52764.1651,16.168,0.051
52764.177024,16.113,0.053
52764.177134,16.155,0.051
52764.18967,16.225,0.059
52764.189779,16.171,0.054
52912.440837,16.414,0.068
52912.453857,16.247,0.055
52912.466893,16.175,0.05
52912.479577,16.12,0.044
52917.45919,16.563,0.081
52917.473198,16.487,0.074
52917.487221,16.459,0.068
52934.426484,16.621,0.087
52934.438103,16.546,0.078
52934.449587,16.65,0.081
52934.461054,16.541,0.072
52934.472435,16.652,0.08
52942.397909,16.645,0.076
52942.410024,16.623,0.089
52942.422206,16.607,0.119
52942.434535,16.804,0.172
52942.44659,16.711,0.142
52946.431718,16.398,0.059
52946.443665,16.479,0.087
52946.455621,16.451,0.139
52962.386887,16.692,0.059
52962.399703,16.673,0.057
52962.412592,16.732,0.057
52962.425243,16.731,0.057
52962.438348,16.723,0.057
52977.389337,16.739,0.078
52977.401348,16.641,0.068
52977.413512,16.72,0.068
52977.425452,16.728,0.061
52977.437471,16.717,0.061
52978.441248,16.472,0.059
52978.454256,16.463,0.072
52978.467108,16.492,0.048
52978.480005,16.524,0.052
52978.49272,16.522,0.052
52979.38808,16.141,0.08
52979.400587,16.088,0.078
52979.413206,16.15,0.094
52991.412449,16.505,0.045
52991.426492,16.296,0.04
52991.44111,16.221,0.036
52991.4551,16.099,0.033
52991.469021,16.044,0.03
52996.334838,16.227,0.03
52996.347895,16.286,0.031
52996.361217,16.29,0.031
52996.374125,16.393,0.035
52996.387258,16.417,0.033
53001.336776,16.54,0.033
53001.349904,16.533,0.033
53001.362958,16.597,0.035
53001.376455,16.608,0.037
53001.389414,16.611,0.037
53035.280681,16.724,0.072
53035.294042,16.715,0.074
53035.306452,16.673,0.07
53035.321125,16.713,0.07
53035.334063,16.673,0.068
53050.219152,16.591,0.044
53050.230915,16.566,0.044
53050.242683,16.603,0.046
53050.254389,16.608,0.046
53050.266071,16.668,0.048
53078.224166,16.646,0.067
53078.234816,16.598,0.055
53078.245594,16.597,0.135
53078.256268,16.544,0.109
53078.266945,16.358,0.046
53084.177955,16.737,0.117
53084.18858,16.653,0.039
53084.199232,16.693,0.043
53084.210166,16.673,0.041
53084.220951,16.715,0.043
53086.236697,16.373,0.12
53086.248076,16.376,0.137
53086.259494,16.402,0.089
53086.271468,16.394,0.071
53086.282558,16.418,0.053
53109.138916,16.285,0.044
53109.149851,16.345,0.046
53109.160914,16.38,0.048
53109.171864,16.349,0.048
53109.183059,16.348,0.046
53137.150915,16.696,0.08
53137.160481,16.745,0.087
53137.17001,16.699,0.087
53137.17955,16.599,0.087
53137.189052,16.608,0.091
53282.448329,16.774,0.175
53282.460435,16.69,0.153
53282.471818,16.685,0.152
53288.432164,16.671,0.097
53288.443015,16.606,0.087
53288.453746,16.627,0.087
53288.46469,16.692,0.092
53288.475447,16.638,0.084
53293.429751,16.661,0.086
53293.440666,16.606,0.079
53293.451557,16.683,0.084
53293.462518,16.635,0.076
53293.473472,16.588,0.073
53299.441193,16.672,0.085
53299.452863,16.688,0.085
53299.464537,16.671,0.113
53299.476278,16.857,0.265
53299.48796,16.753,0.155
53328.3726,16.675,0.102
53328.384777,16.534,0.148
53328.396952,16.611,0.078
53328.40913,16.554,0.163
53331.445098,16.549,0.073
53331.45753,16.595,0.078
53331.482461,16.591,0.078
53348.345034,16.886,0.089
53348.357328,16.774,0.091
53348.369629,16.677,0.159
53348.381924,16.449,0.068
53354.320346,16.675,0.063
53354.333692,16.785,0.072
53354.347038,16.77,0.068
53354.36561,16.768,0.067
53354.379019,16.836,0.07
53377.29559,16.691,0.054
53377.309074,16.564,0.068
53377.322574,16.59,0.052
53377.335554,16.523,0.05
53384.319079,16.625,0.185
53384.333281,16.666,0.181
53386.344508,16.7,0.057
53386.357598,16.615,0.054
53386.370621,16.609,0.054
53386.38413,16.529,0.05
53386.397158,16.424,0.046
53389.345135,16.723,0.076
53389.359093,16.696,0.072
53389.372587,16.649,0.074
53389.38633,16.627,0.068
53389.400995,16.473,0.054
53404.301584,16.686,0.025
53404.327241,16.725,0.026
53404.360256,16.614,0.025
53443.278191,16.457,0.044
53443.289668,16.499,0.048
53443.300524,16.477,0.048
53443.311939,16.539,0.054
53443.322781,16.544,0.055
53473.176688,16.868,0.094
53473.186385,16.846,0.093
53473.196124,16.695,0.08
53473.20594,16.72,0.083
53473.215565,16.534,0.072
53498.147531,16.482,0.07
53498.157622,16.518,0.093
53498.167981,16.542,0.08
53498.178136,16.578,0.253
53498.188835,17.061,0.483
53646.440684,16.32,0.131
53646.451602,16.354,0.068
53646.473459,16.382,0.065
53651.423347,16.679,0.093
53651.434255,16.597,0.083
53651.445149,16.621,0.081
53651.456032,16.644,0.081
53651.466917,16.701,0.085
53657.425673,16.535,0.076
53657.436895,16.494,0.07
53657.44815,16.623,0.076
53657.459356,16.583,0.072
53657.470591,16.588,0.07
53673.440502,16.39,0.057
53673.453302,16.413,0.059
53673.465432,16.331,0.054
53673.477588,16.353,0.055
53673.490332,16.337,0.054
53676.443381,16.449,0.072
53676.455876,16.382,0.061
53676.467882,16.313,0.059
53676.479874,16.245,0.052
53676.491827,16.25,0.059
53682.458243,16.479,0.067
53682.470634,16.393,0.057
53682.483201,16.359,0.057
53682.495795,16.274,0.057
53702.371425,16.149,0.039
53702.384485,16.108,0.035
53702.40111,16.05,0.033
53702.414054,16.076,0.035
53702.426818,16.131,0.037
53741.343336,16.635,0.046
53741.356062,16.681,0.048
53741.368881,16.723,0.052
53741.382152,16.66,0.05
53741.395562,16.658,0.048
53771.222051,16.312,0.118
53771.247355,16.357,0.059
53771.259994,16.391,0.067
53771.272718,16.408,0.054
53786.225325,16.162,0.035
53786.237257,16.223,0.039
53786.249193,16.255,0.037
53786.261295,16.302,0.037
53786.273246,16.32,0.039
53812.237084,16.382,0.059
53812.24878,16.386,0.063
53812.260295,16.54,0.073
53812.271901,16.439,0.069
53812.283485,16.442,0.071
53843.144668,16.615,0.061
53843.156777,16.586,0.061
53843.168861,16.617,0.064
53843.180873,16.627,0.066
53843.192952,16.663,0.068
53854.140268,16.666,0.081
53854.150618,16.667,0.084
53854.160996,16.657,0.087
53854.171444,16.673,0.089
53854.181963,16.652,0.083
54009.417531,16.413,0.081
54009.433843,16.466,0.078
54009.448837,16.428,0.068
54009.461556,16.527,0.073
54009.474179,16.461,0.064
54028.434895,16.7,0.101
54028.446862,16.657,0.096
54028.458468,16.681,0.096
54028.470248,16.66,0.091
54028.482068,16.73,0.096
54055.377234,16.497,0.064
54055.390244,16.476,0.059
54055.402835,16.524,0.059
54055.415909,16.55,0.059
54055.42847,16.579,0.064
54067.388711,16.481,0.049
54067.401532,16.602,0.056
54067.414402,16.585,0.053
54067.427415,16.592,0.051
54067.44057,16.648,0.051
54085.339377,16.385,0.069
54085.352559,16.366,0.111
54085.365795,16.368,0.056
54085.378701,16.419,0.059
54085.391662,16.409,0.058
54110.337297,16.589,0.08
54110.35472,16.658,0.07
54110.369982,16.747,0.078
54110.38468,16.734,0.078
54110.400687,16.719,0.083
54123.266081,16.171,0.037
54123.278309,16.143,0.037
54123.29051,16.114,0.035
54123.302721,16.121,0.035
54123.314937,16.181,0.039
54201.183718,16.375,0.052
54201.193982,16.397,0.054
54201.203732,16.436,0.055
54201.213461,16.43,0.054
54201.223456,16.434,0.054
54207.174632,16.303,0.061
54207.183883,16.298,0.064
54207.193163,16.332,0.066
54207.202856,16.405,0.071
54207.212572,16.343,0.069
54216.136304,16.198,0.102
54216.145146,16.153,0.098
54216.153878,16.15,0.1
54216.16289,16.219,0.107
54395.435867,16.65,0.074
54395.44941,16.652,0.071
54395.465444,16.399,0.058
54397.440141,16.796,0.087
54397.451915,16.659,0.072
54397.463576,16.706,0.068
54397.475204,16.691,0.059
54412.435832,16.685,0.043
54412.448105,16.682,0.043
54412.460359,16.719,0.043
54412.47274,16.707,0.043
54412.485101,16.755,0.044
54421.437931,16.638,0.043
54421.4504,16.662,0.043
54421.462924,16.652,0.041
54421.475379,16.676,0.041
54421.487848,16.662,0.041
54424.328322,16.499,0.052
54424.340904,16.509,0.05
54424.353499,16.516,0.046
54424.366095,16.523,0.043
54424.378656,16.552,0.041
54436.458843,16.538,0.037
54436.471651,16.537,0.037
54436.48443,16.564,0.039
54436.497327,16.591,0.041
54436.510109,16.596,0.041
54450.332296,16.524,0.031
54450.345653,16.531,0.033
54450.358713,16.573,0.035
54450.372247,16.573,0.035
54450.385232,16.581,0.035
54454.262741,16.633,0.059
54454.275843,16.522,0.052
54454.288932,16.503,0.05
54454.302013,16.431,0.046
54454.315104,16.4,0.044
54470.318692,16.762,0.167
54470.331431,16.719,0.244
54470.344296,16.754,0.072
54470.369905,16.899,0.161
54475.273916,16.772,0.065
54475.286535,16.726,0.043
54475.299311,16.738,0.043
54475.311949,16.762,0.044
54475.32509,16.796,0.046
54495.335291,16.113,0.031
54495.347755,16.137,0.033
54495.360205,16.202,0.035
54495.372829,16.267,0.037
54495.386412,16.318,0.041
54509.161841,16.358,0.037
54509.173664,16.292,0.035
54509.185503,16.254,0.033
54509.197339,16.239,0.031
54509.209199,16.292,0.031
54524.274057,16.367,0.037
54524.285509,16.371,0.041
54524.296947,16.353,0.046
54524.30836,16.371,0.057
54524.319801,16.368,0.039
54532.218056,16.355,0.026
54532.229221,16.379,0.028
54532.240396,16.375,0.028
54532.251679,16.406,0.028
54532.262817,16.405,0.03
54555.184754,16.457,0.035
54555.196426,16.444,0.035
54555.208083,16.468,0.035
54555.219766,16.479,0.037
54555.231529,16.505,0.039
54573.138725,16.257,0.076
54573.149413,16.295,0.078
54573.160158,16.271,0.076
54573.170899,16.359,0.085
54573.181613,16.384,0.087
54582.142256,16.222,0.04
54582.153331,16.276,0.041
54582.163819,16.233,0.038
54582.17403,16.304,0.043
54582.184913,16.358,0.048
54586.141792,16.647,0.063
54586.151926,16.63,0.061
54586.162109,16.717,0.102
54586.182429,16.61,0.061
54594.149844,16.735,0.08
54594.191394,16.532,0.091
