mjd,m,merr
52622.361571,17.436,0.162
52622.376177,18.369,0.358
52622.390871,18.387,0.356
52622.4054,17.891,0.221
52622.42029,17.178,0.114
52638.366487,15.965,0.038
52638.381507,16.029,0.038
52638.396531,16.13,0.041
52638.411666,16.294,0.049
52643.327961,16.417,0.051
52643.344097,16.388,0.051
52643.360414,16.411,0.049
52643.376684,16.737,0.069
52643.393009,17.248,0.116
52649.30356,16.052,0.031
52649.319728,16.056,0.031
52649.335864,16.095,0.033
52649.35186,16.174,0.035
52649.367833,16.355,0.043
52670.275414,16.405,0.049
52670.290214,16.143,0.041
52670.305019,16.039,0.036
52670.320008,15.96,0.035
52670.33499,15.482,0.023
52675.250166,16.405,0.124
52677.249518,16.24,0.046
52677.264405,16.479,0.054
52677.279206,16.471,0.053
52677.294022,16.218,0.043
52677.30868,16.095,0.04
52696.267266,16.246,0.037
52696.280864,16.107,0.033
52696.293487,16.034,0.031
52696.306504,16.011,0.031
52696.319651,16.047,0.031
52703.18114,15.994,0.04
52703.19445,16.02,0.038
52703.207531,16.071,0.04
52703.220529,16.227,0.045
52703.233897,16.429,0.054
52723.171923,16.04,0.033
52723.183461,16.089,0.033
52723.194909,16.133,0.035
52723.207494,16.287,0.155
52723.218985,16.346,0.072
52730.176994,16.03,0.04
52730.189182,16.055,0.04
52730.201243,16.127,0.041
52730.214454,16.263,0.048
52730.226493,16.445,0.058
52752.135338,16.484,0.059
52752.145624,16.547,0.063
52752.155879,16.353,0.054
52752.166131,16.299,0.054
52752.176389,16.156,0.048
52761.140097,16.104,0.043
52761.151875,16.157,0.048
52761.163642,16.371,0.061
52761.175413,16.69,0.163
52761.187173,16.542,0.137
52764.140403,16.133,0.053
52764.152733,16.096,0.053
52764.164765,16.066,0.051
52764.176799,16.003,0.049
52764.189445,16.107,0.054
52912.440718,16.469,0.07
52912.453739,16.457,0.065
52912.466775,16.254,0.052
52912.479458,16.137,0.044
52917.459301,16.05,0.05
52917.473307,16.057,0.048
52917.487332,16.074,0.046
52934.426383,16.159,0.055
52934.438002,16.175,0.054
52934.449485,16.278,0.057
52934.460952,16.514,0.07
52934.472334,16.593,0.072
52942.398066,16.068,0.046
52942.41018,16.06,0.053
52942.422363,15.96,0.068
52942.434692,15.989,0.12
52942.446746,15.994,0.089
52946.431579,16.334,0.054
52946.443527,16.33,0.072
52946.455482,16.088,0.078
52962.38676,16.099,0.033
52962.399577,16.046,0.03
52962.412355,16.035,0.03
52962.425116,16.048,0.03
52962.438221,16.071,0.03
52977.389438,16.482,0.057
52977.401448,16.211,0.044
52977.413613,16.126,0.037
52977.425553,16.032,0.03
52977.437572,16.011,0.03
52991.412067,16.153,0.033
52991.42611,16.039,0.031
52991.440725,16.005,0.03
52991.454716,16.03,0.031
52991.468628,16.093,0.031
53000.367015,16.054,0.023
53000.379883,16.139,0.025
53000.392809,16.195,0.026
53000.406082,16.402,0.031
53000.419178,16.477,0.033
53002.41911,16.144,0.022
53002.437542,16.297,0.026
53035.280791,16.249,0.046
53035.294153,16.427,0.055
53035.306562,16.536,0.059
53035.321236,16.381,0.05
53035.334173,16.212,0.044
53049.222087,16.145,0.028
53049.233904,16.075,0.026
53049.245722,16.048,0.024
53049.25754,16.001,0.022
53049.269404,16.05,0.024
53053.153691,16.248,0.037
53087.226959,16.173,0.074
53087.237516,16.283,0.031
53087.248224,16.45,0.035
53087.258886,16.471,0.035
53087.269623,16.451,0.035
53107.181287,16.034,0.04
53107.191748,16.057,0.038
53107.202172,16.052,0.041
53107.212678,16.13,0.041
53107.223182,16.193,0.046
53127.146188,16.089,0.087
53127.155443,16.103,0.091
53127.164743,15.974,0.083
53127.173953,16.11,0.096
53127.183232,16.065,0.094
53136.150543,16.45,0.073
53136.159277,16.465,0.078
53136.168105,16.398,0.074
53136.176894,16.298,0.078
53136.185789,16.186,0.068
53273.480284,16.231,0.054
53282.448225,16.393,0.129
53282.460331,16.354,0.122
53282.471712,16.195,0.101
53282.482603,16.018,0.083
53288.432262,16.408,0.071
53288.443113,16.391,0.071
53288.453843,16.261,0.061
53288.464789,16.089,0.053
53299.441301,16.04,0.052
53299.452971,16.102,0.048
53299.464645,16.037,0.067
53299.476386,16.129,0.126
53299.488067,16.296,0.107
53328.372505,16.155,0.091
53328.396857,16.31,0.107
53328.409034,16.567,0.122
53331.445006,16.078,0.046
53331.457439,16.302,0.058
53331.482369,16.244,0.054
53331.498535,16.114,0.051
53348.344929,16.092,0.043
53348.357223,16.098,0.046
53348.369519,16.199,0.102
53348.381819,16.37,0.057
53354.320239,16.077,0.035
53354.333584,16.066,0.035
53354.34693,16.068,0.035
53354.3655,16.322,0.043
53354.378911,16.471,0.05
53377.29548,16.558,0.046
53377.308964,16.497,0.057
53377.322465,16.332,0.039
53377.335444,16.181,0.035
53384.318954,16.552,0.179
53384.333155,16.172,0.117
53386.34438,16.605,0.052
53386.357471,16.481,0.046
53386.370493,16.251,0.037
53386.384002,16.151,0.035
53386.39703,16.101,0.033
53389.345014,16.033,0.039
53389.358972,16.094,0.041
53389.372465,16.175,0.044
53389.386209,16.412,0.054
53389.400874,16.484,0.052
53474.191804,16.565,0.085
53474.201409,16.583,0.089
53474.211519,16.597,0.094
53474.221272,16.498,0.085
53474.230972,16.307,0.072
53498.147326,16.498,0.07
53498.157417,16.36,0.085
53498.167732,16.282,0.061
53646.440567,16.17,0.065
53646.451483,16.317,0.063
53646.462413,16.481,0.13
53646.473342,16.527,0.07
53651.423229,16.373,0.065
53651.434135,16.593,0.078
53651.445031,16.557,0.07
53651.455914,16.58,0.07
53651.4668,16.345,0.057
53657.425785,16.475,0.068
53657.437007,16.521,0.067
53657.448263,16.251,0.052
53657.459469,16.176,0.048
53657.470703,16.078,0.043
53673.44023,16.274,0.05
53673.453045,16.33,0.054
53673.465173,16.403,0.057
53673.477332,16.452,0.059
53673.490074,16.278,0.05
53676.44286,16.082,0.05
53676.455619,16.102,0.046
53676.467629,16.096,0.046
53676.479618,16.115,0.044
53676.491571,16.159,0.052
53683.390979,16.526,0.179
53683.403617,16.511,0.085
53683.428931,16.22,0.046
53683.441635,16.122,0.044
53702.371282,16.554,0.054
53702.384341,16.532,0.05
53702.400966,16.26,0.039
53702.413912,16.121,0.035
53702.426675,16.146,0.035
53741.343041,16.528,0.041
53741.355767,16.292,0.031
53741.368584,16.15,0.03
53741.381855,16.141,0.03
53741.395266,16.112,0.03
53771.222191,16.329,0.139
53771.247493,16.551,0.072
53771.260133,16.476,0.072
53771.272856,16.307,0.048
53786.235725,16.164,0.036
53786.248929,16.257,0.035
53786.262029,16.433,0.04
53786.275448,16.552,0.043
53786.289328,16.42,0.041
53843.144536,16.057,0.04
53843.156645,16.274,0.045
53843.168728,16.225,0.048
53843.18074,16.475,0.061
53843.192818,16.546,0.064
53854.140175,16.532,0.097
53854.150524,16.566,0.104
53854.160903,16.45,0.101
53854.171353,16.252,0.083
53854.18187,16.159,0.073
54028.434666,16.374,0.074
54028.446634,16.517,0.083
54028.458238,16.553,0.086
54028.47002,16.345,0.068
54028.48184,16.217,0.059
54054.395904,16.21,0.049
54054.408504,16.433,0.063
54054.421098,16.567,0.068
54054.433705,16.428,0.059
54054.446153,16.28,0.053
54068.390496,16.231,0.046
54068.403378,16.363,0.053
54068.416444,16.556,0.063
54068.429605,16.619,0.066
54068.442498,16.48,0.056
54085.339258,16.424,0.076
54085.35244,16.601,0.127
54085.365676,16.495,0.068
54085.378581,16.339,0.059
54085.391542,16.258,0.056
54110.33706,16.369,0.067
54110.354484,16.219,0.046
54110.369746,16.104,0.043
54110.384443,16.125,0.044
54110.40045,16.186,0.05
54123.265963,16.239,0.035
54123.278191,16.341,0.039
54123.290392,16.544,0.044
54123.302603,16.473,0.043
54123.314819,16.461,0.043
54156.207233,15.929,0.046
54156.25166,16.121,0.058
54201.182976,16.078,0.037
54201.193361,16.212,0.043
54201.203112,16.301,0.046
54201.21284,16.49,0.054
54201.222833,16.52,0.055
54207.174383,16.257,0.073
54207.183635,16.303,0.078
54207.192914,16.476,0.089
54207.202605,16.572,0.099
54207.212308,16.639,0.106
54216.136059,16.523,0.131
54216.1449,16.291,0.109
54216.153632,16.275,0.107
54216.162645,16.135,0.096
54216.17136,15.985,0.085
54397.439866,16.472,0.061
54397.451639,16.242,0.046
54397.463301,16.16,0.039
54397.47491,16.048,0.031
54412.435632,16.347,0.031
54412.447905,16.504,0.035
54412.46016,16.473,0.033
54412.472542,16.321,0.03
54412.484901,16.194,0.026
54421.387208,16.271,0.031
54421.399823,16.14,0.028
54421.412425,16.099,0.026
54421.424847,16.057,0.024
54421.437265,16.088,0.026
54436.458634,16.08,0.024
54436.471442,16.101,0.024
54436.48422,16.196,0.026
54436.497118,16.413,0.033
54436.5099,16.523,0.037
54450.331895,16.07,0.02
54450.345251,16.091,0.022
54450.358313,16.176,0.024
54450.371846,16.265,0.026
54450.38483,16.478,0.03
54470.331097,16.07,0.067
54470.343962,16.151,0.043
54475.273754,16.116,0.037
54475.286373,16.077,0.022
54475.299148,16.113,0.022
54475.324928,16.301,0.028
54509.162005,16.104,0.03
54509.173828,16.133,0.03
54509.185667,16.194,0.031
54509.197503,16.372,0.033
54509.209386,16.527,0.039
54532.217674,16.115,0.02
54532.228841,16.204,0.022
54532.240017,16.373,0.028
54532.251209,16.488,0.03
54532.262437,16.568,0.033
54573.138473,16.455,0.089
54573.149161,16.484,0.093
54573.159904,16.152,0.068
54573.170641,16.164,0.072
54573.181357,16.051,0.065
54582.142372,16.278,0.083
54582.185028,16.849,0.142
54586.141665,16.326,0.046
54586.1518,16.25,0.043
54586.161983,16.168,0.052
54586.182303,16.043,0.037
54594.149711,16.638,0.072
54594.191263,16.289,0.074
