mjd,m,merr
52619.447375,15.157,0.028
52640.420954,15.109,0.015
52640.436335,15.268,0.017
52640.452025,15.568,0.022
52640.46704,15.587,0.022
52640.481874,15.281,0.017
52646.383868,15.481,0.024
52646.398676,15.624,0.028
52646.413119,15.416,0.022
52646.427654,15.159,0.018
52646.442205,15.055,0.017
52666.317806,15.549,0.03
52666.333201,15.516,0.03
52666.347905,15.243,0.023
52666.363083,15.121,0.021
52666.377807,15.103,0.023
52672.319828,15.073,0.018
52672.333673,15.04,0.015
52672.347897,15.099,0.02
52672.361792,15.111,0.017
52672.375756,15.268,0.018
52673.226391,16.881,0.091
52673.287477,15.106,0.023
52673.302446,15.05,0.02
52673.318316,15.033,0.02
52673.334749,15.034,0.02
52673.349712,15.097,0.021
52698.264907,15.816,0.058
52698.282743,15.47,0.033
52698.300602,15.124,0.018
52698.314954,15.054,0.016
52704.284026,15.027,0.016
52704.297116,15.071,0.018
52704.310466,15.15,0.021
52704.323494,15.347,0.025
52704.336506,15.618,0.031
52705.23627,15.07,0.015
52705.249427,15.028,0.013
52705.264403,15.018,0.013
52705.277437,15.054,0.015
52705.290564,15.095,0.015
52725.286722,15.258,0.03
52725.298382,15.122,0.024
52729.1769,15.097,0.017
52729.188797,15.173,0.017
52729.200301,15.379,0.02
52729.211984,15.645,0.024
52729.223443,15.632,0.024
52734.193552,15.242,0.017
52734.20605,15.092,0.017
52734.219233,15.061,0.015
52734.231484,15.009,0.015
52734.244651,15.021,0.017
52738.185612,15.095,0.026
52738.197342,15.09,0.028
52738.208948,15.143,0.028
52738.220632,15.149,0.03
52738.232236,15.215,0.031
52755.143019,15.034,0.017
52755.155061,15.015,0.017
52755.167202,15.04,0.017
52755.179293,15.076,0.017
52755.191354,15.143,0.018
52758.145539,15.103,0.02
52758.157851,15.123,0.021
52758.170055,15.307,0.025
52758.182192,15.575,0.03
52758.194259,15.724,0.033
52937.443718,15.094,0.016
52937.45563,15.036,0.015
52937.467383,15.069,0.016
52937.479174,15.015,0.013
52937.490909,15.015,0.013
52941.42686,15.006,0.015
52941.438439,15.029,0.015
52941.450273,15.02,0.015
52941.461852,15.08,0.015
52941.473687,15.145,0.015
52944.436632,15.118,0.024
52944.448636,15.305,0.026
52944.460579,15.546,0.031
52944.472502,15.685,0.033
52944.484609,15.497,0.028
52973.394057,15.084,0.015
52973.407095,15.144,0.017
52973.420184,15.33,0.018
52973.432969,15.542,0.022
52973.445974,15.621,0.024
52993.385565,15.446,0.018
52993.398651,15.169,0.013
52993.411699,15.091,0.013
52993.425125,15.057,0.011
52993.438192,15.045,0.011
52995.33021,15.443,0.015
52995.342767,15.659,0.018
52995.35527,15.619,0.018
52995.367709,15.358,0.013
52995.380208,15.146,0.012
53027.396836,15.183,0.012
53027.409784,15.385,0.015
53027.422791,15.616,0.016
53027.435606,15.572,0.016
53027.448387,15.304,0.015
53029.338366,15.033,0.018
53029.35091,15.038,0.041
53033.275875,15.05,0.016
53033.288381,15.024,0.016
53033.301087,15.028,0.016
53033.313578,15.07,0.016
53033.326033,15.125,0.018
53053.284394,15.608,0.037
53053.298076,15.65,0.03
53053.310807,15.348,0.028
53053.324889,15.125,0.033
53053.336623,15.069,0.013
53058.286818,15.054,0.01
53058.299796,15.032,0.01
53058.311955,15.031,0.01
53058.324008,15.05,0.01
53058.336559,15.081,0.01
53061.2839,15.038,0.01
53061.295877,15.06,0.01
53061.307955,15.107,0.012
53061.320013,15.237,0.012
53061.332002,15.408,0.013
53079.246668,15.046,0.013
53079.257357,15.096,0.015
53079.268047,15.201,0.015
53079.278856,15.366,0.018
53079.289513,15.621,0.022
53083.23854,15.441,0.015
53083.25012,15.66,0.018
53083.261491,15.637,0.016
53083.273,15.405,0.015
53083.284553,15.214,0.013
53085.27828,15.073,0.012
53085.289514,15.044,0.012
53085.300752,15.053,0.016
53085.312092,15.039,0.015
53085.323448,15.055,0.013
53110.183263,15.041,0.017
53110.193952,15.075,0.018
53110.204643,15.083,0.018
53110.215329,15.148,0.02
53110.226079,15.249,0.022
53114.195753,15.45,0.016
53114.206921,15.614,0.02
53114.217848,15.534,0.018
53114.22869,15.308,0.015
53114.239334,15.145,0.013
53116.198443,15.577,0.028
53116.209893,15.304,0.051
53116.220651,15.173,0.033
53116.231335,15.085,0.03
53116.241987,15.03,0.056
53138.151631,15.042,0.018
53138.161499,15.041,0.018
53138.171382,15.02,0.018
53138.181169,15.038,0.018
53138.191015,15.064,0.018
53142.156438,15.103,0.016
53142.168751,15.271,0.018
53142.179023,15.381,0.035
53142.188663,15.666,0.026
53142.198596,15.758,0.048
53144.166069,15.673,0.037
53144.175462,15.665,0.033
53144.184851,15.574,0.035
53144.203954,15.183,0.039
53287.429509,15.067,0.041
53287.440433,15.091,0.04
53287.473421,15.496,0.048
53292.428343,15.677,0.051
53292.43795,15.642,0.046
53292.44759,15.496,0.04
53292.458236,15.164,0.028
53292.467838,15.105,0.026
53327.382481,15.076,0.021
53327.395537,15.02,0.028
53327.408034,15.049,0.021
53327.420272,15.052,0.023
53327.432736,15.083,0.023
53346.380834,15.115,0.018
53346.39309,15.325,0.023
53346.405472,15.549,0.028
53346.418209,15.666,0.031
53346.430425,15.489,0.025
53347.436196,15.147,0.02
53347.450056,15.09,0.018
53347.464062,15.063,0.02
53347.477787,15.042,0.018
53351.420002,15.039,0.018
53351.434236,15.026,0.02
53351.448666,15.032,0.02
53351.463592,15.092,0.021
53351.47817,15.199,0.026
53352.44435,15.022,0.02
53352.459411,15.108,0.021
53352.474135,15.338,0.028
53352.488823,15.59,0.033
53352.503623,15.49,0.033
53353.412198,15.012,0.018
53353.42626,15.044,0.018
53353.440382,15.068,0.02
53353.454632,15.176,0.021
53353.468702,15.462,0.03
53357.43685,15.653,0.024
53357.45025,15.546,0.022
53357.463592,15.283,0.018
53357.478575,15.096,0.017
53357.493636,15.047,0.017
53383.343832,15.099,0.015
53383.357978,15.049,0.015
53383.371063,15.035,0.015
53383.384298,15.064,0.015
53383.397638,15.092,0.017
53403.29685,15.02,0.012
53403.310411,15.028,0.013
53403.32378,15.065,0.013
53403.350787,15.337,0.02
53410.415145,15.282,0.015
53410.427635,15.527,0.02
53410.440021,15.57,0.022
53410.452392,15.393,0.02
53410.465374,15.153,0.017
53438.350212,15.03,0.017
53438.362381,15.009,0.017
53438.373909,15.055,0.018
53438.385532,15.091,0.02
53438.397137,15.274,0.024
53468.212675,15.165,0.033
53468.222181,15.341,0.035
53502.142341,15.224,0.024
53502.153136,15.518,0.03
53502.1634,15.664,0.035
53502.173914,15.604,0.035
53502.184737,15.343,0.03
53671.444502,15.106,0.035
53671.456553,15.188,0.031
53671.468591,15.528,0.052
53671.492781,15.467,0.044
53674.465209,15.429,0.028
53674.477351,15.153,0.02
53674.489634,15.074,0.018
53674.501756,15.043,0.018
53679.448122,15.041,0.018
53679.46037,15.005,0.017
53679.472512,14.992,0.017
53679.484688,15.014,0.017
53679.497527,15.071,0.018
53704.447393,15.088,0.017
53704.459844,15.06,0.017
53704.472341,15.017,0.015
53704.484852,15.034,0.015
53704.497657,15.053,0.017
53707.448006,15.009,0.015
53707.460737,15.019,0.015
53707.473415,15.036,0.017
53707.486054,15.118,0.02
53707.498611,15.305,0.02
53711.46759,15.548,0.022
53711.48058,15.586,0.024
53711.493404,15.358,0.02
53711.506406,15.139,0.017
53711.5194,15.063,0.017
53734.405866,15.088,0.017
53734.418818,15.037,0.015
53734.431671,15.014,0.015
53734.44474,15.007,0.015
53734.457955,15.044,0.017
53737.348948,15.544,0.022
53737.362195,15.259,0.017
53737.375483,15.097,0.015
53737.388805,15.047,0.015
53737.40212,15.005,0.013
53747.341612,15.195,0.054
53747.367304,15.736,0.074
53747.380393,15.447,0.061
53758.338692,15.023,0.013
53758.351222,15.071,0.015
53758.363735,15.13,0.017
53758.376417,15.34,0.02
53758.388979,15.584,0.026
53787.400393,15.043,0.05
53787.412244,15.087,0.026
53787.436112,15.013,0.02
53787.448146,15.035,0.022
53789.288122,14.99,0.022
53789.288828,15.012,0.023
53789.300065,15.041,0.02
53789.301439,15.041,0.021
53789.311989,15.08,0.033
53789.314436,15.091,0.031
53789.326936,15.246,0.058
53789.336089,15.476,0.076
53789.339471,15.53,0.069
53792.286349,15.16,0.017
53792.298279,15.376,0.02
53792.310188,15.604,0.03
53792.322087,15.553,0.024
53792.334034,15.272,0.022
53799.228613,15.554,0.026
53799.240757,15.678,0.03
53799.252814,15.51,0.025
53799.264755,15.265,0.018
53799.276436,15.095,0.016
53802.279467,14.992,0.024
53802.29084,15.011,0.026
53818.228018,15.086,0.018
53818.239139,15.029,0.016
53818.250233,15.018,0.016
53818.261368,15.021,0.016
53818.272629,15.07,0.018
53821.233469,15.028,0.018
53821.244096,15.049,0.02
53821.260395,15.172,0.02
53821.271119,15.399,0.024
53821.284846,15.689,0.031
53824.236295,15.332,0.022
53824.24891,15.545,0.026
53824.260894,15.613,0.028
53824.271717,15.404,0.022
53824.283175,15.181,0.026
53828.23295,15.313,0.028
53828.254402,15.055,0.048
53828.278373,15.01,0.03
53845.184962,15.541,0.035
53845.195671,15.308,0.028
53845.206381,15.13,0.024
53845.217238,15.063,0.024
53845.227979,15.048,0.024
53846.192079,15.265,0.03
53846.202725,15.136,0.028
53846.21341,15.07,0.028
53846.22414,15.042,0.026
53846.234867,15.045,0.028
53851.141614,15.128,0.028
53851.152227,15.055,0.026
53851.162795,15.027,0.028
53851.173258,15.016,0.021
53851.183694,14.984,0.023
53851.191238,15.006,0.02
53851.201278,15.052,0.022
53851.211891,15.081,0.024
53851.221777,15.14,0.026
53851.231663,15.333,0.031
53854.195073,15.122,0.044
53854.220261,15.63,0.039
53854.231153,15.484,0.035
53854.245041,15.186,0.03
54030.428377,15.059,0.028
54030.44257,15.337,0.033
54030.456715,15.597,0.04
54030.472715,15.639,0.038
54030.485189,15.364,0.03
54035.435524,15.282,0.03
54035.447787,15.111,0.025
54035.460319,15.064,0.023
54035.472459,15.027,0.021
54035.484163,15.002,0.02
54040.42752,15.024,0.028
54040.441711,15.043,0.026
54040.454035,15.051,0.028
54040.46642,15.085,0.026
54040.478443,15.233,0.031
54053.424248,15.305,0.048
54053.459753,15.096,0.028
54053.471606,15.109,0.026
54056.425612,15.102,0.017
54056.437871,15.177,0.018
54056.450121,15.431,0.02
54056.462562,15.654,0.026
54056.474809,15.651,0.026
54058.38441,15.021,0.021
54058.396765,15.063,0.021
54058.409228,15.104,0.021
54058.423256,15.3,0.025
54058.436331,15.567,0.031
54059.432097,15.634,0.026
54059.444594,15.557,0.024
54059.456906,15.291,0.018
54059.469226,15.127,0.017
54059.482665,15.056,0.015
54064.382052,15.701,0.038
54064.387906,15.686,0.028
54064.394705,15.527,0.033
54064.400823,15.407,0.022
54064.40727,15.202,0.023
54064.413723,15.175,0.017
54064.420002,15.085,0.02
54064.426633,15.086,0.017
54064.432953,15.031,0.02
54064.439723,15.035,0.015
54082.370543,15.083,0.035
54082.383048,15.035,0.033
54082.391275,15.035,0.017
54082.395412,15.036,0.031
54082.404166,15.047,0.017
54082.407863,15.021,0.031
54082.417069,15.08,0.018
54082.420326,15.043,0.031
54082.430289,15.098,0.018
54082.44319,15.252,0.018
54085.401822,15.113,0.015
54085.41496,15.217,0.03
54085.428716,15.531,0.026
54085.442358,15.655,0.028
54085.455839,15.373,0.018
54112.385837,15.157,0.033
54112.398556,15.148,0.025
54112.411114,15.379,0.031
54112.423661,15.694,0.041
54114.354061,15.045,0.02
54114.367061,15.068,0.026
54152.279224,15.658,0.02
54152.291138,15.659,0.02
54152.303027,15.407,0.017
54152.314927,15.217,0.015
54152.326832,15.091,0.013
54153.272276,15.612,0.022
54153.283774,15.563,0.02
54153.295269,15.319,0.017
54153.306776,15.15,0.015
54153.318331,15.078,0.013
54157.216993,15.415,0.024
54157.228501,15.613,0.028
54157.25169,15.32,0.02
54173.213512,15.585,0.026
54173.224198,15.356,0.021
54173.235086,15.117,0.016
54173.2459,15.072,0.016
54173.256772,15.03,0.016
54174.263734,15.023,0.013
54174.274439,15.033,0.013
54174.285146,15.07,0.017
54174.295843,15.104,0.026
54174.306545,15.268,0.02
54177.231785,15.016,0.013
54177.24341,15.021,0.015
54177.278317,15.225,0.1
54180.279935,15.604,0.02
54180.290512,15.384,0.017
54180.301604,15.172,0.015
54180.312241,15.092,0.013
54180.322798,15.056,0.015
54185.220512,16.262,0.112
54185.230774,15.965,0.086
54185.240986,15.621,0.064
54185.251178,15.541,0.061
54185.261396,15.318,0.053
54201.191418,15.723,0.051
54201.200938,15.561,0.045
54201.210162,15.342,0.035
54201.219393,15.18,0.031
54201.228698,15.114,0.03
54205.2188,15.017,0.015
54205.228011,14.999,0.015
54205.237185,15.028,0.017
54205.24647,15.069,0.017
54205.255676,15.125,0.018
54208.214423,15.12,0.018
54208.223454,15.158,0.018
54208.232501,15.33,0.02
54208.241575,15.651,0.03
54208.250657,15.749,0.03
54212.186201,15.206,0.022
54212.195068,15.391,0.028
54212.204195,15.596,0.033
54212.213089,15.658,0.035
54212.221989,15.633,0.035
54416.435703,15.65,0.022
54416.448464,15.543,0.02
54416.460789,15.312,0.017
54416.473102,15.138,0.015
54416.485447,15.071,0.013
54438.444545,15.085,0.011
54438.457786,15.176,0.011
54438.471124,15.408,0.015
54438.484559,15.579,0.017
54438.497814,15.426,0.015
54480.459088,15.686,0.049
54480.471376,15.457,0.041
54480.48399,15.205,0.036
54480.496282,15.077,0.033
54480.508605,15.048,0.033
54481.212596,15.021,0.018
54481.226208,15.027,0.017
54481.239404,15.044,0.017
54481.252407,15.042,0.017
54481.265348,15.134,0.018
54498.280677,15.473,0.015
54498.293078,15.236,0.013
54498.30549,15.102,0.011
54498.317858,15.057,0.011
54498.330385,15.033,0.011
54506.273987,15.055,0.011
54506.286299,15.107,0.011
54506.298485,15.268,0.013
54506.31094,15.495,0.017
54506.323173,15.609,0.017
54522.332443,15.105,0.015
54522.344351,15.06,0.015
54522.35629,15.032,0.013
54522.368282,15.011,0.015
54522.380078,15.038,0.015
54527.284559,15.046,0.022
54527.295966,15.08,0.024
54527.307356,15.025,0.011
54527.318767,15.033,0.009
54535.223358,15.02,0.009
54535.234538,15.036,0.009
54535.245705,15.072,0.011
54535.257249,15.128,0.011
54535.268413,15.276,0.011
54540.115293,15.479,0.026
54540.12618,15.264,0.02
54540.137066,15.129,0.018
54540.14797,15.086,0.017
54540.158885,15.05,0.015
54553.244229,15.614,0.018
54553.256156,15.489,0.017
54553.26809,15.238,0.015
54553.279974,15.117,0.015
54553.291828,15.052,0.018
54561.237498,15.04,0.015
54561.24898,15.065,0.009
54561.26043,15.111,0.013
54561.271907,15.241,0.017
54561.283376,15.453,0.026
54580.143232,15.124,0.03
54580.153459,15.102,0.03
54580.163916,15.055,0.028
54580.182104,15.072,0.028
54580.192911,15.139,0.031
54583.195939,15.455,0.024
54583.2066,15.654,0.031
54590.196257,15.057,0.017
54590.206578,15.033,0.017
54590.21692,15.032,0.017
54590.227272,15.062,0.018
54590.237634,15.1,0.018
