mjd,m,merr
52622.367168,15.162,0.023
52622.381591,15.209,0.021
52622.396404,15.251,0.021
52622.410841,15.272,0.021
52638.371881,15.006,0.016
52638.38689,14.99,0.015
52638.401918,14.979,0.015
52643.333441,15.225,0.02
52643.349791,15.153,0.016
52643.366098,15.064,0.016
52643.382458,15.031,0.016
52643.398444,15.0,0.016
52649.378151,15.168,0.017
52649.394548,15.207,0.018
52649.410427,15.207,0.018
52649.42875,15.236,0.018
52649.445212,15.239,0.018
52670.344075,15.25,0.018
52670.360053,15.148,0.018
52670.375595,15.045,0.016
52670.391364,15.036,0.018
52670.409855,14.981,0.016
52696.272476,14.971,0.013
52696.285999,14.951,0.013
52696.298529,14.955,0.013
52696.311707,14.956,0.013
52696.325126,14.955,0.013
52703.239264,14.942,0.016
52703.252539,14.931,0.015
52703.265565,14.895,0.03
52703.278942,14.944,0.02
52703.292295,14.944,0.016
52723.17655,15.278,0.018
52723.188007,15.247,0.018
52723.200028,15.203,0.017
52723.212087,15.152,0.018
52723.223588,15.048,0.035
52730.181841,15.053,0.018
52730.193977,15.026,0.016
52730.206101,15.011,0.016
52730.21925,14.978,0.016
52730.231501,14.941,0.016
52752.139577,15.234,0.02
52752.149857,15.205,0.018
52752.160114,15.112,0.018
52752.170371,15.033,0.018
52752.180631,15.032,0.017
52761.143891,14.96,0.015
52761.155665,14.956,0.018
52761.167441,14.948,0.018
52761.179204,14.973,0.024
52761.191036,15.003,0.035
52787.160159,15.296,0.026
52787.170691,15.267,0.024
52787.181257,15.264,0.028
52787.191972,15.333,0.033
52787.20258,15.288,0.028
52942.45192,15.048,0.054
52962.390991,15.256,0.018
52962.403911,15.245,0.018
52962.416797,15.296,0.018
52962.429692,15.257,0.017
52962.442508,15.263,0.017
52977.393351,15.177,0.02
52977.405304,15.221,0.02
52977.417453,15.238,0.018
52977.429389,15.24,0.018
52977.441438,15.283,0.018
52991.415149,15.17,0.015
52991.436529,15.084,0.015
52991.454756,15.015,0.015
52991.470401,14.991,0.013
52991.487774,14.955,0.011
53000.371276,14.938,0.01
53000.384165,14.953,0.008
53000.397088,14.939,0.008
53000.410352,14.962,0.008
53000.423445,14.955,0.008
53002.37893,14.968,0.009
53002.393657,14.97,0.009
53002.410327,15.02,0.009
53002.425627,15.041,0.009
53002.441619,15.108,0.009
53024.2822,14.972,0.009
53024.295079,14.959,0.009
53024.307911,14.948,0.009
53024.320724,15.014,0.037
53035.28514,15.201,0.018
53035.298365,15.222,0.02
53035.310797,15.217,0.018
53035.325555,15.269,0.02
53035.338713,15.277,0.02
53050.269431,15.009,0.013
53050.281023,15.064,0.013
53050.292678,15.103,0.013
53050.304275,15.112,0.013
53050.315982,15.155,0.017
53078.227338,15.274,0.02
53078.238091,15.243,0.017
53078.248862,15.2,0.048
53078.259464,15.159,0.017
53078.270125,15.084,0.015
53087.241248,14.904,0.009
53087.251958,14.941,0.009
53087.262714,14.915,0.009
53087.273355,14.961,0.009
53109.186037,14.966,0.015
53109.196715,14.978,0.015
53109.20742,14.958,0.015
53109.218105,14.975,0.015
53109.228916,14.951,0.015
53137.153709,15.222,0.02
53137.163203,15.206,0.02
53137.172734,15.212,0.022
53137.182277,15.249,0.024
53137.191775,15.28,0.026
53148.155903,14.958,0.015
53148.164815,14.938,0.017
53148.173727,14.923,0.018
53148.182801,14.936,0.018
53148.191715,14.936,0.018
53328.413857,14.935,0.018
53331.449204,15.06,0.02
53348.411022,15.086,0.018
53348.425355,15.035,0.018
53348.439606,14.969,0.018
53348.453862,14.964,0.016
53348.468151,14.994,0.02
53354.420647,15.212,0.018
53354.435103,15.244,0.016
53354.449536,15.26,0.018
53354.464355,15.269,0.018
53354.478684,15.279,0.018
53404.305611,15.298,0.015
53404.318463,15.309,0.015
53404.331737,15.305,0.015
53404.351081,15.27,0.015
53404.364265,15.222,0.015
53443.325985,15.296,0.017
53443.336659,15.308,0.018
53443.347343,15.249,0.02
53443.357995,15.283,0.024
53443.368656,15.232,0.026
53473.180579,15.022,0.017
53473.19019,14.972,0.017
53473.19998,14.96,0.017
53473.20974,14.957,0.017
53473.219413,14.943,0.017
53498.150662,15.282,0.024
53498.16081,15.32,0.028
53498.171101,15.311,0.03
53499.158052,14.992,0.017
53499.16904,14.998,0.018
53499.179193,15.028,0.018
53499.189352,15.042,0.02
53499.199614,15.063,0.02
53657.429991,15.059,0.024
53657.441247,15.054,0.022
53657.452463,15.102,0.022
53657.463697,15.118,0.022
53657.474928,15.139,0.022
53673.445126,15.179,0.022
53673.457928,15.122,0.02
53673.470051,15.03,0.02
53673.482216,14.994,0.018
53673.49497,15.003,0.018
53676.448428,15.291,0.03
53676.460479,15.278,0.026
53676.472475,15.268,0.028
53676.484434,15.282,0.024
53676.49645,15.287,0.026
53682.462451,14.952,0.018
53682.475022,14.945,0.018
53682.487423,14.98,0.018
53682.500107,15.028,0.018
53702.375683,15.247,0.018
53702.390717,15.154,0.017
53702.405273,15.082,0.015
53702.41821,15.054,0.015
53702.431061,15.007,0.015
53741.347907,15.15,0.013
53741.360596,15.111,0.013
53741.373466,15.064,0.013
53741.387297,15.05,0.013
53741.400507,15.035,0.013
53771.228006,15.067,0.035
53771.240573,15.105,0.057
53771.253247,15.087,0.024
53771.265941,15.151,0.043
53771.278531,15.172,0.028
53786.277536,15.063,0.013
53786.289423,15.083,0.015
53786.301419,15.12,0.015
53786.313315,15.15,0.018
53786.325223,15.179,0.017
53812.241012,15.304,0.023
53812.252723,15.294,0.023
53812.26423,15.326,0.025
53812.275828,15.301,0.025
53812.287438,15.304,0.025
53843.198402,15.131,0.016
53843.209845,15.057,0.016
53843.221334,15.052,0.016
53843.233137,14.993,0.016
53843.244782,14.98,0.016
53854.143431,14.953,0.02
53854.153792,14.99,0.018
53854.164169,15.007,0.018
53854.174749,15.05,0.018
53854.185145,15.056,0.018
54028.439434,14.939,0.026
54028.451283,14.933,0.025
54028.46296,14.996,0.023
54028.47474,14.994,0.023
54028.487027,14.979,0.023
54055.381567,15.229,0.023
54055.394568,15.191,0.021
54055.407213,15.122,0.02
54055.420333,15.077,0.018
54055.432787,15.053,0.018
54067.393137,15.055,0.015
54067.406083,15.018,0.015
54067.418814,15.001,0.013
54067.432141,14.991,0.013
54067.44498,14.958,0.013
54085.343611,15.198,0.021
54085.356787,15.194,0.021
54085.369873,15.231,0.02
54085.382783,15.216,0.02
54085.395881,15.257,0.021
54110.343263,14.98,0.028
54110.359539,15.019,0.018
54110.374647,15.057,0.02
54110.389699,15.085,0.02
54110.406213,15.127,0.022
54123.269986,15.27,0.017
54123.282218,15.235,0.017
54123.294412,15.186,0.017
54123.306632,15.119,0.015
54123.318848,15.091,0.015
54156.21127,14.949,0.018
54156.244772,14.973,0.018
54156.255722,14.997,0.018
54177.159159,15.139,0.016
54177.162605,15.115,0.015
54177.169929,15.161,0.016
54177.174423,15.18,0.015
54177.180732,15.215,0.016
54177.186174,15.199,0.015
54177.191562,15.213,0.016
54177.198101,15.196,0.015
54177.202534,15.253,0.016
54177.209917,15.224,0.015
54207.178456,14.951,0.02
54207.187741,14.977,0.02
54207.19698,14.908,0.018
54207.206803,15.03,0.02
54207.216356,15.013,0.02
54216.175281,15.198,0.041
54216.183882,15.206,0.043
54216.192571,15.213,0.044
54216.201218,15.229,0.044
54216.209835,15.26,0.046
54395.46979,14.873,0.025
54397.43275,14.969,0.02
54397.44453,14.992,0.02
54397.456164,15.062,0.018
54397.46781,15.062,0.017
54397.479456,15.124,0.015
54412.44017,14.972,0.011
54412.452432,14.934,0.011
54412.464812,14.97,0.011
54412.477175,14.975,0.011
54412.489434,15.005,0.011
54421.442653,15.188,0.013
54421.455134,15.206,0.013
54421.467642,15.208,0.013
54421.4801,15.251,0.013
54421.492573,15.273,0.013
54450.390269,15.13,0.011
54450.403422,15.194,0.011
54450.416482,15.226,0.011
54450.42952,15.207,0.013
54450.442554,15.263,0.013
54470.323809,15.015,0.022
54470.336556,14.963,0.017
54470.362209,15.095,0.03
54470.375027,15.071,0.041
54476.335008,15.256,0.011
54476.347872,15.244,0.011
54476.360718,15.202,0.011
54476.373573,15.13,0.011
54476.386414,15.102,0.009
54509.216098,15.025,0.011
54509.228001,15.003,0.011
54509.240017,14.986,0.011
54509.252046,14.962,0.009
54509.263968,14.988,0.009
54532.222586,15.181,0.011
54532.233726,15.248,0.011
54532.244923,15.241,0.011
54532.256183,15.249,0.011
54532.267327,15.272,0.011
54573.185505,15.099,0.035
54587.150333,15.042,0.015
54587.161063,15.021,0.015
54587.171755,15.0,0.015
54587.182437,15.015,0.015
54587.193201,15.001,0.015
54595.149705,15.255,0.024
54595.15962,15.274,0.024
54595.169496,15.261,0.024
54595.179378,15.3,0.026
54595.189326,15.254,0.028
