mjd,m,merr
52608.45426,16.705,0.152
52608.469212,16.838,0.107
52608.484104,16.612,0.135
52608.498987,16.523,0.091
52640.382184,16.603,0.056
52640.397246,16.306,0.045
52640.412263,16.3,0.045
52640.427699,16.339,0.046
52640.443371,16.328,0.046
52646.384733,16.402,0.052
52646.399543,16.373,0.052
52646.413983,16.4,0.055
52646.428554,16.38,0.05
52646.443067,16.365,0.054
52648.342804,16.843,0.089
52648.373575,17.142,0.116
52648.388772,17.311,0.134
52667.316921,16.862,0.076
52667.331615,16.856,0.076
52667.346291,16.98,0.084
52667.360966,16.942,0.083
52667.375696,16.948,0.086
52672.321237,16.39,0.057
52672.335081,16.458,0.05
52672.349333,16.417,0.054
52672.3632,16.403,0.048
52672.377166,16.377,0.054
52705.234023,16.434,0.051
52705.237692,16.428,0.044
52705.246986,16.48,0.053
52705.250858,16.424,0.044
52705.25994,16.455,0.053
52705.265826,16.493,0.044
52705.272982,16.476,0.053
52705.278868,16.482,0.044
52705.285939,16.392,0.051
52705.292014,16.493,0.05
52707.243233,16.48,0.048
52707.256658,16.401,0.044
52707.269804,16.413,0.046
52707.283087,16.365,0.044
52707.29637,16.374,0.044
52729.226588,16.531,0.052
52729.238145,16.456,0.048
52729.249689,16.497,0.052
52729.261175,16.526,0.054
52729.273343,16.496,0.054
52734.194962,16.463,0.048
52734.207372,16.468,0.048
52734.220571,16.481,0.052
52734.232809,16.663,0.063
52734.245972,16.795,0.074
52738.180206,16.463,0.067
52738.191625,16.419,0.067
52738.20316,16.449,0.068
52738.214585,16.376,0.065
52738.226053,16.455,0.07
52755.143573,16.844,0.078
52755.155692,16.574,0.061
52755.167756,16.414,0.054
52755.179846,16.456,0.057
52755.191908,16.454,0.059
52760.144541,16.348,0.059
52760.157107,16.43,0.063
52760.169129,16.583,0.074
52760.181166,16.848,0.094
52760.193215,16.859,0.096
52765.179355,16.451,0.084
52765.19134,16.281,0.064
52938.424442,16.496,0.068
52938.436477,16.438,0.059
52938.448462,16.534,0.061
52938.460428,16.472,0.058
52938.472334,16.488,0.058
52995.330834,16.505,0.04
52995.343389,16.536,0.041
52995.35589,16.422,0.036
52995.368333,16.606,0.041
52995.380825,16.505,0.04
53027.397458,16.438,0.031
53027.410403,16.434,0.035
53027.423411,16.427,0.035
53027.436225,16.432,0.035
53027.449005,16.419,0.038
53029.338979,16.444,0.081
53033.277678,16.386,0.048
53033.289871,16.38,0.048
53033.301929,16.552,0.055
53033.314129,16.899,0.074
53033.326284,16.986,0.078
53053.298744,16.809,0.081
53053.311476,16.543,0.078
53053.325558,16.505,0.115
53053.337291,16.397,0.041
53058.28742,16.458,0.03
53058.300398,16.49,0.033
53058.312558,16.462,0.035
53058.324612,16.618,0.04
53058.33716,16.769,0.041
53061.284498,16.408,0.03
53061.296478,16.426,0.031
53061.308557,16.629,0.04
53061.320613,16.957,0.051
53061.332603,16.851,0.046
53079.247268,16.614,0.052
53079.257958,16.414,0.044
53079.268646,16.322,0.041
53079.279455,16.401,0.043
53079.290112,16.403,0.043
53083.239125,16.421,0.031
53083.250705,16.427,0.031
53083.262076,16.399,0.031
53083.273584,16.414,0.033
53083.28514,16.402,0.04
53085.278876,16.427,0.035
53085.290109,16.375,0.036
53085.301348,16.482,0.056
53085.312685,16.404,0.046
53110.183827,16.38,0.055
53110.194517,16.477,0.063
53110.205208,16.658,0.076
53110.215893,16.816,0.089
53110.226644,16.751,0.087
53114.196297,16.426,0.038
53114.207464,16.441,0.038
53114.218392,16.415,0.038
53114.229234,16.44,0.04
53114.239878,16.457,0.041
53116.199481,16.682,0.079
53116.221196,16.255,0.083
53138.152068,16.436,0.059
53138.161938,16.436,0.055
53138.17182,16.407,0.057
53138.181607,16.413,0.057
53138.191453,16.407,0.055
53142.156971,16.445,0.051
53142.179556,16.418,0.051
53142.189197,16.465,0.049
53144.157273,16.503,0.294
53144.166686,16.56,0.067
53144.176079,16.647,0.078
53144.185468,16.745,0.117
53287.430187,16.671,0.16
53287.463242,16.445,0.101
53287.474515,16.463,0.099
53327.38399,16.353,0.066
53327.397017,16.526,0.089
53327.409519,16.384,0.069
53327.421753,16.399,0.078
53327.434218,16.452,0.081
53346.418944,16.969,0.125
53347.46567,16.618,0.091
53347.4794,16.451,0.073
53351.420537,16.44,0.063
53351.434789,16.681,0.084
53351.449221,17.062,0.117
53351.464153,16.921,0.111
53351.478834,16.569,0.079
53352.445399,16.421,0.069
53352.460433,16.372,0.073
53352.47519,16.404,0.074
53352.489874,16.454,0.074
53352.504675,16.396,0.076
53383.345266,16.763,0.063
53383.359417,16.776,0.065
53383.372498,16.601,0.057
53383.385755,16.491,0.052
53383.399524,16.466,0.052
53403.298226,16.462,0.043
53403.352164,16.433,0.053
53466.221945,16.915,0.089
53466.231338,16.735,0.078
53466.2407,16.492,0.065
53466.250058,16.436,0.063
53466.259618,16.387,0.059
53468.213269,16.544,0.128
53468.222771,16.449,0.091
53704.448469,16.511,0.055
53704.460938,16.736,0.067
53704.473413,16.9,0.08
53704.485985,16.635,0.061
53704.49873,16.426,0.05
53707.449094,16.733,0.078
53707.461892,16.715,0.068
53707.4745,16.577,0.065
53707.487144,16.465,0.055
53707.499753,16.438,0.052
53710.444829,17.063,0.1
53710.45736,16.692,0.076
53710.470741,16.41,0.061
53710.483399,16.445,0.063
53710.495984,16.501,0.065
53734.407393,16.43,0.05
53734.420343,16.425,0.048
53734.433278,16.402,0.048
53734.446407,16.409,0.052
53734.4596,16.408,0.052
53746.340178,16.38,0.081
53746.353662,16.499,0.091
53746.366178,16.47,0.087
53746.378926,16.465,0.087
53746.391494,16.568,0.096
53758.340146,16.466,0.046
53758.352674,16.451,0.046
53758.365187,16.509,0.052
53758.377908,16.488,0.054
53758.390434,16.633,0.065
53787.414232,16.438,0.074
53787.426144,16.396,0.07
53787.438133,16.422,0.076
53787.450202,16.327,0.074
53789.289187,16.408,0.085
53789.301126,16.467,0.074
53789.313051,16.401,0.128
53789.337152,16.536,0.198
53790.286183,16.565,0.059
53790.2981,16.712,0.069
53790.310064,16.993,0.087
53790.322096,16.776,0.073
53790.334008,16.572,0.058
53792.287394,16.384,0.054
53792.29932,16.438,0.052
53792.311227,16.401,0.072
53792.323126,16.435,0.052
53792.335073,16.339,0.061
53802.280853,16.481,0.078
53802.292228,16.47,0.078
53802.32643,16.449,0.133
53818.22869,16.421,0.054
53818.239808,16.422,0.054
53818.250903,16.438,0.056
53818.262044,16.431,0.056
53818.2733,16.479,0.059
53821.234852,16.442,0.067
53821.248854,16.438,0.07
53821.26178,16.407,0.061
53821.27503,16.495,0.063
53821.286225,16.625,0.074
53824.237744,16.458,0.057
53824.251175,16.385,0.052
53824.262313,16.585,0.063
53824.273136,16.755,0.074
53824.284594,16.916,0.128
53828.234319,16.464,0.076
53828.244714,16.431,0.078
53828.255775,16.38,0.13
53828.279742,16.253,0.081
53845.137766,16.448,0.063
53845.160395,17.35,0.157
53845.171759,16.749,0.091
53845.183113,16.649,0.083
53846.193314,16.398,0.081
53846.203963,16.416,0.083
53846.214643,16.475,0.087
53846.225376,16.437,0.087
53846.236103,16.46,0.093
53850.144056,16.475,0.079
53850.185441,16.377,0.069
53851.192108,16.451,0.072
53851.202151,16.458,0.072
53851.212762,16.353,0.07
53851.222658,16.403,0.072
53851.232535,16.366,0.074
53854.207296,16.264,0.142
53854.221599,16.352,0.072
53854.232503,16.339,0.074
53854.246391,16.419,0.087
54030.429522,16.658,0.111
54030.443591,16.451,0.089
54030.457714,16.391,0.078
54030.473707,16.386,0.071
54030.486183,16.408,0.071
54035.436542,16.752,0.106
54035.448805,16.914,0.116
54035.461335,16.928,0.114
54035.473478,16.71,0.091
54035.485182,16.471,0.069
54039.448788,16.502,0.087
54039.460703,16.392,0.081
54039.472718,16.477,0.084
54039.48456,16.571,0.094
54039.496782,16.463,0.078
54053.449253,16.5,0.1
54053.461193,16.631,0.117
54053.473044,16.415,0.076
54056.427049,16.482,0.055
54056.439305,16.448,0.052
54056.451554,16.426,0.05
54056.463997,16.423,0.052
54056.476245,16.45,0.05
54059.433163,16.301,0.046
54059.441139,16.354,0.059
54059.445661,16.355,0.046
54059.457974,16.34,0.048
54059.464731,16.376,0.059
54059.47031,16.355,0.048
54059.478655,16.363,0.056
54059.483735,16.425,0.048
54059.491118,16.367,0.054
54059.503789,16.378,0.053
54064.38902,16.619,0.063
54064.401936,16.405,0.048
54064.414836,16.388,0.046
54064.427746,16.44,0.046
54064.440836,16.334,0.043
54082.392391,16.409,0.061
54082.40528,16.452,0.063
54082.418188,16.48,0.065
54082.431405,16.475,0.061
54082.444307,16.423,0.059
54085.402998,16.424,0.048
54085.416136,16.437,0.052
54085.42989,16.387,0.059
54085.443533,16.461,0.055
54085.457015,16.476,0.048
54091.298977,16.435,0.071
54091.31086,16.517,0.073
54091.323035,16.434,0.066
54091.33493,16.547,0.071
54091.346814,16.471,0.071
54114.355514,16.467,0.063
54152.279943,16.803,0.05
54152.291853,16.724,0.046
54152.30374,16.535,0.041
54152.315638,16.497,0.041
54152.327546,16.402,0.037
54153.273666,16.419,0.039
54153.285161,16.45,0.041
54153.296654,16.433,0.041
54153.30816,16.395,0.041
54153.319733,16.431,0.041
54173.246428,16.366,0.053
54173.257299,16.374,0.053
54174.264929,16.413,0.044
54174.275631,16.374,0.044
54174.286336,16.414,0.055
54174.297038,16.508,0.076
54174.307741,16.684,0.07
54180.280301,16.62,0.054
54180.29086,16.684,0.057
54180.301987,16.57,0.052
54180.312604,16.456,0.048
54180.323148,16.406,0.048
54185.221161,16.397,0.109
54185.231423,16.41,0.111
54185.241636,16.381,0.111
54185.251832,16.36,0.109
54185.262046,16.227,0.096
54200.172008,16.326,0.081
54200.191225,16.762,0.111
54200.201015,16.669,0.106
54205.219756,16.4,0.052
54205.228947,16.42,0.054
54205.238225,16.431,0.055
54205.247414,16.454,0.057
54205.25662,16.449,0.057
54208.215356,16.388,0.05
54208.224381,16.349,0.05
54208.233435,16.391,0.055
54208.242504,16.39,0.052
54208.251591,16.394,0.054
54212.223303,16.454,0.068
54212.232366,16.45,0.067
54212.241371,16.504,0.072
54212.250529,16.388,0.067
54212.259558,16.412,0.068
54416.436496,16.446,0.044
54416.449252,16.516,0.046
54416.461577,16.762,0.055
54416.473893,17.045,0.072
54416.486234,16.803,0.057
54448.43895,17.15,0.18
54448.463551,16.406,0.101
54448.476618,16.546,0.112
54448.488985,16.451,0.097
54481.214539,16.791,0.081
54481.228026,16.52,0.059
54481.241187,16.539,0.059
54481.254198,16.473,0.052
54481.267136,16.507,0.055
54497.334638,16.36,0.054
54497.347213,16.387,0.031
54497.359779,16.382,0.031
54497.372323,16.384,0.044
54497.38486,16.44,0.054
54505.336132,16.399,0.03
54505.34839,16.39,0.03
54505.360636,16.413,0.03
54505.372959,16.43,0.031
54505.385511,16.421,0.031
54507.3882,16.412,0.049
54507.402131,16.369,0.048
54507.414027,16.369,0.051
54507.437906,16.372,0.056
54521.343924,16.592,0.093
54521.355579,16.714,0.093
54521.367272,16.769,0.072
54521.378981,16.637,0.1
54521.390695,16.483,0.063
54526.280908,16.385,0.031
54526.292371,16.4,0.031
54526.303943,16.41,0.033
54526.315418,16.345,0.031
54526.327084,16.384,0.033
54534.273952,16.636,0.183
54534.284889,16.462,0.041
54534.295807,16.408,0.028
54534.30678,16.407,0.028
54534.317692,16.423,0.028
54535.331389,16.439,0.051
54535.342378,16.443,0.053
54535.35434,16.773,0.069
54535.365551,17.004,0.096
54540.116163,16.321,0.05
54540.127046,16.373,0.052
54540.137937,16.356,0.046
54540.148836,16.387,0.048
54540.159752,16.41,0.048
54552.248023,16.414,0.035
54552.260103,16.41,0.033
54552.272204,16.451,0.037
54552.284211,16.456,0.041
54552.296254,16.456,0.044
54583.196612,16.309,0.052
54583.207273,16.335,0.055
54590.196951,16.448,0.048
54590.207253,16.578,0.055
54590.217595,16.651,0.065
54590.227965,16.779,0.076
54590.238312,16.71,0.072
