mjd,m,merr
52608.452967,15.913,0.061
52608.467918,15.765,0.044
52608.482813,15.737,0.07
52608.497663,15.676,0.048
52640.382184,15.944,0.031
52640.397246,16.175,0.04
52640.412263,16.145,0.038
52640.427699,15.915,0.031
52646.384611,15.725,0.03
52646.39942,15.838,0.033
52646.41386,16.191,0.048
52646.428432,16.155,0.044
52646.442944,15.95,0.039
52648.3278,15.888,0.038
52648.342804,15.77,0.033
52648.358091,15.628,0.059
52648.373575,15.678,0.031
52648.388772,15.776,0.035
52667.316921,15.759,0.028
52667.331615,15.83,0.03
52667.346291,16.05,0.036
52667.360966,16.287,0.046
52667.375696,16.114,0.04
52672.320301,15.726,0.033
52672.334146,15.762,0.028
52672.348401,15.797,0.037
52672.362263,16.013,0.035
52672.376226,16.254,0.048
52700.290027,15.678,0.03
52700.305672,15.731,0.031
52700.320761,15.887,0.035
52700.336557,16.217,0.048
52700.351757,16.253,0.051
52705.233426,16.271,0.043
52705.246382,16.191,0.04
52705.259338,15.92,0.033
52705.27238,15.776,0.028
52705.285337,15.702,0.028
52707.242595,16.259,0.041
52707.255921,16.071,0.035
52707.26916,15.831,0.028
52707.282442,15.749,0.026
52707.295725,15.68,0.026
52728.227376,15.726,0.036
52728.239766,15.722,0.033
52728.251766,15.738,0.033
52728.26407,15.729,0.033
52728.276284,15.789,0.033
52738.179639,15.767,0.037
52738.191057,15.821,0.039
52738.20259,16.065,0.05
52738.214014,16.112,0.052
52738.225483,16.214,0.057
52755.142793,16.272,0.046
52755.154826,16.281,0.048
52755.166967,15.97,0.037
52755.179057,15.828,0.033
52755.191119,15.743,0.031
52760.144432,16.003,0.043
52760.156998,16.266,0.054
52760.16902,16.304,0.056
52760.181057,16.041,0.046
52760.193106,15.835,0.04
52765.178779,16.279,0.069
52765.190755,16.294,0.064
52938.424185,15.652,0.033
52938.43622,15.692,0.033
52938.448206,15.721,0.031
52938.460171,15.786,0.033
52938.472076,15.964,0.036
52973.377274,15.828,0.033
52973.388357,15.739,0.03
52973.399429,15.703,0.03
52973.410521,15.668,0.028
52973.421721,15.68,0.026
53033.276757,16.213,0.043
53033.288949,16.274,0.046
53033.301008,16.025,0.037
53033.313206,15.836,0.031
53033.325362,15.724,0.028
53053.284729,15.655,0.046
53053.29841,15.703,0.031
53053.311142,15.778,0.041
53053.325223,15.881,0.074
53053.336957,16.081,0.033
53079.246968,15.665,0.024
53079.257658,15.67,0.024
53079.268347,15.714,0.024
53079.279156,15.808,0.026
53079.289813,15.952,0.03
53110.183545,15.864,0.037
53110.194235,15.739,0.033
53110.204926,15.727,0.033
53110.215611,15.683,0.033
53110.226362,15.676,0.033
53138.151444,15.868,0.037
53138.161312,15.738,0.031
53138.171195,15.715,0.033
53138.180982,15.651,0.031
53138.190828,15.662,0.031
53144.166532,15.983,0.041
53144.175925,15.817,0.037
53144.185314,15.762,0.05
53287.430088,15.59,0.063
53287.441011,15.676,0.063
53287.451918,15.63,0.054
53287.463143,15.794,0.059
53287.474417,16.173,0.083
53292.428865,15.706,0.053
53292.438472,15.698,0.049
53292.448114,15.633,0.045
53292.458759,15.683,0.045
53292.46836,15.809,0.048
53296.439247,15.625,0.043
53296.450595,15.619,0.04
53296.461942,15.641,0.04
53296.473229,15.721,0.04
53296.485403,15.781,0.04
53315.458664,15.989,0.066
53315.470606,15.831,0.056
53327.383018,15.848,0.045
53327.396063,15.773,0.049
53327.408561,15.694,0.038
53327.420799,15.682,0.059
53327.433264,15.706,0.043
53346.381108,15.774,0.033
53346.393364,15.92,0.038
53346.405746,16.205,0.051
53346.418483,16.265,0.053
53347.43683,16.055,0.041
53347.450669,15.841,0.033
53351.419784,16.177,0.049
53351.434003,16.228,0.054
53351.463358,15.831,0.041
53351.477935,15.769,0.04
53352.444935,16.255,0.059
53352.459981,15.915,0.046
53352.474743,15.808,0.041
53352.504227,15.688,0.04
53353.412852,15.87,0.04
53353.426913,16.142,0.049
53353.44105,16.207,0.053
53466.221292,15.691,0.031
53466.230703,15.662,0.031
53466.240065,15.621,0.03
53466.249423,15.653,0.033
53466.258972,15.723,0.033
53468.212972,15.813,0.059
53468.222477,15.686,0.048
53710.444049,16.047,0.044
53710.456598,16.246,0.054
53710.469962,16.182,0.052
53710.482637,15.897,0.041
53710.495216,15.726,0.035
53746.339723,16.005,0.059
53746.35343,15.752,0.046
53746.365948,15.668,0.043
53746.378695,15.67,0.043
53746.391264,15.638,0.041
53790.23632,15.856,0.031
53790.24812,15.721,0.028
53790.259952,15.685,0.028
53790.271739,15.642,0.026
53790.283439,15.645,0.026
53818.22774,15.706,0.03
53818.238861,15.65,0.028
53818.249955,15.672,0.03
53818.26109,15.75,0.031
53818.272349,15.793,0.035
53845.137242,16.338,0.058
53845.148555,16.323,0.059
53845.159869,16.038,0.046
53845.171236,15.851,0.04
53845.182587,15.732,0.036
53850.14386,16.05,0.058
53850.154156,16.37,0.109
53850.164536,16.223,0.094
53850.18525,15.848,0.045
54039.447874,15.633,0.038
54039.459796,15.624,0.036
54039.471797,15.657,0.038
54039.483652,15.726,0.038
54039.49582,15.84,0.041
54059.389526,15.71,0.041
54059.401987,15.689,0.036
54059.41475,15.731,0.036
54059.42784,15.873,0.041
54059.440415,16.031,0.045
54091.298753,16.294,0.064
54091.310637,16.26,0.059
54091.32281,16.045,0.049
54091.334705,15.809,0.04
54091.34659,15.769,0.041
54152.278932,15.81,0.022
54152.290843,15.693,0.02
54152.314629,15.634,0.02
54152.326535,15.662,0.02
54173.213915,15.913,0.033
54173.224598,15.777,0.028
54173.235488,15.705,0.028
54173.246301,15.649,0.026
54173.257173,15.64,0.026
54185.220255,16.087,0.079
54185.230515,16.283,0.092
54185.240725,16.262,0.094
54185.250917,15.952,0.073
54185.261136,15.764,0.059
54200.1712,16.071,0.053
54200.180647,15.849,0.043
54200.190393,15.748,0.038
54200.200141,15.716,0.038
54200.209606,15.659,0.036
54415.441251,15.78,0.02
54415.453751,15.975,0.024
54415.466167,16.197,0.03
54415.47857,16.189,0.03
54415.490944,15.948,0.024
54448.437176,16.206,0.033
54448.44972,16.262,0.033
54448.46199,16.192,0.033
54448.475051,15.954,0.028
54448.48742,15.767,0.025
54480.273555,15.863,0.022
54480.286551,16.119,0.026
54480.299544,16.234,0.026
54480.31254,16.115,0.024
54497.333431,15.937,0.043
54497.346011,16.22,0.031
54497.35857,16.194,0.028
54497.371125,16.012,0.033
54497.383657,15.837,0.035
54505.284221,15.781,0.018
54505.333948,15.705,0.017
54507.38683,16.225,0.046
54507.40032,16.06,0.04
54507.412649,15.828,0.035
54507.424521,15.759,0.033
54507.436533,15.721,0.035
54521.342589,15.773,0.061
54521.354883,15.662,0.028
54521.366568,15.614,0.028
54521.378279,15.595,0.03
54521.389994,15.67,0.031
54526.27975,15.697,0.018
54526.29122,15.809,0.02
54526.302783,15.943,0.022
54526.314262,16.239,0.03
54526.32593,16.222,0.03
54534.272811,15.719,0.063
54534.283747,15.736,0.054
54534.294658,15.695,0.017
54534.305623,15.737,0.017
54534.316544,15.815,0.017
54535.331043,15.936,0.036
54535.342034,16.241,0.046
54535.353994,16.287,0.049
54535.365207,16.132,0.046
54535.376398,15.888,0.04
54540.114959,16.215,0.048
54540.125845,16.164,0.044
54540.136729,15.914,0.035
54540.147633,15.746,0.03
54540.15855,15.677,0.028
54552.247234,15.788,0.02
54552.27143,16.179,0.03
54552.283434,16.293,0.037
54552.295454,16.12,0.033
54580.142976,16.03,0.059
54580.15322,15.915,0.054
54580.181866,15.728,0.048
54580.192671,15.719,0.046
54583.195682,15.636,0.028
54583.206342,15.684,0.031
54583.21694,15.722,0.037
54590.195995,15.79,0.028
54590.206314,15.71,0.03
54590.216656,15.709,0.03
54590.227007,15.726,0.03
54590.237367,15.739,0.031
