mjd,m,merr
52619.447375,15.301,0.023
52619.462354,15.327,0.025
52619.477331,15.373,0.025
52619.492741,15.428,0.026
52619.507732,15.448,0.028
52640.420954,15.384,0.018
52640.436335,15.466,0.02
52640.452025,15.479,0.02
52640.46704,15.432,0.02
52640.481874,15.401,0.018
52646.383868,15.368,0.022
52646.398676,15.474,0.024
52646.413119,15.469,0.026
52646.427654,15.42,0.024
52646.442205,15.378,0.024
52647.380695,15.305,0.021
52647.395186,15.309,0.021
52647.410071,15.279,0.021
52647.424905,15.296,0.023
52647.439602,15.327,0.025
52666.317806,15.377,0.02
52666.333201,15.319,0.018
52666.347905,15.328,0.018
52672.319828,15.304,0.022
52672.333673,15.325,0.018
52672.347897,15.308,0.028
52672.361792,15.373,0.02
52672.375756,15.418,0.022
52673.287477,15.424,0.021
52673.318316,15.467,0.023
52673.349712,15.417,0.023
52698.250676,15.433,0.056
52698.264907,15.339,0.033
52698.265022,15.338,0.035
52698.282743,15.346,0.026
52698.300602,15.322,0.02
52698.300717,15.33,0.018
52698.315069,15.317,0.02
52704.284026,15.285,0.021
52704.284628,15.312,0.02
52704.297116,15.323,0.021
52704.297718,15.361,0.021
52704.310466,15.357,0.025
52704.311067,15.365,0.023
52704.323494,15.378,0.025
52704.324096,15.409,0.025
52704.336506,15.519,0.03
52704.337109,15.483,0.026
52705.23627,15.303,0.017
52705.264403,15.454,0.02
52705.277437,15.451,0.02
52705.290564,15.37,0.018
52725.286722,15.457,0.039
52725.298382,15.437,0.03
52729.1769,15.287,0.018
52729.188797,15.306,0.018
52729.200301,15.302,0.018
52729.211984,15.331,0.018
52729.223443,15.339,0.018
52734.193552,15.355,0.018
52734.20605,15.33,0.018
52734.219233,15.304,0.018
52734.231484,15.324,0.02
52734.244651,15.326,0.02
52738.185612,15.347,0.031
52738.185728,15.369,0.033
52738.197342,15.323,0.033
52738.197458,15.33,0.033
52738.208948,15.342,0.033
52738.209065,15.34,0.033
52738.220632,15.303,0.033
52738.220747,15.332,0.033
52738.232236,15.332,0.033
52738.232353,15.321,0.033
52755.143019,15.34,0.02
52755.155061,15.362,0.02
52755.167202,15.341,0.02
52755.179293,15.298,0.02
52755.191354,15.334,0.022
52758.145539,15.467,0.026
52758.145648,15.493,0.026
52758.157851,15.498,0.026
52758.157961,15.477,0.026
52758.170164,15.479,0.026
52758.182192,15.394,0.026
52758.182301,15.397,0.025
52758.194259,15.404,0.025
52758.194368,15.366,0.023
52937.45563,15.545,0.025
52937.467383,15.46,0.021
52937.479174,15.377,0.018
52937.490909,15.36,0.018
52941.42686,15.607,0.026
52941.450273,15.427,0.02
52941.461852,15.361,0.018
52941.473687,15.309,0.016
52944.436632,15.318,0.028
52944.448636,15.34,0.028
52944.460579,15.367,0.028
52944.472502,15.423,0.026
52944.484609,15.476,0.028
52973.394057,15.433,0.022
52973.407095,15.383,0.02
52973.420184,15.343,0.018
52973.432969,15.328,0.018
52973.445974,15.314,0.018
52993.385565,15.421,0.018
52993.398651,15.438,0.017
52993.411699,15.423,0.018
52993.425125,15.354,0.017
52993.438192,15.327,0.015
52995.33021,15.519,0.016
52995.342767,15.473,0.015
52995.35527,15.48,0.015
52995.367709,15.431,0.015
52995.380208,15.505,0.016
53027.396836,15.282,0.012
53027.409784,15.288,0.013
53027.422791,15.276,0.012
53027.435606,15.3,0.013
53027.448387,15.297,0.015
53029.338366,15.43,0.028
53029.35091,15.361,0.053
53033.275875,15.465,0.023
53033.288381,15.503,0.025
53033.301087,15.471,0.023
53033.313578,15.39,0.021
53033.326033,15.337,0.02
53053.284394,15.33,0.026
53053.298076,15.397,0.024
53053.310807,15.439,0.031
53053.324889,15.437,0.044
53053.336623,15.385,0.018
53058.286818,15.293,0.012
53058.299796,15.3,0.012
53058.311955,15.29,0.012
53058.324008,15.348,0.012
53058.336559,15.4,0.012
53061.2839,15.413,0.013
53061.295877,15.362,0.012
53061.307955,15.348,0.013
53061.320013,15.31,0.012
53061.332002,15.296,0.012
53079.246668,15.291,0.017
53079.257357,15.301,0.017
53079.268047,15.323,0.017
53079.278856,15.373,0.018
53079.289513,15.402,0.018
53083.23854,15.33,0.013
53083.25012,15.36,0.013
53083.261491,15.443,0.013
53083.273,15.426,0.015
53083.284553,15.456,0.016
53085.27828,15.446,0.015
53085.289514,15.394,0.015
53085.300752,15.368,0.02
53085.312092,15.339,0.018
53085.323448,15.287,0.015
53110.183263,15.438,0.024
53110.193952,15.415,0.024
53110.204643,15.42,0.026
53110.215329,15.369,0.024
53110.226079,15.361,0.024
53114.195753,15.349,0.015
53114.206921,15.31,0.013
53114.217848,15.303,0.015
53114.22869,15.288,0.015
53114.239334,15.29,0.015
53116.198443,15.336,0.021
53116.209893,15.329,0.048
53116.220651,15.3,0.035
53116.231335,15.266,0.031
53116.241987,15.33,0.069
53138.151631,15.478,0.026
53138.161499,15.481,0.026
53138.171382,15.469,0.026
53138.181169,15.425,0.024
53138.191015,15.378,0.024
53142.156438,15.387,0.02
53142.168751,15.342,0.02
53142.179023,15.344,0.043
53142.188663,15.297,0.018
53142.198596,15.318,0.03
53144.166069,15.349,0.026
53144.175462,15.324,0.024
53144.184851,15.263,0.026
53144.203954,15.277,0.039
53315.458855,15.835,0.058
53316.457585,15.346,0.045
53327.382481,16.613,0.086
53327.395537,16.143,0.076
53327.408034,16.272,0.059
53327.420272,15.437,0.03
53327.432736,15.361,0.03
53346.380834,15.87,0.035
53346.39309,15.385,0.023
53346.405472,15.419,0.025
53346.418209,15.334,0.023
53346.430425,15.309,0.021
53347.436196,15.444,0.023
53347.450056,15.386,0.023
53347.464062,15.365,0.025
53347.477787,15.313,0.021
53351.420002,15.481,0.026
53351.434236,15.373,0.025
53351.448666,15.377,0.026
53351.463592,15.351,0.026
53351.47817,15.319,0.026
53352.44435,15.456,0.028
53352.459411,15.492,0.03
53352.474135,15.446,0.03
53352.488823,15.405,0.028
53352.503623,15.365,0.03
53353.412198,15.37,0.023
53353.42626,15.372,0.023
53353.440382,15.309,0.025
53353.454632,15.309,0.021
53353.468702,15.319,0.025
53357.43685,15.308,0.02
53357.45025,15.289,0.02
53357.463592,15.332,0.022
53357.478575,15.377,0.022
53357.493636,15.418,0.024
53383.343832,15.468,0.02
53383.357978,15.416,0.02
53383.371063,15.355,0.02
53383.384298,15.316,0.02
53383.397638,15.304,0.02
53403.29685,15.431,0.016
53403.310411,15.334,0.016
53403.32378,15.357,0.016
53403.350787,15.441,0.021
53410.415145,15.38,0.018
53410.427635,15.336,0.018
53410.440021,15.318,0.018
53410.452392,15.298,0.018
53410.465374,15.289,0.02
53438.350212,15.446,0.024
53438.362381,15.445,0.024
53438.373909,15.458,0.026
53438.385532,15.403,0.026
53438.397137,15.371,0.026
53468.212675,15.346,0.037
53468.222181,15.349,0.035
53502.142341,15.365,0.026
53502.153136,15.331,0.026
53502.1634,15.311,0.026
53502.173914,15.309,0.026
53502.184737,15.324,0.028
53671.444502,15.362,0.043
53671.456553,15.399,0.037
53671.468591,15.435,0.044
53671.480654,15.441,0.063
53671.492781,15.415,0.048
53674.465209,15.292,0.024
53674.477351,15.303,0.024
53674.489634,15.319,0.024
53674.501756,15.344,0.024
53679.448122,15.399,0.026
53679.46037,15.35,0.024
53679.472512,15.322,0.022
53679.484688,15.313,0.022
53679.497527,15.31,0.022
53704.447393,15.313,0.02
53704.459844,15.371,0.022
53704.472341,15.403,0.022
53704.484852,15.437,0.022
53704.497657,15.45,0.024
53707.448006,15.326,0.022
53707.460737,15.295,0.02
53707.473415,15.314,0.022
53707.486054,15.329,0.024
53707.498611,15.324,0.02
53711.46759,15.268,0.02
53711.48058,15.341,0.02
53711.493404,15.36,0.02
53711.506406,15.415,0.022
53711.5194,15.439,0.024
53734.405866,15.332,0.02
53734.418818,15.369,0.02
53734.431671,15.403,0.02
53734.44474,15.44,0.022
53734.457955,15.432,0.024
53737.348948,15.467,0.022
53737.362195,15.466,0.022
53737.375483,15.403,0.02
53737.388805,15.366,0.02
53737.40212,15.314,0.018
53747.367304,15.302,0.048
53747.380393,15.31,0.052
53747.393257,15.345,0.055
53758.338692,15.371,0.018
53758.351222,15.323,0.018
53758.363735,15.312,0.02
53758.376417,15.323,0.02
53758.388979,15.328,0.022
53787.400393,15.292,0.068
53787.412244,15.278,0.031
53787.436112,15.315,0.028
53787.448146,15.358,0.03
53789.288122,15.368,0.033
53789.288828,15.36,0.031
53789.300065,15.397,0.03
53789.301439,15.458,0.028
53789.311989,15.432,0.048
53789.314436,15.468,0.041
53789.326936,15.467,0.064
53789.336089,15.388,0.068
53789.339471,15.468,0.059
53792.286349,15.31,0.018
53792.298279,15.313,0.02
53792.310188,15.26,0.022
53792.322087,15.3,0.02
53792.334034,15.34,0.024
53799.228613,15.331,0.021
53799.240757,15.392,0.021
53799.252814,15.454,0.023
53799.264755,15.475,0.021
53799.276436,15.424,0.02
53802.279467,15.342,0.035
53802.29084,15.373,0.035
53818.228018,15.421,0.023
53818.239139,15.412,0.023
53818.250233,15.338,0.021
53818.261368,15.345,0.021
53818.272629,15.293,0.021
53821.233469,15.329,0.024
53821.244096,15.375,0.028
53821.260395,15.438,0.026
53821.271119,15.446,0.026
53821.284846,15.425,0.024
53824.236295,15.293,0.02
53824.24891,15.285,0.02
53824.260894,15.283,0.02
53824.271717,15.332,0.02
53824.283175,15.361,0.03
53828.23295,15.298,0.026
53828.254402,15.33,0.061
53828.278373,15.405,0.043
53845.184962,15.327,0.028
53845.195671,15.3,0.028
53845.206381,15.296,0.028
53845.217238,15.334,0.03
53845.227979,15.384,0.033
53846.192079,15.474,0.037
53846.202725,15.474,0.037
53846.21341,15.44,0.037
53846.22414,15.376,0.035
53846.234867,15.355,0.035
53851.141614,15.271,0.03
53851.152227,15.313,0.03
53851.162795,15.271,0.033
53851.173258,15.281,0.026
53851.183694,15.321,0.03
53851.191238,15.332,0.028
53851.201278,15.36,0.028
53851.211891,15.366,0.03
53851.221777,15.421,0.031
53851.231663,15.434,0.033
53854.195073,15.349,0.05
53854.220261,15.319,0.03
53854.231153,15.314,0.03
53854.245041,15.335,0.033
54030.428377,15.341,0.036
54030.44257,15.324,0.031
54030.456715,15.328,0.03
54030.472715,15.313,0.028
54030.485189,15.355,0.028
54035.435524,15.498,0.035
54035.447787,15.454,0.031
54035.460319,15.373,0.028
54035.472459,15.36,0.028
54035.484163,15.305,0.025
54040.42752,15.302,0.036
54040.441711,15.347,0.035
54040.454035,15.41,0.036
54040.46642,15.433,0.035
54040.478443,15.457,0.035
54053.447814,15.4,0.043
54053.459753,15.394,0.039
54053.471606,15.402,0.035
54056.425612,15.288,0.02
54056.437871,15.272,0.02
54056.450121,15.298,0.02
54056.462562,15.285,0.02
54056.474809,15.322,0.02
54058.38441,15.422,0.03
54058.396765,15.355,0.026
54058.409228,15.332,0.026
54058.423256,15.331,0.025
54058.436331,15.31,0.023
54059.432097,15.466,0.024
54059.444594,15.401,0.02
54059.456906,15.363,0.02
54059.469226,15.332,0.02
54059.482665,15.295,0.018
54064.382052,15.295,0.026
54064.387906,15.297,0.02
54064.394705,15.267,0.025
54064.400823,15.31,0.02
54064.40727,15.297,0.025
54064.413723,15.31,0.018
54064.420002,15.328,0.023
54064.426633,15.339,0.02
54064.432953,15.343,0.023
54064.439723,15.37,0.02
54082.370543,15.468,0.048
54082.383048,15.379,0.046
54082.391275,15.308,0.024
54082.395412,15.312,0.041
54082.404166,15.317,0.022
54082.407863,15.323,0.041
54082.417069,15.286,0.022
54082.420326,15.311,0.04
54082.430289,15.266,0.02
54082.44319,15.302,0.02
54085.401822,15.454,0.022
54085.41496,15.448,0.035
54085.428716,15.398,0.024
54085.442358,15.345,0.022
54085.455839,15.316,0.02
54112.385837,15.304,0.033
54112.398556,15.325,0.026
54112.411114,15.321,0.03
54112.423661,15.363,0.03
54114.354061,15.287,0.023
54114.367061,15.289,0.03
54152.279224,15.29,0.015
54152.291138,15.276,0.017
54152.303027,15.277,0.017
54152.314927,15.299,0.017
54152.326832,15.337,0.017
54153.272276,15.43,0.02
54153.283774,15.416,0.02
54153.295269,15.386,0.018
54153.306776,15.362,0.018
54153.318331,15.339,0.018
54157.216993,15.307,0.022
54157.228501,15.361,0.022
54157.25169,15.447,0.024
54173.213512,15.303,0.023
54173.224198,15.298,0.023
54173.235086,15.308,0.021
54173.2459,15.321,0.023
54173.256772,15.327,0.023
54174.263734,15.33,0.017
54174.274439,15.288,0.017
54174.285146,15.302,0.018
54174.295843,15.309,0.03
54174.306545,15.299,0.02
54177.231785,15.313,0.017
54177.24341,15.355,0.018
54180.279935,15.297,0.015
54180.290512,15.314,0.017
54180.301604,15.363,0.017
54180.312241,15.409,0.017
54180.322798,15.453,0.018
54185.220512,15.493,0.051
54185.230774,15.473,0.051
54185.240986,15.43,0.049
54185.251178,15.393,0.048
54185.261396,15.404,0.049
54201.191418,15.267,0.031
54201.200938,15.295,0.033
54201.210162,15.277,0.031
54201.219393,15.263,0.031
54201.228698,15.315,0.033
54205.2188,15.355,0.022
54205.228011,15.374,0.022
54205.237185,15.412,0.024
54205.24647,15.451,0.024
54205.255676,15.458,0.024
54208.214423,15.29,0.018
54208.223454,15.292,0.018
54208.232501,15.295,0.018
54208.241575,15.249,0.018
54208.250657,15.306,0.018
54212.186201,15.305,0.024
54212.195068,15.28,0.026
54212.204195,15.287,0.026
54212.213089,15.29,0.026
54212.221989,15.289,0.028
54416.435703,15.281,0.017
54416.448464,15.285,0.017
54416.460789,15.302,0.017
54416.473102,15.333,0.017
54416.485447,15.383,0.018
54438.444545,15.278,0.011
54438.457786,15.292,0.013
54438.471124,15.324,0.013
54438.484559,15.363,0.013
54438.497814,15.401,0.015
54480.459088,15.285,0.035
54480.471376,15.286,0.035
54480.48399,15.297,0.036
54480.496282,15.32,0.04
54480.508605,15.35,0.043
54481.212596,15.222,0.024
54481.226208,15.239,0.022
54481.239404,15.225,0.02
54481.252407,15.256,0.02
54481.265348,15.23,0.02
54498.280677,15.447,0.015
54498.293078,15.413,0.015
54498.30549,15.363,0.015
54498.317858,15.321,0.015
54498.330385,15.297,0.015
54506.273987,15.319,0.013
54506.286299,15.273,0.013
54506.298485,15.275,0.013
54506.31094,15.271,0.013
54506.323173,15.294,0.013
54522.332443,15.306,0.017
54522.344351,15.288,0.017
54522.35629,15.296,0.018
54522.368282,15.322,0.018
54522.380078,15.301,0.02
54527.284559,15.33,0.026
54527.295966,15.462,0.039
54527.307356,15.423,0.015
54527.318767,15.451,0.015
54535.223358,15.331,0.013
54535.234538,15.359,0.013
54535.245705,15.397,0.013
54535.257249,15.446,0.013
54535.268413,15.479,0.015
54540.115293,15.34,0.022
54540.12618,15.383,0.022
54540.137066,15.448,0.024
54540.14797,15.461,0.024
54540.158885,15.46,0.022
54553.244229,15.316,0.015
54553.256156,15.337,0.017
54553.26809,15.345,0.018
54553.279974,15.404,0.02
54553.291828,15.444,0.026
54561.237498,15.412,0.022
54561.24898,15.439,0.015
54561.26043,15.459,0.018
54561.271907,15.38,0.02
54561.283376,15.342,0.024
54580.143232,15.271,0.031
54580.153459,15.333,0.031
54580.163916,15.353,0.033
54580.182104,15.4,0.035
54580.192911,15.431,0.035
54583.195939,15.297,0.022
54583.2066,15.332,0.024
54590.196257,15.321,0.02
54590.206578,15.299,0.022
54590.21692,15.285,0.022
54590.227272,15.3,0.022
54590.237634,15.319,0.024
54591.143755,15.302,0.045
54591.153518,15.303,0.045
54591.163269,15.367,0.046
54591.17302,15.35,0.046
54591.1826,15.408,0.049
