mjd,m,merr
52608.454387,15.998,0.072
52608.469339,15.93,0.048
52608.48423,15.825,0.07
52608.499112,15.729,0.044
52640.383337,15.8,0.03
52640.413415,16.054,0.036
52640.428851,16.098,0.038
52640.444521,16.058,0.036
52646.385969,15.753,0.031
52646.400779,15.743,0.031
52646.415219,15.703,0.03
52646.42979,15.702,0.03
52646.4443,15.687,0.031
52648.328189,15.713,0.033
52648.343196,15.72,0.033
52667.318054,15.935,0.033
52667.347425,15.765,0.028
52667.362101,15.723,0.028
52672.321356,15.691,0.03
52672.335199,15.716,0.026
52672.349452,15.706,0.031
52672.363317,15.788,0.028
52672.377285,15.861,0.033
52700.291241,15.746,0.031
52700.306888,15.709,0.03
52700.321963,15.676,0.03
52700.337762,15.726,0.031
52700.352961,15.776,0.035
52705.235088,15.786,0.03
52705.248053,15.735,0.028
52705.261009,15.749,0.028
52705.274051,15.712,0.028
52705.28701,15.734,0.028
52707.244047,15.917,0.03
52707.257445,16.113,0.035
52707.270615,16.111,0.035
52707.283895,16.055,0.033
52707.297181,15.884,0.03
52728.229296,15.963,0.04
52728.241686,15.852,0.035
52728.253685,15.817,0.035
52728.266106,15.787,0.033
52728.278201,15.74,0.031
52738.180917,15.755,0.035
52738.192337,15.705,0.035
52738.203872,15.684,0.033
52738.215297,15.705,0.035
52738.226765,15.689,0.033
52755.143836,15.759,0.035
52755.156181,15.739,0.035
52755.168207,15.696,0.033
52755.180817,15.746,0.035
52755.193173,15.782,0.038
52765.180292,15.99,0.049
52765.192251,15.854,0.043
52938.42521,15.719,0.036
52973.378419,15.864,0.04
52973.389498,15.807,0.036
52973.400594,15.773,0.036
52973.411717,15.704,0.035
52973.422846,15.682,0.031
53033.277769,15.765,0.03
53033.289963,15.932,0.033
53033.302021,15.988,0.035
53033.314221,16.049,0.037
53033.326376,15.959,0.033
53053.287843,16.028,0.031
53053.299643,16.089,0.043
53053.312375,16.062,0.046
53053.326456,15.916,0.072
53053.338191,15.772,0.026
53061.21947,15.663,0.016
53061.231925,15.703,0.016
53061.243909,15.728,0.016
53061.256405,15.814,0.018
53061.268558,15.917,0.02
53079.248075,15.769,0.026
53079.258764,15.768,0.026
53079.269453,15.713,0.024
53079.280261,15.677,0.024
53079.290995,15.685,0.024
53110.184591,15.767,0.033
53110.19528,15.824,0.035
53110.205969,15.905,0.039
53110.216655,16.028,0.044
53110.227407,16.087,0.046
53138.152242,15.688,0.031
53138.162112,15.738,0.031
53138.171994,15.768,0.033
53138.181825,15.836,0.035
53138.191627,15.906,0.037
53144.168058,15.741,0.033
53144.177452,15.758,0.037
53144.186843,15.671,0.044
53292.429741,15.697,0.056
53292.439348,15.652,0.051
53292.449456,15.774,0.053
53292.459634,15.671,0.046
53292.469314,15.691,0.045
53315.45969,15.563,0.048
53327.384202,16.086,0.056
53327.397229,16.019,0.059
53327.409731,15.852,0.046
53327.421966,15.769,0.046
53327.434431,15.785,0.046
53346.382306,15.953,0.041
53346.394561,16.015,0.043
53346.406943,16.089,0.045
53346.41968,15.982,0.04
53346.431895,15.917,0.038
53347.438231,15.669,0.03
53347.452021,15.658,0.03
53347.466096,15.705,0.033
53347.47983,15.765,0.033
53351.420955,15.744,0.036
53351.435206,15.699,0.033
53351.449657,15.707,0.038
53351.464582,15.749,0.036
53351.479249,15.802,0.04
53352.446324,15.869,0.04
53352.46134,16.021,0.051
53352.476095,16.093,0.053
53352.490775,16.112,0.058
53352.505595,16.018,0.054
53353.4143,15.874,0.04
53353.42836,16.002,0.045
53353.442528,16.095,0.048
53353.456732,16.012,0.048
53353.470786,15.908,0.053
53466.222583,15.713,0.031
53466.231977,15.701,0.031
53466.241343,15.667,0.031
53466.250696,15.639,0.031
53466.260272,15.683,0.031
53468.214073,15.785,0.113
53468.223575,15.867,0.057
53496.147503,15.694,0.035
53496.157453,15.677,0.033
53496.167491,15.669,0.035
53496.177457,15.691,0.037
53496.18743,15.805,0.044
53710.444922,15.718,0.033
53710.457453,15.724,0.035
53710.470835,15.802,0.037
53710.483492,15.946,0.043
53710.496078,16.059,0.048
53746.340293,16.015,0.059
53746.353777,15.921,0.054
53746.366293,15.835,0.05
53746.379041,15.777,0.046
53746.39161,15.698,0.043
53790.286461,16.025,0.036
53790.29837,16.096,0.041
53790.310339,15.959,0.036
53790.322371,15.883,0.035
53790.334284,15.788,0.03
53817.207477,15.736,0.03
53817.219397,15.647,0.026
53817.230796,15.639,0.026
53817.2423,15.651,0.028
53817.253828,15.684,0.028
53845.183752,15.878,0.041
53845.194854,15.772,0.04
53845.206016,15.769,0.04
53845.21708,15.692,0.038
53845.228168,15.773,0.043
53850.144176,15.756,0.041
53850.154456,15.674,0.068
53850.16484,15.589,0.049
53850.175115,15.604,0.094
53850.185543,15.665,0.036
54039.448904,15.993,0.063
54039.460819,15.899,0.058
54039.472834,15.759,0.048
54039.484676,15.769,0.048
54039.496898,15.684,0.043
54059.441429,15.944,0.045
54059.465022,15.752,0.035
54059.478942,15.71,0.033
54059.491416,15.644,0.03
54059.50408,15.602,0.028
54091.299089,15.716,0.04
54091.310973,15.671,0.036
54091.323148,15.684,0.036
54091.335042,15.737,0.036
54091.346926,15.747,0.038
54157.217561,15.729,0.03
54174.216758,16.043,0.038
54174.227764,16.096,0.043
54174.238516,16.059,0.04
54174.249433,15.904,0.035
54174.260354,15.85,0.033
54180.247905,15.715,0.031
54180.258404,15.794,0.033
54180.268824,15.863,0.035
54200.172111,15.777,0.043
54200.181879,15.943,0.122
54200.191328,15.719,0.04
54200.201118,15.657,0.036
54200.210519,15.646,0.036
54415.442419,15.633,0.018
54415.454914,15.639,0.018
54415.467332,15.657,0.018
54415.492111,15.782,0.02
54448.440009,15.867,0.035
54448.45234,15.972,0.038
54448.46461,16.008,0.04
54448.477674,15.992,0.038
54448.490044,15.884,0.036
54478.448224,15.58,0.147
54478.460499,15.656,0.063
54478.472768,15.626,0.104
54478.485049,15.744,0.069
54478.497351,15.84,0.076
54480.275347,16.078,0.026
54480.288336,16.053,0.024
54480.30133,15.913,0.02
54480.327334,15.777,0.02
54497.334845,15.737,0.031
54497.347421,15.726,0.018
54497.359983,15.777,0.018
54497.372531,15.9,0.03
54497.385065,16.001,0.035
54505.336326,15.709,0.017
54505.348585,15.757,0.018
54505.360901,15.837,0.018
54505.373154,15.883,0.02
54505.385707,15.97,0.022
54507.38837,15.634,0.03
54507.402302,15.694,0.031
54507.4142,15.739,0.033
54507.426066,15.82,0.035
54507.438079,15.863,0.038
54521.344627,15.781,0.028
54521.356279,15.826,0.035
54521.379698,15.908,0.043
54521.391402,15.818,0.035
54526.281105,15.696,0.018
54526.292571,15.735,0.018
54526.30414,15.784,0.02
54526.315612,15.953,0.024
54526.327282,15.987,0.026
54534.274148,15.76,0.054
54534.285082,15.791,0.02
54534.296054,15.83,0.018
54534.306977,15.906,0.018
54534.317887,16.037,0.022
54535.332414,15.746,0.031
54535.343404,15.694,0.03
54535.355371,15.708,0.031
54535.366583,15.66,0.031
54535.377776,15.647,0.031
54540.116851,15.846,0.033
54540.127728,15.751,0.031
54540.138625,15.681,0.028
54540.149519,15.627,0.026
54540.16044,15.643,0.026
54552.297201,15.723,0.024
54552.309319,15.749,0.026
54552.321386,15.746,0.03
54552.333628,15.801,0.031
54552.345844,15.786,0.031
54558.120214,15.747,0.026
54558.131949,15.814,0.026
54558.143506,15.943,0.028
54558.155053,15.996,0.03
54558.166634,15.946,0.03
54580.14389,15.658,0.024
54580.154657,15.651,0.024
54580.165357,15.691,0.026
54580.176412,15.71,0.026
54580.187093,15.762,0.026
54583.197012,15.691,0.03
54583.207674,15.696,0.031
54590.147334,15.848,0.078
54590.157255,15.8,0.058
54590.166956,15.712,0.056
54590.176601,15.652,0.058
54590.186251,15.632,0.059
54590.197358,15.693,0.028
54590.207659,15.674,0.026
54590.217999,15.661,0.028
54590.228368,15.661,0.028
54590.23872,15.691,0.03
