mjd,m,merr
52620.416636,16.206,0.056
52620.431212,16.182,0.049
52636.369866,16.196,0.056
52636.384466,16.29,0.059
52636.398858,16.25,0.056
52636.413532,16.244,0.054
52636.42802,16.359,0.061
52653.315806,16.319,0.064
52653.330854,16.265,0.059
52653.345721,16.242,0.058
52653.360641,16.248,0.064
52653.375507,16.259,0.063
52660.320476,16.11,0.073
52684.286365,15.958,0.071
52684.301219,16.188,0.083
52684.31652,16.314,0.096
52684.33137,16.217,0.092
52684.347166,16.118,0.081
52693.266955,16.008,0.031
52693.283101,16.088,0.035
52693.298934,16.236,0.039
52693.314515,16.295,0.043
52693.330027,16.274,0.044
52721.186641,16.268,0.043
52721.199443,16.245,0.041
52721.212245,16.149,0.037
52721.225082,16.132,0.035
52721.237798,16.066,0.033
52750.180619,16.189,0.043
52750.191356,16.197,0.044
52750.20216,16.262,0.05
52750.212922,16.212,0.046
52750.223685,16.138,0.044
52771.151174,16.057,0.068
52771.163147,16.026,0.067
52771.175133,16.053,0.068
52771.187284,16.029,0.068
52771.199201,16.115,0.076
52781.157962,17.111,0.14
52781.168708,16.935,0.12
52781.179616,17.3,0.173
52781.190382,17.36,0.185
52781.201564,17.6,0.238
52927.435924,16.341,0.115
52927.447779,16.207,0.096
52927.45952,16.244,0.093
52927.470922,16.164,0.083
52927.482523,16.176,0.081
52948.444846,16.091,0.046
52948.457218,16.181,0.052
52948.469146,16.239,0.054
52948.481224,16.182,0.052
52948.493444,16.133,0.052
52978.357304,16.405,0.074
52978.375556,16.362,0.071
52978.390071,16.346,0.069
52978.403684,16.261,0.061
52978.41906,16.272,0.059
52988.309789,16.054,0.048
52988.32129,16.064,0.046
52988.333244,16.145,0.049
52988.344796,16.181,0.051
52988.356946,16.21,0.051
53008.375494,16.374,0.063
53008.390358,16.431,0.068
53008.404258,16.279,0.056
53038.292273,16.135,0.063
53038.306021,16.01,0.059
53038.320766,15.998,0.055
53038.33631,15.97,0.055
53038.34984,15.999,0.059
53045.266592,16.198,0.055
53045.278235,16.149,0.052
53045.29002,16.131,0.054
53045.302367,16.035,0.048
53045.31372,16.009,0.048
53108.195432,16.122,0.043
53108.206697,16.174,0.046
53108.217918,16.192,0.046
53108.229293,16.173,0.044
53108.240508,16.161,0.044
53125.20234,16.442,0.22
53125.212198,16.386,0.181
53125.222027,16.256,0.15
53125.231888,16.067,0.117
53134.154063,16.07,0.05
53134.163535,16.105,0.052
53134.173016,16.185,0.055
53134.182503,16.244,0.055
53134.191985,16.289,0.059
53155.165474,15.957,0.096
53155.174265,15.917,0.094
53155.183065,16.022,0.102
53155.191861,16.139,0.115
53155.200719,16.048,0.105
53290.437299,16.129,0.068
53290.448414,16.015,0.059
53290.459617,15.992,0.058
53290.470796,16.063,0.059
53290.481924,16.029,0.058
53303.436824,16.156,0.074
53303.448685,16.214,0.067
53303.460553,16.302,0.093
53303.472417,16.028,0.081
53303.484371,16.048,0.107
53312.430976,16.154,0.091
53312.443233,16.236,0.096
53312.455516,16.07,0.08
53312.467792,16.006,0.081
53312.480034,15.959,0.074
53330.407761,16.24,0.074
53330.422917,16.508,0.073
53330.436993,16.465,0.073
53330.452051,16.37,0.066
53356.405622,16.288,0.049
53356.419263,16.239,0.048
53356.433711,16.118,0.043
53356.44739,16.021,0.041
53356.462261,16.039,0.041
53358.395524,16.063,0.039
53358.408557,16.185,0.044
53358.421583,16.257,0.05
53358.434683,16.212,0.046
53358.448019,16.111,0.043
53360.353775,16.056,0.046
53360.367612,15.979,0.044
53360.381055,15.954,0.043
53360.395553,15.926,0.035
53360.412703,16.048,0.05
53362.398394,15.969,0.059
53390.278818,15.924,0.046
53390.291571,15.963,0.048
53390.305239,15.89,0.046
53390.318109,15.986,0.05
53390.331516,16.103,0.055
53429.22408,16.181,0.046
53429.235381,16.249,0.05
53429.246721,16.175,0.05
53429.258016,16.177,0.05
53429.269308,16.071,0.046
53431.162052,16.187,0.037
53431.173754,16.214,0.037
53431.185395,16.099,0.031
53431.197038,16.09,0.031
53431.209298,16.094,0.03
53432.228471,16.045,0.085
53432.240126,16.163,0.043
53432.251776,16.296,0.185
53433.220395,16.033,0.031
53433.23294,16.007,0.03
53433.244889,16.036,0.031
53433.258607,16.106,0.033
53433.271066,16.129,0.033
53441.224523,15.951,0.031
53441.236091,15.987,0.033
53441.247554,16.014,0.035
53441.259703,16.119,0.035
53441.271148,16.306,0.043
53461.226625,16.03,0.041
53461.237047,15.996,0.041
53461.247956,16.045,0.044
53461.258343,16.086,0.046
53461.268794,16.147,0.048
53489.191088,16.307,0.139
53489.202899,16.174,0.068
53489.213427,16.171,0.072
53489.223608,16.151,0.08
53489.233803,16.019,0.111
53725.341089,16.151,0.059
53725.354128,16.069,0.05
53725.367176,16.061,0.05
53725.380265,16.043,0.05
53725.393322,16.121,0.052
53755.333769,16.256,0.059
53755.346526,16.204,0.055
53755.359223,16.102,0.052
53755.37243,16.035,0.048
53755.385617,15.964,0.046
53775.29179,15.996,0.059
53775.304317,15.983,0.059
53775.317176,16.029,0.057
53775.326529,16.212,0.066
53775.330474,16.211,0.067
53775.340512,16.267,0.069
53775.344018,16.205,0.067
53775.354584,16.283,0.107
53775.368596,16.387,0.116
53858.211916,16.236,0.107
53858.222231,16.144,0.097
53858.232495,16.098,0.076
53864.167657,16.287,0.127
53876.153869,16.022,0.054
53876.164839,16.169,0.061
53876.175923,16.255,0.068
54021.446423,15.767,0.071
54021.470778,15.75,0.068
54050.401567,16.59,0.117
54050.413779,16.489,0.104
54079.356976,16.034,0.061
54079.368986,16.11,0.067
54079.381064,16.156,0.068
54079.393086,16.263,0.074
54079.405095,16.294,0.08
54108.323937,15.931,0.048
54108.336652,15.954,0.046
54108.34935,15.946,0.044
54108.362061,15.992,0.046
54108.374766,16.06,0.05
54126.270101,16.519,0.078
54139.271923,16.114,0.045
54139.283652,16.145,0.053
54139.295121,16.13,0.066
54139.306552,16.215,0.054
54139.319814,16.364,0.073
54167.244967,16.472,0.074
54167.256038,16.472,0.076
54406.426175,16.071,0.058
54406.440078,16.094,0.058
54406.453166,16.07,0.056
54406.46561,16.139,0.063
54418.441659,16.169,0.041
54418.454068,16.072,0.038
54418.466099,16.052,0.038
54418.478185,16.006,0.036
54418.490222,16.042,0.036
54436.386912,16.3,0.053
54436.400645,16.4,0.058
54436.413021,16.334,0.054
54436.425396,16.185,0.049
54436.437617,16.185,0.049
54465.328301,16.153,0.056
54465.340765,16.103,0.054
54465.353152,16.102,0.054
54465.365617,16.081,0.054
54465.378141,16.182,0.058
54484.323632,16.187,0.068
54484.335929,16.069,0.059
54484.34822,16.035,0.059
54484.360877,16.124,0.063
54484.373187,16.086,0.061
54496.344837,16.355,0.059
54496.35723,16.262,0.054
54496.372037,16.235,0.056
54496.384116,16.123,0.049
54496.396039,16.197,0.054
54524.225867,16.225,0.069
54524.237218,16.084,0.046
54524.248818,16.056,0.051
54524.26057,15.997,0.054
54524.271986,16.168,0.063
54539.211884,15.985,0.051
54539.222653,16.013,0.049
54539.233204,16.087,0.054
54539.243753,16.172,0.058
54539.254597,16.141,0.059
54571.188342,16.251,0.111
54571.199536,16.391,0.127
54571.210468,16.464,0.14
54571.221399,16.277,0.102
54571.232323,16.122,0.084
