mjd,m,merr
52613.442629,16.683,0.068
52613.457777,16.719,0.07
52613.47305,16.764,0.076
52613.488292,16.732,0.074
52613.503497,16.808,0.078
52618.449026,16.339,0.074
52618.464404,16.435,0.146
52618.47964,16.44,0.08
52618.495172,16.365,0.07
52618.510661,16.561,0.111
52640.423266,16.52,0.05
52640.438574,16.583,0.052
52640.454163,16.614,0.052
52640.469181,16.62,0.055
52640.484023,16.7,0.059
52643.375087,16.351,0.048
52643.389378,16.24,0.043
52643.403534,16.156,0.041
52643.417832,16.23,0.044
52643.431951,16.293,0.046
52647.390102,16.994,0.094
52647.405034,17.029,0.1
52647.419413,16.892,0.089
52647.43385,16.672,0.076
52647.448225,16.488,0.061
52666.32008,16.848,0.069
52666.335469,16.731,0.061
52666.350394,16.488,0.048
52670.331943,17.951,0.196
52670.345916,18.653,0.392
52670.359904,18.71,0.414
52670.373908,18.723,0.437
52673.295562,16.98,0.078
52673.310945,16.91,0.072
52673.326221,16.993,0.08
52673.341393,16.91,0.076
52673.35672,16.944,0.08
52678.309531,16.816,0.12
52678.323635,16.702,0.109
52678.33755,16.723,0.072
52678.35161,16.736,0.078
52678.365742,16.868,0.087
52698.285319,16.858,0.083
52698.303207,16.837,0.071
52698.317537,16.804,0.071
52703.247229,16.406,0.048
52703.260748,16.385,0.07
52703.274669,16.553,0.08
52703.288184,16.493,0.052
52703.301492,16.465,0.067
52725.265759,16.613,0.113
52725.277501,16.819,0.102
52725.289237,16.671,0.229
52725.300896,16.729,0.065
52730.231787,16.19,0.039
52730.243407,16.252,0.041
52730.255108,16.323,0.046
52730.266845,16.402,0.05
52730.278529,16.396,0.05
52733.192727,17.068,0.094
52733.204868,17.118,0.096
52733.217002,16.998,0.087
52733.229269,16.795,0.074
52733.241409,16.643,0.063
52754.146594,17.003,0.081
52754.158673,17.056,0.087
52754.170729,16.96,0.085
52754.182846,16.714,0.068
52754.195024,16.558,0.061
52758.147678,16.964,0.08
52758.159677,16.913,0.076
52758.171757,17.044,0.085
52758.183914,16.989,0.083
52758.195954,16.935,0.078
52940.456627,16.963,0.268
52940.469352,16.905,0.261
52940.495338,17.017,0.228
52940.508083,16.693,0.266
52944.438955,16.807,0.117
52944.451007,16.842,0.107
52944.4629,16.994,0.122
52944.474858,16.876,0.105
52944.486933,16.839,0.1
52964.458474,16.932,0.07
52964.471341,16.973,0.072
52964.484654,16.948,0.068
52964.500041,16.934,0.067
52966.405441,16.769,0.074
52966.418116,16.754,0.072
52966.430911,16.865,0.076
52966.443561,16.861,0.078
52966.456295,16.886,0.076
52973.396479,16.354,0.052
52973.40947,16.431,0.055
52973.422566,16.472,0.055
52973.435367,16.543,0.057
52973.448318,16.556,0.055
52993.387336,16.651,0.054
52993.413515,16.717,0.055
52994.423675,16.691,0.061
52994.43674,16.639,0.052
52994.449985,16.71,0.063
52997.436809,16.6,0.131
53025.379589,17.186,0.296
53025.392799,16.588,0.048
53028.36461,16.905,0.046
53028.377095,16.96,0.052
53033.277523,16.775,0.074
53033.290196,16.776,0.074
53033.302719,16.893,0.081
53033.315205,16.838,0.074
53033.327665,17.005,0.084
53052.273242,16.882,0.065
53052.285009,16.944,0.068
53052.296875,16.831,0.061
53052.308868,16.909,0.068
53052.320669,16.914,0.07
53057.34607,16.986,0.185
53061.27498,16.484,0.035
53061.286268,16.484,0.035
53061.297491,16.56,0.037
53061.308649,16.589,0.039
53061.319811,16.635,0.041
53079.224292,16.776,0.069
53079.235379,16.802,0.069
53079.246428,16.809,0.068
53079.257361,16.825,0.071
53082.232326,16.604,0.039
53082.243329,16.571,0.041
53082.254589,16.619,0.043
53082.265677,16.711,0.044
53082.277054,16.644,0.043
53085.275453,16.737,0.17
53085.286357,16.8,0.189
53091.230411,16.834,0.063
53091.240913,16.828,0.091
53091.251552,16.546,0.091
53091.261972,16.449,0.041
53091.272677,16.333,0.035
53110.186761,16.399,0.061
53110.197764,16.163,0.049
53110.208631,16.089,0.048
53116.20285,16.905,0.124
53116.213985,17.126,0.237
53116.225117,16.992,0.233
53116.236501,17.147,0.229
53116.247736,17.13,0.274
53138.153945,16.981,0.102
53138.163694,16.956,0.097
53138.183615,17.012,0.102
53141.163099,16.924,0.089
53141.172533,16.871,0.083
53141.182198,16.881,0.083
53141.191822,16.985,0.093
53141.201474,16.974,0.094
53144.173848,16.882,0.099
53144.182799,17.009,0.119
53316.444656,17.394,0.381
53316.456756,17.164,0.259
53327.376278,16.574,0.104
53327.388693,16.623,0.102
53327.401069,16.597,0.109
53327.413469,16.593,0.091
53327.425899,16.799,0.113
53347.46842,16.934,0.083
53347.484388,16.87,0.08
53353.393032,16.579,0.067
53353.405963,16.619,0.07
53353.418902,16.656,0.074
53353.431847,16.696,0.076
53353.444831,16.752,0.08
53357.438662,16.302,0.044
53357.452089,16.333,0.046
53357.466638,16.453,0.054
53357.480399,16.537,0.059
53357.495473,16.568,0.061
53376.413627,16.521,0.055
53376.428052,16.586,0.059
53376.442026,16.672,0.063
53376.455712,16.66,0.061
53376.469288,16.748,0.067
53381.3559,16.941,0.091
53381.369211,16.61,0.059
53381.383198,16.256,0.076
53381.397727,16.012,0.035
53381.411211,16.065,0.05
53403.290929,16.954,0.07
53403.303716,16.782,0.061
53403.316535,16.481,0.048
53403.329264,16.233,0.039
53432.28305,16.83,0.107
53432.310036,16.969,0.305
53432.337321,17.043,0.235
53437.232762,16.77,0.065
53437.244328,16.677,0.059
53437.256823,16.753,0.063
53437.268413,16.828,0.067
53437.279872,16.816,0.068
53438.35173,16.912,0.083
53438.363948,16.916,0.085
53438.37548,16.917,0.091
53438.387102,16.877,0.091
53438.3987,16.929,0.102
53440.237891,16.599,0.055
53440.249611,16.625,0.057
53440.261219,16.67,0.059
53440.276422,16.747,0.065
53440.289109,16.748,0.065
53443.216015,16.298,0.074
53443.227015,16.308,0.074
53443.249403,16.39,0.265
53443.261063,16.51,0.067
53446.167011,17.001,0.093
53446.177597,16.908,0.083
53446.198787,16.806,0.076
53446.209384,16.67,0.067
53464.239652,16.548,0.061
53464.250076,16.593,0.057
53464.260933,16.589,0.059
53464.271499,16.633,0.065
53464.281925,16.673,0.068
53495.193981,17.125,0.185
53495.204232,17.22,0.196
53495.214554,17.02,0.176
53495.224792,16.752,0.142
53495.2351,16.758,0.181
53502.143576,16.969,0.105
53502.154376,16.831,0.096
53502.16492,16.941,0.105
53502.17575,16.963,0.109
53502.18604,16.936,0.111
53674.46703,16.813,0.107
53674.479176,16.688,0.089
53674.491446,16.575,0.074
53674.503575,16.417,0.068
53679.449821,16.89,0.1
53679.462067,16.911,0.1
53679.47421,16.9,0.098
53679.486384,16.918,0.1
53679.499257,16.897,0.094
53705.451965,16.978,0.094
53705.464892,16.88,0.081
53705.477619,16.929,0.083
53705.490333,16.956,0.085
53705.503003,16.949,0.081
53708.39744,16.694,0.065
53708.410588,16.634,0.061
53708.423865,16.758,0.068
53708.436752,16.747,0.068
53708.449634,16.794,0.07
53712.39619,16.352,0.063
53712.409867,16.417,0.061
53712.427015,16.427,0.063
53712.440595,16.609,0.074
53712.454427,16.588,0.068
53732.413503,16.601,0.091
53732.426166,16.673,0.094
53732.438942,16.708,0.094
53732.451716,16.79,0.102
53732.464388,16.77,0.107
53733.385465,16.446,0.057
53733.398137,16.412,0.057
53733.410961,16.565,0.063
53733.42364,16.617,0.068
53733.436412,16.565,0.063
53734.399969,16.482,0.054
53734.412939,16.593,0.059
53734.425813,16.614,0.059
53734.438769,16.633,0.067
53734.451987,16.647,0.067
53735.417307,16.454,0.063
53735.456372,16.637,0.089
53738.40136,16.122,0.043
53738.414472,16.139,0.043
53738.427511,16.266,0.052
53738.440504,16.279,0.05
53738.453699,16.367,0.055
53747.344035,16.86,0.215
53747.356927,16.993,0.229
53747.369766,16.878,0.187
53747.382858,17.051,0.263
53747.396299,16.969,0.218
53759.345491,16.31,0.046
53759.358276,16.318,0.05
53759.371083,16.408,0.054
53759.383759,16.471,0.057
53759.396448,16.448,0.067
53762.349475,16.232,0.041
53762.362191,16.135,0.037
53762.375134,16.186,0.039
53762.387968,16.208,0.041
53762.401121,16.273,0.043
53769.322527,16.965,0.074
53769.335845,16.954,0.07
53769.34934,16.913,0.068
53769.363242,16.906,0.068
53769.377189,16.956,0.07
53787.40327,16.052,0.131
53787.415129,16.193,0.057
53787.427042,16.248,0.059
53787.439039,16.333,0.065
53787.451106,16.383,0.07
53789.290728,17.021,0.137
53789.316326,16.842,0.168
53789.328822,17.3,0.346
53790.284138,16.954,0.089
53790.295903,16.921,0.089
53790.307683,16.948,0.093
53790.319438,16.946,0.093
53790.331183,16.903,0.085
53793.300232,17.016,0.316
53793.312166,16.702,0.387
53793.335919,17.038,0.322
53797.239495,16.575,0.054
53797.25105,16.644,0.057
53797.262609,16.818,0.176
53797.274271,16.758,0.061
53797.285844,16.692,0.063
53799.279505,16.584,0.057
53799.290989,16.62,0.059
53799.302484,16.616,0.057
53799.313998,16.794,0.076
53799.325701,16.688,0.081
53819.235169,16.684,0.078
53819.245923,16.759,0.081
53819.256672,16.784,0.083
53819.267637,16.692,0.08
53819.279168,16.835,0.107
53827.242992,16.104,0.044
53827.253971,16.113,0.046
53827.264855,16.115,0.046
53827.275733,16.17,0.048
53827.286249,16.273,0.055
53832.171414,17.054,0.163
53832.181202,17.159,0.183
53832.191203,16.887,0.146
53832.200989,17.242,0.198
53832.211219,17.186,0.198
53845.186366,16.492,0.078
53845.197068,16.544,0.081
53845.20778,16.52,0.08
53845.218636,16.575,0.087
53845.22938,16.72,0.104
53846.19387,16.48,0.085
53846.204523,16.468,0.085
53846.215199,16.494,0.091
53846.225938,16.473,0.087
53846.23666,16.575,0.098
53850.219104,16.196,0.052
53850.229733,16.227,0.055
53850.240423,16.397,0.085
53850.251335,16.311,0.061
53850.26245,16.421,0.07
53853.18935,17.183,0.141
53853.199965,17.082,0.126
53853.211374,16.878,0.105
53853.221782,16.819,0.102
53853.232224,16.631,0.093
54034.455321,16.874,0.125
54040.444043,17.47,0.243
54057.45402,16.884,0.08
54057.466555,16.983,0.087
54057.47904,17.049,0.094
54060.430235,16.966,0.087
54060.444166,16.967,0.087
54060.457089,17.002,0.091
54060.469989,16.87,0.083
54060.483052,16.878,0.083
54082.372574,16.893,0.198
54082.385073,16.85,0.186
54082.397437,16.998,0.21
54082.422349,17.057,0.218
54083.458395,17.028,0.104
54083.472293,16.997,0.133
54083.485586,16.895,0.096
54083.49868,16.967,0.13
54083.511777,16.97,0.172
54086.362982,16.771,0.083
54086.376187,16.741,0.078
54086.38912,16.735,0.074
54086.402061,16.761,0.072
54086.414999,16.829,0.076
54091.393851,16.497,0.05
54091.406774,16.539,0.052
54091.419366,16.599,0.057
54112.388241,16.836,0.081
54113.32901,16.58,0.089
54113.354622,16.99,0.193
54144.297369,17.022,0.091
54144.307193,17.027,0.072
54144.32951,17.007,0.072
54144.340611,16.926,0.067
54144.351714,16.858,0.072
54154.271729,16.655,0.054
54154.283212,16.694,0.052
54154.294714,16.74,0.054
54154.317657,16.778,0.055
54173.262009,16.858,0.063
54173.27285,16.889,0.065
54173.283582,16.916,0.068
54173.294246,16.896,0.067
54173.304892,16.968,0.07
54176.267095,16.763,0.063
54176.277676,16.818,0.068
54176.288296,16.831,0.068
54176.299038,16.826,0.068
54176.309605,16.877,0.072
54179.236526,16.521,0.046
54179.247731,16.577,0.05
54179.259001,16.577,0.05
54179.270106,16.677,0.055
54179.281688,16.654,0.055
54186.29455,16.889,0.065
54186.306162,16.915,0.068
54186.317351,16.896,0.067
54186.328703,16.968,0.07
54201.193505,16.538,0.073
54201.202988,16.717,0.083
54201.212216,16.71,0.078
54201.221443,16.582,0.071
54201.230752,16.69,0.083
54206.217726,16.28,0.044
54206.226864,16.341,0.046
54206.235901,16.37,0.046
54206.244946,16.387,0.048
54206.253995,16.457,0.052
54209.212648,16.502,0.1
54209.221686,16.484,0.167
54209.231252,16.332,0.161
54209.241084,16.286,0.172
54209.250235,16.103,0.159
54409.441823,16.593,0.076
54409.454059,16.122,0.043
54409.466296,15.918,0.033
54409.478522,15.822,0.031
54418.442815,16.908,0.063
54418.455322,16.92,0.059
54418.467823,16.929,0.063
54418.480324,16.889,0.061
54418.492824,16.856,0.063
54439.387187,16.893,0.052
54439.400059,16.911,0.054
54439.412932,16.892,0.052
54439.42581,16.947,0.054
54439.438688,16.954,0.054
54480.462447,16.137,0.069
54480.474736,16.227,0.078
54480.48735,16.285,0.084
54480.499638,16.341,0.091
54480.511956,16.382,0.102
54507.271659,16.765,0.048
54507.283891,16.81,0.054
54507.296159,16.792,0.052
54507.308556,16.828,0.052
54507.320974,16.917,0.055
54522.334587,16.118,0.035
54522.346595,16.143,0.037
54522.358651,16.152,0.039
54522.37041,16.251,0.043
54522.382204,16.25,0.044
54529.270337,16.864,0.046
54529.281762,16.85,0.048
54529.293393,16.876,0.05
54529.305199,16.898,0.055
54529.316571,16.815,0.052
54536.216379,16.515,0.039
54536.227471,16.541,0.039
54536.238402,16.585,0.039
54536.249356,16.601,0.041
54536.260418,16.638,0.043
54553.246214,16.901,0.055
54553.258044,16.882,0.057
54553.269973,16.917,0.065
54553.281859,16.923,0.074
54553.293718,16.964,0.113
54559.122152,16.176,0.03
54559.133788,16.227,0.033
54559.145366,16.321,0.037
54559.156837,16.33,0.037
54559.168296,16.402,0.037
54562.239703,16.37,0.033
54562.251543,16.401,0.037
54562.263263,16.46,0.039
54562.274962,16.478,0.039
54562.286715,16.499,0.043
54581.189176,16.518,0.057
54581.199856,16.559,0.061
54581.21053,16.703,0.068
54581.221202,16.674,0.067
54581.2319,16.647,0.07
54584.196381,16.247,0.044
54584.207262,16.311,0.044
54584.218157,16.365,0.046
54584.229042,16.377,0.052
54584.239935,16.49,0.057
54591.192543,16.969,0.087
54591.202958,17.071,0.098
54591.21324,17.073,0.1
54591.223503,17.027,0.104
54591.233783,17.032,0.113
54592.142046,17.026,0.135
54592.161714,16.83,0.116
54592.171433,17.086,0.145
54592.180964,17.131,0.153
