mjd,m,merr
52643.485453,15.882,0.031
52643.501774,15.956,0.033
52643.517862,15.994,0.035
52643.535058,15.992,0.035
52666.399646,15.735,0.031
52666.4143,15.728,0.031
52666.428945,15.765,0.031
52666.443575,15.807,0.031
52666.458511,15.833,0.035
52670.430349,15.857,0.035
52670.444926,15.861,0.036
52670.459494,15.877,0.036
52670.474207,15.878,0.035
52670.488767,15.94,0.038
52676.361457,15.881,0.039
52676.377333,15.629,0.03
52676.392792,15.411,0.022
52676.410243,15.19,0.018
52676.42855,15.186,0.018
52698.40832,15.484,0.025
52698.422871,15.55,0.026
52698.437983,15.527,0.028
52698.453111,15.587,0.03
52701.315303,15.891,0.035
52701.341436,15.953,0.036
52701.35448,15.961,0.038
52701.367982,16.024,0.036
52725.368426,15.375,0.024
52725.395433,15.44,0.02
52725.4207,15.482,0.022
52729.296335,15.564,0.025
52729.308454,15.592,0.026
52729.320876,15.584,0.026
52729.33294,15.592,0.026
52729.345244,15.668,0.028
52732.302979,15.745,0.031
52732.315204,15.523,0.028
52732.32725,15.394,0.023
52732.339182,15.231,0.021
52732.351401,15.152,0.021
52738.248684,15.413,0.025
52738.260497,15.509,0.025
52738.272179,15.487,0.025
52738.284044,15.5,0.025
52738.295863,15.543,0.026
52755.274277,15.849,0.031
52755.286232,15.895,0.033
52755.298118,15.827,0.033
52755.309992,15.857,0.035
52761.20792,16.018,0.048
52761.219956,15.903,0.059
52761.232113,15.788,0.037
52761.244123,15.542,0.026
52761.256209,15.425,0.02
52768.211425,15.932,0.05
52768.235325,15.939,0.052
52768.247104,16.011,0.054
52768.258976,16.005,0.055
52973.4643,15.087,0.022
52973.47716,15.142,0.022
52973.490137,15.168,0.022
52973.503048,15.201,0.022
52973.515884,15.264,0.022
52987.436462,15.886,0.102
52987.47119,15.84,0.064
52993.469634,15.346,0.015
52993.483012,15.366,0.015
52993.496498,15.395,0.015
52993.509895,15.435,0.015
53033.395934,15.6,0.031
53033.408365,15.579,0.025
53033.420961,15.617,0.025
53033.433237,15.632,0.025
53033.44571,15.655,0.03
53053.355041,15.568,0.02
53053.366712,15.582,0.022
53053.378355,15.631,0.031
53053.389976,15.646,0.026
53053.402251,15.673,0.022
53062.368591,15.627,0.037
53062.380863,15.595,0.026
53062.392301,15.656,0.024
53079.315225,15.881,0.028
53079.326028,15.85,0.028
53079.336711,15.848,0.028
53079.347477,15.827,0.026
53079.358488,15.875,0.03
53087.342263,15.399,0.015
53087.353123,15.407,0.015
53087.364096,15.445,0.015
53087.375934,15.445,0.016
53087.386929,15.516,0.016
53089.29049,15.429,0.015
53089.301563,15.451,0.015
53089.312592,15.468,0.015
53089.323736,15.426,0.038
53089.334734,15.553,0.059
53095.268509,15.828,0.038
53095.278549,15.837,0.038
53095.288619,15.782,0.035
53095.299049,15.841,0.038
53095.309084,15.83,0.038
53110.243496,15.896,0.035
53110.254579,15.888,0.035
53110.26572,15.949,0.035
53110.276797,15.931,0.035
53110.287937,16.024,0.037
53118.256814,15.494,0.015
53118.269301,15.519,0.016
53118.280437,15.555,0.016
53118.290682,15.597,0.016
53118.300956,15.579,0.018
53138.206506,15.533,0.022
53138.216354,15.545,0.022
53138.226128,15.602,0.022
53138.235848,15.616,0.024
53138.245576,15.599,0.026
53148.244699,16.046,0.035
53148.253393,15.966,0.033
53148.262254,15.967,0.033
53148.270858,15.854,0.031
53148.28008,15.756,0.028
53166.183814,15.922,0.037
53166.193165,15.982,0.041
53166.202544,15.959,0.039
53166.2119,15.954,0.039
53166.221265,16.044,0.041
53175.174215,15.907,0.03
53175.183795,15.937,0.035
53175.193374,15.989,0.033
53175.203115,15.924,0.033
53175.212808,15.948,0.035
53346.448194,15.297,0.036
53346.472883,15.357,0.036
53346.485085,15.423,0.036
53346.49738,15.376,0.036
53351.499336,15.113,0.026
53351.513829,15.09,0.023
53351.528096,15.177,0.025
53404.43745,15.651,0.028
53404.450544,15.649,0.028
53404.463509,15.727,0.03
53404.476268,15.741,0.033
53404.489529,15.802,0.035
53410.483573,15.883,0.024
53410.496047,15.924,0.026
53410.508492,15.942,0.026
53410.520921,15.965,0.028
53438.463126,15.538,0.024
53438.474983,15.584,0.026
53438.486681,15.588,0.028
53438.498675,15.603,0.028
53468.384671,15.995,0.039
53468.394265,15.974,0.039
53468.403835,16.023,0.043
53468.413395,16.01,0.041
53502.209008,15.792,0.035
53502.219472,15.803,0.035
53502.231088,15.773,0.035
53502.243535,15.811,0.035
53522.170696,15.78,0.033
53522.191164,15.789,0.033
53522.212063,15.883,0.037
53737.475443,15.639,0.026
53737.488696,15.717,0.026
53737.502026,15.747,0.026
53737.515381,15.751,0.026
53737.528676,15.731,0.028
53747.464071,16.072,0.144
53789.359083,15.135,0.054
53789.371536,15.239,0.03
53789.383937,15.273,0.018
53789.396566,15.33,0.02
53799.34228,15.843,0.023
53799.354293,15.871,0.023
53799.366153,15.854,0.021
53799.37797,15.903,0.023
53799.389824,15.862,0.023
53845.254578,15.288,0.037
53845.276569,15.165,0.026
53845.287424,15.183,0.024
53849.245865,15.458,0.024
53849.245976,15.468,0.024
53849.256603,15.489,0.026
53849.256715,15.476,0.024
53849.267295,15.517,0.026
53849.267406,15.536,0.026
53849.27799,15.569,0.028
53849.278102,15.544,0.026
53849.288688,15.534,0.028
53849.288799,15.52,0.026
53851.241083,15.626,0.033
53851.251289,15.608,0.031
53851.261612,15.719,0.035
53851.272058,15.679,0.033
53851.28236,15.713,0.036
53880.209069,15.661,0.037
53880.220289,15.684,0.037
53880.231509,15.715,0.037
53880.242738,15.748,0.039
53880.253983,15.771,0.041
53885.166041,15.233,0.026
53885.178239,15.269,0.026
53885.20247,15.352,0.03
53885.214597,15.366,0.03
53901.191434,15.387,0.038
53901.201269,15.273,0.035
53901.211533,15.261,0.038
53912.201071,15.389,0.035
54112.49322,15.918,0.045
54152.345178,15.883,0.024
54152.357143,15.888,0.024
54152.369536,15.906,0.026
54152.383637,15.853,0.024
54152.396437,15.888,0.024
54173.317087,15.55,0.023
54173.338625,15.569,0.025
54173.349249,15.622,0.026
54173.359874,15.64,0.026
54185.299278,15.973,0.084
54201.281604,15.874,0.031
54201.290941,15.884,0.031
54201.300345,15.907,0.031
54201.309731,15.959,0.033
54201.319139,15.95,0.033
54452.460528,15.684,0.022
54452.473685,15.727,0.022
54452.486825,15.729,0.022
54452.499984,15.743,0.022
54452.513171,15.751,0.022
54476.458305,15.894,0.02
54476.471333,15.882,0.018
54476.484238,15.89,0.02
54476.497147,15.95,0.02
54476.510049,15.947,0.02
54484.367679,15.113,0.024
54484.393877,15.226,0.026
54533.332377,15.457,0.013
54533.34371,15.475,0.013
54533.354985,15.53,0.013
54533.366315,15.557,0.015
54533.377694,15.551,0.015
54539.266733,15.724,0.024
54539.277623,15.746,0.02
54539.288545,15.783,0.02
54539.299385,15.769,0.018
54539.310386,15.787,0.018
54559.188328,15.745,0.022
54559.199893,15.755,0.022
54559.211457,15.796,0.022
54559.223186,15.825,0.022
54559.234752,15.811,0.022
54567.251387,15.407,0.018
54567.262691,15.282,0.017
54567.273884,15.178,0.015
54567.285073,15.162,0.015
54580.250743,15.499,0.036
54580.261176,15.555,0.04
54580.271437,15.543,0.04
54580.281679,15.536,0.04
54580.292058,15.545,0.04
54587.250679,15.241,0.017
54587.261092,15.274,0.017
54587.271637,15.286,0.018
54587.282045,15.339,0.018
54587.292434,15.366,0.02
54595.243395,15.828,0.031
54595.253386,15.811,0.031
54595.26336,15.828,0.03
54595.273303,15.837,0.03
54595.283293,15.808,0.028
54611.199931,15.751,0.036
54611.208275,15.704,0.035
54611.216575,15.792,0.038
54611.224787,15.726,0.036
54611.233019,15.77,0.038
54619.207835,15.916,0.031
54619.218075,15.981,0.041
54619.228374,16.005,0.044
54619.238615,15.989,0.041
54619.249045,16.024,0.039
