mjd,m,merr
52646.464839,17.237,0.13
52646.480463,17.317,0.141
52646.495428,17.163,0.115
52646.510203,17.163,0.115
52646.524993,17.174,0.113
52668.524938,17.336,0.124
52672.457055,17.253,0.363
52673.373314,16.646,0.076
52673.3881,16.695,0.074
52673.402938,16.7,0.073
52673.418768,16.652,0.069
52673.433524,16.836,0.081
52704.358919,17.095,0.116
52704.359276,17.003,0.104
52704.371805,17.185,0.127
52704.372162,17.0,0.112
52704.384803,17.094,0.112
52704.385158,16.99,0.111
52704.397722,17.114,0.119
52704.398075,17.037,0.119
52704.410652,17.083,0.119
52704.411009,17.0,0.112
52705.378249,16.971,0.085
52705.391486,17.053,0.094
52705.404878,17.051,0.094
52705.418486,17.112,0.105
52705.431765,17.315,0.13
52708.371351,16.806,0.074
52708.385017,16.822,0.074
52708.398611,16.877,0.083
52708.412946,16.877,0.085
52708.427081,16.923,0.093
52710.303689,16.14,0.048
52710.317205,16.252,0.052
52710.330394,16.365,0.055
52710.343654,16.443,0.059
52710.356916,16.529,0.063
52711.378681,16.408,0.063
52711.392833,16.552,0.07
52711.407296,16.714,0.078
52711.421736,16.664,0.067
52711.436126,16.777,0.074
52712.30797,16.9,0.13
52712.3216,16.639,0.139
52712.334546,16.221,0.076
52712.347517,16.0,0.055
52712.36045,16.183,0.065
52729.292914,16.181,0.043
52729.304536,16.089,0.039
52729.316186,16.143,0.041
52729.327784,16.207,0.043
52729.339418,16.356,0.048
52734.316295,16.846,0.266
52736.253152,17.206,0.12
52736.253505,17.094,0.137
52736.265058,17.304,0.13
52736.27687,17.201,0.117
52736.277222,16.945,0.117
52736.288677,17.105,0.111
52736.28903,17.163,0.139
52736.3013,17.319,0.13
52736.301654,16.979,0.122
52757.214782,16.859,0.085
52757.226651,16.945,0.093
52757.23851,16.984,0.098
52757.250321,16.963,0.1
52757.262186,16.997,0.102
52758.261138,17.049,0.102
52758.274606,16.91,0.092
52758.287148,17.016,0.109
52758.299172,17.032,0.116
52758.299514,16.776,0.157
52758.311511,16.968,0.104
52765.17276,17.456,0.466
52765.185306,17.17,0.087
52765.197849,17.101,0.17
52790.17092,17.26,0.208
52790.181516,16.873,0.14
52790.192098,17.139,0.178
52790.202859,17.009,0.144
52790.21348,17.102,0.145
52815.168833,16.475,0.096
52815.179028,16.522,0.116
52815.189572,16.52,0.114
52815.199717,16.524,0.127
52815.209922,16.64,0.144
52996.454675,17.103,0.084
52996.467401,17.216,0.089
52996.480856,17.102,0.078
52996.495263,16.658,0.049
52996.508085,16.366,0.038
53028.439553,16.556,0.043
53028.454338,16.856,0.168
53028.467219,16.697,0.049
53028.486808,16.927,0.2
53032.401838,17.088,0.087
53032.414176,17.1,0.089
53032.427023,17.19,0.099
53032.439552,17.291,0.109
53032.451952,17.227,0.097
53055.363961,17.063,0.213
53055.376057,17.094,0.083
53055.3882,17.008,0.12
53060.359952,16.734,0.045
53060.37177,16.747,0.048
53060.38404,16.806,0.049
53060.395896,16.81,0.054
53060.40792,16.842,0.056
53081.350048,16.351,0.043
53081.361704,16.458,0.048
53081.373298,16.54,0.053
53081.384609,16.59,0.056
53081.395877,16.595,0.056
53082.353835,16.224,0.03
53082.365018,16.203,0.03
53082.376843,16.307,0.035
53082.388242,16.4,0.038
53082.399956,16.472,0.043
53084.35368,17.198,0.068
53084.364936,17.182,0.068
53084.376131,17.075,0.064
53084.387864,16.784,0.049
53084.398986,16.393,0.035
53091.331354,17.005,0.059
53091.341499,17.034,0.063
53091.352134,17.045,0.066
53091.361998,17.047,0.068
53091.371751,17.139,0.074
53095.273787,16.655,0.086
53095.283811,16.681,0.086
53095.294252,16.602,0.079
53095.304344,16.698,0.089
53095.314585,16.798,0.096
53112.243341,16.657,0.066
53112.254057,16.702,0.068
53112.264506,16.751,0.069
53112.275508,16.768,0.071
53113.339174,17.095,0.229
53115.307096,16.568,0.046
53115.317919,16.623,0.049
53115.328626,16.727,0.056
53115.339711,16.791,0.063
53115.350618,16.675,0.054
53140.204442,17.072,0.107
53140.2139,17.141,0.117
53140.224287,17.156,0.119
53140.233692,17.058,0.109
53140.243047,17.126,0.119
53141.264445,17.156,0.096
53141.274393,17.112,0.099
53141.283434,17.03,0.092
53141.292521,16.998,0.094
53141.301584,17.01,0.096
53143.288855,17.055,0.083
53143.298305,17.045,0.081
53143.307575,17.091,0.087
53143.316602,17.098,0.094
53143.325706,16.977,0.086
53170.172029,17.087,0.091
53170.182407,17.054,0.089
53170.192392,17.083,0.094
53170.202323,16.925,0.084
53170.212511,16.858,0.081
53172.170281,16.919,0.084
53172.180252,16.835,0.081
53172.190365,16.932,0.092
53172.210521,16.879,0.092
53353.493269,17.027,0.13
53353.50758,16.953,0.12
53353.521784,17.084,0.13
53383.419836,17.197,0.135
53383.433155,17.046,0.113
53383.446481,17.248,0.122
53383.459818,17.155,0.111
53383.474443,17.01,0.105
53403.428145,16.61,0.102
53403.440847,16.662,0.106
53403.453631,16.689,0.111
53403.482156,16.531,0.102
53436.317449,17.036,0.083
53436.32884,17.053,0.089
53436.340839,16.919,0.078
53436.352251,16.948,0.078
53436.363646,17.07,0.085
53467.387847,16.864,0.135
53467.407183,16.892,0.126
53467.416848,16.909,0.142
53467.426393,17.322,0.342
53506.193468,16.935,0.159
53506.202968,16.913,0.148
53506.212596,16.916,0.148
53506.222143,17.01,0.163
53506.231683,17.1,0.176
53745.400685,16.68,0.124
53745.413982,16.671,0.115
53745.427018,16.636,0.104
53745.440371,16.732,0.109
53745.45383,16.772,0.098
53758.462853,17.101,0.131
53758.475559,16.899,0.107
53758.488455,17.048,0.126
53758.501097,17.055,0.13
53758.513997,17.136,0.144
53789.405205,17.192,0.126
53789.417238,17.164,0.172
53789.429301,17.375,0.481
53792.402244,17.03,0.118
53792.414181,17.068,0.126
53792.42611,17.011,0.152
53792.438048,16.981,0.202
53802.391967,16.586,0.083
53802.403481,16.536,0.081
53802.426459,16.525,0.067
53802.437949,16.433,0.063
53816.358182,16.662,0.206
53816.369752,16.698,0.069
53816.381226,16.753,0.074
53816.392763,16.781,0.079
53816.404834,16.728,0.079
53821.367521,16.832,0.25
53821.380465,16.742,0.202
53824.371133,16.794,0.235
53824.382749,17.462,0.398
53824.395478,17.406,0.313
53824.408732,17.229,0.157
53824.420468,17.248,0.154
53828.362036,16.985,0.124
53828.373262,17.131,0.174
53831.28364,16.678,0.089
53831.293735,16.649,0.087
53831.304303,16.676,0.089
53831.315275,16.731,0.094
53831.325663,16.835,0.104
53834.27548,16.285,0.1
53834.295155,16.232,0.094
53834.305697,16.415,0.113
53834.315526,16.269,0.096
53846.298347,16.936,0.13
53846.309366,17.038,0.144
53846.320375,16.963,0.124
53846.331383,17.081,0.141
53846.342404,16.933,0.124
53848.257308,16.687,0.078
53848.268101,16.754,0.079
53848.279181,16.852,0.086
53848.290097,16.906,0.092
53851.294655,16.602,0.083
53851.304872,16.618,0.089
53851.315484,16.723,0.096
53851.325976,16.667,0.098
53851.336442,16.66,0.094
53857.323577,17.376,0.187
53857.335323,17.063,0.148
53857.345646,16.877,0.13
53857.356444,16.751,0.157
53857.36723,16.539,0.15
53879.216405,16.964,0.092
53879.230054,17.034,0.102
53879.242378,16.992,0.102
53879.254858,17.134,0.116
53879.266822,17.011,0.106
53885.210593,16.542,0.071
53885.223162,16.585,0.076
53885.23547,16.69,0.081
53885.247707,16.596,0.079
53885.260485,16.671,0.086
54148.350631,16.728,0.063
54148.362702,16.748,0.067
54148.374834,16.801,0.07
54148.387082,16.744,0.065
54148.39916,16.777,0.067
54153.384959,16.24,0.052
54153.396726,16.146,0.041
54153.408459,16.205,0.057
54153.420202,16.337,0.057
54153.431962,16.445,0.122
54158.341245,16.977,0.113
54158.352927,16.886,0.104
54158.364666,16.877,0.1
54158.376447,17.01,0.107
54158.388169,17.063,0.113
54174.325787,17.046,0.094
54174.336494,17.348,0.25
54174.347208,17.163,0.1
54174.357887,17.224,0.109
54174.368622,17.177,0.098
54176.277198,17.185,0.12
54176.287796,17.213,0.12
54176.298378,17.22,0.117
54176.30898,17.215,0.116
54176.319588,17.099,0.106
54177.346374,17.127,0.1
54177.358281,17.276,0.239
54177.370763,17.14,0.113
54177.382532,17.197,0.104
54177.394239,17.176,0.107
54180.342727,16.978,0.072
54180.35329,17.028,0.076
54180.363831,17.077,0.085
54180.374566,17.14,0.091
54180.385003,17.038,0.091
54205.313359,16.297,0.046
54205.322866,16.388,0.05
54205.333215,16.404,0.05
54205.342756,16.45,0.054
54205.352293,16.534,0.054
54208.306624,17.034,0.089
54208.315856,17.0,0.087
54208.325201,17.004,0.085
54208.33444,16.879,0.087
54208.343697,16.735,0.072
54212.313967,17.105,0.102
54212.323076,17.054,0.096
54212.332436,17.148,0.104
54212.341712,17.093,0.104
54212.351089,17.012,0.098
54476.465706,16.976,0.109
54476.478837,16.856,0.091
54476.492296,16.813,0.087
54476.50577,16.903,0.092
54481.406099,16.783,0.063
54481.419137,16.83,0.098
54481.432174,16.795,0.068
54481.445227,16.824,0.074
54481.458426,16.794,0.067
54498.402791,16.859,0.057
54498.415433,16.883,0.057
54498.428115,16.868,0.052
54498.440761,16.938,0.057
54498.453396,16.956,0.057
54505.452205,16.551,0.063
54505.463785,16.534,0.063
54505.475382,16.636,0.071
54505.486919,16.689,0.074
54505.498472,16.69,0.076
54506.394142,17.165,0.081
54506.406484,17.17,0.081
54506.419485,17.124,0.076
54506.431826,16.939,0.065
54506.444175,16.701,0.054
54522.45273,16.625,0.076
54522.464442,16.673,0.078
54522.476161,16.626,0.08
54522.487974,16.637,0.08
54522.49974,16.749,0.091
54527.385762,17.04,0.065
54527.39735,17.093,0.068
54527.408999,17.079,0.07
54527.420525,17.097,0.072
54527.432059,17.135,0.076
54533.441268,16.872,0.069
54533.452445,16.911,0.073
54533.463555,16.925,0.074
54533.475293,16.92,0.076
54535.33611,16.667,0.041
54535.347354,16.676,0.043
54535.358632,16.733,0.044
54535.36997,16.712,0.043
54535.381213,16.751,0.044
54553.362567,16.669,0.061
54553.374664,16.592,0.059
54553.386715,16.671,0.065
54561.303726,17.021,0.076
54561.315387,17.034,0.059
54561.327055,17.082,0.102
54561.338704,17.093,0.08
54561.350371,17.16,0.07
54567.258257,17.095,0.13
54569.190789,16.54,0.059
54569.201821,16.591,0.065
54569.212785,16.589,0.057
54569.223754,16.652,0.059
54569.234728,16.582,0.055
54584.300688,16.92,0.072
54584.3113,17.033,0.085
54584.32191,16.986,0.087
54584.33253,17.012,0.093
54584.343139,17.028,0.1
54591.251861,16.677,0.072
54591.262017,16.53,0.061
54591.272183,16.486,0.061
54591.282347,16.529,0.065
54591.292506,16.463,0.061
54598.205754,16.864,0.126
54598.216279,16.848,0.124
54598.22679,16.838,0.122
54598.237308,16.838,0.13
54598.247819,16.875,0.139
54614.211864,17.084,0.085
54614.221902,17.038,0.081
54614.231912,17.027,0.08
54614.241909,17.09,0.089
54614.251918,17.052,0.087
54622.172248,16.68,0.111
54622.182623,16.685,0.096
54622.192857,16.657,0.096
54622.203083,16.675,0.091
54623.167506,16.451,0.135
54623.177648,16.468,0.139
54623.187753,16.472,0.145
54623.197631,16.47,0.144
54623.207886,16.544,0.167
