mjd,m,merr
52638.484415,16.753,0.214
52638.500103,16.591,0.061
52638.515414,16.677,0.066
52650.367522,16.327,0.044
52650.381632,16.247,0.041
52650.395793,16.143,0.035
52650.409907,16.099,0.033
52650.424081,16.024,0.03
52665.398575,16.077,0.041
52665.413436,16.07,0.04
52665.42881,16.02,0.038
52665.44412,16.042,0.036
52665.458821,16.044,0.038
52677.410196,16.046,0.041
52677.42533,16.093,0.054
52677.440218,16.22,0.137
52677.455186,16.194,0.053
52677.470681,16.229,0.048
52680.420797,16.33,0.045
52680.435693,16.336,0.046
52680.450576,16.468,0.053
52680.465324,16.442,0.051
52680.481058,16.419,0.049
52696.396203,16.067,0.03
52696.409942,16.094,0.035
52696.423581,16.077,0.035
52723.327875,16.068,0.065
52723.339546,15.962,0.174
52752.238321,16.056,0.035
52752.248579,16.029,0.033
52752.25886,16.068,0.035
52752.269153,16.008,0.033
52752.279445,16.065,0.035
52771.223196,16.026,0.078
52771.236054,16.034,0.078
52771.247699,16.02,0.078
52771.259184,16.033,0.079
52787.215521,16.632,0.066
52787.226483,16.591,0.066
52787.237463,16.611,0.064
52787.248215,16.453,0.054
52787.259162,16.456,0.059
52800.193713,16.064,0.124
52810.176346,16.023,0.046
52810.186188,16.036,0.046
52810.215891,16.062,0.049
52812.177787,16.315,0.061
52812.195838,16.481,0.073
52812.206566,16.479,0.071
52812.216773,16.642,0.087
52812.226976,16.596,0.083
52826.169063,16.273,0.094
52826.179104,16.326,0.092
52826.189031,16.366,0.094
52826.199328,16.473,0.116
52977.456862,16.112,0.039
52977.46915,16.117,0.039
52977.481584,16.136,0.039
52977.493813,16.121,0.039
52977.506058,16.148,0.037
53024.445537,16.17,0.092
53024.462482,16.139,0.056
53024.511455,16.04,0.049
53035.410284,16.149,0.055
53035.422551,16.075,0.031
53035.434935,16.074,0.028
53035.447975,16.057,0.035
53035.460319,16.089,0.03
53049.336637,16.163,0.028
53049.348499,16.109,0.026
53049.360363,16.063,0.026
53049.372225,16.053,0.026
53049.384089,16.045,0.026
53065.290985,16.092,0.033
53065.303061,16.078,0.031
53065.315198,16.048,0.03
53065.326965,16.084,0.031
53065.338784,16.13,0.031
53094.273909,16.068,0.03
53094.28355,16.072,0.03
53094.294411,16.049,0.028
53094.304269,16.056,0.028
53094.314184,16.03,0.028
53095.268702,16.03,0.041
53095.268826,16.026,0.041
53095.278728,16.02,0.041
53095.288792,15.994,0.04
53095.288916,16.012,0.04
53095.299219,15.985,0.04
53095.299342,16.021,0.041
53095.309253,16.036,0.041
53095.309377,16.015,0.04
53096.266246,16.178,0.071
53096.276198,16.254,0.074
53096.286048,16.332,0.081
53096.296001,16.35,0.125
53096.30583,16.451,0.101
53107.239782,16.041,0.031
53107.250146,16.044,0.031
53107.260612,16.067,0.031
53107.271022,16.061,0.033
53107.281531,16.067,0.033
53108.187535,16.367,0.048
53108.198732,16.312,0.046
53108.209995,16.232,0.043
53108.221288,16.185,0.041
53108.232588,16.074,0.035
53109.181079,16.049,0.038
53109.191407,15.988,0.035
53109.201717,16.036,0.038
53109.212308,16.036,0.036
53109.222558,16.048,0.036
53110.183573,16.13,0.045
53110.194598,16.11,0.043
53110.205641,16.111,0.043
53110.216513,16.13,0.043
53110.227434,16.13,0.043
53122.246284,16.098,0.035
53122.256639,16.108,0.035
53122.266994,16.067,0.035
53122.277345,16.1,0.035
53122.288017,16.062,0.033
53136.200927,16.12,0.043
53136.21099,16.086,0.041
53136.21974,16.095,0.041
53136.228471,16.061,0.041
53136.238092,16.02,0.043
53153.209865,16.009,0.041
53153.218816,15.965,0.039
53153.227681,16.036,0.043
53153.236443,15.947,0.039
53153.245202,15.984,0.041
53154.20579,15.963,0.064
53154.216274,15.843,0.059
53154.224504,15.905,0.063
53154.24126,15.964,0.069
53164.175159,16.118,0.043
53164.184665,16.065,0.041
53164.194337,16.037,0.041
53164.203967,16.058,0.041
53164.213523,16.081,0.043
53178.186421,16.067,0.031
53178.196499,16.066,0.031
53178.206714,16.065,0.031
53178.216794,16.031,0.033
53341.470885,16.492,0.094
53341.482957,16.454,0.087
53341.495034,16.465,0.087
53341.507616,16.347,0.074
53341.519691,16.316,0.074
53358.466806,16.266,0.041
53358.479443,16.173,0.035
53358.492074,16.081,0.033
53358.504709,16.097,0.033
53358.524303,16.051,0.031
53386.479664,16.107,0.033
53386.492626,16.043,0.031
53386.505582,16.033,0.031
53386.51891,16.022,0.031
53386.533858,16.058,0.033
53441.391874,16.089,0.031
53441.402778,16.068,0.031
53441.413753,16.075,0.033
53441.42521,16.1,0.035
53441.436115,16.1,0.035
53474.298049,16.004,0.031
53474.311802,16.003,0.031
53474.325251,16.053,0.033
53474.335249,16.012,0.033
53474.345573,16.025,0.033
53498.21715,16.612,0.128
53498.227248,16.739,0.128
53498.237738,16.715,0.074
53498.248224,16.631,0.061
53499.211919,16.059,0.033
53499.222682,16.024,0.033
53499.232836,16.04,0.033
53499.243398,16.041,0.035
53499.254335,16.039,0.033
53521.207807,15.975,0.08
53521.218153,16.039,0.048
53521.228447,16.05,0.057
53521.238791,16.041,0.074
53521.2491,16.064,0.061
53538.175347,16.015,0.083
53538.185115,16.105,0.089
53538.194663,16.088,0.091
53538.20423,16.032,0.089
53538.213837,16.117,0.094
53551.184241,16.378,0.057
53551.194193,16.458,0.061
53551.204348,16.487,0.065
53551.214258,16.578,0.074
53741.4698,16.01,0.024
53741.483137,16.004,0.024
53741.496731,16.0,0.024
53741.509641,16.014,0.022
53741.522567,15.999,0.022
53786.364529,15.986,0.033
53786.377638,15.982,0.045
53786.404065,15.979,0.081
53824.323086,16.429,0.061
53824.33465,16.435,0.043
53824.346326,16.326,0.038
53824.358881,16.302,0.046
53824.370422,16.35,0.078
53843.255908,16.106,0.046
53843.267151,16.083,0.05
53843.278353,16.082,0.054
53843.289564,16.113,0.057
53843.301407,16.086,0.057
53854.241697,16.022,0.053
53854.251765,16.043,0.045
53854.26172,16.057,0.046
53854.271911,15.419,0.33
53882.212167,16.05,0.04
53882.222662,16.035,0.04
53882.24404,16.028,0.045
53882.25456,16.073,0.048
53886.223188,16.212,0.052
53886.234058,16.092,0.05
53886.244952,16.145,0.052
53886.255866,16.087,0.052
53886.266768,16.058,0.052
53903.175808,16.149,0.061
53903.18585,16.203,0.067
53903.196073,16.162,0.061
53903.206353,16.173,0.061
53903.21651,16.187,0.063
53932.209271,16.053,0.1
54068.464768,16.164,0.051
54068.504992,16.09,0.043
54068.517872,16.303,0.089
54085.466171,16.098,0.054
54085.4791,16.023,0.045
54085.49208,16.104,0.045
54085.505255,16.057,0.043
54085.518195,16.135,0.046
54123.385523,16.02,0.026
54123.397876,16.023,0.026
54123.410167,16.021,0.026
54123.422697,16.047,0.026
54123.435222,16.009,0.026
54186.278308,16.063,0.048
54186.288522,16.086,0.049
54186.298826,16.088,0.051
54186.308999,16.117,0.051
54186.319188,16.012,0.046
54201.280572,16.122,0.026
54201.290495,16.069,0.024
54201.300781,16.06,0.024
54201.310603,16.079,0.024
54201.320197,16.077,0.026
54207.274989,16.052,0.04
54207.284613,16.026,0.064
54207.294127,15.906,0.066
54216.223442,16.024,0.048
54216.232093,16.044,0.048
54216.240741,16.022,0.046
54216.249394,16.006,0.044
54216.258048,16.04,0.046
54508.359487,16.052,0.033
54508.372188,16.06,0.033
54508.384204,16.045,0.031
54508.396325,16.021,0.031
54508.408412,16.059,0.031
54543.285686,15.952,0.079
54543.296456,15.965,0.079
54543.308972,15.95,0.074
54543.319586,15.942,0.074
54543.330507,15.972,0.076
54561.238253,16.129,0.049
54561.249871,16.087,0.048
54561.261402,16.015,0.046
54561.273957,16.032,0.056
54561.285382,16.241,0.079
54573.26469,15.969,0.057
54573.275425,15.989,0.057
54573.286177,16.05,0.061
54583.274447,16.201,0.066
54583.284769,16.143,0.063
54614.215273,16.102,0.053
54614.22557,16.098,0.054
54614.236041,16.097,0.053
54614.246459,16.107,0.056
54614.256685,16.067,0.051
