mjd,m,merr
52640.481094,14.851,0.013
52640.496,14.875,0.013
52640.510846,14.672,0.012
52640.525706,14.814,0.013
52644.489598,14.848,0.013
52644.504498,14.889,0.018
52644.51934,14.749,0.02
52644.534123,14.813,0.015
52648.399248,14.801,0.015
52648.414297,14.893,0.017
52648.428989,14.896,0.017
52648.444175,14.718,0.013
52648.459733,14.881,0.015
52667.398156,14.703,0.013
52667.412971,14.875,0.015
52667.42793,14.839,0.015
52667.44275,14.708,0.013
52667.457604,14.837,0.015
52670.431609,14.726,0.013
52670.460764,14.869,0.015
52670.475443,14.85,0.015
52670.490089,14.732,0.013
52671.401894,14.745,0.011
52671.417252,14.812,0.013
52671.447774,14.722,0.013
52671.463135,14.792,0.013
52674.401102,14.724,0.011
52674.415095,14.822,0.013
52674.429086,14.916,0.015
52674.442966,14.77,0.015
52674.456908,14.752,0.013
52703.314618,15.381,0.048
52703.315217,14.669,0.025
52703.3366,15.28,0.023
52703.337201,14.911,0.016
52703.354778,15.394,0.036
52703.355376,14.882,0.021
52703.370406,15.454,0.045
52703.371005,14.797,0.023
52703.385184,16.888,0.239
52703.385781,14.953,0.04
52707.373634,14.703,0.011
52707.400015,14.892,0.013
52707.414054,14.877,0.013
52730.299147,14.983,0.016
52730.299747,14.742,0.013
52730.311163,15.125,0.018
52730.311763,14.856,0.015
52730.323181,15.228,0.02
52730.323782,14.948,0.015
52730.335201,15.123,0.018
52730.335803,14.843,0.015
52730.347988,15.02,0.02
52738.244971,14.864,0.013
52738.256409,14.908,0.015
52738.268324,14.77,0.013
52738.279861,14.707,0.011
52738.29138,14.866,0.013
52755.255474,14.965,0.018
52755.255813,14.777,0.015
52755.26833,15.142,0.021
52755.268668,14.886,0.016
52755.28053,15.18,0.023
52755.280871,14.912,0.016
52755.29269,14.993,0.02
52755.293031,14.745,0.016
52755.304635,15.053,0.021
52755.304978,14.774,0.016
52761.208361,14.787,0.018
52761.220396,14.913,0.026
52761.232553,14.878,0.017
52761.244563,14.679,0.013
52761.256649,14.833,0.013
52764.209909,15.222,0.021
52764.21014,14.876,0.015
52764.221863,15.278,0.023
52764.222095,14.945,0.016
52764.233907,15.148,0.02
52764.234139,14.824,0.015
52764.246046,14.965,0.016
52764.246279,14.749,0.013
52764.258017,15.173,0.02
52789.2157,14.883,0.018
52789.226577,14.918,0.018
52791.261873,14.849,0.023
52794.213939,14.824,0.017
52794.223956,14.736,0.017
52794.233987,14.812,0.017
52794.244121,14.908,0.018
52794.254177,14.907,0.018
52816.171111,14.834,0.02
52816.191523,14.834,0.021
52823.170851,14.988,0.045
52823.190955,14.77,0.021
52987.499367,14.702,0.02
52987.512216,14.893,0.017
52996.465748,14.913,0.011
52996.478706,14.846,0.009
52996.504792,14.87,0.009
52996.517748,14.932,0.009
53001.468095,14.675,0.009
53001.481397,14.789,0.009
53001.494535,14.846,0.009
53001.508682,14.782,0.009
53001.521967,14.714,0.007
53027.396926,14.755,0.009
53027.449045,14.824,0.009
53033.420156,14.757,0.011
53033.43225,14.798,0.013
53053.367269,14.857,0.013
53053.390534,14.736,0.013
53053.402808,14.746,0.011
53060.309753,14.655,0.007
53060.32188,14.813,0.009
53060.334598,14.862,0.009
53060.346059,14.848,0.009
53060.359216,14.667,0.007
53079.315724,14.73,0.011
53079.337211,14.91,0.013
53079.347977,14.87,0.013
53079.358988,14.67,0.011
53084.338898,14.68,0.009
53084.349521,14.798,0.007
53084.360318,14.811,0.009
53084.370953,14.853,0.009
53084.381887,14.696,0.007
53086.354738,14.874,0.01
53086.365714,14.768,0.012
53086.376677,14.794,0.012
53086.387733,14.879,0.012
53086.39869,14.921,0.012
53110.244063,14.874,0.015
53110.255146,14.73,0.013
53110.266287,14.779,0.013
53110.277364,14.878,0.015
53110.288542,14.894,0.015
53138.216896,14.771,0.011
53138.226654,14.897,0.013
53138.236374,14.892,0.013
53138.246102,14.825,0.013
53148.21306,14.712,0.011
53148.239954,14.873,0.015
53166.184338,14.932,0.017
53166.193689,14.881,0.017
53166.203068,14.779,0.015
53166.212426,14.748,0.015
53175.174708,14.881,0.013
53175.18469,14.897,0.011
53175.194732,14.826,0.011
53175.204654,14.69,0.009
53175.214579,14.815,0.011
53346.461296,14.818,0.031
53346.485727,14.8,0.028
53348.461009,14.794,0.018
53348.473468,14.881,0.018
53348.485923,14.916,0.018
53348.500212,14.691,0.015
53348.51294,14.846,0.015
53351.500031,14.759,0.02
53351.514472,14.883,0.02
53351.528737,14.924,0.021
53354.456945,14.785,0.015
53354.46989,14.932,0.015
53354.484035,14.823,0.013
53354.49686,14.754,0.013
53354.509817,14.831,0.013
53377.414374,14.704,0.013
53377.427538,14.876,0.015
53377.441989,14.945,0.015
53377.456097,14.754,0.011
53377.469218,14.83,0.013
53447.307117,14.876,0.013
53447.31846,14.831,0.015
53447.329264,14.666,0.011
53447.340027,14.794,0.013
53447.351442,14.859,0.028
53465.336066,14.874,0.013
53465.346826,14.919,0.015
53465.358522,14.769,0.013
53465.369962,14.726,0.013
53465.380251,14.875,0.013
53468.278511,14.878,0.028
53468.288046,14.892,0.022
53468.394863,14.932,0.017
53468.413991,14.718,0.013
53468.423594,14.861,0.015
53473.27743,14.905,0.015
53473.288843,14.768,0.013
53473.300023,14.723,0.013
53473.310909,14.86,0.015
53473.323327,14.904,0.017
53478.248521,14.859,0.024
53478.259292,14.874,0.024
53478.268689,14.791,0.022
53479.27937,14.781,0.03
53479.292357,14.709,0.028
53479.30464,14.843,0.031
53479.314544,14.879,0.033
53479.324379,14.897,0.033
53493.29734,14.917,0.018
53493.307681,14.771,0.017
53493.318398,14.714,0.017
53493.328348,14.878,0.018
53493.338417,14.916,0.018
53496.245043,14.917,0.018
53496.255215,14.834,0.017
53496.275333,14.825,0.017
53496.285483,14.907,0.017
53503.242618,14.841,0.015
53503.25151,14.909,0.015
53503.269773,14.775,0.013
53526.215449,14.867,0.02
53527.170945,14.751,0.015
53527.181252,14.859,0.017
53527.191152,14.909,0.017
53527.20091,14.899,0.018
53527.210706,14.725,0.015
53746.462957,14.873,0.02
53746.475379,14.881,0.018
53746.488072,14.71,0.015
53746.500527,14.778,0.015
53746.513048,14.933,0.015
53790.352259,14.707,0.012
53790.36411,14.9,0.013
53790.375945,14.9,0.013
53790.388003,14.777,0.013
53790.399818,14.725,0.012
53817.271412,14.83,0.012
53817.282666,14.704,0.012
53817.293945,14.846,0.012
53817.305284,14.908,0.013
53817.316624,14.876,0.013
53845.267659,14.859,0.02
53845.278822,14.755,0.018
53845.290113,14.833,0.02
53850.24456,14.877,0.02
53850.254953,14.684,0.015
53850.26523,14.742,0.015
53850.275574,14.866,0.016
53850.285973,14.88,0.018
53881.231038,14.899,0.018
53881.25118,14.763,0.018
53884.216209,14.861,0.018
53884.227785,14.891,0.02
53884.250943,14.736,0.017
53884.262532,14.804,0.018
53886.20817,14.841,0.02
53886.218199,14.874,0.02
53886.228274,14.681,0.016
53886.238479,14.617,0.016
53886.248451,14.773,0.02
53901.19014,14.944,0.026
53901.200157,14.995,0.03
53901.210211,14.985,0.031
53910.166935,14.769,0.022
53910.177176,14.797,0.022
53910.187462,14.884,0.022
53910.197682,14.896,0.024
53910.207895,14.905,0.03
53911.218007,14.874,0.04
53914.171296,14.86,0.031
53914.181779,14.76,0.026
53914.192219,14.792,0.03
53914.202692,14.904,0.033
54155.357496,14.846,0.011
54155.369323,14.696,0.009
54155.381164,14.852,0.011
54155.393121,14.899,0.011
54155.404962,14.814,0.011
54174.321916,14.713,0.013
54174.332559,14.791,0.031
54174.343228,14.906,0.015
54174.354136,14.909,0.016
54174.364838,14.718,0.013
54180.285815,14.912,0.013
54180.296274,14.934,0.013
54180.306846,14.797,0.013
54180.317361,14.683,0.012
54180.327914,14.839,0.013
54200.283636,14.668,0.016
54200.293072,14.717,0.016
54450.46323,14.769,0.009
54450.47638,14.707,0.009
54450.489543,14.858,0.009
54450.50273,14.893,0.009
54450.51589,14.629,0.007
54454.463027,14.952,0.011
54454.476377,14.864,0.011
54454.489414,14.748,0.009
54454.502442,14.901,0.011
54454.515466,14.929,0.011
54475.40153,14.922,0.02
54475.414534,14.693,0.015
54475.427385,14.782,0.011
54475.440229,14.898,0.009
54475.453137,14.866,0.009
54483.397058,14.691,0.015
54483.410332,14.835,0.017
54483.423429,14.893,0.015
54483.436342,14.843,0.011
54483.449241,14.7,0.009
54509.338814,14.895,0.009
54509.351005,14.863,0.009
54509.36305,14.723,0.007
54509.375089,14.837,0.009
54509.387177,14.908,0.009
54524.394927,14.731,0.009
54524.406996,14.756,0.009
54524.41868,14.831,0.011
54524.430389,14.9,0.011
54524.442234,14.778,0.011
54532.333357,14.708,0.007
54532.344772,14.855,0.009
54532.356083,14.897,0.009
54532.367343,14.821,0.009
54532.3786,14.66,0.007
54535.449261,14.899,0.018
54535.46028,14.866,0.018
54535.471162,14.737,0.016
54535.482039,14.808,0.016
54535.493134,14.908,0.02
54538.312374,14.865,0.009
54538.323482,14.698,0.007
54538.334585,14.827,0.009
54538.345736,14.891,0.009
54538.356758,14.898,0.009
54543.246018,14.736,0.017
54543.256973,14.571,0.015
54543.267778,14.779,0.017
54555.304629,14.79,0.009
54555.316446,14.905,0.009
54555.328383,14.913,0.009
54555.340437,14.705,0.007
54555.352251,14.782,0.009
54558.188758,14.818,0.015
54558.200326,14.73,0.013
54558.211879,14.907,0.02
54558.223455,14.9,0.054
54558.235071,14.847,0.02
54560.242727,14.87,0.009
54560.254321,14.925,0.009
54560.265871,14.833,0.009
54560.277426,14.699,0.007
54560.289192,14.859,0.009
54580.245525,14.702,0.013
54580.25615,14.842,0.015
54580.266745,14.929,0.015
54580.277349,14.921,0.017
54580.288014,14.778,0.015
54586.243492,14.675,0.011
54586.253912,14.815,0.013
54586.264248,14.921,0.017
54586.274652,14.87,0.013
54586.284988,14.725,0.011
54594.25309,14.903,0.013
54594.263374,14.757,0.011
54594.273691,14.687,0.011
54594.283968,14.85,0.013
54594.294243,14.923,0.015
54611.209366,14.881,0.011
54611.219261,14.915,0.011
54611.229121,14.897,0.011
54611.239129,14.773,0.011
54611.248908,14.796,0.011
54618.208943,14.748,0.011
54618.219157,14.843,0.013
54618.229378,14.876,0.013
54618.239592,14.865,0.013
54618.249824,14.782,0.013
