mjd,m,merr
52620.451094,14.894,0.018
52620.465737,14.934,0.018
52620.480332,14.984,0.023
52620.494894,14.989,0.021
52620.510025,15.01,0.025
52650.367642,14.988,0.015
52650.381752,14.94,0.013
52650.395913,14.786,0.011
52650.410027,14.625,0.009
52650.424201,14.582,0.009
52652.472937,14.634,0.012
52652.488599,14.557,0.012
52652.503754,14.579,0.012
52652.518965,14.536,0.012
52664.365436,14.582,0.015
52664.381753,14.641,0.033
52681.349341,15.025,0.018
52681.364062,14.985,0.016
52681.379486,14.906,0.023
52681.39424,14.854,0.015
52681.409509,14.674,0.013
52696.396343,14.998,0.013
52696.410082,15.002,0.013
52696.423722,14.991,0.013
52712.282277,14.88,0.021
52712.295515,14.925,0.021
52712.308819,14.998,0.023
52723.328704,14.862,0.02
52752.238431,14.993,0.015
52752.24869,14.962,0.013
52752.25897,14.914,0.013
52752.269262,14.853,0.013
52752.279556,14.732,0.011
52771.22354,14.62,0.023
52771.236276,14.562,0.021
52771.247923,14.563,0.021
52771.259407,14.596,0.023
52787.227135,14.641,0.013
52787.238115,14.681,0.013
52787.248865,14.722,0.013
52787.25981,14.748,0.015
52800.193805,14.536,0.033
52800.204042,14.6,0.031
52810.176435,14.598,0.015
52810.186277,14.559,0.015
52810.215981,14.547,0.015
52812.177876,15.005,0.02
52812.195927,14.968,0.02
52812.206655,14.971,0.02
52812.216862,14.871,0.018
52812.227066,14.808,0.018
52826.1696,14.548,0.02
52826.179642,14.556,0.02
52826.189567,14.564,0.021
52826.199884,14.624,0.021
52977.456963,14.794,0.013
52977.469251,14.838,0.013
52977.481685,14.924,0.013
52977.493914,14.936,0.013
52977.506159,14.984,0.015
52990.462889,14.894,0.016
52990.488101,14.976,0.015
52990.500698,14.99,0.013
52990.51378,15.032,0.015
53023.39406,14.606,0.008
53023.407797,14.617,0.008
53023.419823,14.587,0.008
53023.431919,14.594,0.008
53023.443967,14.613,0.008
53035.410394,15.052,0.035
53035.422661,15.008,0.013
53035.435045,15.007,0.011
53035.448085,14.978,0.013
53035.460429,14.924,0.011
53037.410095,14.865,0.012
53037.422449,14.919,0.012
53037.434852,14.951,0.012
53037.447841,14.995,0.012
53037.462125,15.021,0.013
53049.336528,14.94,0.009
53049.34839,14.884,0.009
53049.360254,14.752,0.009
53049.372116,14.618,0.007
53049.38398,14.563,0.007
53065.290841,14.922,0.012
53065.302916,14.806,0.01
53065.315054,14.649,0.01
53065.326821,14.562,0.008
53065.338641,14.589,0.008
53107.239687,14.785,0.012
53107.250051,14.67,0.01
53107.260518,14.582,0.01
53107.270928,14.572,0.01
53107.281437,14.587,0.01
53122.246832,15.004,0.013
53122.257184,15.002,0.013
53122.26754,15.003,0.013
53122.277891,14.944,0.013
53122.288563,14.867,0.013
53136.238366,14.568,0.013
53136.247305,14.569,0.013
53136.256255,14.565,0.013
53136.265102,14.611,0.013
53136.274032,14.612,0.013
53153.210345,14.919,0.017
53153.219295,14.965,0.017
53153.22816,15.005,0.017
53153.236922,14.977,0.017
53153.245683,14.964,0.017
53154.206044,14.656,0.02
53154.216526,14.58,0.02
53154.224759,14.561,0.02
53154.233152,14.578,0.021
53154.241516,14.588,0.02
53164.175439,15.022,0.016
53164.18492,14.995,0.016
53164.194595,14.973,0.016
53164.204223,14.964,0.016
53164.213795,14.979,0.016
53178.176749,14.523,0.009
53178.186888,14.554,0.009
53178.197101,14.571,0.009
53178.20718,14.599,0.009
53194.206479,14.904,0.053
53341.47098,14.584,0.017
53341.483053,14.569,0.017
53341.495129,14.573,0.017
53341.507714,14.613,0.017
53341.519786,14.63,0.017
53358.466903,14.964,0.013
53358.47954,14.999,0.013
53358.492171,15.01,0.013
53358.504805,15.01,0.013
53358.524399,14.96,0.013
53386.479536,14.801,0.011
53386.505455,14.945,0.013
53386.518782,14.961,0.013
53386.53373,14.949,0.013
53441.392122,14.831,0.011
53441.403026,14.862,0.011
53441.414003,14.882,0.011
53441.42546,14.928,0.013
53441.436362,15.0,0.013
53474.29795,14.928,0.013
53474.311704,14.798,0.011
53474.325154,14.627,0.009
53474.335151,14.575,0.009
53474.345475,14.586,0.009
53521.207711,15.033,0.033
53521.218057,15.028,0.018
53521.22835,15.019,0.022
53521.238695,14.969,0.031
53521.249003,14.942,0.024
53538.175604,14.581,0.024
53538.18537,14.633,0.024
53538.194918,14.664,0.026
53538.204485,14.657,0.026
53538.214093,14.694,0.028
53551.184743,14.634,0.013
53551.19468,14.65,0.013
53551.204834,14.708,0.013
53551.214741,14.762,0.015
53728.463774,14.931,0.015
53728.477123,14.981,0.018
53728.490943,15.009,0.017
53728.504377,15.057,0.02
53728.517664,15.036,0.018
53742.472493,14.567,0.007
53742.485315,14.545,0.007
53772.356884,14.601,0.009
53772.369654,14.622,0.009
53772.382474,14.676,0.009
53772.395452,14.688,0.009
53772.408479,14.728,0.009
53786.36438,14.978,0.015
53786.377486,14.994,0.018
53786.403914,14.983,0.04
53807.333048,14.984,0.026
53807.344191,14.996,0.024
53807.355326,15.001,0.026
53807.366466,14.962,0.024
53824.32354,14.584,0.013
53824.335104,14.622,0.01
53824.346781,14.64,0.01
53824.359332,14.697,0.012
53824.370878,14.73,0.016
53843.256014,14.667,0.013
53843.267253,14.713,0.015
53843.278456,14.72,0.017
53843.289668,14.762,0.017
53843.301507,14.805,0.018
53855.242952,14.955,0.016
53855.253111,14.892,0.015
53855.263356,14.781,0.015
53855.273551,14.662,0.013
53855.283635,14.6,0.012
53878.237125,15.001,0.021
53878.24792,14.99,0.021
53878.258619,14.985,0.021
53878.269621,14.984,0.021
53878.281428,14.949,0.021
53903.178177,14.578,0.015
53903.199308,14.635,0.016
53903.209648,14.691,0.016
53903.219444,14.701,0.016
53903.228969,14.719,0.016
53932.187889,14.772,0.035
53932.209467,14.826,0.031
54068.464618,14.963,0.018
54068.504843,14.585,0.012
54086.429664,15.03,0.021
54086.442975,15.002,0.021
54086.456804,15.03,0.02
54086.470092,15.004,0.02
54086.485151,14.888,0.018
54109.380427,14.817,0.036
54109.392298,14.818,0.036
54109.404146,14.847,0.048
54109.41599,14.863,0.051
54169.323952,14.797,0.011
54169.335644,14.854,0.013
54169.346866,14.883,0.013
54169.358101,14.929,0.015
54169.369402,14.979,0.013
54186.278174,14.983,0.018
54186.288389,14.928,0.018
54186.298692,14.871,0.016
54186.308864,14.758,0.016
54186.319054,14.63,0.015
54201.280706,14.99,0.009
54201.290628,14.988,0.009
54201.300914,15.015,0.011
54201.310736,14.999,0.011
54201.32033,15.006,0.011
54209.259718,14.978,0.038
54209.268629,14.999,0.033
54209.27777,15.024,0.033
54209.286598,15.019,0.026
54209.295394,15.001,0.025
54217.212532,14.881,0.03
54217.221174,14.929,0.024
54217.229826,14.968,0.024
54217.238487,14.926,0.022
54217.247156,15.014,0.022
54218.24079,14.601,0.026
54218.249658,14.59,0.025
54218.258827,14.537,0.025
54218.267565,14.566,0.025
54508.359901,14.882,0.015
54508.372603,14.905,0.015
54508.38464,14.945,0.015
54508.396744,14.976,0.015
54508.409015,14.993,0.015
54543.285548,14.936,0.035
54543.296317,14.976,0.033
54543.308831,14.951,0.033
54543.319448,14.876,0.031
54543.330366,14.838,0.03
54561.238092,14.929,0.021
54561.249711,14.979,0.021
54561.261241,15.025,0.023
54561.273796,15.065,0.026
54561.285221,15.089,0.033
54583.274328,14.575,0.02
54583.284649,14.616,0.02
54614.215606,14.762,0.021
54614.225904,14.672,0.02
54614.236375,14.584,0.018
54614.246792,14.562,0.018
54614.257021,14.572,0.02
