mjd,m,merr
52651.358414,15.288,0.023
52651.377778,15.322,0.02
52651.393366,15.314,0.02
52651.423686,15.403,0.021
52681.393863,15.359,0.021
52681.409133,15.338,0.023
52696.403473,15.717,0.03
52696.403589,15.647,0.026
52696.416959,15.675,0.028
52696.417075,15.687,0.026
52696.430618,15.723,0.038
52723.335284,15.229,0.025
52723.335887,15.193,0.026
52752.241353,15.664,0.03
52752.241466,15.575,0.026
52752.252049,15.604,0.03
52752.252161,15.604,0.028
52752.26307,15.62,0.028
52752.263183,15.591,0.026
52752.27371,15.662,0.03
52752.284443,15.676,0.031
52752.284555,15.635,0.03
52771.223503,15.689,0.05
52771.235147,15.569,0.046
52771.246858,15.579,0.048
52771.258688,15.411,0.043
52782.213836,15.64,0.081
52800.214416,15.613,0.083
52800.224785,15.603,0.085
52800.234969,15.68,0.091
52800.245092,15.684,0.089
52810.177349,15.541,0.028
52810.18731,15.594,0.039
52810.217199,15.589,0.03
52812.178172,15.547,0.028
52812.188408,15.559,0.03
52812.198745,15.593,0.03
52812.208972,15.621,0.031
52812.219409,15.589,0.03
52826.169554,15.554,0.041
52826.179392,15.546,0.041
52826.189386,15.587,0.043
52826.199396,15.555,0.043
52976.461156,15.791,0.028
52976.474482,15.736,0.026
52976.487663,15.705,0.024
52976.500987,15.582,0.02
52976.514068,15.472,0.018
52990.462142,15.774,0.038
52990.474733,15.712,0.028
52990.487353,15.663,0.026
52990.499947,15.538,0.023
52990.513031,15.421,0.021
53035.424437,15.613,0.025
53035.436699,15.577,0.021
53035.44908,15.618,0.021
53035.461399,15.623,0.021
53037.409381,15.604,0.023
53037.421734,15.605,0.023
53037.434138,15.623,0.023
53037.447123,15.616,0.021
53037.460572,15.576,0.023
53046.353922,15.793,0.035
53046.365868,15.77,0.035
53046.377882,15.714,0.033
53046.389983,15.703,0.035
53046.402028,15.766,0.035
53054.429132,15.773,0.022
53054.442839,15.747,0.022
53054.458732,15.627,0.02
53054.470631,15.553,0.02
53054.483635,15.469,0.018
53094.318772,15.638,0.02
53094.329211,15.654,0.022
53107.247628,15.321,0.015
53107.258879,15.344,0.017
53107.270073,15.384,0.017
53107.281339,15.382,0.017
53107.292556,15.42,0.017
53108.187249,15.687,0.024
53108.198444,15.698,0.026
53108.209707,15.711,0.026
53108.221001,15.726,0.026
53108.232302,15.737,0.026
53109.237321,15.327,0.017
53109.248383,15.344,0.017
53109.259496,15.383,0.017
53109.270628,15.37,0.017
53109.281717,15.428,0.018
53127.263946,15.366,0.044
53127.273902,15.373,0.044
53127.283934,15.38,0.048
53136.240853,15.698,0.03
53136.250223,15.699,0.03
53136.259586,15.7,0.03
53136.26896,15.681,0.03
53136.278227,15.69,0.03
53154.20966,15.62,0.043
53154.21851,15.644,0.043
53154.22738,15.654,0.044
53154.236188,15.672,0.046
53154.245101,15.685,0.046
53164.176346,15.664,0.026
53164.186558,15.675,0.024
53164.196774,15.651,0.028
53164.206994,15.656,0.026
53164.217232,15.662,0.026
53194.211105,15.669,0.078
53341.470312,15.643,0.046
53341.482383,15.611,0.044
53341.494457,15.691,0.046
53341.507041,15.667,0.043
53341.519118,15.685,0.043
53358.466126,15.368,0.02
53358.478764,15.372,0.02
53358.491396,15.403,0.02
53358.504029,15.382,0.018
53358.523624,15.42,0.02
53386.479023,15.313,0.018
53386.491985,15.341,0.018
53386.504941,15.323,0.018
53386.518269,15.391,0.02
53386.533217,15.36,0.02
53422.342138,15.46,0.043
53422.354126,15.474,0.043
53422.366105,15.401,0.041
53450.347029,15.432,0.031
53450.358418,15.416,0.03
53450.369581,15.34,0.028
53479.28679,15.564,0.046
53479.299683,15.542,0.046
53479.309999,15.546,0.046
53479.31984,15.682,0.052
53479.329327,15.622,0.05
53537.176298,15.484,0.055
53537.206527,15.497,0.057
53552.175138,15.765,0.043
53552.185312,15.763,0.043
53552.195725,15.715,0.043
53552.205918,15.759,0.044
53552.216567,15.752,0.044
53728.46315,15.523,0.026
53728.476501,15.531,0.028
53728.490319,15.573,0.028
53728.503755,15.594,0.033
53728.517041,15.6,0.031
53742.472047,15.484,0.017
53742.484868,15.514,0.017
53742.497832,15.548,0.017
53742.510893,15.553,0.017
53742.523854,15.564,0.017
53772.35605,15.393,0.02
53772.368817,15.41,0.022
53772.381637,15.417,0.02
53772.394611,15.406,0.02
53772.407604,15.46,0.022
53807.332044,15.737,0.052
53807.343189,15.721,0.052
53807.354325,15.732,0.052
53807.365465,15.674,0.048
53807.376727,15.734,0.052
53825.28677,15.673,0.023
53825.297876,15.697,0.028
53825.309012,15.684,0.023
53825.321076,15.685,0.023
53825.332257,15.702,0.025
53843.255477,15.675,0.033
53843.266718,15.671,0.035
53843.277918,15.733,0.041
53843.289127,15.703,0.041
53843.300968,15.691,0.041
53855.242466,15.658,0.03
53855.252621,15.685,0.031
53855.262869,15.728,0.033
53855.273061,15.707,0.031
53855.283147,15.697,0.031
53878.236653,15.245,0.028
53878.24745,15.196,0.026
53878.258151,15.257,0.026
53878.269152,15.258,0.028
53878.280957,15.278,0.028
53892.212552,15.339,0.055
53892.222614,15.3,0.054
53903.177377,15.66,0.04
53903.198764,15.682,0.038
53903.20918,15.713,0.04
53903.219013,15.697,0.038
53903.228546,15.714,0.041
53932.211255,15.385,0.04
54070.473426,15.736,0.035
54070.486422,15.771,0.035
54070.499431,15.775,0.035
54070.512479,15.77,0.035
54086.429023,15.634,0.038
54086.442321,15.66,0.038
54086.456165,15.702,0.038
54086.469453,15.693,0.036
54086.484513,15.67,0.036
54109.379853,15.743,0.089
54169.323256,15.822,0.028
54169.334951,15.845,0.031
54169.34617,15.831,0.031
54169.357406,15.842,0.033
54187.281172,15.77,0.043
54187.291815,15.79,0.045
54187.302643,15.874,0.048
54200.28343,15.561,0.026
54200.313949,15.558,0.02
54209.259362,15.762,0.099
54209.268272,15.694,0.051
54209.277411,15.711,0.059
54209.286238,15.769,0.049
54209.294994,15.758,0.041
54217.220574,15.649,0.046
54217.229225,15.654,0.044
54217.237884,15.652,0.044
54217.246554,15.752,0.048
54218.249042,15.496,0.056
54218.266947,15.42,0.054
54509.332025,15.324,0.023
54509.344098,15.322,0.023
54509.356107,15.299,0.023
54509.368146,15.333,0.023
54509.380771,15.352,0.023
54527.337411,15.317,0.023
54527.349549,15.329,0.023
54527.369341,15.348,0.025
54536.32092,15.675,0.03
54536.331928,15.683,0.03
54536.342939,15.71,0.03
54536.353888,15.751,0.031
54536.364792,15.711,0.028
54560.252517,15.672,0.036
54560.276066,15.735,0.038
54560.287545,15.735,0.038
54560.299028,15.758,0.038
54584.2425,15.61,0.036
54584.252499,15.646,0.038
54584.262517,15.631,0.036
54584.272804,15.677,0.038
54584.282783,15.68,0.038
