mjd,m,merr
52621.453275,16.414,0.061
52621.468359,16.421,0.061
52621.483672,16.471,0.061
52621.498526,16.443,0.059
52621.513486,16.429,0.058
52623.455688,16.089,0.059
52623.471361,16.156,0.067
52623.487218,16.035,0.072
52623.503132,16.142,0.055
52623.519022,16.142,0.067
52651.358544,16.149,0.049
52651.377908,16.149,0.041
52651.393497,16.221,0.043
52651.408643,16.262,0.046
52651.423817,16.293,0.049
52652.390019,16.031,0.039
52652.405069,16.076,0.037
52652.420499,16.086,0.033
52652.435697,16.154,0.035
52652.450949,16.214,0.037
52664.354294,16.377,0.05
52664.369543,15.887,0.044
52664.415384,15.641,0.091
52695.319282,16.537,0.059
52695.319401,16.523,0.063
52695.333072,16.476,0.054
52695.33319,16.45,0.058
52695.346848,16.59,0.086
52695.346967,16.617,0.092
52695.360647,16.675,0.097
52695.360767,16.516,0.089
52722.298707,15.666,0.025
52722.299309,15.538,0.03
52722.310725,15.745,0.026
52722.322838,15.822,0.028
52722.334852,15.86,0.031
52722.335455,15.75,0.038
52722.346863,15.959,0.035
52722.347466,15.761,0.038
52751.251904,15.693,0.031
52751.262681,15.783,0.031
52751.273414,15.828,0.033
52751.284809,15.883,0.035
52771.212004,15.661,0.068
52771.22362,15.571,0.044
52771.235264,15.578,0.044
52771.246976,15.66,0.048
52771.258803,15.776,0.054
52782.214049,16.673,0.221
52800.214912,15.847,0.087
52800.225239,15.872,0.087
52800.235427,15.909,0.096
52800.245543,16.026,0.107
52810.177436,15.627,0.03
52810.187403,15.649,0.037
52810.217287,15.814,0.037
52812.178259,16.434,0.059
52812.188496,16.513,0.067
52812.198833,16.489,0.065
52812.209059,16.542,0.067
52812.219501,16.554,0.07
52826.169732,16.293,0.076
52826.179577,16.304,0.078
52826.189564,16.375,0.085
52826.199579,16.382,0.085
52826.209439,16.415,0.1
52976.4613,15.778,0.028
52976.474626,15.563,0.022
52976.487808,15.537,0.02
52976.501131,15.627,0.022
52976.514213,15.675,0.022
52990.462532,16.592,0.068
52990.475862,16.483,0.054
52990.488939,16.467,0.052
52990.502142,16.489,0.054
52990.515171,16.438,0.057
52996.448821,16.019,0.025
52996.460877,15.779,0.018
52996.461551,15.724,0.018
52996.473921,15.601,0.015
52996.474957,15.521,0.015
52996.486882,15.608,0.015
52996.487729,15.607,0.015
52996.500054,15.706,0.017
52996.502131,15.677,0.016
52996.512985,15.766,0.017
53023.402135,15.976,0.026
53023.414962,16.043,0.028
53023.427642,16.103,0.026
53023.440321,16.13,0.028
53023.45301,16.136,0.028
53035.411992,15.64,0.038
53035.424662,15.633,0.025
53035.436941,15.699,0.025
53035.449306,15.712,0.025
53035.461623,15.816,0.026
53046.35404,16.524,0.068
53046.365986,16.441,0.063
53046.378,16.423,0.061
53046.390101,16.575,0.07
53046.402146,16.639,0.076
53094.287286,16.46,0.043
53094.297858,16.461,0.044
53094.308461,16.454,0.044
53094.318954,16.388,0.039
53094.329393,16.121,0.031
53096.266359,16.467,0.091
53096.276309,16.519,0.092
53096.286161,16.499,0.094
53096.305945,16.585,0.114
53107.247735,16.425,0.041
53107.258986,16.429,0.041
53107.270179,16.447,0.043
53107.281446,16.505,0.044
53107.292663,16.525,0.044
53110.237047,15.989,0.033
53110.248125,16.038,0.033
53110.259205,16.075,0.035
53110.270359,16.084,0.033
53110.281425,16.182,0.037
53112.239413,15.754,0.028
53112.250114,15.611,0.022
53112.260817,15.642,0.022
53112.271585,15.653,0.022
53112.282365,15.707,0.03
53127.264045,16.435,0.109
53127.274001,16.492,0.115
53127.284033,16.524,0.122
53136.240948,16.538,0.059
53136.250318,16.534,0.059
53136.25968,16.56,0.061
53136.269055,16.538,0.061
53136.278322,16.49,0.057
53154.209754,16.519,0.091
53154.218603,16.576,0.096
53154.227473,16.434,0.085
53154.236281,16.546,0.098
53154.245194,16.565,0.096
53164.176439,16.507,0.052
53164.186651,16.521,0.052
53164.196867,16.511,0.059
53164.207087,16.542,0.055
53164.217326,16.503,0.052
53330.470384,16.756,0.134
53330.498684,16.822,0.125
53341.470407,16.563,0.105
53341.482479,16.51,0.096
53341.494553,16.616,0.105
53341.507137,16.549,0.096
53341.519213,16.473,0.089
53358.409037,16.561,0.073
53358.423595,16.579,0.074
53358.438343,16.556,0.069
53358.452917,16.525,0.066
53358.467394,16.538,0.063
53401.394893,16.194,0.064
53422.342368,16.076,0.07
53422.354356,16.064,0.074
53422.366335,16.14,0.074
53422.378408,15.898,0.111
53450.336618,16.326,0.076
53450.347264,16.413,0.07
53450.358652,16.379,0.067
53450.369816,16.453,0.072
53479.286889,16.244,0.085
53479.299782,16.416,0.1
53479.3101,16.271,0.087
53479.319939,16.404,0.098
53479.329426,16.389,0.1
53537.176386,16.326,0.117
53537.206618,16.499,0.152
53552.175235,16.64,0.094
53552.185414,16.615,0.091
53552.195822,16.426,0.08
53552.206015,16.056,0.054
53552.216664,15.791,0.044
53566.20656,16.684,0.167
53566.217394,16.543,0.15
53566.228078,16.632,0.183
53566.238705,16.675,0.194
53728.463272,16.542,0.065
53728.476624,16.514,0.07
53728.490443,16.454,0.061
53728.503878,16.071,0.05
53728.517163,15.701,0.035
53772.356336,16.206,0.043
53772.369104,16.2,0.041
53772.381924,16.233,0.043
53772.394898,16.241,0.041
53772.407889,16.268,0.043
53825.286916,16.537,0.051
53825.298022,16.609,0.064
53825.30916,16.575,0.051
53825.321224,16.425,0.045
53825.332404,16.178,0.038
53826.290216,16.522,0.054
53826.314655,16.498,0.05
53826.326142,16.496,0.052
53842.248916,15.742,0.045
53842.260501,15.771,0.046
53842.272072,15.866,0.053
53842.295405,15.949,0.058
53855.242564,16.499,0.063
53855.25272,16.434,0.061
53855.262967,16.481,0.063
53855.273159,16.496,0.064
53855.283245,16.618,0.071
53878.236813,16.33,0.071
53878.24761,16.43,0.076
53878.258309,16.434,0.076
53878.269312,16.44,0.079
53878.281116,16.434,0.078
53892.212739,15.594,0.07
53892.222795,15.719,0.076
53892.232875,15.754,0.081
53892.242934,15.799,0.091
53892.252991,15.837,0.096
53903.177492,16.528,0.083
53903.198848,16.612,0.096
53903.209264,16.596,0.086
53903.219097,16.395,0.071
53903.228631,16.102,0.054
53932.187741,15.95,0.096
53932.211529,15.684,0.051
54070.460351,16.598,0.078
54070.473743,16.641,0.079
54070.486738,16.611,0.076
54070.499747,16.635,0.078
54070.512794,16.675,0.083
54086.429144,15.707,0.04
54086.442443,15.772,0.041
54086.456287,15.858,0.043
54086.469576,15.989,0.049
54086.484635,15.965,0.048
54109.391838,16.404,0.14
54140.342217,16.456,0.064
54140.354673,16.454,0.063
54140.366707,16.509,0.066
54140.378753,16.543,0.068
54140.390901,16.577,0.073
54187.281307,16.552,0.092
54187.291947,16.647,0.101
54187.30278,16.533,0.089
54200.28357,16.332,0.043
54200.314089,16.443,0.044
54210.261591,16.235,0.046
54210.270469,16.311,0.048
54210.279347,16.337,0.051
54210.288215,16.353,0.053
54210.297108,16.345,0.053
54218.230447,16.769,0.198
54218.239032,16.458,0.118
54218.247627,16.564,0.126
54218.256208,16.539,0.12
54218.264884,16.59,0.128
54481.405695,16.745,0.092
54481.442412,16.791,0.083
54509.332189,16.472,0.053
54509.344262,16.461,0.053
54509.35627,16.488,0.053
54509.368309,16.454,0.051
54509.380962,16.404,0.051
54527.338288,16.552,0.056
54527.349859,16.584,0.058
54536.321072,16.556,0.059
54536.332078,16.355,0.049
54536.343089,15.939,0.036
54536.354038,15.698,0.03
54536.36494,15.575,0.028
54544.304701,15.667,0.048
54560.25279,16.345,0.063
54560.26446,16.358,0.064
54560.276337,16.398,0.064
54560.287815,16.433,0.066
54560.299298,16.474,0.069
54584.242626,15.826,0.043
54584.252625,15.665,0.04
54584.262643,15.588,0.036
54584.272931,15.634,0.036
54584.282909,15.671,0.038
54615.214877,16.668,0.117
54615.235913,16.648,0.119
54615.246157,16.597,0.112
54615.256391,16.592,0.116
