mjd,m,merr
52636.433626,15.154,0.02
52636.447877,15.14,0.02
52636.490051,15.229,0.02
52653.393454,15.656,0.033
52653.40857,15.676,0.03
52653.423697,15.678,0.03
52653.43882,15.671,0.026
52653.453946,15.707,0.024
52695.337842,15.214,0.017
52695.356729,15.243,0.022
52722.347639,15.147,0.015
52722.360825,15.19,0.015
52722.373369,15.219,0.015
52722.386392,15.268,0.017
52722.39889,15.288,0.018
52751.258175,15.825,0.03
52751.26889,15.862,0.03
52751.279656,15.857,0.03
52751.290951,15.855,0.03
52751.303796,15.893,0.031
52772.246695,15.124,0.041
52781.212636,15.236,0.018
52781.223406,15.159,0.017
52781.234045,15.131,0.017
52781.244826,15.169,0.017
52781.255456,15.149,0.018
52801.168942,15.692,0.112
52809.185759,15.55,0.031
52809.215781,15.578,0.033
52827.16934,15.572,0.055
52827.179261,15.615,0.059
52830.167811,15.704,0.071
52830.188138,15.699,0.076
52978.452944,15.674,0.035
52978.465793,15.71,0.031
52978.478692,15.686,0.028
52978.491407,15.723,0.03
52978.504181,15.787,0.03
53008.405889,15.878,0.041
53008.418697,15.787,0.037
53008.431304,15.695,0.033
53008.443977,15.513,0.026
53008.45652,15.386,0.022
53038.40944,15.326,0.033
53038.433922,15.391,0.033
53045.350422,15.417,0.025
53045.362952,15.464,0.025
53045.37502,15.456,0.026
53045.399212,15.507,0.031
53096.271403,15.68,0.045
53096.281269,15.724,0.046
53096.291159,15.74,0.048
53096.30108,15.756,0.064
53096.310941,15.684,0.049
53125.2422,15.573,0.053
53125.251948,15.596,0.051
53125.261539,15.611,0.051
53125.271102,15.677,0.051
53134.27426,15.623,0.025
53155.221759,15.719,0.061
53155.23023,15.769,0.061
53155.238617,15.782,0.061
53155.247056,15.788,0.061
53169.177332,15.648,0.03
53169.187117,15.529,0.026
53169.196912,15.44,0.025
53169.206841,15.392,0.021
53169.216594,15.274,0.021
53193.185399,15.602,0.033
53193.194643,15.561,0.033
53340.465032,15.327,0.031
53340.480514,15.36,0.031
53340.510894,15.378,0.031
53401.356095,15.177,0.022
53401.368718,15.307,0.022
53401.381342,15.217,0.022
53401.394023,15.254,0.024
53421.350717,15.982,0.048
53421.362582,15.943,0.052
53421.374476,15.841,0.041
53421.386552,15.663,0.035
53421.398432,15.484,0.03
53430.366506,15.854,0.037
53430.392598,15.591,0.03
53430.404404,15.486,0.026
53430.415761,15.365,0.024
53451.337307,15.397,0.028
53451.359123,15.415,0.028
53451.3699,15.434,0.028
53451.380926,15.47,0.03
53452.301261,15.645,0.05
53452.312099,15.584,0.083
53480.240365,15.867,0.072
53480.249312,15.886,0.067
53480.258756,15.807,0.061
53480.267697,15.78,0.059
53490.247735,15.549,0.022
53490.259797,15.545,0.022
53490.270769,15.587,0.024
53490.282018,15.624,0.024
53490.293818,15.598,0.024
53536.175206,15.79,0.057
53536.185154,15.856,0.061
53536.195174,15.851,0.061
53536.205215,15.873,0.065
53536.215249,15.776,0.068
53697.476725,15.602,0.048
53697.489659,15.568,0.043
53697.502868,15.609,0.044
53697.516174,15.637,0.044
53726.484363,15.503,0.033
53726.497779,15.494,0.033
53726.511578,15.535,0.033
53726.524934,15.589,0.035
53773.414174,15.273,0.017
53773.427226,15.112,0.015
53773.439866,15.111,0.015
53773.452447,15.134,0.015
53773.465424,15.297,0.017
53774.345103,15.574,0.031
53774.357942,15.556,0.033
53774.37248,15.571,0.03
53774.386168,15.616,0.031
53774.39971,15.57,0.03
53802.364156,15.791,0.03
53802.376263,15.791,0.028
53802.388573,15.774,0.028
53802.400721,15.794,0.036
53802.412763,15.799,0.03
53806.31955,15.693,0.054
53806.330959,15.703,0.054
53806.342331,15.706,0.052
53806.35362,15.766,0.054
53806.364873,15.777,0.055
53826.286715,15.487,0.018
53826.319014,15.531,0.02
53826.329753,15.523,0.021
53827.304803,15.759,0.023
53827.315791,15.798,0.023
53827.338633,15.81,0.023
53827.349611,15.812,0.025
53842.247017,15.587,0.037
53842.25903,15.622,0.041
53842.270777,15.652,0.043
53842.29377,15.671,0.044
53857.280037,15.26,0.018
53904.177562,15.65,0.023
53904.188091,15.655,0.025
53904.208328,15.695,0.025
53933.164904,15.721,0.039
53933.175588,15.715,0.039
53933.18627,15.728,0.041
53933.207776,15.75,0.05
54080.471633,15.433,0.03
54108.422181,15.577,0.058
54125.377598,15.301,0.021
54125.38944,15.117,0.02
54140.360465,15.811,0.028
54140.372812,15.838,0.03
54140.384678,15.804,0.028
54140.396889,15.816,0.028
54140.4092,15.836,0.031
54188.272677,15.671,0.054
54188.282598,15.643,0.054
54188.292579,15.718,0.054
54188.302304,15.686,0.054
54188.312126,15.811,0.058
54212.257911,15.485,0.028
54212.266389,15.5,0.028
54212.275046,15.536,0.03
54212.28348,15.517,0.03
54212.292208,15.521,0.028
54436.456904,15.512,0.03
54525.339548,15.433,0.016
54525.362758,15.485,0.018
54525.374093,15.516,0.023
54555.250672,15.579,0.033
54555.274081,15.571,0.031
54558.295266,15.728,0.049
54570.255692,15.148,0.025
54570.266599,15.161,0.025
54570.28915,15.327,0.025
54585.238771,15.704,0.056
54585.24881,15.747,0.045
54585.258936,15.689,0.04
54585.268974,15.715,0.049
54585.279085,15.755,0.035
54618.211382,15.468,0.038
54618.221744,15.495,0.038
54618.232104,15.513,0.041
54618.242443,15.562,0.041
54618.253293,15.568,0.043
