mjd,m,merr
52602.33001,15.65,0.064
52602.34503,15.677,0.064
52602.359391,15.609,0.059
52602.373808,15.635,0.059
52602.38829,15.546,0.054
52620.397418,15.74,0.061
52620.41327,15.771,0.033
52620.429081,15.945,0.033
52620.44425,16.017,0.035
52636.30592,16.0,0.043
52636.320384,15.955,0.043
52636.334835,15.819,0.038
52636.3493,15.806,0.038
52636.36374,15.756,0.038
52653.310724,15.892,0.043
52653.32578,15.792,0.043
52653.340641,15.784,0.036
52653.355514,15.74,0.038
52653.37044,15.831,0.041
52660.315034,15.974,0.058
52660.330442,15.72,0.053
52660.361054,15.704,0.058
52680.237452,15.914,0.038
52680.25531,15.826,0.035
52680.271329,15.798,0.033
52680.287349,15.762,0.033
52680.303111,15.754,0.04
52684.296138,15.964,0.078
52684.311343,15.972,0.076
52684.326284,15.891,0.071
52684.341389,15.861,0.074
52693.261497,15.904,0.028
52693.262167,15.981,0.028
52693.276808,15.824,0.028
52693.277458,15.913,0.028
52693.293409,15.728,0.024
52693.294073,15.835,0.026
52693.309049,15.709,0.024
52693.3097,15.757,0.024
52693.324577,15.676,0.024
52693.325222,15.751,0.024
52712.177182,15.931,0.074
52721.181788,16.009,0.03
52721.19459,15.916,0.028
52721.207355,15.822,0.024
52721.220227,15.756,0.024
52721.232972,15.711,0.022
52750.13409,15.74,0.033
52750.144689,15.699,0.031
52750.155292,15.694,0.026
52750.165908,15.69,0.026
52750.176517,15.761,0.028
52770.147065,15.935,0.059
52770.158677,15.931,0.059
52770.170259,15.844,0.055
52770.181996,15.78,0.052
52770.193729,15.823,0.055
52927.431762,15.767,0.063
52927.443337,15.702,0.059
52927.455198,15.757,0.061
52927.466855,15.663,0.054
52927.478333,15.713,0.054
52948.391602,15.78,0.039
52948.403674,15.828,0.037
52948.415789,15.93,0.039
52948.427808,16.003,0.039
52948.439886,16.015,0.037
52978.350448,15.795,0.041
52978.370757,15.756,0.038
52978.386141,15.715,0.036
52978.399135,15.78,0.038
52978.414572,15.829,0.038
52988.305225,15.921,0.036
52988.316681,15.851,0.035
52988.317569,15.864,0.033
52988.328189,15.798,0.031
52988.329579,15.826,0.033
52988.341027,15.78,0.031
52994.389307,15.736,0.02
52994.40203,15.787,0.031
52994.414856,15.853,0.018
52994.42837,15.932,0.025
52994.441437,15.986,0.025
53008.370643,15.846,0.041
53008.384488,15.779,0.04
53038.300825,15.781,0.041
53038.314168,15.817,0.041
53038.330343,15.865,0.044
53038.345638,15.911,0.057
53045.216628,15.851,0.033
53045.227913,15.978,0.039
53045.239288,15.983,0.037
53045.262517,15.889,0.035
53045.273845,15.883,0.035
53045.285426,15.838,0.035
53045.297164,15.745,0.033
53045.309542,15.733,0.033
53065.219147,15.759,0.031
53065.231144,15.734,0.031
53065.243046,15.767,0.031
53065.254792,15.779,0.033
53065.266317,15.812,0.031
53093.185735,15.82,0.046
53093.196158,15.93,0.057
53093.217089,15.988,0.039
53108.191642,15.787,0.031
53108.202842,15.871,0.033
53108.214125,15.909,0.035
53108.2254,15.976,0.037
53108.236699,15.966,0.037
53125.147317,15.753,0.081
53125.15732,15.836,0.087
53125.168038,15.927,0.105
53125.178334,16.074,0.126
53134.150788,15.938,0.043
53134.160258,15.961,0.046
53134.169735,16.026,0.044
53134.179219,16.049,0.046
53134.188703,16.073,0.057
53263.405995,15.823,0.039
53263.40652,15.869,0.039
53263.418243,15.807,0.035
53263.429892,15.805,0.031
53263.441539,15.732,0.03
53263.453316,15.72,0.03
53290.445288,16.013,0.048
53290.456489,16.085,0.051
53290.478797,16.056,0.049
53294.415173,15.963,0.031
53294.4262,15.887,0.03
53294.437207,15.882,0.03
53294.448228,15.825,0.028
53294.459236,15.817,0.026
53301.430039,15.912,0.037
53301.44171,15.816,0.035
53301.453439,15.834,0.035
53301.465107,15.765,0.033
53301.476782,15.76,0.033
53303.432648,15.76,0.041
53303.444511,15.715,0.035
53303.456376,15.743,0.031
53303.46824,15.759,0.07
53303.480195,15.857,0.057
53312.377716,15.933,0.067
53312.389605,15.819,0.067
53312.38991,15.88,0.063
53312.401956,15.867,0.061
53312.413995,15.88,0.061
53312.426057,15.857,0.059
53319.400204,15.786,0.033
53319.4008,15.855,0.033
53319.412298,15.754,0.031
53319.412894,15.786,0.031
53319.424386,15.702,0.03
53319.424983,15.777,0.03
53319.436494,15.704,0.03
53319.437092,15.744,0.03
53319.449182,15.769,0.03
53329.437999,15.917,0.035
53329.438746,15.959,0.041
53329.451152,16.039,0.037
53329.463987,16.062,0.039
53329.476331,15.964,0.035
53329.48869,15.865,0.031
53340.328576,15.961,0.083
53340.340796,15.924,0.081
53340.353024,16.125,0.094
53349.398078,15.997,0.041
53349.410174,15.866,0.037
53349.424049,15.847,0.035
53349.436632,15.8,0.035
53349.448708,15.761,0.033
53355.432211,15.93,0.03
53355.444173,15.775,0.028
53355.445075,15.875,0.028
53355.457031,15.733,0.026
53355.457924,15.812,0.026
53359.327911,15.91,0.038
53359.343991,15.948,0.038
53359.36002,15.882,0.035
53359.376067,15.82,0.031
53359.392184,15.757,0.03
53362.348704,15.544,0.083
53362.390633,15.7,0.066
53362.404164,15.864,0.049
53389.417886,15.741,0.026
53389.430876,15.699,0.026
53389.443841,15.728,0.026
53389.456872,15.769,0.028
53389.469877,15.847,0.03
53461.179578,15.922,0.035
53461.180086,16.004,0.035
53461.189963,15.951,0.037
53461.19047,15.992,0.035
53461.200285,15.949,0.035
53461.20079,15.985,0.035
53461.21078,15.855,0.033
53461.211301,15.946,0.033
53461.221381,15.776,0.031
53461.221901,15.886,0.033
53489.145951,15.809,0.031
53489.146979,15.852,0.033
53489.156278,15.741,0.033
53489.157332,15.844,0.035
53489.166412,15.679,0.033
53489.167502,15.758,0.033
53489.186919,15.702,0.1
53489.187952,15.694,0.117
53635.421855,15.96,0.091
53635.432287,15.986,0.091
53635.433427,15.822,0.074
53635.442708,15.965,0.091
53635.443848,15.804,0.08
53635.453142,15.855,0.078
53635.454283,15.787,0.07
53635.463568,15.961,0.091
53686.390946,15.799,0.035
53686.403533,15.722,0.03
53686.416122,15.744,0.026
53686.428748,15.734,0.024
53686.441253,15.755,0.024
53696.391329,15.756,0.041
53696.392648,15.767,0.041
53696.404505,15.823,0.043
53696.417652,15.869,0.05
53725.335604,16.011,0.052
53725.336945,16.084,0.063
53725.34875,16.035,0.044
53725.350091,16.102,0.044
53725.361798,15.94,0.039
53725.36316,16.0,0.041
53725.374909,15.869,0.037
53725.376249,15.907,0.037
53725.389254,15.874,0.039
53755.278183,15.757,0.035
53755.290895,15.745,0.033
53755.303631,15.813,0.035
53755.316524,15.815,0.035
53755.329185,15.889,0.037
53774.284889,15.945,0.054
53774.297359,16.029,0.05
53774.310012,16.057,0.05
53774.322581,15.915,0.046
53774.335156,15.876,0.044
53833.171041,15.616,0.058
53833.181044,15.655,0.061
53833.191129,15.719,0.064
53858.144987,15.875,0.054
53864.164186,16.026,0.097
53864.173842,15.989,0.089
53876.150683,16.013,0.071
53876.16149,16.003,0.068
53876.172541,15.97,0.061
53876.183599,15.945,0.063
54051.41693,16.036,0.08
54051.429108,15.973,0.065
54051.441299,15.882,0.046
54051.453512,15.822,0.035
54072.324122,15.867,0.073
54072.339946,15.727,0.059
54072.354686,15.746,0.059
54072.368125,15.781,0.063
54072.381171,15.915,0.069
54079.304549,15.898,0.05
54079.304858,16.048,0.055
54079.316517,15.829,0.046
54079.316826,15.868,0.048
54079.328416,15.802,0.044
54079.328726,15.833,0.044
54079.340622,15.794,0.044
54079.352528,15.754,0.043
54108.269493,15.749,0.033
54108.282083,15.773,0.033
54108.294707,15.855,0.037
54108.307358,15.95,0.039
54108.320031,16.081,0.044
54125.26312,15.889,0.035
54125.274819,15.916,0.036
54125.287227,15.988,0.036
54125.298825,16.057,0.038
54125.310392,16.024,0.04
54139.267772,15.791,0.03
54139.279558,15.788,0.031
54139.291008,15.827,0.048
54139.302455,15.886,0.045
54139.315681,15.976,0.048
54167.23965,16.056,0.053
54167.240705,15.952,0.048
54167.25097,16.147,0.061
54167.251924,16.014,0.054
54167.262056,16.082,0.063
54167.263013,15.914,0.053
54167.27324,16.05,0.074
54406.448662,16.275,0.051
54418.436083,15.814,0.028
54418.47256,15.876,0.03
54436.382216,15.855,0.04
54436.394589,15.824,0.031
54465.323537,15.965,0.043
54465.336021,15.927,0.043
54465.348411,15.997,0.045
54465.360806,16.005,0.046
54465.373402,16.012,0.048
54483.270503,15.844,0.048
54483.282573,15.903,0.048
54483.294839,15.924,0.048
54483.307014,16.084,0.053
54483.319274,15.997,0.051
54496.34009,15.874,0.038
54496.352362,15.97,0.041
54496.367197,16.009,0.043
54496.379502,15.946,0.041
54496.391501,15.887,0.038
54524.221397,15.806,0.038
54524.232786,15.868,0.035
54524.244277,15.86,0.041
54524.25591,15.892,0.049
54524.267561,15.996,0.045
54539.207099,15.829,0.045
54539.217942,15.793,0.043
54539.22849,15.891,0.045
54539.239035,15.861,0.051
54539.249885,15.899,0.048
54571.184222,15.798,0.069
54571.195431,15.786,0.068
54571.206354,15.771,0.071
54571.217288,15.716,0.066
54571.228212,15.766,0.063
54587.14708,16.011,0.071
54587.157173,15.951,0.068
54587.167357,15.836,0.059
54587.17912,15.843,0.064
54587.190332,15.807,0.068
