mjd,m,merr
52643.450323,15.566,0.028
52643.464276,15.562,0.026
52643.478169,15.582,0.026
52643.492519,15.603,0.024
52643.506833,15.645,0.026
52647.467824,15.576,0.031
52647.482662,15.601,0.031
52647.49743,15.607,0.031
52647.526369,15.111,0.524
52668.50988,15.242,0.024
52668.525069,15.269,0.02
52670.464042,15.436,0.026
52670.478047,15.518,0.026
52670.492054,15.566,0.028
52670.506076,15.539,0.028
52670.520106,15.573,0.028
52673.377864,15.448,0.024
52673.393109,15.489,0.024
52673.40833,15.559,0.024
52673.423723,15.648,0.026
52673.439238,15.583,0.026
52705.378493,15.34,0.02
52705.391733,15.289,0.02
52705.405126,15.271,0.02
52705.418733,15.295,0.022
52705.432015,15.305,0.022
52708.371748,15.305,0.02
52708.385413,15.3,0.02
52708.399008,15.316,0.02
52708.413342,15.371,0.022
52708.427479,15.343,0.024
52729.293146,15.443,0.022
52729.30477,15.483,0.024
52729.316418,15.491,0.024
52729.328017,15.54,0.026
52729.339652,15.558,0.026
52731.318748,15.385,0.022
52731.330725,15.364,0.03
52731.342745,15.307,0.028
52734.316538,15.357,0.063
52736.253739,15.482,0.026
52736.265649,15.486,0.026
52736.277455,15.511,0.026
52736.289265,15.561,0.028
52736.301888,15.587,0.028
52757.215227,15.634,0.03
52757.227097,15.61,0.03
52757.238956,15.61,0.028
52757.250768,15.576,0.03
52757.262635,15.464,0.026
52765.186055,15.569,0.026
52765.198599,15.578,0.054
52793.249677,15.417,0.033
52793.259666,15.454,0.035
52793.269654,15.459,0.037
52793.279658,15.471,0.041
52793.289643,15.572,0.044
52996.467607,15.345,0.018
52996.481063,15.333,0.016
52996.495469,15.381,0.016
52996.508291,15.389,0.016
53028.439752,15.626,0.021
53028.467419,15.582,0.016
53028.487008,15.505,0.097
53032.402495,15.583,0.018
53032.414836,15.624,0.02
53032.427681,15.642,0.02
53032.44021,15.635,0.02
53032.452611,15.667,0.02
53054.358399,15.631,0.018
53054.370183,15.654,0.018
53054.381972,15.646,0.018
53054.39402,15.628,0.018
53054.406122,15.619,0.018
53060.360156,15.243,0.013
53060.371974,15.242,0.013
53060.384243,15.266,0.013
53060.396101,15.274,0.015
53060.408124,15.312,0.015
53080.288241,15.624,0.026
53080.29962,15.607,0.026
53080.310851,15.63,0.025
53080.321962,15.637,0.025
53080.333381,15.62,0.025
53082.354038,15.269,0.013
53082.365222,15.31,0.015
53082.377046,15.322,0.015
53082.388445,15.365,0.016
53082.400159,15.392,0.016
53084.353883,15.617,0.018
53084.36514,15.623,0.016
53084.376335,15.617,0.018
53084.388067,15.558,0.016
53084.399189,15.519,0.016
53091.331534,15.616,0.018
53091.34168,15.54,0.016
53091.352314,15.496,0.016
53091.362177,15.437,0.016
53091.371931,15.387,0.016
53095.273912,15.603,0.033
53095.283935,15.642,0.035
53095.294376,15.617,0.033
53095.304468,15.617,0.033
53095.314709,15.627,0.033
53111.243771,15.358,0.025
53111.255681,15.392,0.025
53111.267055,15.428,0.025
53111.28052,15.436,0.025
53111.292316,15.469,0.026
53113.339358,15.233,0.031
53115.307277,15.391,0.018
53115.318107,15.455,0.018
53115.328807,15.463,0.018
53115.339893,15.496,0.02
53115.3508,15.494,0.02
53139.201603,15.666,0.031
53139.211526,15.626,0.03
53139.221184,15.615,0.03
53139.230363,15.564,0.03
53139.239508,15.506,0.028
53141.274569,15.459,0.021
53141.283611,15.519,0.023
53141.292698,15.581,0.023
53141.301761,15.549,0.025
53143.289038,15.318,0.018
53143.298488,15.358,0.018
53143.307758,15.297,0.018
53143.316783,15.261,0.018
53143.325889,15.263,0.018
53168.169985,15.301,0.026
53168.180007,15.285,0.026
53168.190026,15.267,0.026
53168.200045,15.266,0.026
53168.210121,15.246,0.026
53170.172196,15.508,0.021
53170.182575,15.502,0.023
53170.19256,15.509,0.025
53170.202493,15.487,0.025
53170.21268,15.505,0.025
53172.170445,15.267,0.02
53172.180417,15.293,0.02
53172.19053,15.2,0.021
53172.210685,15.216,0.021
53353.467241,15.296,0.033
53353.480651,15.353,0.03
53353.493493,15.322,0.028
53353.506337,15.3,0.026
53353.51976,15.264,0.024
53383.420095,15.461,0.03
53383.433415,15.426,0.028
53383.44674,15.338,0.024
53383.460077,15.289,0.024
53383.474702,15.241,0.022
53403.428395,15.469,0.046
53403.468586,15.528,0.043
53403.482405,15.524,0.043
53436.317567,15.574,0.024
53436.328957,15.6,0.026
53436.340959,15.609,0.024
53436.352368,15.64,0.026
53436.363764,15.594,0.024
53464.341901,15.336,0.026
53464.351994,15.338,0.026
53464.36258,15.381,0.026
53464.37272,15.38,0.022
53464.38282,15.442,0.026
53467.278778,15.395,0.026
53467.28836,15.339,0.033
53467.298866,15.313,0.046
53467.309055,15.485,0.024
53467.319266,15.48,0.028
53467.388355,15.564,0.039
53467.407709,15.664,0.041
53467.417357,15.669,0.043
53467.426899,15.661,0.07
53478.284669,15.484,0.046
53478.293648,15.534,0.048
53478.303001,15.569,0.05
53478.311993,15.58,0.052
53495.254221,15.57,0.061
53495.264325,15.602,0.065
53495.284482,15.452,0.072
53495.294537,15.336,0.124
53506.203557,15.623,0.046
53506.222652,15.647,0.046
53506.232191,15.568,0.043
53525.171128,15.584,0.035
53525.19148,15.651,0.037
53525.201686,15.633,0.039
53525.211832,15.608,0.037
53745.401225,15.201,0.037
53745.414524,15.309,0.037
53745.42756,15.3,0.035
53745.440912,15.291,0.031
53745.45439,15.365,0.03
53758.476223,15.424,0.03
53758.489119,15.369,0.03
53758.501761,15.316,0.03
53758.514659,15.264,0.028
53789.405465,15.506,0.03
53789.441592,15.715,0.063
53792.402502,15.62,0.035
53792.414436,15.626,0.035
53792.426366,15.599,0.043
53792.438302,15.609,0.052
53815.346259,15.544,0.03
53815.357873,15.521,0.03
53815.369586,15.516,0.031
53815.381548,15.564,0.033
53815.393068,15.614,0.035
53821.380717,15.356,0.061
53824.395733,15.339,0.043
53824.408991,15.375,0.028
53824.420727,15.369,0.03
53828.362289,15.239,0.028
53828.373514,15.246,0.031
53828.399547,15.243,0.098
53831.283922,15.272,0.024
53831.304585,15.341,0.026
53831.31556,15.313,0.026
53831.325944,15.323,0.026
53834.275617,15.248,0.041
53834.305833,15.402,0.044
53834.315663,15.461,0.048
53846.29885,15.259,0.031
53846.309864,15.279,0.03
53846.320879,15.331,0.031
53846.331885,15.354,0.031
53846.342906,15.363,0.031
53848.257418,15.579,0.028
53848.27929,15.585,0.028
53848.290206,15.612,0.03
53851.294869,15.594,0.033
53851.315703,15.477,0.031
53851.326193,15.374,0.031
53851.336661,15.39,0.03
53857.325239,15.354,0.031
53857.33557,15.464,0.035
53857.34589,15.464,0.037
53857.356682,15.447,0.05
53879.216836,15.298,0.018
53879.230473,15.348,0.02
53879.242796,15.386,0.02
53879.255272,15.352,0.02
53879.267242,15.411,0.021
53885.21102,15.633,0.031
53885.223565,15.647,0.031
53885.235873,15.677,0.033
53885.24811,15.604,0.031
53885.260888,15.614,0.033
54148.351413,15.587,0.024
54148.363482,15.601,0.024
54148.375614,15.618,0.026
54148.387866,15.657,0.026
54148.399946,15.664,0.026
54158.341505,15.614,0.031
54158.353188,15.552,0.03
54158.364927,15.464,0.026
54158.376708,15.401,0.024
54158.388429,15.337,0.024
54174.326526,15.623,0.028
54174.337226,15.667,0.105
54174.34794,15.622,0.026
54174.358621,15.676,0.03
54174.369358,15.634,0.026
54176.321023,15.266,0.02
54176.331777,15.252,0.021
54176.342565,15.283,0.02
54176.3534,15.273,0.02
54176.364285,15.257,0.02
54177.347235,15.572,0.026
54177.359048,15.528,0.041
54177.371536,15.45,0.024
54177.383295,15.431,0.02
54177.394994,15.358,0.02
54180.386185,15.258,0.028
54180.396957,15.31,0.033
54180.407548,15.281,0.02
54180.418364,15.295,0.02
54180.42884,15.299,0.022
54205.314076,15.416,0.022
54205.323597,15.421,0.022
54205.333934,15.48,0.022
54205.343488,15.498,0.022
54205.353015,15.507,0.022
54208.306855,15.565,0.024
54208.316088,15.594,0.024
54208.325433,15.619,0.024
54208.334673,15.614,0.028
54208.343928,15.64,0.026
54212.314685,15.604,0.028
54212.323805,15.567,0.026
54212.333169,15.589,0.026
54212.342449,15.568,0.028
54212.351821,15.604,0.03
54476.466322,15.284,0.028
54476.479453,15.3,0.028
54476.492913,15.273,0.026
54476.506386,15.347,0.028
54481.407447,15.638,0.024
54481.42048,15.661,0.033
54481.433521,15.608,0.028
54481.446573,15.613,0.024
54481.45977,15.563,0.024
54506.394471,15.289,0.017
54506.407476,15.213,0.015
54506.419814,15.225,0.015
54506.432155,15.207,0.015
54506.444504,15.276,0.017
54522.453231,15.347,0.024
54522.464937,15.262,0.024
54522.47666,15.185,0.024
54522.488474,15.103,0.022
54522.50024,15.137,0.022
54529.381101,15.38,0.017
54529.392669,15.349,0.015
54529.404232,15.332,0.015
54529.415707,15.287,0.015
54529.427184,15.242,0.013
54533.441794,15.308,0.025
54533.45297,15.277,0.023
54533.464079,15.27,0.025
54533.475817,15.264,0.023
54553.363007,15.566,0.024
54553.375105,15.577,0.024
54553.387157,15.608,0.026
54562.307249,15.234,0.013
54562.318761,15.196,0.013
54562.330325,15.116,0.013
54562.341857,15.156,0.013
54562.353367,15.205,0.013
54567.258713,15.705,0.038
54567.269749,15.719,0.04
54567.280798,15.717,0.04
54567.291956,15.682,0.038
54567.30315,15.725,0.04
54569.190924,15.568,0.026
54569.201954,15.544,0.024
54569.212918,15.5,0.022
54569.223887,15.409,0.02
54569.234861,15.324,0.018
54584.30082,15.26,0.017
54584.31143,15.296,0.018
54584.322041,15.324,0.018
54584.332663,15.317,0.02
54584.34327,15.366,0.022
54591.251992,15.282,0.02
54591.262151,15.319,0.02
54591.272314,15.303,0.022
54591.282478,15.332,0.022
54591.292637,15.33,0.022
54598.205914,15.284,0.031
54598.216439,15.3,0.031
54598.226951,15.322,0.031
54598.23747,15.345,0.033
54614.211977,15.317,0.018
54614.222016,15.312,0.018
54614.232024,15.286,0.018
54614.242021,15.256,0.018
54614.252031,15.273,0.018
54622.183111,15.612,0.033
54622.193342,15.582,0.035
54622.203567,15.496,0.03
54623.167823,15.595,0.051
54623.177964,15.547,0.051
54623.197945,15.62,0.058
54623.208201,15.624,0.066
