mjd,m,merr
52644.489845,15.905,0.033
52644.504745,16.04,0.05
52644.519589,16.046,0.054
52644.53437,15.984,0.041
52648.400498,15.706,0.035
52648.415551,15.793,0.039
52648.430239,15.918,0.041
52648.445575,16.055,0.043
52648.460984,16.016,0.039
52667.468498,15.759,0.031
52667.483746,15.868,0.035
52667.498976,15.937,0.039
52667.514173,16.078,0.043
52667.529579,15.943,0.037
52671.40215,15.727,0.028
52671.417509,15.848,0.03
52671.432691,15.998,0.035
52671.448032,16.069,0.037
52671.463391,15.957,0.033
52674.402412,15.654,0.026
52674.416407,15.7,0.028
52674.430414,15.775,0.03
52674.444379,15.884,0.037
52674.458216,15.999,0.035
52703.316296,15.688,0.033
52703.338278,15.814,0.035
52703.356453,15.946,0.045
52703.37208,16.046,0.064
52703.386855,15.772,0.109
52707.375104,15.641,0.024
52707.388277,15.633,0.024
52707.40147,15.695,0.026
52707.415517,15.777,0.03
52707.428812,15.873,0.033
52730.300713,16.023,0.038
52730.312728,15.98,0.036
52730.324745,15.822,0.031
52730.336769,15.723,0.03
52730.349558,15.736,0.035
52738.293946,15.933,0.031
52738.307364,16.085,0.035
52738.318875,16.087,0.035
52738.330353,15.951,0.031
52738.342248,15.857,0.028
52755.256591,16.002,0.041
52755.269453,16.015,0.041
52755.281654,15.864,0.038
52755.293816,15.746,0.035
52755.305762,15.693,0.035
52761.209249,15.716,0.037
52761.221282,15.673,0.05
52761.233439,15.657,0.031
52761.245451,15.673,0.028
52761.257537,15.697,0.028
52764.211062,15.874,0.036
52764.223014,15.742,0.031
52764.235054,15.695,0.03
52764.247202,15.63,0.028
52764.259179,15.61,0.026
52789.216355,15.62,0.035
52789.22723,15.598,0.035
52789.238075,15.659,0.035
52789.248726,15.692,0.036
52789.259451,15.706,0.035
52791.262533,16.086,0.073
52794.215028,15.652,0.031
52794.225048,15.666,0.033
52794.235066,15.715,0.033
52794.245202,15.747,0.037
52794.255292,15.802,0.041
52816.171652,15.665,0.046
52816.18197,15.69,0.046
52816.192065,15.718,0.049
52816.202344,15.798,0.059
52816.212431,15.936,0.076
52823.1915,16.067,0.064
52987.473788,15.823,0.068
52987.486743,15.956,0.067
52987.499718,15.985,0.059
52987.512567,15.921,0.044
52996.466854,15.723,0.022
52996.479812,15.675,0.02
52996.492765,15.633,0.018
52996.505898,15.626,0.018
52996.518853,15.685,0.02
53001.469201,15.672,0.02
53001.482587,15.624,0.018
53001.495642,15.593,0.017
53001.509788,15.645,0.018
53001.523073,15.702,0.018
53027.398019,15.703,0.02
53027.410864,15.746,0.022
53027.423437,15.898,0.026
53027.437185,15.951,0.026
53027.450137,15.884,0.024
53033.396318,15.636,0.031
53033.408563,15.633,0.026
53033.421075,15.664,0.026
53033.43317,15.685,0.026
53033.445335,15.725,0.028
53054.376811,15.957,0.028
53054.389353,15.842,0.024
53054.401366,15.766,0.022
53054.414021,15.696,0.022
53054.427651,15.661,0.022
53060.310776,15.746,0.018
53060.322902,15.667,0.017
53060.33562,15.634,0.017
53060.347081,15.648,0.017
53060.360238,15.698,0.018
53080.337963,15.732,0.024
53080.349452,15.813,0.026
53080.361065,15.932,0.03
53080.372564,16.008,0.031
53080.383972,16.086,0.033
53084.339893,15.86,0.02
53084.350516,15.799,0.018
53084.361313,15.723,0.017
53084.371947,15.683,0.017
53084.382882,15.625,0.017
53086.355689,15.637,0.021
53086.366667,15.688,0.023
53086.400027,15.798,0.023
53139.205191,15.787,0.031
53139.214498,15.936,0.035
53139.223795,15.99,0.039
53139.2331,16.036,0.039
53139.242564,16.068,0.041
53148.204704,15.731,0.026
53148.213653,15.699,0.026
53148.222605,15.69,0.028
53148.231561,15.656,0.026
53148.240544,15.662,0.024
53169.175251,15.96,0.037
53169.185374,16.057,0.043
53169.195468,16.052,0.041
53169.205571,16.073,0.043
53169.21568,15.918,0.035
53175.175267,15.678,0.022
53175.18525,15.674,0.02
53175.195291,15.743,0.022
53175.205213,15.762,0.022
53175.215139,15.836,0.024
53348.462057,16.017,0.055
53348.474517,16.096,0.061
53348.486971,15.996,0.052
53348.50126,15.902,0.044
53348.513988,15.805,0.037
53351.501439,16.083,0.061
53351.515835,15.934,0.053
53351.530154,15.858,0.048
53354.458198,15.676,0.033
53354.47097,15.695,0.031
53354.485115,15.761,0.033
53354.497942,15.84,0.033
53354.510897,15.993,0.039
53377.415467,15.729,0.031
53377.428634,15.682,0.03
53377.443082,15.668,0.028
53377.457191,15.663,0.028
53377.470311,15.702,0.028
53447.352286,15.67,0.024
53447.363114,15.723,0.024
53447.37351,15.721,0.12
53447.384349,15.844,0.028
53447.395738,15.995,0.037
53465.337258,15.666,0.028
53465.348018,15.672,0.028
53465.359711,15.698,0.028
53465.371161,15.729,0.028
53465.382193,15.821,0.031
53468.279708,16.062,0.078
53468.289246,16.098,0.059
53468.299219,16.09,0.083
53473.279594,16.086,0.043
53473.290974,16.071,0.043
53473.301399,15.954,0.039
53473.312558,15.802,0.033
53473.324519,15.762,0.033
53478.228152,15.745,0.052
53478.239708,15.792,0.052
53478.249781,15.846,0.054
53478.260448,16.002,0.063
53478.269503,15.992,0.063
53479.281224,15.675,0.057
53479.293549,15.808,0.065
53479.305833,15.96,0.074
53479.315735,16.004,0.078
53479.325567,16.138,0.089
53493.298253,15.771,0.039
53493.308595,15.653,0.035
53493.319319,15.654,0.041
53493.329382,15.636,0.033
53493.339358,15.651,0.033
53496.245343,15.799,0.037
53496.255517,15.843,0.041
53496.265587,15.978,0.044
53496.275634,16.07,0.05
53496.285784,16.075,0.048
53503.235076,16.055,0.037
53503.243708,16.084,0.039
53503.252605,15.997,0.035
53503.261645,15.934,0.033
53503.270865,15.848,0.031
53526.216872,15.925,0.046
53526.237729,16.107,0.052
53526.248073,16.041,0.048
53526.258459,15.981,0.048
53527.17121,15.906,0.041
53527.181514,15.801,0.037
53527.191412,15.748,0.035
53527.201169,15.723,0.035
53527.210966,15.659,0.033
53746.463884,15.716,0.043
53746.476306,15.778,0.043
53746.488997,15.844,0.041
53746.501454,15.967,0.043
53746.513976,16.048,0.041
53791.361063,15.691,0.025
53791.372897,15.662,0.023
53791.384658,15.68,0.025
53791.39627,15.718,0.026
53791.40815,15.741,0.026
53817.27239,15.77,0.026
53817.283644,15.764,0.025
53817.294923,15.876,0.028
53817.306259,16.002,0.031
53817.31763,16.08,0.035
53845.257589,15.622,0.081
53845.268822,15.741,0.045
53845.280064,15.821,0.043
53845.291278,15.961,0.045
53850.245379,15.691,0.035
53850.255728,15.736,0.035
53850.266048,15.804,0.036
53850.276353,15.89,0.04
53850.286759,15.978,0.045
53881.211875,15.779,0.036
53881.221879,15.707,0.035
53881.231987,15.652,0.036
53881.242129,15.637,0.035
53881.25214,15.668,0.036
53884.216939,15.89,0.044
53884.228524,15.738,0.039
53884.240095,15.677,0.037
53884.251678,15.677,0.039
53884.26327,15.642,0.039
53886.209018,15.832,0.045
53886.219038,15.698,0.038
53886.229121,15.684,0.038
53886.239328,15.661,0.038
53886.249298,15.786,0.043
53901.191182,15.649,0.054
53901.201191,15.701,0.054
53901.211239,15.637,0.061
53910.167854,15.733,0.046
53910.1781,15.74,0.044
53910.188388,15.84,0.05
53910.198596,15.948,0.055
53910.208816,16.1,0.083
53911.218992,15.675,0.083
53911.228577,15.746,0.124
53914.17202,15.927,0.078
53914.182497,15.847,0.063
54155.357943,15.671,0.022
54155.369772,15.625,0.02
54155.381615,15.607,0.02
54155.393571,15.665,0.022
54155.405411,15.676,0.022
54174.322863,15.69,0.031
54174.333515,15.771,0.056
54174.344181,15.817,0.033
54174.35509,15.974,0.041
54174.365791,16.074,0.041
54180.286747,15.886,0.031
54180.297208,15.832,0.03
54180.307778,15.751,0.028
54180.318297,15.684,0.026
54180.328845,15.681,0.026
54200.265673,15.842,0.083
54200.284771,15.647,0.036
54200.29421,15.628,0.054
54200.303658,15.668,0.048
54450.464451,15.968,0.03
54450.477605,16.1,0.031
54450.49077,16.034,0.028
54450.503955,15.909,0.024
54450.517118,15.806,0.02
54454.464942,15.678,0.022
54454.478288,15.642,0.022
54454.491322,15.634,0.02
54454.504348,15.635,0.022
54454.517367,15.697,0.022
54475.454268,16.014,0.026
54475.467367,15.894,0.022
54475.48028,15.771,0.02
54475.493148,15.689,0.018
54475.50602,15.668,0.018
54483.399322,15.689,0.039
54483.412575,15.784,0.039
54483.425672,15.784,0.033
54483.43858,15.894,0.031
54483.451478,16.043,0.033
54509.34047,16.007,0.024
54509.352518,15.85,0.018
54509.364561,15.796,0.018
54509.376603,15.704,0.017
54509.38869,15.667,0.017
54524.39642,15.691,0.02
54524.40848,15.724,0.022
54524.420163,15.8,0.024
54524.431884,15.922,0.028
54524.443719,16.058,0.031
54532.334517,15.995,0.022
54532.345928,15.89,0.02
54532.357238,15.819,0.018
54532.368494,15.745,0.02
54532.379754,15.688,0.017
54535.451282,15.791,0.035
54535.462169,15.761,0.031
54535.473052,15.812,0.033
54535.483998,15.945,0.038
54535.495059,15.965,0.041
54538.313819,15.69,0.018
54538.324937,15.731,0.018
54538.336032,15.772,0.018
54538.34718,15.846,0.02
54538.358204,15.966,0.022
54543.248143,15.787,0.041
54543.258963,15.737,0.039
54543.269743,15.708,0.035
54555.353553,15.793,0.02
54555.365405,15.742,0.018
54555.37726,15.696,0.018
54555.389121,15.659,0.018
54555.400974,15.673,0.02
54558.236371,15.709,0.046
54558.247959,15.686,0.044
54558.25953,15.691,0.041
54558.271232,15.656,0.026
54558.282808,15.732,0.041
54580.246464,15.772,0.031
54580.257065,15.851,0.035
54580.267661,15.968,0.041
54580.278263,16.063,0.044
54580.288928,16.023,0.043
54586.244397,15.675,0.024
54586.254813,15.674,0.024
54586.26515,15.664,0.024
54586.275553,15.691,0.024
54586.285893,15.738,0.026
54594.253989,15.697,0.026
54594.264278,15.677,0.026
54594.274593,15.671,0.026
54594.284866,15.645,0.026
54594.295143,15.69,0.028
54611.209788,15.659,0.02
54611.219676,15.645,0.02
54611.229538,15.649,0.022
54611.239545,15.668,0.022
54611.249331,15.708,0.024
54618.209716,15.752,0.026
54618.219934,15.809,0.026
54618.230149,15.864,0.028
54618.240371,15.967,0.031
54618.250619,16.114,0.035
