mjd,m,merr
52644.490095,16.47,0.057
52644.51984,16.639,0.133
52644.53464,16.811,0.081
52648.40075,17.093,0.128
52667.468758,16.56,0.065
52667.484004,16.515,0.068
52667.514432,16.747,0.08
52669.462045,17.23,0.111
52669.464357,17.147,0.091
52669.479849,16.916,0.072
52669.495186,16.743,0.061
52669.507404,16.588,0.061
52669.510524,16.69,0.057
52669.522333,16.694,0.066
52669.52584,16.616,0.055
52671.402412,16.919,0.081
52671.41777,16.651,0.065
52671.432952,16.501,0.057
52671.448292,16.449,0.055
52671.463652,16.505,0.059
52674.402053,16.537,0.059
52674.41605,16.637,0.065
52674.430057,16.707,0.072
52674.444025,16.754,0.076
52674.457858,16.985,0.089
52704.373359,16.949,0.083
52704.38652,17.081,0.093
52704.399877,16.793,0.072
52704.41305,16.676,0.067
52704.426127,16.648,0.067
52707.316399,16.845,0.081
52707.329442,16.817,0.076
52707.342736,17.027,0.091
52707.355984,16.786,0.074
52707.369492,16.621,0.064
52728.294129,16.708,0.063
52728.306908,16.624,0.057
52728.319082,16.612,0.057
52728.332906,16.626,0.059
52728.345476,16.62,0.057
52731.313554,16.605,0.248
52731.325521,16.752,0.115
52731.33752,16.955,0.24
52737.308857,16.598,0.057
52737.330229,16.654,0.059
52737.342199,16.69,0.059
52737.354124,16.816,0.068
52737.366091,16.897,0.074
52756.255993,16.947,0.097
52756.268325,17.062,0.111
52756.280631,16.791,0.087
52756.292622,16.789,0.086
52756.304864,16.653,0.079
52760.232574,16.979,0.08
52760.244516,16.989,0.089
52760.25644,16.844,0.076
52767.20992,16.584,0.073
52767.222479,16.563,0.071
52767.234118,16.643,0.076
52767.246228,16.653,0.076
52767.258383,16.656,0.078
52789.216508,16.592,0.065
52789.226801,16.822,0.081
52789.237228,16.745,0.074
52789.24754,16.869,0.083
52789.258025,17.003,0.091
52794.214761,16.59,0.074
52794.224778,16.578,0.074
52794.244936,16.864,0.098
52794.255005,16.953,0.111
52816.180979,16.655,0.093
52816.191621,16.644,0.098
52816.201466,16.873,0.135
52816.211297,16.949,0.159
52823.181291,16.724,0.196
52823.191215,16.655,0.093
52987.499952,16.684,0.13
52992.466908,16.501,0.061
52992.492454,16.664,0.076
52992.506241,16.722,0.069
53027.411228,16.354,0.043
53033.396134,16.643,0.074
53033.408379,16.625,0.065
53033.420891,16.626,0.063
53054.377032,16.663,0.052
53054.389574,16.715,0.055
53054.401587,16.959,0.07
53054.414243,16.965,0.074
53054.427872,16.86,0.067
53060.311117,16.904,0.057
53060.323242,16.915,0.057
53060.335961,16.662,0.046
53060.347422,16.562,0.043
53060.360579,16.549,0.043
53080.337755,16.952,0.072
53080.349245,17.127,0.085
53080.360857,16.879,0.072
53080.372356,16.768,0.065
53080.383763,16.709,0.059
53084.340225,16.779,0.05
53084.350848,16.698,0.044
53084.361645,16.516,0.039
53084.372278,16.499,0.039
53084.383213,16.47,0.037
53086.355494,16.745,0.061
53086.366473,16.862,0.069
53086.377438,16.961,0.078
53086.388492,16.996,0.073
53086.399832,16.771,0.056
53115.338032,16.445,0.048
53117.264978,16.451,0.045
53117.275541,16.516,0.046
53117.286247,16.505,0.046
53117.297353,16.68,0.051
53117.307753,16.73,0.056
53139.205372,16.596,0.065
53139.21468,16.649,0.067
53139.233281,16.614,0.067
53139.242745,16.608,0.067
53143.235082,16.61,0.063
53143.244584,16.711,0.057
53143.25393,16.753,0.065
53143.263273,16.929,0.072
53143.272618,16.992,0.074
53147.208012,16.541,0.061
53147.216813,16.675,0.068
53147.225622,16.644,0.066
53147.234785,16.806,0.076
53147.243892,16.888,0.083
53169.175079,16.59,0.068
53169.185202,16.729,0.076
53169.195296,16.947,0.096
53169.205396,16.991,0.098
53169.215508,16.906,0.087
53172.175189,16.83,0.07
53172.186143,16.643,0.063
53172.206868,16.474,0.054
53172.217117,16.463,0.057
53174.174036,16.539,0.066
53174.183859,16.697,0.071
53174.195842,16.793,0.079
53174.205669,16.966,0.096
53174.215838,17.013,0.101
53348.461847,16.911,0.128
53348.474307,16.672,0.104
53348.48676,16.584,0.087
53348.50105,16.52,0.08
53348.513777,16.531,0.072
53354.457982,16.72,0.087
53354.470754,16.814,0.091
53354.484899,16.967,0.104
53354.497725,16.993,0.104
53354.510681,16.824,0.089
53377.415248,16.572,0.068
53377.428413,16.586,0.068
53377.442863,16.677,0.07
53377.456972,16.78,0.076
53377.470092,16.934,0.087
53382.509716,16.653,0.07
53382.525179,16.527,0.065
53404.425591,16.693,0.076
53404.432699,16.931,0.102
53404.434898,17.049,0.12
53404.438402,16.909,0.096
53404.447826,16.929,0.111
53404.450714,16.741,0.076
53404.460882,16.684,0.079
53404.464198,16.574,0.067
53404.471345,16.588,0.068
53404.473757,16.692,0.083
53404.477097,16.535,0.068
53404.485065,16.529,0.07
53404.486898,16.668,0.086
53433.439318,16.922,0.109
53433.450519,16.949,0.115
53440.47439,16.63,0.08
53440.485185,16.687,0.085
53465.336659,16.684,0.068
53465.347417,16.594,0.065
53465.359113,16.595,0.063
53465.370554,16.563,0.061
53465.380842,16.645,0.067
53468.279107,16.623,0.137
53468.288641,16.576,0.087
53468.298617,16.72,0.139
53473.290349,16.704,0.076
53473.323918,16.534,0.067
53493.297947,16.994,0.12
53493.308287,16.871,0.109
53493.339044,16.525,0.074
53496.245545,16.869,0.104
53496.25572,16.884,0.107
53496.26579,16.804,0.098
53496.275837,16.571,0.081
53496.285985,16.543,0.076
53526.194986,16.644,0.141
53527.181691,16.878,0.102
53527.191588,16.975,0.107
53733.458555,16.522,0.076
53733.471199,16.495,0.07
53733.48393,16.542,0.098
53746.476071,16.709,0.1
53746.488763,16.823,0.105
53746.50122,16.959,0.107
53746.513742,16.831,0.085
53791.36077,16.622,0.059
53791.372602,16.634,0.061
53791.384346,16.532,0.054
53791.395974,16.576,0.058
53791.407853,16.544,0.054
53791.417966,16.737,0.074
53791.429785,16.913,0.089
53791.441596,17.189,0.117
53791.453424,17.028,0.102
53791.465235,16.747,0.083
53794.400113,16.908,0.074
53794.423358,16.635,0.059
53794.434989,16.617,0.057
53794.446617,16.527,0.054
53815.340946,16.795,0.102
53815.352087,16.734,0.098
53815.36323,16.565,0.085
53815.374395,16.529,0.083
53815.385553,16.502,0.085
53817.271969,16.788,0.079
53817.283224,16.689,0.071
53817.294502,16.667,0.069
53817.305835,16.646,0.071
53817.317175,16.624,0.069
53818.335217,16.534,0.061
53818.346495,16.585,0.065
53818.358829,16.662,0.068
53818.370159,16.597,0.065
53818.383584,16.795,0.08
53823.319564,16.645,0.067
53823.332629,16.599,0.065
53823.344979,16.563,0.061
53823.360875,16.555,0.063
53823.377933,16.642,0.07
53825.334185,17.291,0.216
53825.346724,17.274,0.422
53825.37067,16.562,0.25
53825.383485,16.759,0.252
53829.328117,16.963,0.141
53846.24155,16.781,0.096
53846.252181,16.837,0.102
53846.262732,16.97,0.114
53846.273457,17.004,0.116
53846.284019,16.958,0.114
53848.293427,16.646,0.093
53848.304182,16.951,0.12
53848.314837,17.044,0.139
53848.325622,17.107,0.146
53848.336515,16.855,0.115
53849.300392,16.582,0.07
53849.311172,16.531,0.07
53849.322271,16.767,0.087
53849.333043,16.805,0.094
53849.343819,16.846,0.098
53850.24519,16.971,0.114
53850.255542,17.06,0.119
53850.265861,16.791,0.094
53850.276165,16.658,0.083
53850.286571,16.63,0.084
53852.261306,16.479,0.072
53852.282494,16.652,0.085
53852.294157,16.853,0.104
53852.305556,16.93,0.107
53855.252775,16.966,0.104
53855.263395,16.997,0.107
53855.275035,16.819,0.093
53855.286425,16.667,0.08
53855.296621,16.609,0.076
53858.270233,16.415,0.155
53858.281468,16.551,0.098
53858.291628,16.587,0.085
53881.211783,16.795,0.097
53881.221788,16.704,0.094
53881.231896,16.683,0.097
53881.242038,16.589,0.086
53881.252049,16.502,0.084
53883.224731,16.662,0.089
53883.236143,16.814,0.107
53883.247648,16.874,0.109
53883.259095,16.832,0.107
53883.270524,16.719,0.105
53884.216839,16.52,0.08
53884.228424,16.565,0.085
53884.239996,16.544,0.083
53884.251577,16.614,0.091
53884.26317,16.779,0.107
53901.191384,16.752,0.17
53901.201395,16.807,0.146
53901.211441,17.031,0.203
53910.16777,16.659,0.122
53910.178017,16.637,0.117
53910.188304,16.722,0.126
53910.198512,16.967,0.159
53910.208732,17.044,0.211
53911.228757,16.766,0.305
53914.172228,16.728,0.168
53914.182712,16.928,0.168
54121.402151,16.672,0.083
54121.414905,16.709,0.091
54121.427468,16.922,0.111
54121.439866,17.2,0.144
54121.452488,17.048,0.119
54124.408411,16.783,0.068
54124.422875,16.682,0.059
54124.435764,16.538,0.054
54124.449584,16.424,0.048
54124.462672,16.487,0.05
54149.394711,16.798,0.079
54149.406406,16.811,0.078
54149.419114,17.105,0.106
54149.430953,17.058,0.102
54149.442862,16.936,0.089
54155.358241,16.646,0.055
54155.381912,16.569,0.05
54155.393869,16.512,0.048
54155.405708,16.482,0.048
54156.329349,16.437,0.057
54156.352484,16.831,0.076
54156.364013,16.855,0.078
54156.375546,16.724,0.065
54174.322458,16.928,0.099
54174.333103,17.111,0.264
54174.34377,17.127,0.112
54174.354681,17.013,0.106
54174.365382,16.775,0.081
54175.328041,16.526,0.05
54175.338792,16.742,0.061
54175.349526,16.914,0.072
54175.360212,17.027,0.081
54175.370809,17.006,0.078
54180.286347,16.594,0.063
54180.296805,16.569,0.058
54180.307377,16.591,0.059
54180.317894,16.603,0.061
54180.328444,16.666,0.064
54200.294415,16.654,0.116
54200.303863,16.746,0.107
54207.270691,16.504,0.05
54207.279834,16.497,0.05
54207.289015,16.728,0.165
54207.298176,16.965,0.25
54210.267227,16.713,0.063
54210.276229,16.907,0.074
54210.285207,16.988,0.085
54210.294199,16.986,0.085
54210.303223,16.852,0.078
54447.459882,16.824,0.072
54447.499768,16.43,0.048
54454.478684,16.537,0.055
54454.491715,16.593,0.057
54454.517762,16.945,0.081
54475.45411,16.93,0.061
54475.48012,16.519,0.044
54475.505866,16.354,0.039
54508.424755,16.662,0.054
54508.436842,16.877,0.063
54508.448992,16.769,0.059
54508.461071,16.633,0.052
54524.444102,16.494,0.052
54537.328409,16.881,0.231
54537.339476,16.928,0.107
54537.361415,16.628,0.067
54537.372389,16.514,0.05
54555.305285,16.934,0.059
54555.317102,16.841,0.055
54555.329038,16.675,0.048
54555.341092,16.651,0.044
54555.352902,16.595,0.043
54564.298656,16.856,0.061
54564.310051,16.691,0.05
54564.321413,16.544,0.046
54564.332761,16.49,0.044
54564.344087,16.431,0.041
54568.297368,16.727,0.089
54568.308632,16.579,0.078
54568.319545,16.565,0.073
54568.330467,16.615,0.078
54568.341454,16.613,0.078
54580.246068,16.578,0.074
54580.256683,16.614,0.076
54580.267279,16.543,0.072
54580.277881,16.468,0.072
54580.288548,16.52,0.07
54586.244269,16.911,0.08
54586.254685,16.931,0.081
54586.265022,16.793,0.074
54586.275424,16.641,0.063
54586.285765,16.517,0.057
54590.241658,17.017,0.165
54590.251342,16.887,0.142
54590.261548,16.634,0.135
54590.281887,16.484,0.13
54594.254241,16.565,0.063
54594.264526,16.591,0.061
54594.274844,16.447,0.057
54594.285118,16.518,0.061
54594.295393,16.537,0.059
54611.219915,16.503,0.048
54611.229778,16.547,0.05
54611.239785,16.535,0.05
54611.249571,16.591,0.054
54618.209608,16.744,0.065
54618.230041,16.995,0.081
54618.240261,16.865,0.074
54618.25051,16.666,0.061
