mjd,m,merr
52620.451219,14.859,0.016
52620.465859,14.876,0.016
52620.480457,14.929,0.02
52620.495016,14.949,0.02
52620.510146,14.952,0.023
52638.485308,14.912,0.031
52638.501002,14.913,0.015
52638.51631,14.917,0.015
52650.367522,14.785,0.013
52650.381632,14.737,0.011
52650.395793,14.697,0.011
52650.409907,14.655,0.009
52650.424081,14.644,0.009
52665.398699,14.994,0.016
52665.41356,15.011,0.015
52665.428933,15.045,0.016
52665.444244,15.039,0.015
52677.411096,14.901,0.015
52677.426225,14.879,0.016
52677.441115,14.947,0.03
52677.456084,14.928,0.018
52677.471573,14.89,0.015
52696.396203,15.107,0.013
52696.409942,15.121,0.017
52696.423581,15.107,0.017
52701.443132,15.12,0.028
52701.462492,15.048,0.023
52701.481505,15.074,0.026
52701.4959,15.043,0.033
52701.51165,15.124,0.033
52712.282891,14.976,0.021
52712.296213,14.999,0.021
52712.309429,14.959,0.021
52723.327875,14.989,0.026
52752.238321,14.664,0.011
52752.248579,14.658,0.011
52752.25886,14.693,0.011
52752.269153,14.713,0.011
52752.279445,14.715,0.011
52771.223305,15.016,0.031
52771.236163,14.98,0.03
52771.247808,15.02,0.03
52771.259293,14.973,0.03
52787.216064,15.034,0.02
52787.227026,15.041,0.021
52787.238007,15.009,0.02
52810.176525,14.913,0.02
52810.186367,14.945,0.021
52810.21607,14.953,0.021
52812.177966,14.988,0.021
52812.196017,14.947,0.021
52812.206744,14.974,0.023
52812.216952,14.967,0.021
52812.227155,14.947,0.023
52826.16969,14.987,0.031
52826.179731,14.979,0.03
52826.199974,14.993,0.031
52977.456862,14.924,0.015
52977.46915,14.973,0.015
52977.481584,14.998,0.015
52977.493813,14.984,0.015
52977.506058,14.952,0.015
53024.445537,14.962,0.031
53024.462482,14.834,0.018
53024.511455,14.621,0.015
53035.410284,14.59,0.015
53035.422551,14.644,0.009
53035.434935,14.676,0.009
53035.447975,14.694,0.011
53035.460319,14.721,0.009
53049.336637,14.977,0.011
53049.348499,14.975,0.011
53049.360363,14.954,0.011
53049.372225,14.949,0.011
53049.384089,14.955,0.011
53065.290985,15.073,0.013
53065.303061,15.074,0.013
53065.315198,15.075,0.013
53065.326965,15.093,0.013
53065.338784,15.1,0.013
53094.273909,14.909,0.01
53094.28355,14.906,0.01
53094.294411,14.917,0.01
53094.304269,14.863,0.01
53094.314184,14.881,0.01
53095.268826,14.965,0.015
53095.288916,14.969,0.015
53095.309377,14.972,0.015
53107.239782,14.778,0.012
53107.260612,14.788,0.012
53107.271022,14.79,0.012
53107.281531,14.83,0.012
53122.246284,15.002,0.013
53122.256639,14.979,0.013
53122.266994,15.004,0.013
53122.277345,14.96,0.013
53122.288017,14.995,0.013
53136.21099,14.917,0.015
53136.21974,14.955,0.015
53153.209865,14.793,0.015
53153.218816,14.728,0.013
53153.227681,14.709,0.013
53153.236443,14.631,0.013
53153.245202,14.61,0.013
53154.20579,15.024,0.028
53154.216274,15.04,0.03
53154.224504,15.059,0.03
53154.232897,15.092,0.031
53154.24126,15.047,0.031
53164.175159,14.791,0.013
53164.184665,14.78,0.013
53164.203967,14.787,0.015
53164.213523,14.824,0.015
53178.186421,14.968,0.013
53178.206714,14.929,0.013
53194.206557,14.823,0.041
53341.470885,15.027,0.026
53341.482957,15.035,0.026
53341.495034,14.987,0.024
53341.507616,15.005,0.024
53341.519691,15.021,0.022
53358.466806,14.868,0.013
53358.479443,14.884,0.013
53358.492074,14.905,0.013
53358.504709,14.924,0.013
53358.524303,14.93,0.013
53386.479664,14.783,0.011
53386.505582,14.76,0.011
53386.51891,14.754,0.011
53386.533858,14.785,0.011
53441.391874,15.083,0.013
53441.402778,15.102,0.015
53441.413753,15.091,0.015
53441.42521,15.098,0.015
53441.436115,15.084,0.015
53442.314914,14.8,0.011
53442.325765,14.82,0.011
53442.336584,14.839,0.011
53442.347427,14.849,0.011
53442.358265,14.873,0.011
53474.298049,14.684,0.011
53474.311802,14.702,0.011
53474.325251,14.737,0.011
53474.335249,14.736,0.011
53474.345573,14.795,0.011
53498.21715,14.909,0.026
53498.227248,14.933,0.026
53498.237738,14.939,0.015
53498.248224,14.924,0.015
53499.211919,14.836,0.013
53499.222682,14.856,0.013
53499.232836,14.866,0.013
53499.243398,14.84,0.013
53499.254335,14.866,0.013
53521.207807,14.889,0.031
53521.218153,14.904,0.017
53521.228447,14.952,0.022
53521.238791,14.961,0.03
53521.2491,14.906,0.026
53538.175347,14.869,0.028
53538.194663,14.812,0.03
53538.213837,14.792,0.028
53551.184241,14.771,0.013
53551.194193,14.741,0.013
53551.204348,14.775,0.013
53551.214258,14.791,0.015
53741.4698,14.897,0.009
53741.483137,14.884,0.009
53741.496731,14.894,0.009
53741.509641,14.914,0.009
53741.522567,14.924,0.009
53786.364529,15.003,0.015
53786.377638,15.006,0.018
53786.404065,15.152,0.036
53824.323086,14.998,0.018
53824.33465,15.012,0.013
53824.346326,14.991,0.013
53824.358881,15.01,0.015
53824.370422,14.994,0.023
53843.255908,14.699,0.013
53843.267151,14.719,0.015
53843.278353,14.722,0.017
53843.289564,14.734,0.017
53843.301407,14.744,0.017
53854.241697,14.784,0.018
53854.251765,14.839,0.016
53854.26172,14.856,0.016
53854.271911,15.181,0.348
53882.212167,15.065,0.018
53882.222662,15.025,0.016
53882.24404,14.875,0.016
53886.223188,14.7,0.015
53886.234058,14.715,0.015
53886.255866,14.756,0.017
53886.266768,14.732,0.017
53903.175808,14.925,0.02
53903.18585,14.913,0.022
53903.196073,14.964,0.022
53903.206353,14.965,0.022
53903.21651,14.963,0.02
53932.187704,14.987,0.054
53932.198552,14.835,0.039
53932.209271,14.802,0.031
54068.464768,14.946,0.018
54068.504992,14.943,0.016
54085.466171,14.818,0.018
54085.4791,14.808,0.016
54085.49208,14.826,0.015
54085.505255,14.815,0.015
54085.518195,14.831,0.015
54123.385523,14.877,0.013
54123.397876,14.895,0.013
54123.410167,14.912,0.013
54123.422697,14.889,0.013
54123.435222,14.909,0.013
54186.278308,15.02,0.02
54186.288522,15.062,0.02
54186.298826,15.024,0.02
54186.308999,15.041,0.02
54186.319188,15.046,0.02
54201.280572,14.872,0.011
54201.290495,14.852,0.011
54201.300781,14.874,0.011
54201.310603,14.88,0.011
54201.320197,14.862,0.011
54207.274989,14.852,0.013
54207.284613,14.847,0.021
54207.294127,14.872,0.023
54216.223442,14.805,0.015
54216.232093,14.832,0.015
54216.240741,14.831,0.015
54216.249394,14.856,0.015
54216.258048,14.879,0.015
54508.359487,14.878,0.015
54508.372188,14.892,0.015
54508.384204,14.924,0.016
54508.396325,14.929,0.016
54508.408412,14.932,0.015
54543.296456,15.227,0.041
54543.308972,15.222,0.04
54543.319586,15.222,0.041
54543.330507,15.231,0.04
54561.238253,14.862,0.021
54561.249871,14.879,0.02
54561.261402,14.838,0.021
54561.273957,14.827,0.023
54573.26469,14.984,0.024
54573.275425,14.97,0.024
54573.286177,14.945,0.022
54583.274447,14.728,0.023
54583.284769,14.749,0.023
54614.215273,14.913,0.023
54614.22557,14.958,0.023
54614.236041,14.943,0.023
54614.246459,14.953,0.023
54614.256685,14.962,0.025
