mjd,m,merr
52653.45303,15.66,0.038
52693.347746,15.977,0.033
52693.363245,15.979,0.035
52693.378537,15.785,0.03
52693.393759,15.559,0.024
52693.409253,15.433,0.022
52721.3067,15.879,0.03
52721.319253,15.931,0.031
52721.331858,15.897,0.03
52721.344484,15.934,0.031
52721.35709,15.913,0.031
52750.238621,15.916,0.03
52750.24942,15.955,0.031
52750.270906,15.905,0.15
52750.28182,15.949,0.044
52781.249266,15.297,0.03
52801.171365,15.789,0.094
52801.181401,15.786,0.098
52801.201404,15.578,0.089
52801.211352,15.769,0.094
52809.17551,15.955,0.1
52809.185424,15.921,0.035
52809.214949,15.983,0.037
52830.167521,15.946,0.063
52830.177414,15.946,0.065
52830.187232,15.939,0.067
52830.19713,15.939,0.067
52830.206957,15.894,0.065
52978.443292,15.505,0.035
52978.462758,15.292,0.021
52978.479732,15.293,0.021
52978.492979,15.291,0.021
52978.506249,15.345,0.021
52988.417382,15.909,0.058
52988.428833,15.929,0.058
52988.452269,15.952,0.056
52988.466454,15.917,0.056
53008.420337,15.966,0.046
53008.433613,15.975,0.045
53008.448009,16.021,0.046
53008.46227,16.125,0.048
53008.477113,16.056,0.043
53038.436949,15.897,0.059
53038.450192,15.98,0.054
53038.462643,15.957,0.068
53038.475279,15.943,0.05
53038.488319,15.904,0.063
53045.327843,15.679,0.039
53045.339038,15.763,0.041
53045.350272,15.78,0.041
53045.361384,15.817,0.043
53045.372725,15.857,0.043
53096.277555,15.85,0.052
53096.288007,15.701,0.044
53096.298316,15.659,0.063
53096.308626,15.439,0.039
53096.318988,15.348,0.037
53108.299627,15.934,0.03
53108.310605,15.961,0.03
53108.321575,15.927,0.028
53108.332537,15.93,0.03
53108.343421,15.949,0.03
53125.244365,15.459,0.046
53125.254184,15.496,0.046
53125.264085,15.53,0.044
53125.274026,15.538,0.046
53125.283914,15.555,0.048
53134.242014,15.583,0.03
53134.251504,15.604,0.026
53134.260988,15.624,0.026
53134.270413,15.625,0.026
53134.279836,15.673,0.028
53155.21186,15.742,0.061
53155.220518,15.721,0.055
53155.229109,15.666,0.05
53155.23772,15.667,0.048
53155.246362,15.528,0.043
53193.17516,15.564,0.031
53193.185154,15.563,0.033
53193.195128,15.646,0.033
53214.188684,15.238,0.039
53340.435724,15.464,0.043
53340.448001,15.452,0.041
53340.460341,15.482,0.039
53340.473112,15.494,0.039
53340.485827,15.585,0.041
53359.420263,15.988,0.035
53359.433686,15.972,0.035
53359.45022,15.975,0.035
53359.46307,16.0,0.035
53359.476312,16.038,0.033
53362.504147,15.887,0.033
53362.518659,15.889,0.035
53362.532825,15.928,0.039
53390.403368,15.507,0.028
53390.416543,15.558,0.028
53390.432338,15.554,0.026
53390.445429,15.567,0.024
53390.458593,15.596,0.024
53429.32949,15.974,0.043
53429.340703,15.941,0.043
53429.351968,15.86,0.039
53429.363221,15.722,0.035
53429.374477,15.589,0.031
53461.28644,15.982,0.037
53461.297052,16.017,0.037
53461.307797,16.011,0.035
53461.318518,16.05,0.037
53461.328739,16.081,0.039
53489.246011,15.874,0.08
53489.256357,15.854,0.033
53489.266504,15.789,0.031
53489.279015,15.832,0.035
53489.291635,15.857,0.035
53490.243502,15.452,0.02
53490.25581,15.404,0.018
53490.266801,15.329,0.018
53490.278038,15.334,0.018
53490.289842,15.342,0.018
53535.175291,15.582,0.033
53535.18523,15.591,0.033
53535.195156,15.626,0.033
53535.205082,15.635,0.033
53535.215005,15.655,0.035
53725.464165,15.552,0.033
53725.477159,15.574,0.033
53725.490414,15.634,0.035
53725.503788,15.627,0.035
53725.516948,15.662,0.035
53755.401073,15.632,0.033
53755.413842,15.532,0.03
53755.426769,15.483,0.028
53755.439909,15.396,0.026
53755.452646,15.421,0.026
53775.41264,15.673,0.061
53775.425878,15.68,0.065
53775.438957,15.703,0.057
53775.474221,15.817,0.059
53775.516592,15.814,0.051
53807.310912,15.358,0.041
53807.323146,15.434,0.043
53807.335024,15.413,0.04
53807.347008,15.337,0.036
53807.3591,15.408,0.038
53829.273598,15.807,0.073
53833.272645,15.929,0.041
53833.283622,15.897,0.038
53833.294382,15.926,0.04
53833.304737,15.923,0.04
53858.244908,15.834,0.058
53858.255503,15.858,0.045
53858.265901,15.934,0.058
53858.276121,15.884,0.059
53858.286241,15.898,0.045
53864.241354,15.974,0.083
53864.250958,15.992,0.086
53864.260571,15.867,0.076
53864.270329,15.854,0.074
53864.279874,15.653,0.064
53876.210162,15.761,0.226
53876.231455,15.89,0.053
53876.242064,15.961,0.049
53876.252738,15.936,0.049
53905.170914,15.952,0.038
53905.180896,15.969,0.04
53905.190858,15.993,0.041
53905.200784,16.063,0.046
53905.21089,16.069,0.046
53933.164178,15.87,0.043
53933.174437,15.911,0.045
53933.185073,15.954,0.049
53933.195394,15.882,0.053
53933.205748,16.019,0.063
54079.419345,15.999,0.067
54079.43121,15.983,0.065
54079.443043,16.026,0.067
54079.454958,16.01,0.061
54079.466793,15.966,0.057
54108.389886,15.405,0.031
54108.402748,15.401,0.031
54108.415376,15.436,0.031
54108.428201,15.456,0.031
54108.440828,15.47,0.033
54139.333968,15.834,0.045
54139.345654,15.832,0.056
54139.357102,15.838,0.059
54139.368805,15.735,0.061
54139.380326,15.85,0.066
54157.333223,15.858,0.041
54157.344247,15.861,0.041
54157.355259,15.854,0.04
54157.366282,15.936,0.043
54157.377406,15.907,0.04
54167.337515,15.408,0.038
54167.348557,15.473,0.04
54167.360403,15.497,0.04
54167.371526,15.548,0.043
54167.382873,15.578,0.045
54465.446325,15.815,0.045
54465.458677,15.828,0.046
54465.471681,15.83,0.046
54465.484049,15.876,0.048
54465.496417,15.821,0.046
54483.391414,15.909,0.049
54483.404549,15.885,0.048
54483.416613,15.866,0.045
54483.428817,15.872,0.043
54483.440906,15.903,0.043
54496.469887,15.772,0.036
54496.482938,15.566,0.031
54496.494822,15.459,0.03
54496.506618,15.342,0.026
54496.51876,15.261,0.025
54524.335827,15.847,0.036
54524.347238,15.859,0.035
54524.359321,15.869,0.035
54524.370997,15.928,0.036
54524.382531,15.942,0.036
54539.312752,16.049,0.041
54539.323153,16.075,0.041
54539.33355,16.056,0.041
54539.344094,16.054,0.041
54539.354607,16.018,0.041
54571.246136,15.936,0.058
54571.256901,15.938,0.058
54571.267605,15.971,0.059
54571.278374,15.96,0.058
54571.289221,15.909,0.054
54587.246819,15.949,0.063
54587.256993,15.911,0.059
54587.267828,15.887,0.059
54587.278061,15.93,0.063
54587.288267,15.882,0.061
54620.213484,15.482,0.038
54620.223663,15.467,0.038
54620.233963,15.564,0.041
54620.244088,15.574,0.041
54620.254244,15.602,0.041
