mjd,m,merr
52640.466979,16.149,0.041
52640.481858,16.396,0.051
52640.496764,16.509,0.053
52640.511612,16.524,0.053
52640.526469,16.208,0.041
52643.487616,16.51,0.051
52643.504081,16.623,0.058
52643.520185,16.417,0.048
52667.458864,16.106,0.045
52667.474099,16.166,0.048
52667.488733,16.328,0.056
52667.503371,16.495,0.073
52667.518005,16.61,0.078
52670.432349,16.1,0.043
52670.446914,16.015,0.04
52670.461503,16.042,0.04
52670.476179,16.126,0.045
52670.490827,16.279,0.049
52676.363835,16.28,0.055
52676.379657,16.474,0.063
52676.395156,16.378,0.054
52676.413489,16.098,0.039
52676.43075,15.963,0.035
52701.369635,16.298,0.048
52701.384169,16.181,0.043
52701.404661,16.05,0.04
52701.417787,16.043,0.04
52701.430848,16.055,0.041
52707.37471,16.262,0.039
52707.387884,16.087,0.035
52707.40108,16.07,0.033
52707.415124,15.988,0.033
52707.428421,16.003,0.033
52725.371064,16.554,0.055
52725.38501,16.261,0.039
52725.398338,16.118,0.035
52725.410932,16.084,0.035
52725.42334,16.063,0.035
52729.297997,16.272,0.048
52729.310116,16.535,0.059
52729.322544,16.504,0.056
52729.334604,16.326,0.048
52729.34691,16.142,0.041
52732.304514,16.424,0.059
52732.316832,16.51,0.064
52732.328787,16.505,0.063
52732.340715,16.262,0.051
52732.353192,16.197,0.051
52738.294835,16.125,0.035
52738.307834,16.342,0.043
52738.319343,16.469,0.046
52738.330894,16.449,0.044
52738.342719,16.258,0.039
52755.263724,16.248,0.043
52755.275731,16.119,0.037
52755.287686,16.045,0.037
52755.299566,16.005,0.037
52755.311442,15.978,0.037
52761.259509,16.386,0.046
52761.271232,16.165,0.039
52761.282918,16.063,0.037
52761.294731,15.968,0.035
52761.306542,16.007,0.035
52768.21304,16.509,0.08
52768.224873,16.39,0.07
52768.236937,16.15,0.057
52768.2487,16.117,0.055
52768.260616,15.985,0.05
52792.217693,15.931,0.049
52792.228427,16.041,0.056
52792.239354,16.043,0.059
52792.250196,16.247,0.073
52792.260955,16.322,0.079
52793.250759,15.931,0.049
52793.261348,16.041,0.056
52793.271679,16.043,0.059
52793.282443,16.247,0.073
52793.292711,16.322,0.079
52816.172302,16.018,0.058
52816.192427,16.071,0.063
52823.191781,16.521,0.092
52823.201779,16.476,0.089
53000.503463,15.99,0.021
53000.516532,15.999,0.02
53000.529598,16.05,0.021
53033.397756,16.002,0.041
53033.422781,16.143,0.04
53033.435055,16.385,0.049
53033.447524,16.52,0.056
53053.405384,16.098,0.031
53053.417175,16.01,0.037
53053.428879,15.992,0.037
53053.44059,15.964,0.044
53053.452939,15.979,0.046
53062.358301,16.408,0.054
53062.370827,16.534,0.054
53062.38387,16.566,0.048
53062.395916,16.371,0.089
53062.407914,16.203,0.094
53079.316932,16.228,0.035
53079.327734,16.102,0.031
53079.338419,16.042,0.031
53079.349188,15.995,0.03
53079.36027,15.963,0.03
53087.337007,16.402,0.033
53087.357997,16.286,0.031
53087.379213,16.038,0.026
53110.244825,16.312,0.05
53110.255908,16.483,0.057
53110.267048,16.488,0.054
53110.278126,16.398,0.05
53110.289303,16.223,0.043
53118.258083,16.044,0.025
53118.270587,16.083,0.025
53118.281754,16.173,0.026
53118.291966,16.285,0.031
53118.302224,16.451,0.036
53138.207753,16.159,0.037
53138.217608,16.357,0.043
53138.227365,16.497,0.048
53138.237088,16.485,0.048
53138.246815,16.515,0.054
53148.245791,16.024,0.035
53148.254484,15.961,0.033
53148.263331,15.955,0.033
53148.272145,15.999,0.033
53148.281172,16.015,0.036
53166.185042,16.137,0.044
53166.194393,16.316,0.052
53166.203772,16.468,0.057
53166.213131,16.471,0.059
53166.222494,16.365,0.054
53175.175252,16.013,0.035
53175.184831,16.134,0.036
53175.194502,16.268,0.043
53175.204149,16.414,0.048
53175.213844,16.445,0.051
53348.490671,16.459,0.084
53348.504525,16.435,0.083
53348.518505,16.399,0.069
53351.501114,16.439,0.081
53351.515525,16.347,0.073
53351.529822,16.146,0.061
53447.352773,15.986,0.031
53447.363604,16.032,0.031
53447.374001,16.098,0.13
53447.384842,16.165,0.035
53447.396227,16.392,0.043
53468.386067,16.088,0.039
53468.395671,16.213,0.046
53468.405238,16.346,0.052
53468.414821,16.534,0.061
53468.424398,16.598,0.068
53503.234782,16.451,0.052
53503.243415,16.312,0.046
53503.252312,16.166,0.041
53503.261351,16.089,0.037
53503.270571,16.041,0.037
53522.213582,16.246,0.05
53522.223821,16.122,0.043
53522.234101,16.045,0.043
53522.24431,15.988,0.041
53522.254595,15.963,0.041
53737.47812,16.286,0.043
53737.491376,16.52,0.052
53737.504714,16.499,0.05
53737.518055,16.378,0.044
53747.467001,16.428,0.104
53747.480091,16.094,0.076
53747.493034,16.088,0.068
53747.506275,15.95,0.05
53747.519285,15.953,0.054
53790.353116,16.056,0.036
53790.364966,15.977,0.035
53790.376802,16.052,0.036
53790.388876,16.11,0.04
53790.400676,16.187,0.041
53799.344142,16.101,0.033
53799.356129,16.078,0.031
53799.368006,16.051,0.031
53799.379817,16.044,0.03
53799.391668,16.12,0.033
53818.292223,16.34,0.048
53818.303321,16.112,0.038
53818.31444,16.055,0.036
53818.325527,15.998,0.033
53818.336577,16.0,0.033
53845.268495,16.641,0.104
53845.279737,16.799,0.104
53851.243151,16.062,0.046
53851.253361,16.119,0.049
53851.2637,16.269,0.054
53851.27415,16.469,0.069
53851.284442,16.538,0.071
53880.211195,16.631,0.083
53880.222419,16.576,0.078
53880.233641,16.366,0.065
53880.244872,16.21,0.055
53880.256115,16.114,0.052
53885.21723,15.998,0.048
53885.22922,16.098,0.052
53885.241158,16.235,0.059
53885.253148,16.444,0.072
53885.265308,16.477,0.08
53901.202673,16.268,0.074
53912.202441,16.028,0.058
53912.212174,16.039,0.116
54112.444033,16.424,0.089
54112.45669,16.463,0.094
54112.469494,16.267,0.109
54112.4822,16.091,0.061
54112.495044,16.106,0.063
54152.3469,16.041,0.026
54152.358863,16.027,0.026
54152.371258,16.066,0.028
54152.385349,16.174,0.03
54152.398153,16.366,0.035
54185.280201,16.221,0.066
54185.290536,16.514,0.107
54185.321331,16.46,0.152
54201.283163,16.287,0.064
54201.292532,16.144,0.054
54201.301916,16.035,0.049
54201.311314,16.083,0.051
54201.320719,16.02,0.049
54452.463554,16.612,0.05
54452.476706,16.503,0.043
54452.489848,16.342,0.035
54452.503006,16.118,0.028
54452.516191,16.069,0.026
54476.460551,16.517,0.033
54476.473571,16.602,0.035
54476.486473,16.538,0.033
54476.499388,16.267,0.024
54476.512288,16.119,0.022
54533.33468,16.145,0.022
54533.346006,16.325,0.026
54533.357285,16.476,0.028
54533.368612,16.566,0.031
54533.379995,16.414,0.026
54539.269803,16.118,0.03
54539.280692,16.057,0.026
54539.291618,16.005,0.024
54539.30249,16.009,0.024
54539.313459,15.996,0.022
54558.236941,16.144,0.055
54558.248532,16.064,0.059
54558.260095,15.996,0.046
54558.271798,16.066,0.031
54558.283375,16.081,0.041
54567.242466,16.06,0.031
54567.253663,16.039,0.03
54567.264968,15.987,0.028
54567.276163,15.995,0.028
54567.287359,16.065,0.03
54587.252283,16.568,0.048
54587.262709,16.498,0.046
54587.273245,16.482,0.048
54587.283648,16.301,0.041
54587.294037,16.105,0.035
54595.24495,15.967,0.033
54595.25492,16.045,0.039
54595.264902,16.069,0.035
54595.274851,16.084,0.035
54595.284827,16.225,0.039
54619.209193,16.369,0.08
54619.21943,16.192,0.039
54619.229737,16.07,0.048
54619.239974,16.051,0.035
54619.250404,16.043,0.035
