mjd,m,merr
52635.462759,16.689,0.081
52635.477118,16.782,0.084
52635.491505,16.786,0.087
52635.506137,16.769,0.084
52635.520815,16.73,0.081
52662.415388,16.645,0.076
52662.43031,16.588,0.074
52662.445153,16.611,0.084
52662.460792,16.594,0.076
52693.382819,16.694,0.076
52693.396645,16.67,0.073
52693.41065,16.372,0.056
52693.424394,16.003,0.041
52693.438062,15.797,0.035
52721.298668,16.508,0.059
52721.31132,16.583,0.064
52721.323908,16.6,0.064
52721.336031,16.671,0.069
52721.3486,16.614,0.068
52750.243872,15.971,0.036
52750.254778,15.784,0.036
52750.266383,15.7,0.048
52750.277641,15.772,0.089
52750.28855,15.837,0.041
52751.246416,16.773,0.081
52751.252348,16.707,0.065
52751.257167,16.758,0.083
52751.263056,16.792,0.072
52751.267933,16.731,0.079
52751.273755,16.657,0.061
52751.278669,16.749,0.079
52751.285115,16.542,0.055
52751.290061,16.464,0.063
52751.297965,16.133,0.039
52752.231893,16.661,0.067
52752.242152,16.703,0.068
52752.252413,16.658,0.067
52752.262693,16.711,0.068
52752.272977,16.614,0.061
52781.238275,16.362,0.058
52781.249485,16.486,0.066
52781.260785,16.478,0.066
52802.173618,16.643,0.196
52802.184443,16.703,0.203
52802.195113,16.678,0.193
52802.205975,16.777,0.218
52802.216819,16.62,0.183
52807.175231,16.208,0.061
52807.185263,16.222,0.153
52829.168573,16.726,0.165
52829.199242,16.776,0.173
52829.209228,16.454,0.145
53009.437994,16.049,0.048
53009.452129,16.114,0.048
53009.466157,16.193,0.049
53009.480156,16.261,0.051
53009.494109,16.302,0.051
53017.480954,16.25,0.051
53017.501855,16.262,0.051
53017.524304,16.346,0.058
53044.373135,16.97,0.153
53044.385238,16.741,0.127
53074.334224,16.339,0.063
53074.345572,16.416,0.066
53074.357267,16.433,0.068
53074.368716,16.443,0.069
53074.3801,16.495,0.074
53104.25509,16.615,0.069
53104.265523,16.626,0.076
53104.283383,16.531,0.074
53104.293886,16.62,0.081
53104.304387,16.704,0.092
53133.239092,16.379,0.053
53133.248425,16.405,0.059
53156.209479,16.563,0.102
53156.218223,16.612,0.106
53156.2268,16.615,0.106
53156.235232,16.591,0.104
53156.243499,16.583,0.102
53162.235309,16.794,0.116
53162.245009,16.87,0.112
53162.254693,16.93,0.125
53192.173634,16.37,0.064
53192.182898,16.43,0.063
53192.192141,16.402,0.063
53192.201544,16.343,0.061
53192.210796,16.419,0.066
53339.442592,16.822,0.167
53339.455025,16.674,0.144
53339.467396,16.768,0.153
53339.479738,16.739,0.144
53339.492067,16.791,0.144
53359.421321,16.194,0.043
53359.434743,16.237,0.044
53359.451277,16.275,0.048
53359.464125,16.318,0.046
53359.47737,16.343,0.046
53362.504541,15.744,0.03
53362.519054,15.787,0.031
53362.53322,15.844,0.083
53390.402874,16.593,0.076
53390.41605,16.548,0.068
53390.431844,16.574,0.067
53390.444936,16.543,0.061
53390.458101,16.59,0.057
53423.358131,16.987,0.185
53429.329,16.711,0.085
53429.340213,16.709,0.085
53429.351478,16.735,0.089
53429.362728,16.606,0.078
53429.373987,16.296,0.059
53460.27756,16.153,0.041
53460.287847,16.146,0.05
53460.298292,16.219,0.044
53460.31012,16.243,0.048
53460.321053,16.208,0.048
53481.298202,16.679,0.12
53481.308816,16.543,0.105
53481.320738,16.661,0.12
53481.331777,16.624,0.115
53481.343053,16.654,0.118
53489.246557,16.671,0.093
53489.256877,16.5,0.065
53489.267023,16.67,0.07
53489.292155,16.383,0.3
53535.175842,16.209,0.061
53535.185785,16.161,0.057
53535.195708,16.222,0.061
53535.205637,16.239,0.061
53535.21556,16.318,0.065
53725.464837,16.644,0.08
53725.477833,16.699,0.081
53725.491086,16.735,0.081
53725.504637,16.618,0.074
53725.517617,16.644,0.074
53755.401729,16.477,0.072
53755.4145,16.083,0.052
53755.427426,15.855,0.041
53755.440569,15.777,0.037
53755.453301,15.805,0.037
53775.360723,16.623,0.113
53775.3733,16.566,0.111
53775.38636,16.567,0.139
53775.399007,16.478,0.12
53775.411494,16.663,0.135
53775.429482,16.812,0.18
53858.245431,16.519,0.089
53858.256026,16.636,0.083
53858.266425,16.672,0.092
53858.276643,16.487,0.099
53858.286766,16.573,0.073
53864.241869,16.615,0.14
53864.251472,16.73,0.152
53864.261084,16.331,0.106
53864.270842,16.18,0.092
53906.177247,16.824,0.097
53906.186778,16.808,0.106
53906.196339,16.679,0.097
53906.205855,16.676,0.101
53906.215382,16.293,0.084
53934.164262,16.834,0.109
53934.174707,16.943,0.132
53934.185236,16.747,0.101
53934.19572,16.786,0.102
53934.206282,16.815,0.109
54079.420092,16.079,0.068
54079.431955,16.063,0.067
54079.443787,16.197,0.074
54079.455705,16.192,0.07
54079.467538,16.192,0.07
54108.390538,16.783,0.104
54108.4034,16.681,0.094
54108.416026,16.661,0.094
54108.428853,16.767,0.1
54108.44148,16.647,0.091
54139.332322,16.005,0.043
54139.344081,15.777,0.035
54139.355867,15.839,0.046
54139.367552,15.844,0.052
54139.379324,15.883,0.048
54167.329009,16.601,0.137
54167.340218,16.923,0.22
54167.351431,16.695,0.089
54167.36262,16.639,0.076
54167.373808,16.549,0.07
54464.443587,16.188,0.053
54464.456493,16.215,0.056
54464.494116,16.265,0.058
54484.393021,17.116,0.142
54484.405286,17.105,0.137
54484.429889,17.095,0.132
54484.442009,17.155,0.139
54495.425566,16.946,0.091
54495.449546,16.878,0.086
54523.333237,16.089,0.04
54523.344761,16.134,0.04
54523.356286,16.181,0.041
54523.367797,16.238,0.043
54523.379493,16.226,0.043
54540.326081,16.104,0.04
54540.337091,16.156,0.04
54540.348177,16.183,0.04
54540.359123,16.206,0.04
54540.370139,16.25,0.041
54554.302824,16.632,0.061
54554.314718,16.709,0.064
54554.326593,16.706,0.064
54554.338603,16.718,0.066
54554.350459,16.708,0.068
54572.290081,16.35,0.102
54621.212351,16.521,0.084
54621.222471,16.589,0.092
54621.232549,16.738,0.102
54621.242845,16.592,0.091
54621.253687,16.58,0.091
