mjd,m,merr
52635.462881,15.486,0.03
52635.477241,15.535,0.03
52635.491627,15.524,0.03
52635.50626,15.598,0.031
52635.520937,15.656,0.031
52654.47209,15.91,0.049
52662.415516,15.435,0.028
52662.430437,15.454,0.03
52662.445281,15.512,0.031
52662.46092,15.563,0.033
52693.382455,15.423,0.026
52693.396282,15.3,0.025
52693.410287,15.243,0.023
52693.424033,15.252,0.023
52693.424276,15.239,0.023
52693.437697,15.239,0.025
52693.43794,15.249,0.023
52721.298304,15.912,0.04
52721.298547,15.878,0.036
52721.310953,15.855,0.036
52721.311197,15.885,0.038
52721.323544,15.978,0.041
52721.323787,15.921,0.038
52721.335669,15.973,0.041
52721.33591,15.975,0.04
52721.348237,15.966,0.041
52721.34848,15.91,0.04
52750.243504,15.835,0.036
52750.243751,15.825,0.035
52750.254413,15.826,0.038
52750.254657,15.822,0.038
52750.266262,15.893,0.068
52750.27752,15.793,0.106
52750.288184,15.811,0.041
52750.288429,15.819,0.041
52780.226422,15.705,0.041
52780.248131,15.754,0.046
52802.173525,16.006,0.114
52802.184349,15.853,0.097
52802.195018,15.884,0.096
52802.205881,15.907,0.099
52802.216725,15.92,0.099
52807.175142,15.738,0.041
52829.178484,15.982,0.087
52829.189083,16.025,0.087
52829.199152,16.004,0.086
52979.478539,15.744,0.124
53009.437871,15.777,0.04
53009.452006,15.827,0.04
53009.466034,15.819,0.038
53009.480034,15.833,0.038
53009.493986,15.86,0.036
53044.373016,15.75,0.056
53074.345461,15.881,0.043
53074.357157,15.769,0.04
53074.368606,15.79,0.04
53074.379989,15.834,0.041
53104.26542,15.692,0.035
53104.283276,15.701,0.036
53104.293779,15.762,0.04
53104.304283,15.842,0.043
53133.239002,15.544,0.026
53133.248334,15.565,0.03
53156.218137,15.889,0.056
53156.226714,15.849,0.053
53156.235147,15.865,0.054
53162.244923,15.566,0.036
53162.254608,15.518,0.038
53192.182983,15.335,0.026
53192.192225,15.122,0.021
53192.201628,15.001,0.02
53192.21088,15.001,0.02
53339.442689,15.175,0.04
53339.45512,15.027,0.035
53339.467491,15.068,0.035
53339.492164,15.122,0.033
53359.421218,15.825,0.031
53359.43464,15.812,0.031
53359.451173,15.84,0.033
53359.464021,15.876,0.033
53359.477267,15.85,0.03
53362.50544,15.717,0.03
53362.519954,15.791,0.031
53390.403868,15.533,0.03
53390.417044,15.542,0.03
53390.432838,15.567,0.028
53390.44593,15.628,0.028
53390.459095,15.593,0.024
53423.359083,15.924,0.076
53429.329988,15.659,0.033
53429.341203,15.644,0.033
53429.352468,15.679,0.035
53429.363721,15.718,0.035
53429.374978,15.744,0.037
53436.313516,15.873,0.028
53436.32491,15.829,0.028
53436.336912,15.858,0.026
53436.348313,15.808,0.026
53436.359713,15.631,0.026
53437.347951,15.858,0.028
53437.359282,15.878,0.033
53437.370904,15.872,0.03
53437.382229,15.815,0.028
53437.395387,15.744,0.026
53460.27746,15.132,0.017
53460.287723,15.189,0.018
53460.298191,15.228,0.018
53460.31002,15.276,0.02
53460.320953,15.322,0.022
53481.298303,15.824,0.059
53481.32084,15.787,0.057
53481.331879,15.799,0.057
53481.343154,15.804,0.059
53488.245768,15.236,0.02
53488.256372,15.183,0.02
53488.26784,15.181,0.022
53488.278923,15.232,0.024
53488.289146,15.261,0.031
53534.208855,15.813,0.048
53534.218609,15.857,0.05
53534.228327,15.806,0.046
53534.238094,15.838,0.048
53534.247826,15.822,0.046
53562.193682,15.905,0.063
53562.204429,15.87,0.057
53562.215086,15.899,0.061
53724.403814,15.75,0.063
53724.416903,15.762,0.048
53724.429821,15.789,0.048
53724.442902,15.777,0.048
53724.455905,15.802,0.048
53754.435313,15.641,0.044
53775.452358,15.679,0.063
53775.488903,15.044,0.031
53860.254171,15.804,0.038
53860.264701,15.852,0.041
53860.276992,15.864,0.04
53860.28846,15.871,0.041
53860.298787,15.836,0.036
53906.177592,15.273,0.026
53906.187122,15.267,0.028
53906.196683,15.307,0.031
53906.206197,15.358,0.033
53906.215727,15.37,0.038
53934.164161,15.117,0.025
53934.174606,15.209,0.031
53934.185136,15.219,0.028
53934.19562,15.271,0.028
53934.206182,15.274,0.03
54078.469926,15.701,0.052
54078.482939,15.691,0.044
54107.42568,15.427,0.049
54107.43882,15.466,0.049
54107.451718,15.549,0.051
54107.464682,15.522,0.049
54107.477675,15.529,0.051
54139.332726,15.833,0.037
54139.344484,15.875,0.043
54139.356269,15.841,0.05
54139.367955,15.894,0.055
54139.379725,15.875,0.054
54167.329402,15.855,0.068
54167.340612,15.797,0.067
54167.351829,15.798,0.039
54167.363018,15.803,0.037
54167.374207,15.825,0.039
54464.457109,15.834,0.035
54464.46966,15.839,0.035
54464.482201,15.842,0.035
54464.494736,15.751,0.031
54484.405128,15.541,0.036
54484.429731,15.592,0.038
54484.441851,15.59,0.036
54495.402131,15.772,0.036
54495.414207,15.818,0.038
54495.426168,15.804,0.036
54495.438128,15.852,0.038
54495.450143,15.817,0.036
54523.333813,15.679,0.028
54523.345337,15.7,0.028
54523.356861,15.751,0.03
54523.368375,15.75,0.03
54523.380497,15.789,0.03
54540.348007,15.388,0.023
54540.358954,15.406,0.025
54540.36997,15.424,0.025
54554.303331,15.181,0.02
54554.315228,15.229,0.021
54554.3271,15.309,0.021
54554.339105,15.332,0.023
54554.350967,15.391,0.023
54572.289938,15.935,0.068
54621.212248,15.447,0.036
54621.222369,15.432,0.036
54621.232447,15.493,0.038
54621.242742,15.466,0.038
54621.253585,15.551,0.04
