mjd,m,merr
52644.490851,15.61,0.026
52644.505757,15.599,0.035
52644.5206,15.677,0.041
52644.535814,15.662,0.028
52648.401501,15.22,0.024
52648.416554,15.258,0.026
52648.431246,15.303,0.024
52648.44658,15.383,0.024
52648.462031,15.399,0.022
52667.469536,15.707,0.03
52667.484782,15.688,0.031
52667.500012,15.766,0.033
52667.515295,15.795,0.033
52667.530615,15.855,0.035
52671.480269,15.704,0.03
52671.495903,15.637,0.028
52671.511321,15.59,0.028
52671.526626,15.545,0.028
52674.40265,15.609,0.026
52674.416644,15.665,0.028
52674.430651,15.638,0.028
52674.444617,15.655,0.028
52674.458453,15.703,0.028
52704.414162,15.678,0.028
52707.370755,15.674,0.028
52707.383224,15.82,0.03
52707.383941,15.629,0.028
52707.397037,15.667,0.028
52707.409402,15.654,0.031
52707.410119,15.703,0.03
52707.423808,15.768,0.031
52728.29437,15.74,0.028
52728.307147,15.695,0.026
52728.319342,15.707,0.026
52728.333149,15.8,0.028
52728.34572,15.857,0.03
52731.313793,15.85,0.174
52731.325762,15.761,0.052
52731.337759,15.779,0.072
52731.349772,15.686,0.037
52737.312481,15.709,0.026
52737.331166,15.715,0.026
52737.343221,15.715,0.026
52737.355075,15.725,0.026
52737.367284,15.725,0.026
52756.256218,15.874,0.041
52756.256557,15.827,0.036
52756.26855,15.723,0.036
52756.268891,15.719,0.033
52756.281225,15.392,0.026
52756.292849,15.148,0.023
52756.29319,15.236,0.023
52756.30509,14.951,0.021
52756.305432,14.969,0.018
52761.233662,15.747,0.035
52761.245674,15.696,0.03
52767.21014,15.783,0.038
52767.222809,15.732,0.035
52767.234339,15.731,0.035
52767.234448,15.703,0.033
52767.24645,15.766,0.036
52767.246559,15.728,0.035
52767.258604,15.746,0.036
52789.216721,15.782,0.033
52789.227015,15.638,0.028
52789.237445,15.343,0.022
52789.247756,15.17,0.018
52789.258244,14.971,0.017
52794.215204,15.719,0.035
52794.225229,15.762,0.035
52794.235242,15.757,0.037
52794.245379,15.81,0.039
52794.255468,15.815,0.043
52816.171383,15.069,0.022
52816.181166,15.108,0.024
52816.191805,15.186,0.028
52816.201656,15.233,0.031
52816.211487,15.26,0.037
52823.201438,15.42,0.031
52987.474491,15.002,0.033
52987.487463,14.922,0.028
52987.500421,14.971,0.026
52987.51327,15.014,0.02
52994.467681,15.701,0.028
52994.480988,15.69,0.022
52994.49491,15.673,0.022
52994.508259,15.678,0.022
52994.521719,15.684,0.02
52996.467591,15.742,0.022
52996.480549,15.742,0.022
52996.493502,15.747,0.022
52996.506635,15.766,0.022
52996.519591,15.799,0.022
53001.470061,15.68,0.02
53001.483325,15.65,0.018
53001.496379,15.651,0.018
53001.510525,15.705,0.018
53001.52381,15.688,0.018
53027.398747,15.614,0.02
53033.421628,15.719,0.028
53033.445889,15.743,0.031
53054.378235,15.101,0.013
53054.39031,14.93,0.011
53054.402972,14.949,0.011
53054.414907,14.99,0.013
53054.428535,15.082,0.013
53060.31146,15.691,0.018
53060.323584,15.707,0.018
53060.336303,15.665,0.018
53060.348552,15.656,0.018
53060.361801,15.694,0.018
53080.338169,15.252,0.017
53080.349659,15.293,0.017
53080.361272,15.317,0.018
53080.37277,15.322,0.018
53080.384178,15.37,0.018
53084.340558,14.98,0.011
53084.351182,15.096,0.011
53084.361978,15.074,0.011
53084.372611,15.108,0.011
53084.383545,15.18,0.013
53086.355888,15.031,0.013
53086.366869,15.075,0.013
53086.377831,15.134,0.015
53086.388886,15.165,0.015
53086.400226,15.201,0.013
53115.305202,15.168,0.015
53115.316333,15.261,0.015
53115.327494,15.271,0.015
53115.338561,15.276,0.015
53115.349631,15.296,0.017
53117.265464,14.955,0.012
53117.276028,15.01,0.012
53117.286888,15.075,0.012
53117.297839,15.153,0.013
53117.30824,15.183,0.013
53139.205919,15.446,0.024
53139.224524,15.404,0.026
53139.233826,15.522,0.026
53139.243291,15.511,0.026
53143.235539,15.415,0.022
53143.245041,15.431,0.018
53143.254387,15.418,0.02
53143.26373,15.464,0.02
53143.273181,15.516,0.02
53147.20843,15.072,0.016
53169.185545,15.647,0.03
53169.19564,15.691,0.031
53169.205743,15.676,0.03
53172.175618,15.491,0.02
53172.186572,15.51,0.02
53172.207297,15.535,0.022
53172.217546,15.543,0.024
53174.184275,15.383,0.023
53348.462372,15.11,0.026
53348.474831,15.184,0.028
53348.487285,15.207,0.028
53348.501574,15.273,0.026
53348.514302,15.319,0.024
53354.458523,15.791,0.037
53354.471294,15.583,0.03
53354.485439,15.253,0.02
53354.498266,15.018,0.017
53354.511222,14.966,0.017
53377.415794,15.344,0.024
53377.428962,15.377,0.024
53377.44341,15.407,0.022
53377.457518,15.462,0.022
53377.470639,15.486,0.024
53382.510984,15.404,0.022
53382.52705,15.484,0.022
53382.541481,15.492,0.024
53404.425832,15.623,0.03
53404.432943,15.625,0.03
53404.438644,15.655,0.03
53404.445261,15.647,0.03
53404.450956,15.664,0.031
53404.458712,15.71,0.03
53404.464439,15.673,0.03
53404.47161,15.725,0.03
53404.477339,15.68,0.03
53404.485316,15.75,0.031
53440.475166,15.688,0.033
53440.485683,15.737,0.037
53440.496824,15.736,0.037
53465.337554,15.718,0.03
53465.348315,15.702,0.03
53465.360007,15.756,0.03
53465.371456,15.708,0.028
53465.38253,15.722,0.03
53468.289542,15.688,0.043
53473.272834,15.493,0.026
53473.272932,15.47,0.026
53473.273487,15.481,0.026
53473.280432,15.487,0.026
53473.285134,15.512,0.026
53473.285232,15.475,0.026
53473.285788,15.539,0.026
53473.291282,15.529,0.026
53473.295858,15.518,0.026
53473.295972,15.524,0.026
53473.29665,15.54,0.026
53473.301862,15.536,0.028
53473.306972,15.563,0.028
53473.307072,15.537,0.026
53473.307659,15.551,0.026
53473.312854,15.555,0.028
53473.318864,15.568,0.028
53473.318963,15.599,0.028
53473.319925,15.604,0.028
53473.324893,15.578,0.03
53474.291443,15.479,0.024
53474.291561,15.477,0.024
53474.292126,15.472,0.024
53474.303144,15.519,0.024
53474.30366,15.524,0.024
53474.304777,15.544,0.024
53474.317751,15.533,0.024
53474.31785,15.551,0.024
53474.318837,15.557,0.024
53474.329458,15.566,0.026
53474.329561,15.568,0.026
53474.330123,15.626,0.026
53474.339784,15.595,0.028
53474.339883,15.638,0.028
53474.340452,15.608,0.028
53478.228474,15.073,0.031
53478.240029,15.145,0.031
53478.250103,15.173,0.031
53478.26077,15.185,0.033
53478.269834,15.242,0.035
53479.281565,15.226,0.039
53479.306132,15.286,0.041
53479.316031,15.385,0.044
53479.325863,15.445,0.048
53493.308796,15.79,0.041
53493.31952,15.778,0.044
53493.329583,15.796,0.041
53526.217045,15.694,0.043
53527.171562,15.716,0.035
53527.181866,15.712,0.037
53527.211324,15.782,0.039
53733.459752,15.646,0.033
53733.472395,15.674,0.033
53746.46458,15.226,0.031
53746.47707,15.283,0.03
53746.489693,15.306,0.028
53746.502152,15.349,0.026
53746.514673,15.383,0.024
53791.361347,15.702,0.025
53791.373181,15.743,0.026
53791.384943,15.728,0.026
53791.396576,15.812,0.028
53791.408433,15.841,0.028
53791.418221,15.832,0.031
53791.430039,15.801,0.031
53791.441851,15.72,0.03
53791.453677,15.409,0.024
53791.46549,15.177,0.02
53794.412919,15.718,0.026
53794.424545,15.759,0.026
53794.436168,15.779,0.028
53794.447804,15.826,0.028
53815.341179,15.069,0.022
53815.35232,15.116,0.024
53815.363465,15.19,0.024
53815.374628,15.218,0.026
53815.38579,15.27,0.028
53817.272809,15.82,0.03
53817.284062,15.809,0.028
53817.295342,15.693,0.026
53817.306677,15.365,0.02
53817.318049,15.157,0.018
53818.335458,15.019,0.018
53818.346732,14.901,0.015
53818.359071,14.87,0.017
53818.371781,14.967,0.017
53818.383825,15.047,0.018
53823.320055,15.668,0.031
53823.332863,15.744,0.031
53823.345214,15.743,0.033
53823.361208,15.816,0.035
53825.347781,15.809,0.055
53825.372484,15.789,0.078
53825.384543,15.784,0.089
53829.32836,15.706,0.044
53846.242381,14.949,0.016
53846.253013,15.018,0.016
53846.263566,15.087,0.018
53846.27429,15.154,0.018
53846.28485,15.202,0.018
53848.294446,15.1,0.024
53848.305199,15.145,0.024
53848.315859,15.224,0.028
53848.326635,15.269,0.03
53848.337539,15.267,0.03
53850.245981,15.687,0.035
53850.256324,15.395,0.026
53850.266648,15.234,0.023
53850.276951,15.02,0.018
53850.287356,14.941,0.018
53852.283479,15.471,0.03
53852.295147,15.211,0.024
53853.195698,15.696,0.033
53853.197158,15.759,0.045
53853.2071,15.684,0.033
53853.207709,16.302,0.071
53853.217503,15.734,0.033
53853.21823,15.779,0.043
53853.228814,15.845,0.046
53855.18569,15.738,0.036
53855.191069,15.707,0.035
53855.201812,15.723,0.039
53855.207463,15.756,0.036
53855.212489,15.758,0.035
53855.217976,15.719,0.036
53855.223184,15.743,0.035
53855.228576,15.739,0.036
53855.233839,15.691,0.033
53855.276283,15.786,0.039
53855.287413,15.909,0.043
53855.297582,15.8,0.039
53858.281686,15.713,0.046
53858.291847,15.733,0.041
53881.212353,14.885,0.018
53881.22235,14.969,0.02
53881.232459,14.998,0.021
53881.242603,15.05,0.021
53881.252613,15.149,0.025
53883.224932,15.128,0.022
53883.236343,14.978,0.02
53883.247849,15.01,0.02
53883.270725,14.998,0.024
53884.229159,15.297,0.028
53884.240734,15.051,0.022
53884.252315,14.806,0.02
53884.263906,14.942,0.022
53886.219226,15.869,0.041
53886.229308,15.855,0.041
53886.239517,15.712,0.038
53886.249518,15.497,0.031
53901.18158,15.799,0.113
53901.191557,15.634,0.063
53901.201575,15.747,0.061
53910.178546,15.278,0.031
53911.219352,15.307,0.066
53914.182877,15.023,0.035
54121.403328,15.79,0.033
54121.416065,15.805,0.035
54121.428645,15.871,0.038
54121.441032,15.874,0.038
54121.453806,15.806,0.035
54124.410831,15.697,0.024
54124.424169,15.689,0.022
54124.437058,15.711,0.024
54124.450879,15.775,0.024
54124.46397,15.839,0.026
54149.395847,14.991,0.016
54149.407553,15.068,0.016
54149.420389,15.126,0.018
54149.432099,15.159,0.018
54149.44401,15.211,0.018
54155.358521,15.729,0.024
54155.370349,15.811,0.026
54155.382193,15.808,0.026
54155.394149,15.844,0.026
54155.405988,15.797,0.026
54156.329636,15.698,0.028
54156.341254,15.682,0.026
54156.352773,15.714,0.026
54156.364302,15.742,0.026
54156.375834,15.764,0.024
54174.323272,15.338,0.023
54174.333924,15.519,0.041
54174.344589,15.417,0.023
54174.355498,15.452,0.026
54174.366201,15.47,0.025
54175.371941,15.457,0.02
54175.38279,15.46,0.02
54175.393626,15.487,0.02
54175.404553,15.554,0.022
54175.415503,15.578,0.022
54180.329266,15.033,0.015
54180.339648,15.08,0.016
54180.349964,15.095,0.016
54180.36026,15.152,0.016
54180.370884,15.181,0.018
54200.27559,15.592,0.035
54200.28517,15.609,0.036
54200.304072,15.652,0.045
54207.270908,15.345,0.018
54207.280051,15.377,0.02
54210.268217,15.195,0.018
54210.277219,15.227,0.018
54210.286196,15.266,0.02
54210.29519,15.307,0.022
54210.304212,15.317,0.022
54447.460682,14.889,0.013
54447.47374,15.014,0.024
54447.487514,15.028,0.013
54447.500563,15.063,0.013
54447.513612,15.134,0.013
54450.465278,15.684,0.024
54450.478426,15.402,0.017
54450.491613,15.134,0.013
54450.504776,14.876,0.011
54450.51794,14.867,0.009
54454.467046,15.787,0.026
54454.480387,15.831,0.026
54454.493424,15.858,0.026
54454.506447,15.827,0.026
54454.519464,15.771,0.024
54475.454753,15.356,0.015
54475.46785,15.404,0.015
54475.48076,15.425,0.015
54475.49363,15.441,0.015
54475.506501,15.472,0.017
54483.401119,15.775,0.043
54483.414369,15.719,0.037
54483.427295,15.387,0.022
54483.440206,15.174,0.017
54483.453111,14.964,0.013
54509.340805,15.084,0.011
54509.352855,15.118,0.011
54509.364898,15.186,0.011
54509.376939,15.207,0.011
54509.389025,15.25,0.011
54524.444833,15.852,0.028
54524.456399,15.74,0.026
54524.467957,15.745,0.026
54524.479623,15.571,0.024
54524.491764,15.295,0.018
54532.335309,15.569,0.015
54532.346698,15.627,0.017
54532.358017,15.652,0.017
54532.369282,15.68,0.018
54532.380526,15.658,0.017
54535.451628,15.763,0.031
54535.462514,15.735,0.031
54535.484346,15.717,0.033
54535.495407,15.739,0.035
54538.314136,15.333,0.013
54538.325254,15.366,0.015
54538.33635,15.392,0.013
54538.347499,15.426,0.015
54538.358521,15.455,0.015
54543.250092,15.249,0.028
54543.260904,15.032,0.02
54543.271679,14.936,0.018
54555.353874,15.8,0.02
54555.365724,15.842,0.02
54555.377579,15.822,0.022
54555.38944,15.775,0.022
54555.401293,15.612,0.02
54580.246859,15.481,0.026
54580.257461,15.263,0.022
54580.268056,15.059,0.018
54580.278657,14.966,0.017
54580.289323,14.982,0.017
54586.244784,15.716,0.026
54586.275942,15.767,0.026
54594.264778,15.686,0.026
54594.275095,15.671,0.028
54594.285367,15.694,0.028
54594.295647,15.713,0.028
54611.210284,14.944,0.011
54611.220166,15.0,0.013
54611.230033,15.052,0.013
54611.240047,15.082,0.013
54611.249825,15.15,0.015
54618.210049,15.759,0.028
54618.220268,15.75,0.026
54618.230483,15.833,0.03
54618.240704,15.825,0.03
54618.250953,15.77,0.028
