mjd,m,merr
52650.466661,16.199,0.048
52650.481209,16.27,0.035
52650.481819,16.208,0.045
52650.495857,16.324,0.035
52650.49649,16.199,0.045
52650.510694,16.317,0.033
52666.396213,15.787,0.028
52666.411455,15.453,0.02
52666.426543,15.476,0.02
52666.441824,15.527,0.02
52666.45644,15.635,0.024
52706.364247,16.421,0.044
52706.377132,16.431,0.046
52706.390096,16.306,0.041
52706.403215,16.022,0.031
52706.41624,15.669,0.024
52711.313798,16.362,0.054
52711.327906,16.409,0.055
52711.342394,16.328,0.05
52711.356443,16.37,0.052
52711.370488,16.302,0.048
52724.306635,16.009,0.025
52724.307237,16.017,0.033
52724.319141,16.047,0.025
52724.319843,16.041,0.035
52724.33207,16.086,0.036
52724.344209,16.098,0.028
52724.344813,16.126,0.038
52724.356321,16.201,0.03
52739.247666,16.302,0.05
52739.259072,16.281,0.048
52739.270476,16.351,0.052
52739.281957,16.358,0.05
52739.293358,16.395,0.054
52753.259634,16.141,0.046
52753.272747,16.245,0.049
52753.285808,16.254,0.051
52753.299833,16.281,0.054
52753.312073,16.354,0.053
52753.312426,16.231,0.049
52769.21294,16.146,0.057
52769.224574,15.819,0.044
52769.236271,15.545,0.035
52769.248219,15.427,0.033
52769.260676,15.442,0.037
52797.174858,15.734,0.044
52797.18479,15.749,0.05
52797.194743,15.757,0.054
52797.204789,15.883,0.059
52797.214773,15.871,0.059
52811.175667,16.154,0.054
52811.185573,16.247,0.057
52811.195542,16.286,0.061
52811.20539,16.303,0.061
52811.215269,16.322,0.061
52825.201036,16.174,0.074
52825.210983,16.191,0.068
53006.393145,15.894,0.048
53006.443674,15.929,0.043
53034.39442,16.124,0.043
53034.406261,16.195,0.045
53034.418087,16.309,0.049
53034.430021,16.251,0.049
53034.442038,16.312,0.049
53051.338425,16.441,0.043
53051.350657,16.38,0.041
53051.362256,16.254,0.035
53051.373984,15.837,0.026
53051.385613,15.579,0.018
53064.285058,16.208,0.04
53064.297104,16.225,0.038
53064.309476,16.262,0.038
53064.321808,16.3,0.046
53064.334016,16.239,0.035
53078.324645,15.802,0.03
53078.335609,15.864,0.031
53078.346512,15.946,0.033
53081.346811,15.755,0.023
53081.358471,15.774,0.023
53081.368701,15.843,0.024
53081.369996,15.839,0.025
53081.379702,15.898,0.026
53081.381421,15.872,0.026
53081.390766,15.913,0.026
53081.392714,15.887,0.026
53081.401734,15.972,0.026
53081.412655,16.022,0.028
53093.276685,16.363,0.036
53093.286562,16.355,0.036
53109.240567,15.904,0.033
53109.254986,15.943,0.035
53109.266891,15.977,0.035
53109.277627,16.041,0.038
53109.296421,16.1,0.04
53121.249038,16.384,0.039
53121.259701,16.302,0.037
53121.270477,16.111,0.03
53121.281131,15.776,0.022
53121.291803,15.551,0.02
53137.209589,16.176,0.048
53137.219216,16.148,0.046
53137.229648,16.168,0.043
53137.239464,16.259,0.046
53137.249083,16.299,0.049
53150.207789,15.552,0.043
53150.225357,15.937,0.122
53165.176223,16.154,0.076
53165.196042,16.344,0.084
53165.221975,16.332,0.058
53165.231816,16.399,0.063
53177.177144,15.994,0.033
53177.18707,16.069,0.037
53437.413449,15.511,0.02
53437.424759,15.571,0.022
53437.436057,15.621,0.024
53437.452768,15.693,0.026
53437.464066,15.774,0.028
53449.281798,16.3,0.07
53449.292265,16.275,0.057
53449.30322,16.22,0.061
53449.313719,16.329,0.059
53501.246611,15.534,0.026
53501.261482,15.617,0.028
53501.276657,15.716,0.031
53501.288831,15.784,0.033
53501.299023,15.827,0.035
53529.166501,15.808,0.039
53529.1769,15.851,0.041
53529.187212,15.862,0.041
53529.197782,15.953,0.041
53529.208118,15.986,0.043
53540.19558,16.252,0.152
53540.205282,15.761,0.093
53540.214984,15.552,0.08
53739.476593,16.136,0.037
53739.490206,16.113,0.035
53739.503121,16.215,0.037
53739.516031,16.196,0.035
53739.529144,16.234,0.035
53770.415293,16.207,0.043
53770.428101,16.244,0.043
53770.442394,16.248,0.043
53770.459786,16.302,0.043
53770.474005,16.306,0.043
53787.409489,15.635,0.053
53787.422384,15.486,0.021
53813.361122,15.941,0.054
53813.372153,15.935,0.054
53813.383152,16.025,0.059
53813.394173,16.017,0.061
53813.405204,16.026,0.063
53844.246087,15.835,0.036
53844.257188,15.884,0.038
53844.268124,15.968,0.038
53844.2791,15.985,0.04
53844.290366,15.97,0.038
53853.244844,16.148,0.058
53853.255229,15.842,0.043
53853.265518,15.609,0.035
53853.275832,15.475,0.031
53853.286287,15.49,0.031
53883.214183,15.672,0.04
53887.224796,15.403,0.035
53887.235427,15.454,0.035
53887.246083,15.497,0.039
53887.256797,15.629,0.041
53887.267508,15.642,0.041
53902.175469,16.138,0.068
53902.198692,16.242,0.073
53902.209672,16.192,0.069
53915.174779,15.85,0.056
53915.184645,15.88,0.058
53915.196016,15.963,0.061
53915.207223,16.013,0.137
54084.473069,16.133,0.069
54084.485926,16.138,0.066
54084.498851,16.215,0.069
54084.511671,16.301,0.086
54098.425718,16.115,0.041
54098.43783,15.722,0.026
54098.45301,15.462,0.02
54098.466374,15.45,0.022
54098.478589,15.518,0.022
54121.390896,16.033,0.033
54121.403108,16.045,0.033
54121.415307,16.092,0.037
54121.427507,16.124,0.041
54121.439695,16.138,0.039
54154.338707,16.116,0.041
54154.35012,16.05,0.04
54154.361536,16.161,0.043
54154.372996,16.165,0.043
54154.384501,16.219,0.045
54169.326972,16.454,0.083
54169.337933,16.126,0.061
54169.34888,15.885,0.048
54169.359761,15.584,0.038
54169.370657,15.517,0.035
54205.268503,16.526,0.066
54205.277786,16.443,0.058
54205.287052,16.491,0.059
54205.296899,16.263,0.051
54205.306645,16.017,0.04
54560.247262,16.3,0.028
54560.258852,16.286,0.026
54560.270419,16.301,0.028
54560.282025,16.32,0.028
54560.29389,16.314,0.028
54581.257997,15.745,0.074
54581.267771,15.763,0.068
54581.277554,15.826,0.076
54589.248527,16.417,0.039
54589.258933,16.383,0.037
54589.269464,16.17,0.031
54589.279951,15.843,0.022
54589.29044,15.611,0.018
54594.249459,16.307,0.086
54594.268432,16.337,0.092
54594.278472,16.416,0.096
54594.288305,16.533,0.104
54612.207487,15.936,0.053
54612.216078,15.922,0.051
54612.225573,15.891,0.051
54612.234093,15.973,0.056
54612.242612,16.002,0.056
54621.209132,15.544,0.02
54621.219231,15.429,0.018
54621.229371,15.456,0.02
54621.23949,15.531,0.022
54621.249594,15.613,0.024
