mjd,m,merr
52639.451578,15.127,0.017
52639.466362,15.182,0.017
52639.481714,15.225,0.017
52639.496372,15.282,0.018
52639.511312,15.475,0.02
52650.426539,15.614,0.024
52650.454586,15.638,0.022
52650.46869,15.429,0.018
52650.482723,15.327,0.018
52665.390377,15.162,0.017
52665.404781,15.237,0.018
52665.419064,15.282,0.018
52665.43359,15.393,0.02
52665.447946,15.56,0.022
52677.40122,15.187,0.022
52677.415506,15.155,0.018
52677.429925,15.319,0.02
52677.444222,15.424,0.037
52706.316013,15.166,0.018
52706.316129,15.206,0.018
52706.329318,15.179,0.018
52706.329433,15.167,0.018
52706.342912,15.18,0.018
52706.343029,15.177,0.018
52706.356257,15.319,0.018
52706.356372,15.186,0.018
52706.369439,15.34,0.02
52706.369555,15.233,0.018
52712.310686,15.237,0.03
52712.324326,15.202,0.031
52712.337317,15.15,0.024
52712.350273,15.159,0.022
52712.363189,15.158,0.024
52724.29982,15.516,0.02
52724.311384,15.363,0.017
52724.329787,15.23,0.017
52724.342354,15.229,0.015
52724.354269,15.154,0.015
52753.253939,15.306,0.02
52753.266605,15.253,0.018
52753.283152,15.174,0.018
52753.295268,15.148,0.018
52753.3082,15.161,0.017
52770.21219,15.152,0.028
52770.236278,15.181,0.028
52770.24841,15.206,0.03
52770.260679,15.378,0.035
52787.216893,15.59,0.022
52787.227706,15.589,0.024
52787.238251,15.536,0.022
52787.248847,15.463,0.02
52787.259416,15.326,0.018
52797.174503,15.592,0.041
52797.184428,15.571,0.039
52797.194384,15.634,0.043
52797.204424,15.49,0.044
52797.21441,15.443,0.041
52811.17531,15.136,0.022
52811.185215,15.16,0.022
52811.195183,15.187,0.024
52811.205028,15.212,0.024
52811.21491,15.262,0.024
52825.191363,15.601,0.05
52825.201301,15.513,0.041
52825.211248,15.416,0.033
52992.46733,15.042,0.015
52992.480713,15.003,0.013
52992.494254,15.056,0.013
52992.507726,15.104,0.015
52992.520989,15.195,0.02
53034.401026,15.167,0.017
53034.413431,15.176,0.017
53034.425952,15.22,0.018
53034.438265,15.28,0.018
53034.450573,15.468,0.02
53050.333203,15.314,0.024
53065.334648,15.3,0.018
53065.346287,15.249,0.017
53065.357633,15.351,0.017
53065.368957,15.213,0.018
53065.380449,15.156,0.015
53078.286426,15.417,0.018
53078.297188,15.313,0.017
53078.307937,15.263,0.017
53078.318754,15.213,0.017
53078.329338,15.221,0.015
53079.331308,15.284,0.018
53079.342554,15.35,0.02
53079.354031,15.512,0.021
53079.361323,15.517,0.02
53079.36518,15.611,0.025
53079.372644,15.574,0.02
53079.377296,15.644,0.026
53079.383858,15.601,0.022
53079.395156,15.591,0.022
53079.406738,15.518,0.02
53093.279807,15.589,0.018
53093.290227,15.577,0.018
53093.300513,15.556,0.018
53093.310806,15.496,0.017
53093.321125,15.301,0.015
53109.245246,15.631,0.024
53109.25636,15.602,0.022
53109.27858,15.537,0.02
53109.289627,15.379,0.018
53121.248635,15.352,0.017
53121.259297,15.503,0.018
53121.270073,15.564,0.02
53121.280727,15.581,0.02
53121.291399,15.582,0.02
53150.20743,15.69,0.055
53165.176316,15.178,0.022
53165.196279,15.252,0.026
53165.206292,15.27,0.022
53165.21628,15.361,0.026
53177.1768,15.14,0.017
53177.186725,15.143,0.017
53341.474108,15.517,0.046
53341.500915,15.538,0.046
53341.513447,15.562,0.046
53449.281321,15.252,0.026
53449.291788,15.293,0.024
53449.302743,15.454,0.03
53449.313242,15.52,0.028
53473.388125,15.591,0.028
53473.400074,15.595,0.03
53473.409891,15.488,0.026
53473.419769,15.351,0.026
53473.429382,15.234,0.024
53500.243039,15.587,0.026
53500.253778,15.596,0.026
53500.265151,15.605,0.026
53500.276921,15.526,0.024
53500.28714,15.378,0.022
53528.220421,15.433,0.03
53528.23168,15.554,0.033
53528.242744,15.546,0.033
53528.253454,15.603,0.033
53528.26388,15.578,0.035
53539.175351,15.523,0.055
53539.184873,15.459,0.054
53539.194409,15.379,0.048
53539.20392,15.382,0.05
53550.176959,15.226,0.022
53550.206616,15.448,0.028
53550.2165,15.535,0.033
53714.46153,15.599,0.028
53714.474331,15.559,0.026
53714.487334,15.445,0.02
53714.500027,15.291,0.018
53714.512928,15.234,0.017
53740.468345,15.162,0.017
53740.481237,15.151,0.015
53740.494189,15.179,0.015
53740.506947,15.19,0.017
53740.51976,15.28,0.017
53770.415722,15.55,0.024
53770.428528,15.586,0.024
53770.460216,15.526,0.022
53787.421944,15.164,0.016
53813.360512,15.17,0.028
53813.371541,15.142,0.028
53813.382537,15.146,0.028
53813.393559,15.211,0.03
53813.404589,15.231,0.031
53823.252534,15.588,0.021
53823.263771,15.413,0.02
53823.274585,15.326,0.018
53823.285637,15.249,0.016
53823.296405,15.205,0.015
53844.238161,15.415,0.028
53844.248383,15.417,0.026
53844.258686,15.549,0.03
53844.268913,15.576,0.03
53844.279148,15.61,0.03
53853.244361,15.274,0.026
53853.254746,15.307,0.026
53853.265037,15.498,0.03
53853.27535,15.533,0.033
53853.285805,15.621,0.035
53887.224313,15.191,0.03
53887.234946,15.225,0.031
53887.2456,15.277,0.031
53887.256314,15.395,0.031
53887.267023,15.332,0.031
53902.209256,15.345,0.03
53915.174366,15.342,0.033
53915.18422,15.318,0.031
53915.195608,15.169,0.031
53915.206813,15.159,0.035
54084.459574,15.364,0.038
54084.47249,15.19,0.028
54084.48535,15.161,0.026
54084.498269,15.157,0.026
54084.511091,15.168,0.03
54098.425188,15.196,0.018
54098.4373,15.236,0.018
54098.452481,15.309,0.018
54098.465845,15.478,0.02
54098.478059,15.602,0.024
54110.411839,15.171,0.038
54121.390331,15.533,0.02
54121.402543,15.629,0.022
54121.414744,15.597,0.024
54121.42694,15.621,0.024
54121.439134,15.533,0.022
54155.354108,15.231,0.02
54155.365622,15.277,0.02
54155.377365,15.35,0.02
54155.389179,15.459,0.021
54155.401665,15.585,0.026
54206.269573,15.247,0.018
54206.278947,15.259,0.02
54206.288329,15.3,0.02
54206.297631,15.348,0.021
54206.306986,15.431,0.023
54529.218184,15.143,0.025
54529.229518,15.291,0.023
54529.241303,15.187,0.025
54529.252383,15.186,0.023
54529.263452,15.257,0.025
54562.184045,15.69,0.026
54574.284053,15.369,0.041
54582.246414,15.195,0.017
54582.25675,15.284,0.022
54582.26716,15.367,0.02
54582.277504,15.494,0.02
54582.287869,15.598,0.026
54613.205014,15.209,0.02
54613.214853,15.211,0.018
54613.224867,15.19,0.028
54613.234926,15.342,0.035
