mjd,m,merr
52639.451458,15.5,0.022
52639.466241,15.521,0.022
52639.481593,15.514,0.022
52639.496252,15.566,0.024
52639.511191,15.559,0.022
52650.426659,15.946,0.031
52650.440832,16.03,0.033
52650.454707,16.043,0.033
52650.46881,16.036,0.033
52650.482843,16.026,0.031
52665.3905,15.924,0.033
52665.404904,15.735,0.028
52665.419187,15.685,0.026
52665.433714,15.541,0.022
52665.44807,15.479,0.022
52666.459382,16.056,0.031
52666.473833,16.076,0.033
52666.488298,16.086,0.031
52666.502826,16.046,0.031
52666.517295,16.096,0.033
52677.386788,15.822,0.059
52677.401344,15.738,0.035
52677.41563,15.649,0.028
52677.430049,15.593,0.03
52677.444346,15.513,0.043
52680.422697,15.954,0.033
52680.437588,15.892,0.035
52680.452473,15.965,0.035
52680.467216,15.966,0.036
52680.483323,15.982,0.038
52697.411704,15.549,0.063
52706.316252,15.836,0.03
52706.329556,15.843,0.031
52706.343151,15.847,0.03
52706.356495,15.868,0.03
52706.369676,15.878,0.031
52712.310564,15.786,0.046
52712.324204,15.875,0.059
52712.337182,15.847,0.048
52712.350151,15.906,0.044
52712.363067,15.915,0.044
52724.299937,15.843,0.026
52724.311502,15.807,0.026
52724.329904,15.829,0.026
52724.342472,15.884,0.028
52724.354388,15.891,0.028
52753.253826,16.052,0.037
52753.266492,16.047,0.039
52753.283039,16.031,0.035
52753.295155,16.021,0.039
52753.308087,16.04,0.037
52770.212535,15.703,0.043
52770.224944,15.731,0.044
52770.236708,15.724,0.044
52770.248796,15.753,0.044
52770.261023,15.775,0.048
52787.216786,16.072,0.033
52787.227599,16.056,0.035
52787.238144,16.076,0.033
52787.24874,16.074,0.035
52787.259309,16.055,0.035
52797.174414,16.098,0.061
52797.18434,16.074,0.059
52797.194295,16.131,0.065
52797.204334,16.119,0.074
52797.214321,16.213,0.08
52811.175222,16.059,0.05
52811.185126,16.048,0.048
52811.195094,16.093,0.05
52811.20494,16.16,0.054
52811.214821,16.114,0.052
52825.191228,15.886,0.081
52991.506293,15.483,0.02
52991.519548,15.548,0.022
52991.533201,15.533,0.043
53024.404136,15.893,0.039
53024.455747,15.973,0.033
53034.400921,15.916,0.031
53034.413265,15.909,0.031
53034.425847,15.968,0.033
53034.438159,15.941,0.033
53034.450468,15.966,0.033
53050.333099,15.662,0.037
53050.344789,15.651,0.05
53050.368084,15.732,0.054
53050.379698,15.769,0.052
53065.334783,16.122,0.037
53065.34642,16.067,0.035
53065.357766,16.099,0.035
53065.36909,16.155,0.039
53065.380582,16.158,0.035
53078.286327,15.741,0.024
53078.297089,15.746,0.024
53078.307839,15.756,0.024
53078.318655,15.781,0.026
53078.329239,15.789,0.026
53093.28013,16.058,0.026
53093.290552,16.044,0.026
53093.300837,15.999,0.024
53093.31113,16.015,0.024
53093.32145,16.026,0.024
53109.245337,16.077,0.035
53109.256452,16.064,0.033
53109.267588,16.068,0.033
53109.278671,16.077,0.033
53109.289719,16.046,0.033
53122.243739,15.693,0.025
53122.254106,15.71,0.025
53122.264361,15.722,0.025
53122.274621,15.769,0.026
53122.28494,15.772,0.026
53153.207089,16.04,0.045
53153.217254,16.059,0.046
53153.226706,16.033,0.045
53153.235728,16.052,0.046
53153.244231,16.064,0.048
53165.176402,15.937,0.043
53165.196365,15.953,0.048
53165.206378,16.07,0.043
53165.216367,16.07,0.054
53178.1767,15.505,0.02
53178.186129,15.513,0.021
53178.196163,15.488,0.021
53178.205596,15.578,0.023
53178.215048,15.594,0.033
53341.474207,15.88,0.063
53341.488008,15.817,0.058
53341.501014,15.705,0.051
53341.513546,15.646,0.048
53341.526088,15.526,0.041
53443.384298,16.057,0.046
53443.394947,16.102,0.044
53443.416202,16.116,0.094
53443.426826,16.2,0.098
53473.388227,16.091,0.043
53473.400175,16.124,0.046
53473.409992,16.127,0.046
53473.419871,16.201,0.05
53473.429484,16.155,0.05
53500.24314,15.51,0.024
53500.253879,15.587,0.026
53500.265251,15.586,0.024
53500.277022,15.649,0.026
53500.28724,15.636,0.026
53528.220351,15.509,0.031
53528.23161,15.543,0.031
53528.242664,15.544,0.031
53528.253368,15.571,0.031
53528.26381,15.597,0.033
53539.17543,15.987,0.083
53539.184954,15.993,0.085
53539.194487,15.921,0.081
53539.204001,15.868,0.08
53539.213513,15.996,0.089
53550.176867,15.718,0.033
53550.206525,15.506,0.03
53550.216408,15.492,0.03
53714.461388,15.849,0.035
53714.474189,15.879,0.033
53714.487192,15.872,0.031
53714.499884,15.948,0.03
53714.512787,15.895,0.03
53740.468203,15.857,0.03
53740.481096,15.885,0.03
53740.494047,15.927,0.03
53740.506806,15.918,0.031
53740.519619,15.941,0.031
53786.343187,15.684,0.031
53786.355125,15.813,0.074
53786.367066,15.726,0.046
53786.379104,15.752,0.03
53813.360634,16.039,0.059
53813.371663,15.994,0.057
53813.382659,16.043,0.061
53813.39368,16.074,0.063
53813.404711,16.043,0.061
53815.338002,16.066,0.05
53815.349147,16.054,0.05
53815.360284,16.059,0.05
53815.371447,16.036,0.05
53815.382611,16.005,0.052
53823.252671,16.048,0.033
53823.263906,16.031,0.033
53823.274721,16.027,0.031
53823.285773,16.014,0.031
53823.296541,16.059,0.033
53844.238272,15.497,0.028
53844.248494,15.482,0.026
53844.258797,15.479,0.026
53844.269024,15.52,0.026
53844.279259,15.568,0.028
53853.244456,16.037,0.051
53853.254842,16.009,0.049
53853.265131,16.05,0.049
53853.275445,16.028,0.049
53853.2859,16.021,0.046
53883.213737,15.851,0.038
53883.224029,15.963,0.043
53883.234323,15.932,0.04
53883.244611,15.971,0.04
53883.254929,16.018,0.043
53887.224395,15.996,0.057
53887.235028,15.942,0.055
53887.245681,15.999,0.057
53887.256396,16.03,0.057
53887.267105,16.044,0.057
53902.175133,16.144,0.066
53902.198358,15.945,0.053
53902.209336,15.827,0.046
53915.174446,15.901,0.054
53915.1843,15.961,0.061
53915.195688,15.942,0.059
53915.206893,16.09,0.083
53931.170665,15.967,0.045
54084.459689,15.808,0.059
54084.472606,15.803,0.049
54084.485467,15.867,0.048
54084.498385,15.832,0.046
54084.511208,15.897,0.056
54098.425291,15.748,0.03
54098.437403,15.753,0.028
54098.452584,15.758,0.028
54098.465948,15.804,0.03
54098.478162,15.785,0.028
54110.399248,15.779,0.069
54110.411955,15.783,0.063
54110.424738,15.815,0.066
54110.437426,15.889,0.068
54110.45035,15.787,0.068
54121.39044,16.054,0.031
54121.402652,16.048,0.031
54121.414853,16.01,0.033
54121.427049,16.051,0.035
54121.439242,16.082,0.035
54155.354256,16.017,0.038
54155.365772,16.006,0.036
54155.377561,16.03,0.038
54155.389325,16.055,0.04
54155.401814,15.994,0.038
54206.269453,15.509,0.023
54206.278827,15.501,0.023
54206.28821,15.459,0.023
54206.29751,15.469,0.023
54206.306865,15.512,0.025
54529.263598,16.042,0.046
54529.27554,16.037,0.045
54529.298311,15.999,0.041
54529.309409,15.994,0.046
54562.129743,15.974,0.023
54574.284169,15.771,0.061
54582.246525,16.097,0.037
54582.256866,16.056,0.037
54582.267278,15.921,0.031
54582.277616,15.761,0.026
54582.287986,15.688,0.026
54613.205115,15.894,0.037
54613.214954,15.832,0.039
54613.224968,15.892,0.05
54613.235027,15.94,0.067
54613.244847,15.838,0.087
