mjd,m,merr
52621.454414,15.37,0.026
52621.469986,15.427,0.026
52621.484806,15.406,0.025
52621.499664,15.42,0.025
52621.514718,15.396,0.025
52623.456984,15.417,0.03
52623.472668,15.416,0.035
52623.488526,15.471,0.039
52623.504447,15.398,0.028
52651.360227,15.362,0.026
52651.379589,15.456,0.025
52651.395182,15.379,0.021
52651.410326,15.386,0.023
52651.425498,15.359,0.023
52652.453157,15.399,0.017
52652.468201,15.514,0.018
52652.483436,15.723,0.022
52652.501616,15.948,0.028
52652.516686,16.084,0.033
52664.355591,15.407,0.02
52664.370837,15.472,0.028
52664.386071,15.423,0.081
52664.401407,15.43,0.093
52664.41668,15.382,0.057
52695.320136,15.403,0.015
52695.333926,15.396,0.013
52695.347698,15.418,0.02
52695.3615,15.394,0.02
52722.300146,15.502,0.021
52722.312167,15.469,0.021
52722.324162,15.333,0.015
52722.324278,15.454,0.021
52722.33629,15.438,0.021
52722.348297,15.46,0.021
52728.285737,15.462,0.018
52728.298348,15.404,0.017
52728.311142,15.398,0.017
52728.323427,15.42,0.017
52728.337355,15.449,0.017
52729.283157,15.524,0.02
52729.295004,15.631,0.022
52729.306625,15.781,0.026
52729.31827,16.031,0.031
52729.329872,16.218,0.037
52730.288103,15.374,0.018
52730.29967,15.36,0.018
52730.311317,15.364,0.018
52730.322862,15.376,0.018
52730.334418,15.36,0.018
52751.253334,15.381,0.023
52751.264101,15.391,0.023
52751.274838,15.393,0.023
52751.286231,15.379,0.023
52751.29697,15.368,0.023
52771.213505,15.324,0.05
52771.225127,15.422,0.037
52771.236839,15.441,0.037
52771.248478,15.393,0.037
52771.260345,15.446,0.039
52782.214925,15.382,0.069
52800.215816,15.456,0.055
52800.226192,15.437,0.057
52800.23634,15.465,0.061
52800.246444,15.472,0.063
52810.178459,15.413,0.024
52810.188396,15.484,0.083
52810.218284,15.433,0.024
52812.179266,15.413,0.022
52812.189499,15.443,0.024
52812.199823,15.41,0.022
52812.21016,15.418,0.022
52812.220506,15.398,0.024
52826.170836,15.792,0.044
52826.180697,15.881,0.05
52826.190664,16.067,0.057
52826.200681,16.2,0.068
52826.210536,16.2,0.074
52976.46277,15.546,0.022
52976.476095,15.762,0.026
52976.489574,15.972,0.031
52976.502601,16.107,0.033
52976.515704,15.937,0.028
52990.463738,15.387,0.02
52990.477117,15.272,0.018
52990.490145,15.269,0.017
52990.503348,15.134,0.017
52996.461062,15.458,0.015
52996.474106,15.443,0.015
52996.487066,15.495,0.015
52996.500239,15.601,0.017
52996.51317,15.794,0.018
53023.403383,15.421,0.015
53023.41621,15.394,0.015
53023.428891,15.379,0.013
53023.44157,15.364,0.013
53023.45428,15.353,0.013
53035.425796,15.474,0.036
53035.438077,15.476,0.018
53035.450449,15.498,0.031
53035.462755,15.48,0.018
53046.355341,15.383,0.024
53046.367289,15.289,0.024
53046.379304,15.283,0.022
53046.391405,15.283,0.024
53046.403449,15.264,0.024
53094.299142,15.058,0.015
53094.309744,15.378,0.015
53094.320237,15.354,0.015
53094.330677,15.34,0.015
53095.269404,15.403,0.025
53095.279412,15.421,0.023
53095.289475,15.408,0.023
53095.299896,15.402,0.023
53095.309932,15.38,0.023
53107.248912,15.456,0.017
53107.260164,15.444,0.015
53107.271356,15.449,0.017
53107.282624,15.417,0.017
53107.293842,15.418,0.015
53127.265144,15.456,0.044
53127.275102,15.416,0.044
53127.285134,15.356,0.043
53136.241997,15.424,0.02
53136.251368,15.424,0.02
53136.26073,15.414,0.02
53136.270106,15.444,0.02
53136.279373,15.39,0.02
53154.210789,15.376,0.031
53154.219639,15.382,0.031
53154.228524,15.457,0.033
53154.237317,15.374,0.035
53154.246231,15.38,0.031
53164.218363,15.43,0.018
53164.228536,15.394,0.018
53164.238767,15.422,0.02
53164.248946,15.427,0.02
53164.259128,15.449,0.02
53194.202091,15.451,0.096
53194.212221,15.431,0.054
53341.472141,15.409,0.037
53341.484214,15.415,0.035
53341.496288,15.459,0.035
53341.508871,15.439,0.033
53341.520946,15.439,0.033
53358.47022,15.566,0.025
53358.484683,15.636,0.026
53358.499242,15.72,0.028
53358.5137,15.804,0.03
53358.528255,15.666,0.026
53422.343517,15.534,0.043
53422.355506,15.704,0.048
53422.367485,15.92,0.055
53450.337789,15.699,0.043
53450.34857,15.612,0.033
53450.359826,15.724,0.037
53450.370989,15.659,0.035
53479.289028,15.375,0.037
53479.300909,15.378,0.037
53479.31121,15.412,0.037
53479.321046,15.426,0.039
53479.330547,15.468,0.039
53537.177375,15.661,0.057
53537.187467,15.677,0.091
53537.197533,15.716,0.072
53537.207604,15.695,0.07
53553.174755,15.455,0.03
53553.185261,15.444,0.03
53553.195969,15.412,0.03
53553.206496,15.386,0.028
53553.217043,15.378,0.028
53566.207531,15.442,0.048
53566.218369,15.454,0.052
53566.229049,15.353,0.052
53566.239675,15.447,0.052
53728.464653,15.49,0.024
53728.478006,15.468,0.026
53728.4919,15.437,0.024
53728.505254,15.465,0.028
53728.518542,15.423,0.026
53772.358016,15.444,0.02
53772.370783,15.422,0.018
53772.383606,15.44,0.018
53772.396682,15.429,0.018
53772.409609,15.402,0.018
53774.412503,15.508,0.03
53774.424996,15.487,0.028
53774.437613,15.503,0.028
53774.450445,15.478,0.026
53774.463249,15.477,0.026
53825.288208,15.674,0.023
53825.299311,15.627,0.023
53825.311367,15.567,0.021
53825.322524,15.528,0.02
53825.333704,15.502,0.021
53842.250073,15.381,0.031
53842.26165,15.401,0.033
53842.273226,15.412,0.035
53842.284946,15.426,0.036
53842.296565,15.394,0.035
53855.243639,15.484,0.025
53855.253822,15.447,0.025
53855.264045,15.442,0.025
53855.274239,15.5,0.025
53855.28432,15.495,0.025
53878.237762,15.491,0.033
53878.248555,15.542,0.033
53878.259255,15.615,0.035
53878.270253,15.791,0.041
53878.282064,15.967,0.048
53892.213645,15.433,0.057
53892.243844,15.351,0.061
53892.253905,15.307,0.057
53903.178919,15.432,0.031
53903.199987,15.407,0.028
53903.210262,15.415,0.03
53903.22006,15.426,0.028
53903.229579,15.437,0.03
53932.188669,15.597,0.048
53932.202176,15.548,0.061
53932.212459,15.582,0.041
54070.461623,15.479,0.028
54070.475013,15.456,0.026
54070.488007,15.472,0.026
54070.501016,15.472,0.025
54070.514063,15.426,0.025
54086.430923,15.447,0.033
54086.458064,15.407,0.03
54086.471352,15.408,0.028
54086.48641,15.472,0.028
54109.381229,15.356,0.064
54109.393101,15.392,0.053
54140.392129,15.46,0.026
54140.404368,15.468,0.026
54140.41666,15.473,0.026
54140.428919,15.503,0.026
54140.441216,15.572,0.028
54187.282539,15.672,0.04
54187.293432,15.577,0.035
54187.304095,15.47,0.031
54200.274546,15.36,0.08
54200.284779,15.442,0.018
54200.305003,15.451,0.037
54200.3153,15.467,0.022
54210.262464,15.484,0.023
54210.271344,15.482,0.023
54210.280221,15.465,0.023
54210.289092,15.436,0.023
54210.297986,15.477,0.025
54218.231448,15.45,0.046
54218.240026,15.409,0.043
54218.248625,15.361,0.039
54218.257211,15.41,0.043
54218.265879,15.422,0.041
54481.394737,15.44,0.03
54481.407069,15.448,0.03
54481.431267,15.411,0.03
54481.443787,15.449,0.028
54509.333826,15.387,0.023
54509.345898,15.406,0.023
54509.357906,15.374,0.023
54509.369941,15.415,0.023
54509.382592,15.371,0.023
54527.339535,15.431,0.025
54527.351115,15.432,0.023
54536.322414,15.58,0.026
54536.33342,15.478,0.025
54536.344434,15.485,0.025
54536.355381,15.485,0.025
54536.366291,15.417,0.025
54560.300385,15.445,0.03
54560.31275,15.418,0.03
54560.324339,15.439,0.03
54560.335757,15.457,0.03
54560.347252,15.475,0.03
54584.243755,15.511,0.031
54584.253755,15.567,0.033
54584.26377,15.608,0.035
54584.274056,15.694,0.036
54584.284037,15.752,0.038
54615.215918,15.648,0.054
54615.226581,15.473,0.048
54615.236948,15.509,0.051
54615.247194,15.432,0.046
54615.257493,15.405,0.046
