mjd,m,merr
52636.447763,15.635,0.035
52636.463647,15.592,0.031
52636.478321,15.653,0.03
52636.493211,15.663,0.031
52636.507978,15.718,0.031
52653.45379,15.877,0.033
52653.468525,15.945,0.033
52653.483293,15.966,0.035
52653.514778,15.768,0.028
52684.425389,15.689,0.038
52684.440525,15.638,0.036
52684.455358,15.706,0.043
52693.348991,15.641,0.026
52693.364483,15.646,0.026
52693.379819,15.697,0.028
52693.395046,15.751,0.03
52693.410498,15.865,0.033
52721.307933,15.717,0.028
52721.345746,15.929,0.031
52721.358326,15.895,0.031
52750.239685,15.661,0.024
52750.250477,15.667,0.024
52750.261183,15.688,0.057
52750.271964,15.839,0.148
52750.282877,15.847,0.039
52781.215776,16.015,0.041
52781.227021,15.86,0.035
52781.238162,15.818,0.035
52781.249373,15.771,0.035
52781.260672,15.756,0.035
52801.172361,15.641,0.089
52801.182395,15.69,0.096
52801.19231,15.664,0.093
52801.202403,15.785,0.111
52801.212346,15.722,0.096
52809.176518,15.742,0.063
52809.186419,15.718,0.03
52809.215944,15.717,0.03
52830.168516,15.686,0.052
52830.17832,15.709,0.054
52830.188141,15.757,0.057
52830.198028,15.805,0.061
52830.20786,15.941,0.068
52978.481319,15.768,0.033
52978.493733,15.691,0.031
52988.418157,15.774,0.046
52988.435586,15.68,0.043
52988.467826,15.588,0.038
53008.434625,15.956,0.04
53008.449024,15.977,0.04
53008.46328,15.765,0.033
53008.478124,15.756,0.031
53038.450701,15.877,0.055
53038.463329,15.863,0.074
53038.476019,15.784,0.046
53038.490181,15.855,0.087
53045.328907,15.625,0.039
53045.340103,15.684,0.039
53045.351338,15.65,0.039
53045.362448,15.659,0.039
53045.373792,15.694,0.041
53096.278554,15.55,0.043
53096.289005,15.563,0.044
53096.309624,15.598,0.048
53096.319986,15.655,0.054
53108.300592,15.608,0.022
53108.311498,15.606,0.022
53108.322486,15.628,0.022
53108.333448,15.661,0.024
53108.344316,15.677,0.024
53125.24529,15.671,0.054
53125.255108,15.661,0.052
53125.265011,15.719,0.052
53125.274949,15.681,0.05
53125.284839,15.776,0.055
53134.252405,15.841,0.031
53134.261889,15.789,0.03
53134.271315,15.746,0.03
53134.280759,15.699,0.03
53155.212719,15.765,0.065
53155.221378,15.655,0.054
53155.22997,15.62,0.048
53155.238582,15.65,0.05
53155.247224,15.607,0.048
53163.258833,15.679,0.17
53193.176017,15.85,0.037
53193.186013,15.912,0.044
53193.195988,15.976,0.043
53340.435923,15.57,0.052
53340.4482,15.549,0.048
53340.460566,15.523,0.044
53340.47332,15.52,0.044
53340.486026,15.588,0.044
53359.421735,15.76,0.03
53359.464539,15.631,0.026
53359.477784,15.628,0.024
53362.505049,15.911,0.037
53362.519562,15.912,0.039
53362.533726,15.825,0.087
53390.403614,15.69,0.035
53390.416789,15.82,0.039
53390.432584,15.866,0.039
53390.445676,15.808,0.033
53390.45884,15.665,0.028
53429.329733,15.878,0.041
53429.340948,15.881,0.043
53429.352212,15.896,0.043
53429.363465,15.836,0.041
53429.374721,15.743,0.037
53461.287568,15.843,0.033
53461.298181,15.773,0.03
53461.308948,15.72,0.03
53461.319646,15.67,0.028
53461.329868,15.646,0.028
53489.246857,15.744,0.044
53489.2572,15.669,0.03
53535.17607,15.643,0.037
53535.186012,15.632,0.035
53535.195935,15.673,0.035
53535.205863,15.705,0.037
53535.215787,15.738,0.037
53725.465228,15.754,0.037
53725.478223,15.82,0.039
53725.491477,15.905,0.041
53725.505029,15.899,0.041
53725.518007,15.801,0.035
53755.402111,15.665,0.035
53755.414883,15.596,0.033
53755.428225,15.612,0.033
53755.440951,15.664,0.033
53755.453683,15.65,0.033
53775.412898,15.838,0.087
53775.426134,15.766,0.068
53775.439212,15.673,0.065
53775.452033,15.684,0.061
53775.460369,15.832,0.112
53775.488588,15.715,0.056
53775.516894,15.783,0.048
53803.344781,15.82,0.046
53803.35675,15.788,0.038
53803.368782,15.663,0.033
53803.380797,15.651,0.033
53803.392832,15.644,0.033
53807.360338,15.967,0.064
53807.372645,15.676,0.048
53829.274234,15.88,0.074
53833.273294,15.712,0.036
53833.284269,15.734,0.035
53833.305392,15.924,0.041
53858.245731,15.849,0.048
53858.256325,15.914,0.048
53858.266723,15.929,0.048
53858.276943,16.124,0.061
53858.287065,15.947,0.04
53864.242164,15.877,0.073
53864.251768,15.881,0.073
53864.261379,15.785,0.068
53864.271137,15.79,0.068
53864.280683,15.74,0.066
53876.210965,15.78,0.162
53876.221648,16.078,0.149
53876.232266,15.888,0.041
53876.242875,15.943,0.041
53876.253559,15.907,0.041
53905.171549,15.756,0.031
53905.181538,15.805,0.033
53905.191493,15.871,0.036
53905.201419,15.973,0.041
53905.211608,16.102,0.041
53933.164367,15.807,0.023
53933.195571,15.629,0.028
53933.205921,15.653,0.03
54079.420404,15.847,0.059
54079.432268,15.885,0.059
54079.4441,15.75,0.052
54079.456016,15.699,0.046
54079.46785,15.628,0.043
54108.390934,15.939,0.05
54108.403796,15.889,0.048
54108.416422,15.746,0.041
54108.429249,15.709,0.039
54108.441876,15.661,0.037
54139.335202,15.691,0.04
54139.346886,15.598,0.043
54139.358332,15.63,0.049
54139.370035,15.631,0.063
54139.381555,15.702,0.063
54167.338741,15.936,0.061
54167.349787,15.897,0.051
54167.361626,15.815,0.049
54167.372957,15.776,0.048
54465.45973,15.797,0.045
54465.472737,15.727,0.041
54484.39412,15.638,0.041
54484.406232,15.759,0.045
54484.418669,15.804,0.045
54484.430836,15.915,0.049
54484.443125,16.037,0.054
54496.483944,15.859,0.04
54496.507628,15.78,0.036
54496.519766,15.717,0.035
54524.33681,15.663,0.031
54524.34822,15.739,0.031
54524.360306,15.757,0.031
54524.371979,15.824,0.033
54539.324188,15.71,0.031
54539.334605,15.716,0.031
54539.345129,15.791,0.033
54539.355638,15.81,0.033
54571.247091,15.721,0.048
54571.257803,15.711,0.048
54571.268532,15.665,0.046
54571.279271,15.736,0.048
54571.290119,15.71,0.048
