mjd,m,merr
52646.475158,15.992,0.043
52646.490184,15.92,0.038
52646.505399,15.921,0.036
52646.520313,15.939,0.038
52646.535196,15.953,0.038
52666.462563,15.709,0.03
52666.477376,15.714,0.033
52666.492814,15.78,0.03
52666.508216,15.784,0.03
52666.523262,15.796,0.031
52672.401683,15.755,0.033
52672.417659,15.777,0.033
52672.440689,15.833,0.035
52676.364225,15.327,0.024
52676.380047,15.408,0.024
52676.395562,15.453,0.024
52676.413989,15.478,0.024
52676.431119,15.556,0.026
52698.39626,15.654,0.056
52698.411187,15.755,0.03
52698.425096,15.735,0.031
52698.440225,15.759,0.033
52698.455334,15.76,0.033
52710.314554,15.78,0.035
52710.329525,15.786,0.035
52710.32964,15.743,0.038
52710.342622,15.818,0.036
52710.342737,15.761,0.04
52710.355974,15.881,0.036
52710.369051,15.813,0.035
52710.369167,15.759,0.04
52725.370821,15.947,0.035
52725.384765,15.946,0.03
52725.398092,15.957,0.03
52725.410686,15.898,0.03
52725.423096,15.893,0.031
52733.302064,15.754,0.064
52738.299466,15.847,0.033
52738.299582,15.807,0.038
52738.312605,15.901,0.033
52738.352312,15.898,0.033
52738.352427,15.861,0.038
52755.264072,15.664,0.026
52755.276079,15.698,0.026
52755.288033,15.729,0.028
52755.299904,15.735,0.03
52755.31178,15.729,0.03
52761.209057,15.727,0.046
52761.221104,15.728,0.059
52761.233131,15.754,0.043
52761.245395,15.835,0.036
52761.2578,15.795,0.033
52768.213267,15.637,0.037
52768.225104,15.647,0.035
52768.237169,15.63,0.037
52768.24893,15.622,0.037
52768.260842,15.661,0.039
52792.217913,15.771,0.043
52792.228645,15.793,0.046
52792.239572,15.788,0.048
52792.250414,15.807,0.048
52792.261167,15.868,0.051
52793.250941,15.771,0.043
52793.261567,15.793,0.046
52793.271858,15.788,0.048
52793.282622,15.807,0.048
52793.292894,15.868,0.051
52797.17394,15.483,0.056
52797.184242,15.489,0.053
52797.194451,15.513,0.058
52797.204704,15.469,0.056
52797.215011,15.599,0.063
52813.177533,15.679,0.046
52813.187377,15.692,0.045
52813.19727,15.652,0.041
52813.207107,15.682,0.045
52813.216959,15.68,0.048
52824.171577,15.919,0.058
52824.182056,15.941,0.054
52824.19204,15.937,0.051
52824.202008,15.877,0.049
52824.212002,15.882,0.053
52993.458533,15.757,0.022
52993.471777,15.771,0.022
52993.485154,15.779,0.022
52993.498641,15.825,0.022
52993.512036,15.8,0.02
53033.398236,15.847,0.036
53033.410861,15.842,0.033
53033.423261,15.844,0.031
53033.435534,15.806,0.031
53033.448003,15.863,0.033
53053.405724,15.914,0.026
53053.417516,15.924,0.035
53053.42922,15.896,0.033
53053.44093,15.902,0.043
53053.45328,15.949,0.052
53062.358533,15.935,0.043
53062.370723,15.872,0.031
53062.382995,15.921,0.033
53062.394436,15.911,0.028
53079.317236,15.631,0.022
53079.32804,15.651,0.022
53079.338726,15.687,0.024
53079.349495,15.665,0.022
53079.360576,15.675,0.024
53087.344949,15.916,0.023
53087.355808,15.92,0.021
53087.366923,15.936,0.023
53087.378642,15.934,0.023
53087.389616,15.919,0.023
53089.337153,15.552,0.026
53110.245397,15.696,0.03
53110.256478,15.747,0.03
53110.267618,15.796,0.03
53110.278697,15.745,0.028
53110.289874,15.77,0.028
53119.248268,15.794,0.022
53119.25876,15.811,0.022
53119.269245,15.786,0.022
53119.279869,15.775,0.022
53119.290327,15.812,0.022
53138.208297,15.893,0.03
53138.218143,15.885,0.028
53138.227902,15.86,0.028
53138.237624,15.854,0.028
53138.247352,15.845,0.031
53149.209609,15.68,0.026
53149.218665,15.69,0.026
53149.227643,15.705,0.024
53149.236719,15.684,0.024
53149.245766,15.706,0.024
53166.18557,15.946,0.039
53166.194921,15.981,0.039
53166.2043,15.928,0.037
53166.213659,15.94,0.037
53166.223022,15.858,0.033
53346.450401,15.434,0.043
53346.462864,15.398,0.041
53346.475091,15.388,0.04
53346.487293,15.425,0.04
53346.499589,15.404,0.036
53348.504301,15.818,0.045
53348.518279,15.81,0.041
53351.502032,15.854,0.051
53351.516368,15.85,0.051
53351.530686,15.903,0.051
53438.465431,15.783,0.03
53438.477076,15.735,0.028
53438.488856,15.789,0.03
53438.500782,15.795,0.031
53468.386664,16.027,0.037
53468.396275,15.959,0.039
53468.40584,15.947,0.037
53468.415426,15.914,0.035
53468.425,15.77,0.033
53502.200512,15.725,0.031
53502.210985,15.651,0.03
53502.221643,15.579,0.028
53502.232732,15.518,0.028
53502.245176,15.481,0.026
53522.213915,15.859,0.037
53522.224152,15.87,0.035
53522.234433,15.917,0.037
53522.244643,15.879,0.039
53522.254927,15.908,0.039
53737.47783,15.459,0.022
53737.491086,15.525,0.022
53737.504424,15.537,0.022
53737.517765,15.557,0.022
53747.467488,15.373,0.041
53747.480562,15.364,0.039
53747.493505,15.427,0.039
53747.50684,15.461,0.033
53747.519755,15.509,0.033
53789.361424,15.908,0.094
53789.373861,15.896,0.053
53789.386277,15.941,0.033
53799.344575,15.863,0.026
53799.356565,15.907,0.028
53799.380245,15.898,0.026
53799.3921,15.905,0.028
53818.337971,15.929,0.031
53818.349237,15.94,0.031
53818.360628,15.924,0.031
53818.371839,15.916,0.031
53818.382993,15.912,0.033
53845.256601,15.314,0.059
53845.267756,15.42,0.037
53845.278603,15.38,0.03
53845.289456,15.456,0.028
53851.253167,15.613,0.031
53851.263505,15.645,0.031
53851.273955,15.623,0.033
53851.284248,15.696,0.035
53880.210998,15.377,0.028
53880.222222,15.387,0.028
53880.233443,15.411,0.028
53880.244674,15.448,0.03
53880.255918,15.466,0.03
53885.229001,15.903,0.044
53885.240941,15.931,0.044
53885.252929,15.937,0.048
53885.265087,15.939,0.05
53901.203023,15.787,0.053
54112.444491,15.465,0.036
54112.45715,15.499,0.041
54112.469952,15.492,0.049
54112.48266,15.515,0.036
54112.495503,15.567,0.038
54152.347474,15.85,0.024
54152.359438,15.888,0.024
54152.371835,15.883,0.024
54152.385923,15.926,0.026
54152.398727,15.917,0.024
54173.319201,15.687,0.028
54173.330024,15.643,0.028
54173.340738,15.645,0.026
54173.351368,15.634,0.026
54173.362162,15.644,0.026
54185.280713,15.41,0.035
54185.29105,15.508,0.045
54201.283556,15.525,0.03
54201.29293,15.529,0.031
54201.302313,15.551,0.031
54201.311713,15.588,0.033
54201.321116,15.553,0.031
54452.463165,15.485,0.018
54452.476318,15.51,0.018
54452.48946,15.519,0.018
54452.502617,15.544,0.018
54452.515803,15.56,0.017
54477.457012,15.722,0.02
54477.469944,15.755,0.02
54477.482888,15.717,0.018
54477.49582,15.739,0.018
54477.508887,15.776,0.018
54539.269472,15.985,0.028
54539.280361,15.945,0.026
54539.291286,15.926,0.024
54539.302123,15.956,0.024
54539.313126,15.935,0.022
54559.237606,15.696,0.02
54559.249309,15.711,0.02
54559.261156,15.697,0.02
54559.273075,15.74,0.02
54559.284784,15.758,0.02
54567.242172,15.96,0.028
54567.253369,15.923,0.028
54567.264671,15.916,0.026
54567.275867,15.919,0.028
54567.287061,15.874,0.026
54580.252776,15.918,0.054
54580.263108,15.913,0.056
54580.273372,15.87,0.053
54580.28361,15.862,0.054
54580.293987,15.84,0.053
54591.238672,15.738,0.051
54591.248258,15.766,0.053
54591.257847,15.734,0.051
54591.267466,15.868,0.058
54591.277097,15.714,0.051
54597.250312,15.731,0.039
54597.260982,15.778,0.039
54597.271574,15.751,0.039
54597.282323,15.747,0.039
54597.292963,15.781,0.037
54611.201583,15.342,0.035
54611.210004,15.353,0.036
54611.218226,15.381,0.036
54611.226441,15.425,0.036
54611.234671,15.421,0.038
54620.21598,15.651,0.022
54620.226199,15.696,0.024
54620.236354,15.7,0.026
54620.246566,15.757,0.026
54620.256773,15.738,0.026
