mjd,m,merr
52643.490001,16.738,0.068
52648.40288,16.177,0.057
52648.417937,16.181,0.057
52648.432843,16.17,0.054
52648.448013,16.269,0.054
52648.463411,16.245,0.048
52667.470828,16.738,0.074
52667.486103,16.727,0.078
52667.501305,16.799,0.083
52667.516682,16.811,0.08
52667.531911,16.805,0.083
52674.460102,16.331,0.05
52674.474675,16.389,0.05
52674.489683,16.395,0.055
52703.389045,17.088,0.574
52703.452789,16.594,0.229
52707.425106,16.717,0.074
52730.314035,16.208,0.046
52731.317634,16.743,0.141
52731.329611,16.783,0.139
52731.341568,16.775,0.115
52737.316333,16.754,0.065
52737.33233,16.778,0.067
52737.344408,16.78,0.065
52737.356264,16.757,0.065
52737.368578,16.77,0.065
52756.257117,16.181,0.049
52756.26945,16.181,0.051
52756.269791,16.018,0.079
52756.281785,16.24,0.054
52756.293748,16.284,0.056
52756.305994,16.26,0.056
52761.260171,16.741,0.068
52761.271896,16.687,0.063
52761.283581,16.706,0.068
52761.295396,16.703,0.072
52761.307207,16.642,0.068
52764.224262,16.136,0.046
52764.2363,16.154,0.046
52764.248449,16.217,0.046
52794.216111,16.249,0.057
52794.226125,16.264,0.054
52794.236298,16.211,0.052
52794.246272,16.302,0.057
52794.256361,16.25,0.059
52816.173199,16.112,0.068
52816.18325,16.185,0.071
52816.193339,16.306,0.083
52819.210128,17.336,0.498
52823.17266,16.867,0.315
52823.182697,16.731,0.145
52823.192774,16.539,0.101
52987.475663,16.419,0.115
52987.488634,16.471,0.105
52987.50161,16.593,0.118
52987.514458,16.535,0.074
52996.468881,16.783,0.059
52996.48184,16.724,0.055
52996.494793,16.675,0.05
52996.507926,16.5,0.043
52996.520881,16.364,0.037
53001.471351,16.537,0.046
53001.484615,16.517,0.043
53001.497669,16.535,0.043
53001.511815,16.615,0.044
53001.5251,16.608,0.043
53027.400023,16.413,0.043
53027.425638,16.453,0.043
53027.439191,16.407,0.043
53027.45231,16.466,0.041
53033.397976,16.511,0.063
53033.41029,16.541,0.059
53033.422736,16.561,0.059
53033.434829,16.508,0.057
53033.446995,16.62,0.059
53054.431705,16.427,0.043
53054.445101,16.285,0.039
53054.460586,16.184,0.037
53054.473171,16.115,0.037
53054.485593,16.092,0.037
53060.312652,16.79,0.048
53060.324797,16.834,0.05
53060.337496,16.799,0.048
53060.350749,16.768,0.048
53060.362995,16.84,0.052
53080.339595,16.812,0.063
53080.350594,16.772,0.061
53080.362205,16.741,0.061
53080.373704,16.626,0.055
53080.385153,16.513,0.048
53084.34172,16.805,0.048
53084.352345,16.785,0.044
53084.363143,16.636,0.041
53084.373837,16.494,0.037
53084.384707,16.346,0.031
53087.338138,16.472,0.041
53087.359128,16.538,0.041
53087.369793,16.505,0.041
53087.380345,16.557,0.044
53119.241287,16.537,0.045
53119.251662,16.542,0.046
53119.262449,16.516,0.046
53119.272926,16.542,0.046
53119.283486,16.596,0.049
53120.243684,16.84,0.065
53120.254227,16.835,0.061
53120.265188,16.875,0.061
53120.27595,16.82,0.057
53120.286771,16.846,0.057
53139.206828,16.503,0.057
53139.216135,16.48,0.057
53139.225436,16.516,0.061
53139.234802,16.544,0.061
53139.244198,16.564,0.063
53148.223931,16.805,0.076
53148.232917,16.756,0.072
53148.241871,16.845,0.068
53169.176199,16.49,0.061
53169.18632,16.451,0.059
53169.196415,16.621,0.067
53169.20652,16.552,0.063
53169.216627,16.548,0.063
53175.176521,16.491,0.043
53175.186503,16.598,0.068
53175.196546,16.53,0.044
53175.206467,16.501,0.044
53175.216394,16.548,0.05
53348.463318,16.882,0.13
53348.475777,16.822,0.139
53348.488232,16.766,0.102
53348.502522,16.847,0.102
53348.515247,16.839,0.1
53354.459498,16.714,0.087
53354.472272,16.682,0.08
53354.486415,16.694,0.078
53354.499243,16.784,0.081
53354.512201,16.749,0.078
53377.471628,16.344,0.05
53377.484579,16.376,0.052
53377.497524,16.368,0.052
53377.51048,16.426,0.052
53377.523434,16.513,0.054
53404.441322,16.79,0.106
53404.454341,16.714,0.101
53404.480286,16.631,0.084
53440.47592,16.933,0.102
53440.486437,16.8,0.091
53440.497585,16.839,0.096
53465.279765,16.247,0.05
53465.290898,16.224,0.048
53465.301828,16.294,0.05
53465.313813,16.227,0.048
53465.324663,16.297,0.052
53465.338653,16.278,0.046
53465.349479,16.382,0.054
53465.362101,16.446,0.054
53465.372914,16.395,0.05
53465.383641,16.428,0.054
53468.281101,16.642,0.115
53468.290645,16.69,0.122
53468.300663,16.73,0.194
53473.281645,16.239,0.048
53473.292388,16.277,0.052
53473.303483,16.373,0.055
53473.314864,16.314,0.054
53473.325985,16.316,0.054
53478.229335,16.619,0.12
53478.240891,16.591,0.115
53478.250964,16.76,0.13
53478.261639,16.729,0.124
53478.270702,16.762,0.13
53479.284325,16.265,0.093
53479.295746,16.225,0.089
53479.307236,16.316,0.098
53479.317466,16.257,0.093
53479.326959,16.351,0.1
53493.299575,16.264,0.059
53493.30992,16.376,0.067
53493.320642,16.378,0.067
53493.330703,16.383,0.065
53493.340875,16.386,0.063
53496.246973,16.711,0.087
53496.25714,16.687,0.085
53496.267206,16.722,0.091
53496.277258,16.761,0.094
53496.2874,16.685,0.087
53526.217933,16.666,0.096
53526.238786,16.697,0.089
53526.249131,16.765,0.093
53526.259516,16.685,0.089
53527.172271,16.189,0.052
53527.182569,16.195,0.054
53527.192467,16.228,0.054
53527.202229,16.255,0.057
53527.212033,16.222,0.057
53556.170288,16.681,0.087
53556.180803,16.713,0.089
53556.19142,16.758,0.094
53556.202255,16.764,0.098
53556.212762,16.698,0.096
53746.465745,16.637,0.1
53746.478233,16.661,0.094
53746.490858,16.709,0.093
53746.503319,16.745,0.083
53746.51584,16.643,0.07
53791.409709,16.331,0.045
53791.421524,16.281,0.045
53791.433499,16.154,0.04
53791.445365,16.136,0.041
53791.45731,16.09,0.04
53815.342379,16.658,0.091
53815.353517,16.485,0.078
53815.364662,16.378,0.072
53815.375831,16.329,0.07
53815.38699,16.258,0.067
53817.273933,16.849,0.078
53817.285174,16.82,0.076
53817.296461,16.816,0.074
53817.307799,16.877,0.081
53817.319167,16.873,0.081
53846.243418,16.565,0.073
53846.254054,16.481,0.068
53846.285888,16.601,0.069
53850.246992,16.559,0.079
53850.257306,16.551,0.074
53850.267625,16.629,0.079
53850.278017,16.635,0.079
53850.28834,16.578,0.079
53881.213107,16.886,0.104
53881.223099,16.952,0.111
53881.233211,16.901,0.111
53881.243368,16.869,0.106
53881.253362,16.63,0.087
53884.218619,16.616,0.085
53884.230202,16.659,0.089
53884.241776,16.616,0.085
53884.253357,16.559,0.081
53884.264945,16.626,0.091
53886.210152,16.539,0.076
53886.220153,16.572,0.081
53886.230239,16.601,0.081
53886.240452,16.555,0.079
53886.250452,16.676,0.087
53901.182497,16.924,0.237
53901.192482,16.946,0.215
53901.202502,16.896,0.15
53901.212543,17.119,0.228
53910.169041,16.513,0.089
53910.179309,16.627,0.096
53910.189562,16.619,0.096
53910.199792,16.529,0.087
53910.210003,16.512,0.118
53911.220247,16.481,0.175
53914.173341,16.588,0.133
53914.18381,16.667,0.131
54155.3597,16.728,0.057
54155.371532,16.701,0.055
54155.383376,16.707,0.057
54155.395332,16.754,0.059
54155.407174,16.757,0.061
54156.330823,16.253,0.044
54156.342414,16.29,0.043
54156.353937,16.323,0.043
54156.365466,16.366,0.043
54156.377021,16.347,0.041
54174.324358,16.305,0.059
54174.335011,16.342,0.079
54174.345758,16.33,0.054
54174.356584,16.363,0.063
54174.36729,16.438,0.056
54180.330327,16.333,0.046
54180.34071,16.37,0.048
54180.351023,16.423,0.049
54180.361325,16.412,0.051
54180.372001,16.434,0.054
54200.267081,16.335,0.074
54200.276614,16.312,0.066
54200.286176,16.305,0.068
54475.45572,16.688,0.048
54475.468805,16.624,0.044
54475.481713,16.663,0.044
54475.494585,16.692,0.046
54475.507456,16.699,0.048
54483.417035,16.501,0.083
54483.429954,16.577,0.072
54483.442869,16.572,0.065
54483.455768,16.598,0.065
54509.342665,16.564,0.041
54509.354712,16.534,0.039
54509.366754,16.57,0.039
54509.378824,16.621,0.041
54509.390878,16.585,0.039
54532.336266,16.663,0.044
54532.347639,16.607,0.041
54532.358962,16.418,0.035
54532.370222,16.301,0.033
54532.381466,16.247,0.03
54538.360308,16.376,0.031
54538.371493,16.278,0.03
54538.382505,16.214,0.028
54538.393442,16.124,0.026
54538.404479,16.09,0.026
54543.241672,16.481,0.093
54543.252616,16.426,0.083
54543.263435,16.507,0.081
54543.274196,16.577,0.093
54580.247902,16.826,0.085
54580.2585,16.71,0.08
54580.269102,16.668,0.076
54580.279701,16.592,0.074
54580.290362,16.493,0.065
54586.245556,16.764,0.078
54586.255974,16.78,0.067
54586.266311,16.6,0.055
54586.276711,16.535,0.055
54586.287054,16.406,0.05
54590.242878,16.705,0.114
54590.252561,16.787,0.122
54590.262765,16.527,0.112
54590.2831,16.553,0.127
54594.255632,16.602,0.061
54594.265904,16.498,0.055
54594.276221,16.405,0.054
54594.286498,16.269,0.048
54594.296784,16.222,0.044
54611.211318,16.562,0.048
54611.221191,16.568,0.048
54611.231062,16.619,0.05
54611.241072,16.596,0.05
54611.250851,16.59,0.05
54618.21071,16.804,0.067
54618.220929,16.637,0.057
54618.231144,16.518,0.052
54618.241367,16.441,0.048
54618.251617,16.344,0.044
