mjd,m,merr
52644.491862,15.92,0.035
52644.506771,15.658,0.039
52644.521615,15.418,0.035
52644.536825,15.381,0.024
52648.402755,15.78,0.039
52648.417812,15.831,0.041
52648.432717,15.856,0.039
52648.447886,15.936,0.039
52648.463285,15.939,0.035
52667.470698,16.282,0.048
52667.485972,16.25,0.048
52667.501175,16.276,0.052
52667.516552,16.338,0.052
52667.53178,16.447,0.059
52671.466264,15.763,0.028
52671.481923,15.828,0.03
52671.497464,15.822,0.03
52671.512888,15.92,0.033
52674.460223,15.483,0.022
52674.474793,15.387,0.02
52674.489801,15.476,0.022
52704.375692,15.905,0.031
52704.38896,15.637,0.024
52704.402234,15.438,0.02
52704.415353,15.402,0.02
52704.42844,15.39,0.02
52707.371707,16.232,0.046
52707.384895,16.258,0.048
52707.397989,16.275,0.049
52707.411072,16.246,0.049
52707.425228,16.306,0.053
52728.295475,15.914,0.03
52728.308242,15.907,0.03
52728.320491,15.963,0.031
52728.334244,15.977,0.031
52728.346825,15.968,0.031
52731.314855,15.78,0.113
52731.326824,15.704,0.043
52731.338824,15.742,0.043
52731.350837,15.756,0.033
52737.316135,16.153,0.037
52737.332211,16.287,0.043
52737.344289,16.233,0.039
52737.356144,16.262,0.041
52737.368459,16.346,0.044
52756.257233,15.609,0.031
52756.269566,15.66,0.033
52756.281901,15.721,0.035
52756.293864,15.874,0.04
52756.30611,16.017,0.046
52760.258381,16.179,0.041
52760.270173,16.182,0.041
52760.282042,16.151,0.043
52760.293941,16.182,0.043
52760.30578,16.176,0.044
52789.217702,16.002,0.039
52789.22797,15.759,0.031
52789.238411,15.603,0.026
52789.248711,15.445,0.024
52789.259216,15.331,0.02
52794.216204,15.855,0.041
52794.226214,15.647,0.033
52794.236386,15.491,0.03
52794.246361,15.419,0.028
52794.25645,15.373,0.028
52816.172197,15.707,0.039
52816.181984,15.68,0.039
52816.192624,15.717,0.043
52816.202478,15.776,0.05
52816.212314,15.787,0.057
52823.182381,15.931,0.139
52823.192322,16.054,0.052
52823.202247,16.0,0.05
52987.475546,16.162,0.085
52987.488517,16.219,0.081
52987.501492,16.23,0.076
52987.51434,16.227,0.055
52996.468697,15.687,0.022
52996.481656,15.723,0.022
52996.494608,15.762,0.022
52996.507741,15.753,0.02
52996.520697,15.81,0.022
53001.471167,15.725,0.02
53001.484431,15.753,0.018
53001.497484,15.77,0.018
53001.511631,15.8,0.02
53001.524916,15.827,0.02
53027.39984,16.222,0.031
53027.412685,16.179,0.03
53027.425391,16.213,0.03
53027.439008,16.234,0.03
53027.452128,16.264,0.03
53033.398068,16.018,0.039
53033.410382,15.977,0.033
53033.422828,16.029,0.035
53033.434921,16.058,0.035
53033.447087,16.046,0.035
53054.431593,15.464,0.018
53054.444653,15.532,0.018
53054.460476,15.58,0.02
53054.47306,15.654,0.022
53054.485482,15.698,0.024
53060.312482,16.137,0.026
53060.324607,16.147,0.026
53060.337325,16.177,0.026
53060.349676,16.189,0.026
53060.362823,16.192,0.028
53080.339698,16.183,0.035
53080.350698,16.176,0.035
53080.36231,16.224,0.037
53080.37381,16.207,0.037
53080.385258,16.208,0.037
53084.341554,15.391,0.013
53084.352178,15.381,0.013
53084.362976,15.424,0.013
53084.373671,15.462,0.013
53084.384541,15.498,0.015
53086.356822,15.849,0.025
53086.36781,15.873,0.026
53086.37877,15.88,0.026
53086.389826,15.929,0.03
53086.401164,15.917,0.025
53115.305903,16.18,0.031
53115.317043,16.226,0.031
53115.328195,16.197,0.031
53115.339262,16.24,0.033
53115.350332,16.228,0.033
53117.266121,16.248,0.033
53117.27667,16.267,0.035
53117.287529,16.299,0.035
53117.298479,16.302,0.036
53117.308897,16.301,0.036
53139.206737,15.95,0.035
53139.216044,15.74,0.03
53139.225345,15.566,0.028
53139.234642,15.46,0.024
53139.244107,15.381,0.022
53143.274917,16.142,0.033
53143.284289,16.182,0.035
53143.293569,16.138,0.033
53143.302855,16.186,0.035
53143.312159,16.212,0.037
53147.208995,16.233,0.04
53147.226589,16.279,0.041
53147.244857,16.284,0.045
53169.176285,15.584,0.028
53169.186406,15.438,0.024
53169.196501,15.363,0.022
53169.206606,15.419,0.024
53169.216713,15.438,0.024
53172.176184,16.278,0.039
53172.187139,16.3,0.041
53172.197568,16.283,0.041
53172.207863,16.379,0.044
53172.218114,16.361,0.05
53174.174962,15.45,0.023
53174.1848,15.355,0.021
53174.196769,15.393,0.021
53174.206784,15.424,0.023
53174.216764,15.421,0.023
53348.463424,15.992,0.059
53348.475882,15.999,0.059
53348.488337,16.042,0.054
53348.502627,16.058,0.052
53348.515352,16.075,0.05
53354.459606,15.69,0.035
53354.472381,15.497,0.028
53354.486524,15.389,0.024
53354.499351,15.396,0.024
53354.51231,15.446,0.024
53377.471737,16.381,0.05
53377.484689,16.334,0.048
53377.497634,16.302,0.046
53377.51059,16.241,0.043
53377.523543,16.001,0.033
53382.512269,16.029,0.035
53382.528338,15.716,0.026
53382.542864,15.484,0.024
53404.434048,15.532,0.028
53404.446366,15.591,0.03
53404.459818,15.644,0.031
53404.472743,15.704,0.03
53404.48644,15.737,0.031
53433.417409,16.187,0.044
53433.428761,16.171,0.044
53433.440509,16.205,0.054
53433.451709,16.267,0.055
53433.462914,16.168,0.052
53440.476045,16.385,0.063
53440.486561,16.375,0.063
53440.497711,16.374,0.063
53465.338451,16.235,0.044
53465.349277,16.212,0.046
53465.361899,16.162,0.041
53465.372712,16.143,0.041
53465.38344,16.237,0.044
53468.2809,16.015,0.068
53468.290442,16.12,0.065
53468.30046,16.09,0.105
53471.309745,15.853,0.037
53471.321299,15.906,0.039
53471.332452,15.888,0.037
53471.342987,15.926,0.041
53471.353073,15.991,0.044
53473.281445,16.099,0.043
53473.292186,16.131,0.044
53473.303281,16.125,0.044
53473.314663,16.118,0.044
53473.325784,16.154,0.046
53475.315165,16.267,0.054
53475.325507,16.264,0.054
53475.33533,16.222,0.052
53475.345147,16.218,0.052
53475.355512,16.213,0.052
53476.32558,15.92,0.046
53476.335961,15.986,0.048
53476.346359,15.935,0.044
53476.357165,15.982,0.046
53476.367545,16.033,0.048
53478.240999,16.04,0.068
53478.251073,16.035,0.067
53478.261748,16.064,0.068
53479.284029,15.486,0.046
53479.295222,15.558,0.048
53479.307031,15.573,0.05
53479.317265,15.639,0.054
53479.326756,15.645,0.055
53493.299677,16.163,0.055
53493.310022,16.177,0.057
53493.320744,16.164,0.055
53493.330806,16.148,0.052
53493.340976,16.21,0.055
53496.24687,15.92,0.043
53496.257037,15.85,0.039
53496.267104,15.872,0.043
53496.277156,15.9,0.043
53496.287298,15.935,0.043
53526.238696,15.98,0.046
53526.24904,15.953,0.046
53526.259427,15.978,0.048
53527.172181,16.285,0.057
53527.182479,16.233,0.055
53527.192377,16.341,0.059
53527.202139,16.356,0.061
53527.211941,16.349,0.065
53733.460961,16.119,0.05
53733.473586,16.094,0.05
53746.465861,15.935,0.054
53746.478348,15.932,0.05
53746.490974,16.011,0.048
53746.503435,16.028,0.043
53746.515957,16.103,0.041
53791.409849,16.025,0.033
53791.4194,16.028,0.035
53791.421664,16.05,0.035
53791.431216,16.107,0.039
53791.433638,16.084,0.036
53791.443033,16.063,0.039
53791.445504,16.1,0.038
53791.454857,16.088,0.039
53791.457449,16.084,0.04
53791.466676,16.114,0.043
53794.402487,15.701,0.026
53794.414108,15.731,0.026
53794.425732,15.764,0.026
53794.437363,15.798,0.028
53794.448995,15.829,0.028
53815.342503,16.159,0.059
53815.35364,16.168,0.061
53815.364785,16.245,0.065
53815.375954,16.202,0.065
53815.387113,16.219,0.067
53817.274072,16.323,0.049
53817.285312,16.394,0.053
53817.2966,16.354,0.049
53817.307939,16.361,0.051
53817.319307,16.359,0.051
53818.336557,16.144,0.044
53818.347828,16.127,0.043
53818.36017,16.194,0.046
53818.372885,16.165,0.044
53818.384928,16.207,0.046
53823.321138,16.182,0.044
53823.333947,16.176,0.044
53823.346309,16.15,0.043
53823.362299,16.187,0.044
53823.380339,16.203,0.046
53825.33702,16.234,0.059
53825.36229,16.231,0.128
53825.373548,16.227,0.124
53825.385606,16.075,0.094
53829.315676,15.662,0.05
53829.329504,15.637,0.048
53829.342897,15.726,0.07
53846.242687,15.796,0.038
53846.253321,15.989,0.046
53848.295637,16.162,0.059
53848.306386,16.209,0.061
53848.317046,16.154,0.061
53848.328066,16.185,0.063
53848.33958,16.206,0.065
53849.301511,15.702,0.033
53849.312287,15.736,0.035
53849.323388,15.775,0.035
53849.334158,15.803,0.039
53849.344939,15.774,0.037
53850.247095,16.167,0.059
53850.267727,16.234,0.054
53850.278119,16.181,0.053
53850.288441,16.209,0.059
53852.3089,15.488,0.03
53852.320525,15.42,0.028
53852.331353,15.425,0.028
53852.342204,15.426,0.028
53852.353034,15.45,0.03
53855.255119,16.273,0.054
53855.265766,16.208,0.052
53855.277248,16.271,0.057
53855.288371,16.209,0.052
53855.298542,16.268,0.055
53858.2827,16.195,0.059
53858.292865,16.217,0.061
53881.213205,15.941,0.043
53881.223197,15.944,0.045
53881.233309,16.161,0.056
53881.243467,16.033,0.049
53881.253461,16.071,0.053
53883.225877,16.171,0.055
53883.23729,16.171,0.055
53883.248796,16.198,0.057
53883.260245,16.224,0.061
53883.271673,16.187,0.067
53884.218731,15.609,0.035
53884.230314,15.656,0.037
53884.241888,15.687,0.039
53884.253468,15.766,0.041
53884.265057,15.763,0.043
53885.155009,16.207,0.061
53885.16705,16.207,0.057
53885.179252,16.246,0.061
53885.191362,16.275,0.063
53885.203486,16.28,0.065
53886.209975,15.988,0.051
53886.219977,16.011,0.051
53886.230061,15.993,0.051
53886.240276,16.012,0.053
53886.250274,16.04,0.054
53901.202417,15.929,0.063
53901.212458,15.939,0.08
53910.169136,16.227,0.07
53910.179411,16.245,0.07
53910.189659,16.225,0.067
53910.199889,16.183,0.065
53910.2101,16.271,0.107
53914.173244,15.677,0.061
53914.183729,15.668,0.055
54121.454991,16.093,0.049
54121.467425,16.098,0.051
54121.480614,16.12,0.051
54121.493091,16.134,0.053
54121.505579,16.193,0.054
54124.412327,15.657,0.02
54124.425477,15.706,0.022
54124.438369,15.766,0.022
54124.45219,15.782,0.022
54124.46528,15.805,0.022
54149.396992,15.76,0.031
54149.408709,15.791,0.03
54149.421564,15.86,0.033
54149.433258,15.843,0.031
54149.44517,15.853,0.031
54155.359553,16.246,0.037
54155.371385,16.201,0.035
54155.383228,16.246,0.037
54155.395186,16.267,0.037
54155.407027,16.3,0.039
54156.330965,15.867,0.031
54156.342555,15.921,0.031
54156.354078,15.926,0.031
54156.365607,16.008,0.031
54156.377162,15.995,0.03
54174.324499,15.718,0.035
54174.335148,15.744,0.049
54174.345895,15.769,0.033
54174.356721,15.791,0.038
54174.367426,15.783,0.031
54175.373082,16.31,0.041
54175.383917,16.287,0.039
54175.39483,16.353,0.043
54175.405752,16.346,0.044
54175.416658,16.325,0.043
54180.330196,16.227,0.041
54180.340579,16.22,0.041
54180.350892,16.335,0.045
54180.361194,16.307,0.045
54180.37187,16.373,0.051
54200.276519,16.221,0.069
54207.271895,15.758,0.026
54207.28108,15.616,0.026
54207.290222,15.547,0.061
54207.29938,15.346,0.1
54210.269209,16.179,0.043
54210.278216,16.195,0.043
54210.287203,16.263,0.046
54210.296224,16.262,0.05
54210.305204,16.338,0.052
54447.461897,15.829,0.026
54447.474951,15.606,0.028
54447.488726,15.443,0.02
54447.501775,15.374,0.017
54447.514823,15.401,0.015
54475.455886,16.361,0.035
54475.46897,16.372,0.035
54475.481878,16.362,0.033
54475.49475,16.384,0.033
54475.507621,16.282,0.031
54483.403371,16.271,0.068
54483.416626,16.215,0.054
54483.429544,16.21,0.044
54483.442457,16.256,0.043
54483.455358,16.185,0.037
54509.342323,15.668,0.018
54509.354373,15.701,0.018
54509.366414,15.739,0.018
54509.378481,15.793,0.018
54509.39054,15.82,0.018
54524.446316,15.999,0.031
54524.457869,16.003,0.031
54524.469425,16.028,0.031
54524.481092,16.054,0.033
54524.493234,16.081,0.035
54532.336461,15.383,0.013
54532.347835,15.387,0.013
54532.359157,15.464,0.015
54532.370417,15.485,0.015
54532.381662,15.547,0.015
54538.35998,16.236,0.028
54538.371167,16.225,0.028
54538.382181,16.222,0.028
54538.393119,16.209,0.028
54538.404155,16.213,0.028
54543.241312,16.154,0.072
54543.252254,16.107,0.055
54543.263071,16.137,0.057
54543.273832,16.184,0.065
54555.355299,16.294,0.031
54555.367149,16.166,0.026
54555.379005,15.885,0.022
54555.39087,15.672,0.018
54555.402718,15.469,0.017
54568.300058,16.351,0.063
54568.311323,16.25,0.059
54568.322354,16.285,0.058
54568.333258,16.343,0.066
54568.344137,16.336,0.068
54580.248036,16.291,0.054
54580.258634,16.29,0.054
54580.269236,16.397,0.061
54580.279835,16.376,0.063
54580.290497,16.364,0.061
54586.245685,16.029,0.043
54586.256104,16.104,0.037
54586.266442,16.104,0.035
54586.276842,16.09,0.035
54586.287184,16.151,0.037
54594.255515,15.853,0.03
54594.265791,15.891,0.031
54594.276108,15.914,0.033
54594.286383,15.948,0.033
54594.296668,15.959,0.035
54611.211208,16.092,0.03
54611.221081,16.132,0.031
54611.230952,16.123,0.033
54611.240963,16.169,0.033
54611.250742,16.164,0.035
54618.210823,16.228,0.041
54618.221042,16.222,0.039
54618.231255,16.235,0.041
54618.24148,16.24,0.041
54618.25173,16.246,0.041
