mjd,m,merr
52650.467463,16.333,0.048
52650.482451,16.287,0.045
52650.49717,16.319,0.045
52650.511953,16.401,0.046
52666.397248,16.744,0.065
52666.412493,16.615,0.055
52666.427582,16.659,0.059
52666.442862,16.622,0.054
52666.457424,16.594,0.057
52706.365307,16.572,0.05
52706.378183,16.598,0.052
52706.391154,16.582,0.052
52706.404278,16.622,0.055
52706.417301,16.634,0.057
52711.314937,16.517,0.063
52711.329003,16.54,0.063
52711.343487,16.536,0.059
52711.357616,16.58,0.063
52711.371604,16.605,0.063
52724.307474,16.552,0.054
52724.32008,16.643,0.059
52724.332306,16.664,0.058
52724.345049,16.62,0.059
52739.248489,16.502,0.057
52739.259895,16.542,0.059
52739.271296,16.584,0.061
52739.282775,16.597,0.061
52739.294178,16.577,0.061
52753.259866,16.517,0.064
52753.272978,16.325,0.054
52753.286039,16.288,0.053
52753.300065,16.349,0.058
52753.312658,16.211,0.051
52769.213167,16.47,0.081
52769.224807,16.45,0.08
52769.236504,16.392,0.076
52769.248451,16.515,0.083
52769.260912,16.476,0.091
52820.173597,16.598,0.074
52820.203299,16.669,0.087
52820.213192,16.691,0.093
52825.191822,16.499,0.12
52825.201754,16.583,0.107
52825.211703,16.515,0.098
53006.394201,16.671,0.091
53006.406538,16.702,0.086
53006.431217,16.756,0.084
53034.394628,16.385,0.051
53034.406469,16.378,0.051
53034.418296,16.41,0.056
53034.430231,16.474,0.061
53034.442246,16.43,0.054
53051.338865,16.777,0.055
53051.351099,16.667,0.05
53051.362697,16.472,0.041
53051.374425,16.48,0.044
53051.386054,16.476,0.041
53064.28597,16.446,0.048
53064.29802,16.303,0.04
53064.310391,16.31,0.04
53064.322723,16.34,0.043
53064.33493,16.343,0.038
53078.325063,16.712,0.064
53078.336028,16.658,0.063
53078.346932,16.738,0.066
53093.277355,16.811,0.059
53093.28723,16.929,0.063
53093.297281,16.816,0.058
53093.308361,16.836,0.058
53093.31828,16.924,0.059
53109.24116,16.775,0.073
53109.255577,16.602,0.063
53109.267483,16.568,0.058
53109.278213,16.422,0.053
53121.247237,16.703,0.051
53121.257948,16.691,0.049
53121.268804,16.646,0.048
53121.279466,16.704,0.049
53121.290084,16.644,0.051
53137.250331,16.332,0.049
53137.260382,16.328,0.049
53137.27018,16.416,0.054
53137.280129,16.37,0.058
53137.289849,16.21,0.049
53150.229294,16.681,0.152
53150.237913,16.413,0.112
53165.17656,16.497,0.106
53165.196381,16.297,0.071
53165.222312,16.367,0.059
53165.232153,16.413,0.063
53177.176986,16.437,0.048
53177.187133,16.465,0.049
53177.217004,16.548,0.061
53437.414144,16.471,0.046
53437.425448,16.464,0.046
53437.436748,16.392,0.046
53437.453459,16.379,0.046
53437.464758,16.365,0.046
53501.246808,16.543,0.065
53501.261679,16.545,0.065
53501.276853,16.485,0.061
53501.289027,16.578,0.067
53501.29922,16.65,0.076
53529.167015,16.536,0.072
53529.177416,16.39,0.065
53529.187722,16.54,0.076
53529.198301,16.491,0.07
53529.208635,16.519,0.07
53540.186361,16.644,0.215
53540.196154,16.692,0.222
53540.205857,16.448,0.154
53540.215558,16.842,0.237
53739.47731,16.782,0.065
53739.490942,16.719,0.059
53739.503841,16.725,0.057
53739.516748,16.77,0.057
53739.529864,16.763,0.054
53770.416555,16.841,0.074
53770.429366,16.854,0.078
53770.44374,16.947,0.078
53770.461123,16.836,0.074
53770.475273,16.856,0.07
53788.36085,16.626,0.058
53788.386108,16.505,0.061
53788.39877,16.399,0.04
53788.411433,16.328,0.038
53813.382039,16.732,0.097
53813.393458,16.657,0.096
53813.404869,16.602,0.091
53813.416591,16.526,0.083
53820.317361,16.919,0.233
53844.246321,16.284,0.049
53844.257422,16.273,0.048
53844.268357,16.327,0.049
53844.279332,16.4,0.053
53844.290598,16.44,0.054
53852.246086,16.431,0.068
53852.256247,16.487,0.069
53852.266441,16.586,0.076
53852.276577,16.425,0.066
53852.286761,16.452,0.069
53881.217839,16.973,0.115
53881.228876,16.883,0.1
53881.239928,16.937,0.109
53881.250986,16.757,0.094
53881.262382,16.969,0.126
53887.215381,16.547,0.092
53887.225611,16.474,0.086
53887.236017,16.432,0.079
53887.246171,16.642,0.099
53887.25643,16.48,0.081
53902.175314,16.399,0.089
53902.205161,16.37,0.087
53914.174944,16.763,0.149
53914.184489,16.566,0.106
53914.194547,16.591,0.117
53931.165887,16.903,0.133
53931.176325,16.968,0.161
53931.18681,17.063,0.168
53931.197213,17.172,0.194
54154.338973,16.778,0.071
54154.350386,16.824,0.074
54169.327229,17.084,0.135
54169.349137,17.211,0.155
54169.360018,16.924,0.12
54169.370914,17.121,0.135
54205.268986,16.286,0.051
54205.278273,16.245,0.046
54205.287534,16.331,0.048
54205.29738,16.272,0.049
54205.307126,16.338,0.053
54560.247575,16.697,0.039
54560.259163,16.7,0.039
54560.270731,16.666,0.037
54560.282334,16.664,0.037
54560.294201,16.678,0.037
54581.268439,16.11,0.069
54581.278222,16.137,0.079
54589.249472,16.476,0.043
54589.25988,16.438,0.041
54589.270414,16.486,0.041
54589.280914,16.486,0.041
54589.291382,16.515,0.043
54594.249684,17.049,0.168
54594.259158,16.694,0.125
54594.268656,16.804,0.139
54594.278697,16.867,0.139
54594.288531,16.498,0.104
54612.207698,16.463,0.081
54612.21629,16.418,0.078
54612.225782,16.429,0.078
54612.234302,16.565,0.089
54612.242822,16.505,0.084
54621.209916,16.503,0.048
54621.220022,16.435,0.046
54621.230158,16.432,0.048
54621.240278,16.409,0.048
54621.250378,16.368,0.046
