mjd,m,merr
52650.466536,16.498,0.056
52650.496364,16.614,0.059
52650.511199,16.633,0.058
52666.396341,16.386,0.05
52666.411584,16.381,0.046
52666.426671,16.481,0.054
52666.441952,16.41,0.048
52697.409524,16.855,0.102
52697.440429,16.868,0.133
52706.364526,16.822,0.067
52706.377391,16.868,0.068
52706.390364,16.863,0.072
52706.403487,16.862,0.072
52706.41651,16.87,0.074
52711.313657,16.702,0.076
52711.327762,16.713,0.074
52711.342251,16.689,0.068
52711.356301,16.768,0.074
52711.370345,16.772,0.074
52724.307114,16.817,0.068
52724.319721,16.653,0.061
52724.331947,16.753,0.064
52724.34469,16.749,0.066
52724.356799,16.856,0.074
52739.248253,16.276,0.05
52739.259659,16.313,0.05
52739.27106,16.355,0.05
52739.28254,16.389,0.052
52739.293941,16.328,0.05
52753.259513,16.325,0.054
52753.272627,16.186,0.049
52753.285688,16.177,0.049
52753.312306,16.263,0.053
52769.212829,16.744,0.102
52769.224464,16.559,0.087
52769.23616,16.424,0.078
52769.248109,16.313,0.078
52820.173507,16.816,0.093
52820.203209,16.844,0.107
52820.213101,16.786,0.102
52825.191637,16.717,0.128
52825.201571,16.674,0.109
52825.211523,16.761,0.117
53006.393891,17.435,0.191
53006.418553,17.032,0.114
53006.430903,16.996,0.114
53034.406162,16.827,0.079
53034.417989,16.767,0.078
53034.429926,16.853,0.086
53034.441942,16.901,0.087
53051.338647,16.413,0.043
53051.35088,16.467,0.044
53051.362478,16.442,0.044
53051.374206,16.453,0.046
53051.385835,16.416,0.043
53064.321665,16.776,0.078
53078.324851,16.662,0.064
53078.346717,16.704,0.066
53082.336821,16.804,0.048
53082.348399,16.836,0.05
53082.359531,16.845,0.052
53082.370626,16.83,0.052
53082.38797,16.832,0.052
53093.276851,16.835,0.059
53093.286729,16.853,0.058
53093.296779,16.938,0.063
53093.307817,16.842,0.054
53109.240485,16.939,0.086
53109.277543,16.805,0.078
53109.29634,16.86,0.079
53121.246673,16.778,0.056
53121.257345,16.806,0.058
53121.268241,16.802,0.056
53121.278903,16.772,0.054
53121.28952,16.74,0.054
53137.229835,16.75,0.073
53137.249253,16.8,0.076
53150.20782,17.076,0.178
53150.228768,16.77,0.165
53150.23737,16.968,0.183
53165.176393,16.61,0.107
53165.196215,16.668,0.117
53165.222146,16.557,0.073
53177.186628,16.488,0.051
53349.475332,16.79,0.134
53349.488901,16.92,0.142
53349.502628,16.98,0.139
53349.516618,17.008,0.142
53437.413564,16.759,0.065
53437.424873,16.559,0.054
53437.436172,16.458,0.05
53437.452882,16.276,0.044
53437.46418,16.202,0.041
53501.246512,16.759,0.081
53501.261383,16.804,0.085
53501.276555,16.893,0.091
53501.288732,16.972,0.098
53501.29892,16.896,0.094
53529.166585,16.753,0.093
53529.176985,16.651,0.087
53529.187296,16.801,0.096
53529.197867,16.887,0.102
53529.208202,16.739,0.087
53739.476448,16.636,0.059
53739.490061,16.592,0.055
53739.502975,16.681,0.059
53739.515886,16.67,0.055
53739.528999,16.679,0.054
53770.415149,16.816,0.08
53770.427957,16.853,0.076
53770.44225,16.899,0.078
53770.459644,16.852,0.072
53770.473863,16.911,0.076
53788.359825,16.791,0.086
53788.385081,16.871,0.101
53788.397738,16.973,0.071
53788.410401,16.879,0.073
53789.398498,16.815,0.068
53789.41054,16.905,0.081
53789.422599,16.865,0.076
53789.424412,16.879,0.116
53789.434624,17.023,0.113
53789.44666,16.97,0.128
53789.462199,16.754,0.163
53813.369522,16.949,0.125
53813.381067,16.962,0.127
53813.392418,16.765,0.112
53813.403893,16.662,0.101
53813.415611,16.465,0.086
53844.245975,16.428,0.061
53844.257078,16.449,0.063
53844.268014,16.549,0.066
53844.278987,16.54,0.066
53844.290252,16.592,0.069
53852.24527,16.757,0.097
53852.255423,16.771,0.099
53852.26562,16.788,0.094
53852.275756,16.874,0.106
53852.285939,16.846,0.107
53881.216995,16.284,0.063
53881.239085,16.16,0.057
53881.250141,16.205,0.059
53881.261537,16.283,0.068
53887.215299,16.732,0.116
53887.225523,16.641,0.104
53887.23593,16.724,0.111
53887.246089,16.763,0.116
53887.256348,16.665,0.101
53902.175233,16.771,0.124
53914.174207,16.855,0.17
53914.183753,16.986,0.18
53914.19381,16.898,0.183
54154.338573,16.428,0.056
54154.349985,16.42,0.056
54154.361402,16.529,0.061
54154.384367,16.444,0.056
54169.326843,16.939,0.134
54169.337804,17.041,0.142
54169.34875,17.021,0.142
54169.359631,16.978,0.145
54169.370528,17.062,0.142
54205.268746,16.822,0.087
54205.287295,16.861,0.084
54205.297141,16.822,0.089
54560.247109,16.789,0.043
54560.270264,16.439,0.031
54560.281871,16.353,0.03
54581.238587,16.823,0.177
54581.248429,17.174,0.252
54581.258107,17.163,0.248
54581.267881,17.259,0.239
54581.277665,17.184,0.244
54589.24865,16.58,0.046
54589.259054,16.615,0.048
54589.269586,16.611,0.048
54589.280073,16.583,0.046
54589.290562,16.623,0.048
54594.24935,16.384,0.096
54594.258823,16.457,0.101
54594.268323,16.653,0.125
54594.278363,16.547,0.111
54594.288197,16.363,0.097
54612.207386,16.583,0.092
54612.215976,16.55,0.091
54612.225471,16.468,0.084
54612.23399,16.463,0.086
54612.242511,16.557,0.092
54621.209231,16.545,0.052
54621.21933,16.503,0.05
54621.22947,16.545,0.055
54621.23959,16.586,0.057
54621.249692,16.604,0.059
