mjd,m,merr
52644.491231,15.577,0.028
52644.506141,15.444,0.031
52644.520981,15.466,0.033
52644.536196,15.427,0.024
52648.402259,15.899,0.048
52648.417311,15.692,0.039
52648.432217,15.536,0.031
52648.447386,15.495,0.028
52648.462788,15.471,0.026
52668.513661,15.488,0.024
52668.528848,15.485,0.024
52671.46587,15.48,0.024
52671.481526,15.465,0.024
52671.49707,15.457,0.022
52671.512491,15.459,0.024
52674.403253,15.483,0.024
52674.417246,15.507,0.026
52674.431255,15.519,0.026
52674.44522,15.505,0.024
52674.459057,15.526,0.024
52704.375051,15.56,0.024
52704.388295,15.572,0.024
52704.401598,15.564,0.024
52704.414709,15.549,0.026
52704.427792,15.539,0.026
52708.376449,15.517,0.026
52708.376804,15.395,0.03
52708.389921,15.464,0.03
52708.402605,15.493,0.028
52708.402962,15.372,0.03
52708.415778,15.499,0.028
52708.428821,15.501,0.03
52708.429179,15.28,0.031
52728.295717,15.529,0.022
52728.308504,15.464,0.022
52728.320733,15.499,0.022
52728.334487,15.5,0.022
52728.347068,15.536,0.024
52731.315089,15.545,0.052
52731.327057,15.562,0.046
52731.339058,15.562,0.033
52731.351071,15.538,0.03
52737.314987,15.478,0.022
52737.33176,15.492,0.022
52737.343816,15.51,0.022
52737.355685,15.526,0.022
52737.368,15.506,0.022
52756.253033,15.57,0.026
52756.26498,15.756,0.031
52756.276912,15.907,0.037
52756.288855,15.83,0.031
52756.30089,15.699,0.03
52760.258042,15.491,0.022
52760.269834,15.492,0.024
52760.281703,15.515,0.024
52760.293603,15.526,0.026
52760.305444,15.516,0.026
52764.203266,15.454,0.015
52764.215546,15.446,0.015
52764.227952,15.475,0.015
52764.240523,15.453,0.015
52764.252965,15.471,0.015
52789.217913,15.565,0.026
52789.228182,15.507,0.026
52789.238622,15.551,0.026
52789.248922,15.49,0.024
52789.259427,15.498,0.024
52794.215668,16.172,0.054
52794.225677,15.958,0.043
52794.235743,15.769,0.037
52794.245829,15.603,0.033
52794.255917,15.547,0.031
52816.172375,15.493,0.033
52816.182162,15.477,0.033
52816.192801,15.48,0.033
52816.202655,15.504,0.039
52816.212492,15.488,0.043
52823.1925,15.552,0.033
52823.202425,15.513,0.033
52995.474302,15.454,0.02
52995.488408,15.475,0.02
52995.501534,15.45,0.018
52995.514982,15.456,0.018
52995.528706,15.472,0.018
53000.483118,15.462,0.017
53000.496001,15.47,0.017
53000.508966,15.463,0.017
53000.521986,15.424,0.015
53000.534901,15.492,0.015
53026.423666,15.483,0.028
53026.437601,15.535,0.046
53026.450778,15.493,0.041
53026.465209,15.452,0.022
53026.478041,15.459,0.028
53032.40049,15.455,0.022
53032.412781,15.456,0.022
53032.42497,15.46,0.022
53032.43734,15.586,0.024
53032.449532,15.826,0.03
53054.408275,15.628,0.021
53054.42059,15.492,0.02
53054.432465,15.544,0.02
53054.444476,15.485,0.02
53054.456404,15.535,0.021
53058.403816,15.463,0.024
53058.416459,15.48,0.018
53058.428417,15.462,0.035
53058.439991,15.466,0.02
53058.451541,15.437,0.015
53080.358755,15.546,0.021
53080.370016,15.536,0.021
53080.381186,15.548,0.023
53083.386771,15.453,0.017
53083.397392,15.398,0.017
53083.408552,15.419,0.017
53083.419549,15.432,0.017
53083.430569,15.424,0.017
53086.39239,15.905,0.031
53086.40312,16.112,0.03
53086.414131,15.932,0.026
53086.424976,15.68,0.022
53086.435777,15.565,0.022
53092.3348,15.518,0.018
53092.345294,15.458,0.018
53092.355476,15.457,0.018
53092.365658,15.43,0.018
53092.375839,15.445,0.018
53111.258154,15.534,0.026
53111.283997,15.517,0.026
53111.294775,15.539,0.026
53114.30487,15.427,0.017
53114.318269,15.445,0.017
53114.329614,15.405,0.017
53114.341009,15.44,0.017
53114.352257,15.393,0.017
53117.3048,16.07,0.03
53117.315418,16.059,0.03
53117.325983,15.797,0.024
53117.336659,15.594,0.02
53117.347816,15.49,0.018
53139.204673,15.771,0.031
53139.213833,16.036,0.04
53139.22349,16.186,0.046
53139.232656,16.093,0.041
53139.241871,15.888,0.036
53142.25466,15.488,0.018
53142.264146,15.514,0.018
53142.273635,15.475,0.018
53142.28312,15.597,0.03
53142.292729,15.768,0.076
53146.214108,15.53,0.018
53146.223285,15.605,0.018
53146.232331,15.707,0.02
53146.24141,15.827,0.024
53146.250455,15.896,0.026
53168.172246,15.835,0.037
53168.18227,15.746,0.035
53168.192287,15.599,0.031
53168.202307,15.51,0.03
53168.212384,15.48,0.03
53171.175063,15.445,0.022
53171.185376,15.462,0.022
53171.195577,15.455,0.022
53171.205903,15.463,0.022
53171.216294,15.461,0.024
53174.175477,15.456,0.02
53174.185548,15.437,0.02
53174.196068,15.473,0.02
53174.206302,15.454,0.02
53174.216603,15.437,0.02
53348.463637,15.444,0.037
53348.476096,15.509,0.044
53348.48855,15.477,0.035
53348.50284,15.489,0.035
53348.515564,15.593,0.035
53354.459825,15.786,0.043
53354.472601,15.612,0.033
53354.486744,15.445,0.028
53354.499571,15.436,0.028
53354.512529,15.431,0.028
53377.47196,15.927,0.037
53377.48491,15.913,0.039
53377.497855,15.709,0.031
53377.510811,15.541,0.024
53377.523765,15.458,0.022
53382.511565,15.621,0.028
53382.527616,15.982,0.039
53382.542162,15.941,0.039
53404.434298,15.835,0.041
53404.446615,16.057,0.05
53404.460068,15.929,0.043
53404.472992,15.625,0.031
53404.486691,15.456,0.028
53433.417651,15.544,0.026
53433.429004,15.467,0.026
53433.440749,15.484,0.03
53433.451951,15.468,0.03
53433.463156,15.433,0.03
53465.338051,15.51,0.024
53465.348876,15.491,0.024
53465.361495,15.514,0.024
53465.371954,15.455,0.024
53465.383028,15.592,0.026
53468.280499,15.491,0.044
53468.29004,15.5,0.035
53468.300036,15.44,0.054
53469.281772,15.48,0.022
53469.291796,15.469,0.022
53469.303146,15.492,0.022
53469.313125,15.537,0.024
53469.323324,15.667,0.028
53473.281046,15.897,0.037
53473.291775,15.733,0.033
53473.302386,15.624,0.03
53473.313982,15.522,0.028
53473.325389,15.459,0.026
53479.282996,15.454,0.046
53479.29434,15.477,0.046
53479.30663,15.432,0.044
53479.316868,15.451,0.046
53479.326359,15.481,0.046
53493.299065,15.504,0.031
53493.30941,15.516,0.033
53493.320132,15.51,0.031
53493.330196,15.545,0.031
53493.34032,15.472,0.03
53504.193491,15.86,0.041
53504.20242,15.728,0.035
53504.211763,15.572,0.03
53504.220698,15.565,0.031
53504.230068,15.502,0.03
53526.248685,15.443,0.03
53526.25907,15.472,0.031
53530.170713,15.471,0.03
53530.180801,15.468,0.028
53530.190628,15.486,0.03
53530.200556,15.489,0.03
53530.210418,15.479,0.031
53733.460279,15.803,0.041
53733.472922,15.616,0.033
53791.419675,15.472,0.026
53791.43149,15.473,0.026
53791.443308,15.486,0.028
53791.455132,15.463,0.028
53791.46695,15.485,0.028
53794.40184,15.964,0.031
53794.41346,16.129,0.037
53794.425087,15.987,0.033
53794.436711,15.67,0.026
53794.448346,15.532,0.022
53797.305013,15.483,0.03
53797.317547,15.53,0.023
53797.329936,15.514,0.021
53797.342407,15.493,0.021
53797.354814,15.518,0.02
53815.341793,15.546,0.035
53815.35293,15.525,0.035
53815.364075,15.548,0.035
53815.375241,15.578,0.039
53815.386401,15.56,0.039
53818.336812,15.514,0.026
53818.348084,15.504,0.026
53818.360425,15.51,0.026
53818.373141,15.497,0.026
53818.385183,15.486,0.026
53823.32139,15.602,0.028
53823.3342,15.774,0.031
53823.346561,15.9,0.035
53823.362551,15.85,0.033
53823.38059,15.551,0.028
53825.336442,15.824,0.039
53825.361707,15.535,0.054
53825.372966,15.486,0.063
53825.385028,15.515,0.059
53829.315933,15.473,0.048
53829.329774,15.507,0.044
53829.34317,15.455,0.057
53833.275876,15.522,0.037
53833.285702,15.508,0.035
53833.296128,15.494,0.035
53833.306195,15.506,0.035
53833.316183,15.532,0.035
53846.242075,15.512,0.03
53846.252708,15.512,0.028
53846.26326,15.516,0.028
53846.273983,15.492,0.028
53846.284543,15.536,0.03
53848.294773,15.532,0.035
53848.305525,15.538,0.035
53848.316184,15.527,0.035
53848.326961,15.607,0.039
53848.337862,15.791,0.046
53849.301745,15.454,0.026
53849.31252,15.474,0.028
53849.323623,15.5,0.028
53849.334392,15.468,0.03
53849.345171,15.433,0.028
53852.308469,15.788,0.041
53852.320091,15.582,0.033
53852.330927,15.523,0.031
53852.341773,15.487,0.031
53852.352604,15.473,0.031
53855.254599,15.508,0.03
53855.265243,15.509,0.03
53855.276722,15.526,0.03
53855.287851,15.509,0.03
53855.29802,15.508,0.03
53858.250093,15.604,0.113
53858.271699,15.465,0.085
53858.282934,15.486,0.033
53858.293099,15.5,0.031
53880.219182,15.5,0.028
53880.230382,15.486,0.028
53880.24162,15.479,0.028
53880.252877,15.488,0.028
53880.263841,15.457,0.028
53883.226107,15.583,0.035
53883.237518,15.454,0.031
53883.249025,15.468,0.031
53883.260473,15.483,0.033
53883.2719,15.496,0.035
53884.214732,15.478,0.03
53884.227461,15.458,0.028
53884.240073,15.518,0.031
53884.252816,15.504,0.031
53884.265085,15.483,0.031
53905.166487,15.475,0.031
53905.176505,15.477,0.033
53905.186489,15.498,0.035
53905.196498,15.499,0.035
53905.206524,15.505,0.035
53910.167698,16.127,0.068
53910.178293,16.103,0.058
53910.188846,15.762,0.043
53910.199366,15.589,0.038
53910.209871,15.477,0.038
53911.212779,15.508,0.117
53911.223072,15.505,0.085
54113.452971,15.456,0.033
54113.465572,15.477,0.067
54113.478806,15.424,0.031
54113.495732,15.451,0.031
54113.508705,15.486,0.031
54121.403866,15.478,0.028
54121.416605,15.586,0.033
54121.429183,15.768,0.038
54121.441568,16.071,0.051
54121.454343,16.147,0.054
54124.41142,15.477,0.022
54124.424759,15.486,0.022
54124.437649,15.479,0.022
54124.45147,15.476,0.02
54124.464561,15.48,0.02
54147.39631,15.573,0.03
54147.408467,15.558,0.028
54147.420711,15.544,0.028
54147.432941,15.555,0.028
54147.44506,15.545,0.028
54149.396366,15.529,0.025
54149.408072,15.495,0.025
54149.420923,15.502,0.025
54149.432618,15.499,0.025
54149.444529,15.495,0.025
54157.38048,15.625,0.026
54157.392157,15.834,0.031
54157.403857,16.134,0.039
54157.415575,16.067,0.037
54157.427293,15.765,0.028
54175.328605,15.5,0.025
54175.339374,15.498,0.025
54175.3501,15.523,0.025
54175.360913,15.621,0.028
54175.37166,15.835,0.035
54175.372438,15.819,0.028
54175.383271,16.059,0.035
54175.394185,16.092,0.037
54175.40511,15.851,0.03
54175.416016,15.639,0.024
54198.273388,15.515,0.036
54198.283104,15.497,0.071
54207.272123,15.468,0.02
54207.281305,15.504,0.026
54207.290449,15.519,0.044
54210.268659,15.498,0.024
54210.277661,15.544,0.024
54210.286636,15.494,0.024
54210.295671,15.501,0.026
54210.304649,15.508,0.026
54454.46822,15.366,0.02
54454.481558,15.364,0.02
54454.494596,15.369,0.02
54454.507617,15.347,0.02
54454.520632,15.346,0.02
54474.460088,15.401,0.05
54474.473197,15.375,0.018
54474.486253,15.437,0.018
54474.499301,15.389,0.02
54474.512336,15.394,0.018
54483.415834,15.413,0.033
54483.428758,15.369,0.028
54483.44167,15.401,0.024
54483.454573,15.413,0.024
54485.464994,15.447,0.039
54485.477706,15.439,0.037
54485.490403,15.435,0.037
54485.503097,15.41,0.033
54485.515791,15.422,0.03
54508.41364,15.434,0.017
54508.425741,15.405,0.017
54508.437832,15.445,0.017
54508.449984,15.433,0.018
54508.462063,15.419,0.018
54523.455669,15.485,0.022
54523.467438,15.607,0.024
54523.479195,15.747,0.028
54523.491074,15.909,0.033
54523.503219,15.859,0.033
54537.340449,15.413,0.035
54537.351422,15.422,0.033
54537.362381,15.429,0.026
54537.373355,15.394,0.022
54543.251375,15.509,0.035
54543.26219,15.458,0.035
54554.362185,15.45,0.018
54554.374129,15.603,0.02
54554.386073,15.722,0.024
54554.398101,15.88,0.03
54554.410045,15.785,0.028
54564.300242,15.429,0.017
54564.311632,15.4,0.017
54564.322996,15.407,0.017
54564.334341,15.416,0.017
54564.345671,15.427,0.017
54568.299355,15.535,0.035
54568.310618,15.539,0.035
54568.321652,15.503,0.033
54568.332553,15.524,0.033
54568.343435,15.557,0.035
54585.292876,15.78,0.026
54585.303204,15.85,0.046
54585.313538,15.813,0.028
54585.323887,15.656,0.026
54585.334243,15.546,0.022
54592.248523,15.459,0.02
54592.259191,15.512,0.022
54592.26966,15.486,0.02
54592.280095,15.471,0.02
54592.290511,15.493,0.02
54615.217354,15.501,0.024
54615.228082,15.496,0.024
54615.238527,15.5,0.024
54615.249045,15.485,0.024
54622.182401,15.478,0.074
54622.192492,15.5,0.074
54622.20256,15.495,0.064
54622.212833,15.471,0.063
