mjd,m,merr
52644.492612,16.391,0.055
52644.507636,16.448,0.074
52644.522367,16.421,0.083
52644.537576,16.368,0.055
52648.403602,16.411,0.072
52648.418573,16.449,0.072
52648.433478,16.401,0.067
52648.448648,16.447,0.061
52648.464045,16.39,0.055
52667.471479,16.446,0.057
52667.486755,16.415,0.057
52667.501958,16.456,0.063
52667.517338,16.487,0.061
52667.532563,16.4,0.057
52671.467141,16.383,0.05
52671.482757,16.482,0.055
52671.498244,16.406,0.052
52671.513667,16.549,0.059
52674.460937,16.458,0.054
52674.475503,16.439,0.052
52674.490509,16.515,0.057
52704.376086,16.597,0.059
52704.389355,16.839,0.072
52704.402628,16.896,0.078
52704.415744,16.797,0.072
52704.428833,16.662,0.065
52708.377635,16.315,0.051
52708.390753,16.358,0.054
52708.403793,16.335,0.054
52708.416972,16.29,0.054
52708.430016,16.362,0.058
52728.296435,16.43,0.048
52728.30923,16.577,0.055
52728.321452,16.666,0.057
52728.335304,16.823,0.068
52728.347788,16.946,0.08
52729.2841,16.97,0.083
52729.295839,16.692,0.067
52729.307382,16.528,0.055
52729.319027,16.449,0.054
52729.330633,16.443,0.054
52731.315794,16.449,0.105
52731.327766,16.398,0.087
52731.351776,16.331,0.057
52737.317055,16.477,0.052
52737.332898,16.388,0.046
52737.344883,16.451,0.048
52737.356742,16.525,0.052
52737.369051,16.494,0.05
52756.254257,16.365,0.052
52756.266205,16.372,0.054
52756.278137,16.392,0.054
52756.290078,16.34,0.05
52756.302112,16.35,0.054
52760.259045,16.904,0.08
52760.270838,16.863,0.08
52760.282705,16.59,0.065
52760.294605,16.541,0.061
52760.306445,16.443,0.059
52767.211597,16.404,0.063
52767.224145,16.402,0.063
52767.235792,16.416,0.064
52767.247909,16.302,0.058
52767.260118,16.351,0.061
52789.218552,16.443,0.057
52789.22883,16.449,0.057
52789.239267,16.439,0.057
52789.249561,16.491,0.059
52789.260206,16.47,0.055
52794.216733,16.467,0.065
52794.226745,16.496,0.068
52794.236917,16.454,0.065
52794.246891,16.447,0.068
52794.256981,16.445,0.07
52816.172916,16.427,0.07
52816.182815,16.492,0.081
52816.193341,16.463,0.08
52816.203193,16.515,0.093
52816.213046,16.483,0.102
52819.210487,16.095,0.148
52823.193038,16.477,0.074
52823.202957,16.518,0.081
52996.469435,16.486,0.046
52996.482393,16.412,0.041
52996.49541,16.449,0.041
52996.508479,16.433,0.039
52996.521434,16.408,0.037
53001.460874,16.332,0.041
53001.471904,16.435,0.039
53001.474271,16.331,0.039
53001.485168,16.47,0.035
53001.487292,16.323,0.037
53001.498407,16.498,0.037
53001.501539,16.477,0.043
53001.512368,16.791,0.048
53001.514672,16.754,0.055
53001.525653,16.974,0.055
53002.495402,16.633,0.043
53002.509358,16.49,0.035
53002.52428,16.492,0.036
53002.538525,16.508,0.04
53027.40057,16.414,0.039
53027.413415,16.438,0.039
53027.426185,16.402,0.037
53027.439737,16.488,0.041
53027.452858,16.385,0.035
53032.401807,16.413,0.046
53032.414099,16.455,0.048
53032.426288,16.442,0.048
53032.438658,16.394,0.046
53032.450876,16.411,0.044
53054.43226,16.443,0.043
53054.445652,16.473,0.044
53054.461138,16.467,0.046
53054.473722,16.483,0.05
53054.486144,16.451,0.048
53060.363507,16.422,0.035
53060.374714,16.421,0.035
53060.386523,16.404,0.033
53060.397709,16.412,0.035
53060.409081,16.389,0.035
53080.340008,16.463,0.046
53080.351008,16.599,0.052
53080.362621,16.809,0.061
53080.374119,16.88,0.067
53080.385571,16.822,0.063
53084.342218,16.418,0.033
53084.352845,16.449,0.033
53084.363641,16.452,0.033
53084.374336,16.426,0.033
53084.385207,16.444,0.033
53086.357575,16.497,0.054
53086.368545,16.5,0.053
53086.379508,16.462,0.053
53086.390563,16.48,0.043
53086.4019,16.445,0.038
53115.306257,16.397,0.039
53115.317398,16.392,0.037
53115.328549,16.425,0.039
53115.339616,16.455,0.043
53115.350687,16.444,0.043
53117.310483,16.486,0.043
53117.320779,16.435,0.041
53117.331313,16.439,0.041
53117.34176,16.47,0.045
53117.352349,16.482,0.046
53139.207284,16.361,0.05
53139.216589,16.41,0.055
53139.225889,16.386,0.055
53139.235347,16.421,0.055
53139.244656,16.373,0.054
53143.275372,16.922,0.067
53143.284741,16.751,0.061
53143.294021,16.571,0.052
53143.303311,16.523,0.048
53143.312613,16.463,0.046
53147.209297,16.476,0.051
53147.218104,16.473,0.053
53147.226867,16.477,0.051
53147.236049,16.439,0.051
53147.245136,16.529,0.054
53169.176544,16.383,0.055
53169.186664,16.316,0.052
53169.19676,16.364,0.054
53169.206864,16.311,0.052
53169.216971,16.33,0.052
53172.176471,16.482,0.046
53172.187426,16.426,0.044
53172.197855,16.472,0.046
53172.208151,16.439,0.046
53172.218401,16.441,0.05
53174.17523,16.451,0.056
53174.185067,16.409,0.053
53174.197037,16.424,0.056
53174.207051,16.557,0.063
53174.217031,16.581,0.066
53354.460587,16.416,0.07
53354.473363,16.601,0.08
53354.487505,16.714,0.083
53354.500332,16.919,0.098
53354.513293,16.723,0.08
53377.472734,16.636,0.065
53377.48568,16.791,0.076
53377.498627,16.919,0.081
53377.511583,16.796,0.07
53377.524536,16.61,0.061
53382.512695,16.419,0.05
53382.528745,16.378,0.048
53382.543272,16.37,0.052
53404.435042,16.46,0.068
53404.447358,16.396,0.063
53404.460811,16.428,0.067
53404.473734,16.405,0.057
53404.487558,16.354,0.055
53433.418438,16.453,0.057
53433.42972,16.437,0.057
53433.441466,16.359,0.067
53433.452667,16.354,0.061
53433.463873,16.34,0.063
53440.476418,16.418,0.063
53440.486935,16.441,0.067
53440.498085,16.501,0.072
53465.339065,16.45,0.055
53465.349876,16.422,0.055
53465.362498,16.382,0.052
53465.37331,16.403,0.052
53465.384085,16.443,0.055
53468.281498,16.479,0.1
53468.291045,16.402,0.083
53468.30106,16.565,0.211
53469.282719,16.411,0.05
53469.292746,16.427,0.05
53469.304077,16.465,0.052
53469.314188,16.403,0.048
53469.324259,16.439,0.052
53473.282042,16.46,0.061
53473.292784,16.441,0.061
53473.303877,16.42,0.059
53473.315274,16.368,0.055
53473.326381,16.42,0.059
53479.284744,16.36,0.1
53479.296714,16.412,0.102
53479.307632,16.352,0.1
53479.317863,16.574,0.126
53479.327358,16.514,0.115
53493.300286,16.422,0.07
53493.310632,16.424,0.07
53493.321359,16.346,0.065
53493.331417,16.436,0.067
53493.341585,16.504,0.072
53504.233842,16.911,0.104
53504.243081,16.743,0.096
53504.25274,16.594,0.089
53504.263019,16.618,0.109
53504.272504,16.433,0.096
53526.239315,16.365,0.065
53526.249664,16.433,0.07
53526.260046,16.574,0.083
53530.171582,16.409,0.068
53530.181678,16.464,0.068
53530.191501,16.412,0.067
53530.201427,16.467,0.072
53530.211291,16.416,0.07
53733.461357,16.474,0.068
53733.473982,16.456,0.074
53791.420455,16.382,0.05
53791.432272,16.349,0.054
53791.444093,16.329,0.052
53791.455916,16.468,0.059
53791.46774,16.638,0.072
53794.402885,16.409,0.048
53794.414507,16.331,0.044
53794.426132,16.353,0.046
53794.437762,16.369,0.044
53794.449393,16.406,0.046
53797.356233,16.382,0.043
53797.368254,16.447,0.046
53797.3804,16.359,0.046
53797.392464,16.28,0.071
53797.40455,16.376,0.061
53815.34311,16.273,0.068
53815.354243,16.343,0.076
53815.36539,16.373,0.076
53815.376568,16.318,0.074
53815.387721,16.323,0.08
53818.34881,16.358,0.054
53818.361156,16.401,0.055
53818.373874,16.39,0.054
53818.385913,16.363,0.055
53823.38243,16.576,0.067
53823.395176,16.799,0.1
53823.408971,16.886,0.111
53823.424227,16.549,0.081
53823.439221,16.368,0.1
53825.337263,16.347,0.067
53825.362533,16.359,0.124
53825.373792,16.322,0.137
53825.38585,16.28,0.104
53829.344454,16.388,0.117
53829.355074,16.383,0.104
53833.277094,16.729,0.105
53833.286922,16.482,0.08
53833.297349,16.403,0.076
53833.307414,16.379,0.076
53833.317404,16.387,0.074
53846.24321,16.458,0.068
53846.253845,16.378,0.063
53846.275123,16.388,0.063
53848.295877,16.623,0.089
53848.306626,16.57,0.087
53848.317288,16.439,0.081
53848.328306,16.373,0.076
53848.339822,16.409,0.08
53849.302413,16.416,0.063
53849.31319,16.399,0.063
53849.324286,16.388,0.061
53849.335061,16.333,0.061
53849.345835,16.386,0.065
53852.309559,16.378,0.067
53852.321187,16.364,0.067
53852.33201,16.305,0.061
53852.342858,16.389,0.067
53852.353692,16.376,0.067
53855.255446,16.362,0.061
53855.266094,16.358,0.061
53855.277575,16.371,0.063
53855.288699,16.427,0.065
53855.298865,16.551,0.074
53858.283603,16.411,0.074
53858.293767,16.343,0.068
53881.21396,16.509,0.074
53881.223949,16.401,0.068
53881.234082,16.477,0.073
53881.24422,16.46,0.073
53881.254212,16.718,0.096
53883.226731,16.38,0.067
53883.238143,16.394,0.067
53883.249678,16.422,0.07
53883.261102,16.421,0.074
53883.272528,16.451,0.08
53905.16737,16.335,0.068
53905.177389,16.342,0.07
53905.187374,16.37,0.076
53905.197386,16.398,0.076
53905.207433,16.444,0.081
53910.168368,16.547,0.091
53910.169875,16.335,0.074
53910.178964,16.473,0.078
53910.180134,16.346,0.076
53910.189515,16.326,0.069
53910.190388,16.373,0.078
53910.200033,16.464,0.076
53910.20063,16.305,0.072
53910.210543,16.503,0.094
53910.210843,16.439,0.128
53914.17395,16.332,0.117
53914.184401,16.346,0.098
54113.479926,16.945,0.12
54113.496855,16.701,0.094
54113.509828,16.599,0.083
54121.455384,16.753,0.099
54121.467816,17.013,0.127
54121.481004,16.732,0.092
54121.493481,16.487,0.073
54121.505968,16.469,0.071
54124.412762,16.376,0.041
54124.425915,16.378,0.039
54124.438805,16.402,0.041
54124.452627,16.333,0.037
54124.465715,16.378,0.039
54147.397695,16.393,0.061
54147.409825,16.301,0.056
54147.422073,16.331,0.058
54147.434556,16.415,0.061
54147.446415,16.342,0.059
54149.397374,16.332,0.051
54149.409206,16.398,0.051
54149.421961,16.399,0.054
54149.433637,16.36,0.051
54149.445552,16.371,0.051
54156.331468,16.314,0.048
54156.342984,16.283,0.046
54156.354507,16.334,0.044
54156.366037,16.333,0.043
54156.377593,16.397,0.044
54175.32946,16.365,0.051
54175.340233,16.366,0.051
54175.350957,16.348,0.051
54175.361767,16.342,0.051
54175.372516,16.363,0.051
54175.373328,16.4,0.044
54175.384152,16.458,0.048
54175.395065,16.38,0.044
54175.405987,16.464,0.05
54175.416894,16.642,0.059
54198.274585,16.382,0.074
54210.269529,16.386,0.052
54210.278536,16.369,0.054
54210.287522,16.364,0.052
54210.296542,16.383,0.055
54210.305522,16.38,0.055
54475.456857,16.41,0.039
54475.469937,16.39,0.037
54475.482843,16.413,0.037
54475.495718,16.421,0.037
54475.508891,16.431,0.039
54483.404818,16.423,0.081
54483.41807,16.348,0.065
54483.430988,16.424,0.057
54483.443904,16.405,0.048
54483.4568,16.498,0.05
54508.415179,16.37,0.033
54508.427281,16.424,0.035
54508.439364,16.388,0.037
54508.451516,16.416,0.037
54508.463601,16.381,0.035
54524.446878,16.366,0.044
54524.458427,16.341,0.043
54524.469984,16.378,0.044
54524.481648,16.389,0.046
54524.493792,16.358,0.046
54537.341953,16.641,0.104
54537.352917,16.452,0.063
54537.363891,16.383,0.052
54537.374869,16.42,0.052
54543.231695,16.44,0.098
54543.242581,16.287,0.074
54543.253522,16.418,0.076
54543.264344,16.381,0.07
54543.2751,16.438,0.074
54555.355789,16.398,0.033
54555.367637,16.391,0.033
54555.379491,16.385,0.035
54555.391358,16.367,0.035
54555.403206,16.41,0.037
54564.301123,16.453,0.037
54564.312496,16.417,0.035
54564.323857,16.429,0.035
54564.335203,16.4,0.033
54564.346535,16.43,0.035
54568.300484,16.838,0.096
54568.311749,16.711,0.094
54568.322779,16.736,0.086
54568.333684,16.615,0.083
54568.344563,16.46,0.078
54586.256873,16.348,0.046
54586.267205,16.421,0.048
54586.277613,16.402,0.048
54586.287953,16.435,0.05
54594.256275,16.464,0.052
54594.266548,16.427,0.05
54594.276861,16.464,0.055
54594.287136,16.445,0.054
54594.297423,16.468,0.054
54618.211483,16.388,0.046
54618.221703,16.437,0.046
54618.231917,16.424,0.048
54618.242141,16.396,0.046
54618.252396,16.387,0.046
