mjd,m,merr
52693.412062,16.878,0.083
52693.427739,16.989,0.096
52693.444189,16.952,0.093
52693.459639,17.009,0.096
52693.475123,16.822,0.083
52721.309501,16.689,0.065
52721.322053,16.711,0.067
52721.334689,16.689,0.065
52721.347299,16.724,0.068
52721.359986,16.77,0.072
52750.241111,16.44,0.052
52750.251903,16.351,0.046
52750.26261,16.164,0.085
52750.2843,16.082,0.052
52752.232018,16.611,0.065
52752.242278,16.648,0.065
52752.252538,16.636,0.065
52752.262817,16.666,0.065
52752.273102,16.73,0.068
52781.217134,16.29,0.053
52781.228326,16.313,0.053
52781.239489,16.371,0.058
52781.250702,16.386,0.059
52781.261984,16.413,0.063
52801.21391,16.567,0.215
52801.223979,16.641,0.242
52801.234293,16.858,0.285
52801.244369,16.778,0.274
52809.177583,16.705,0.161
52809.187405,16.807,0.081
52809.216933,16.682,0.074
52830.169613,16.315,0.096
52830.179404,16.331,0.096
52830.189263,16.496,0.111
52830.19911,16.534,0.117
52830.208949,16.462,0.111
52978.448374,16.246,0.066
52978.466849,16.215,0.053
52978.483123,16.274,0.054
52978.508678,16.35,0.059
52988.419618,16.606,0.107
52988.437053,16.719,0.114
52988.469448,16.702,0.114
53008.422485,16.646,0.081
53008.479286,16.7,0.073
53038.439388,16.809,0.146
53038.452383,16.862,0.135
53038.465023,16.766,0.142
53038.477956,16.726,0.115
53038.494025,16.824,0.135
53045.329961,16.319,0.074
53045.341159,16.253,0.068
53045.352393,16.178,0.063
53045.363501,16.165,0.063
53045.374909,16.198,0.065
53096.279543,16.892,0.137
53096.289993,16.791,0.144
53096.300303,16.986,0.209
53096.310612,16.868,0.152
53096.320975,16.773,0.144
53108.301571,16.0,0.031
53108.312478,15.965,0.031
53108.323484,16.038,0.033
53108.334431,16.054,0.033
53108.345305,16.117,0.035
53125.246204,16.35,0.105
53125.256023,16.269,0.093
53125.265927,16.359,0.094
53125.275865,16.341,0.094
53125.285757,16.47,0.141
53134.243808,16.253,0.055
53134.253299,16.351,0.05
53134.262781,16.35,0.052
53134.272207,16.386,0.052
53134.281647,16.39,0.055
53155.21357,16.729,0.154
53155.222231,16.802,0.15
53155.230824,16.709,0.133
53155.239432,16.848,0.154
53155.248075,16.776,0.144
53163.219015,16.348,0.394
53193.176867,16.182,0.054
53193.186862,16.215,0.057
53193.206878,16.255,0.057
53193.216867,16.43,0.08
53340.437326,16.009,0.078
53340.449606,16.032,0.076
53340.462412,16.115,0.076
53340.474925,16.132,0.074
53340.487431,16.211,0.076
53359.424363,16.832,0.085
53359.437586,16.805,0.083
53359.454138,16.935,0.091
53359.466981,16.815,0.076
53359.480272,16.726,0.067
53362.506588,16.498,0.091
53362.521107,16.531,0.07
53362.535264,16.65,0.176
53390.404982,16.266,0.057
53390.418158,16.151,0.055
53390.433954,16.126,0.046
53390.447045,16.131,0.043
53390.46021,16.177,0.043
53423.360148,17.017,0.2
53429.331093,16.479,0.074
53429.342312,16.46,0.074
53429.353577,16.472,0.074
53429.364845,16.545,0.081
53429.376084,16.525,0.076
53461.288682,16.261,0.048
53461.299294,16.295,0.05
53461.310062,16.323,0.05
53461.320756,16.368,0.052
53461.330981,16.414,0.055
53489.248387,16.824,0.104
53489.258567,16.915,0.091
53489.269426,16.933,0.093
53535.216946,16.759,0.096
53535.22698,16.786,0.096
53535.236979,16.921,0.111
53535.247001,16.886,0.107
53535.257018,16.845,0.104
53725.466941,16.096,0.05
53725.480041,16.18,0.054
53725.493193,16.204,0.054
53725.506743,16.229,0.054
53725.520445,16.265,0.055
53755.403782,16.703,0.094
53755.416557,16.635,0.087
53755.429915,16.603,0.083
53755.442627,16.754,0.094
53755.45536,16.66,0.085
53775.414492,16.192,0.122
53775.427641,16.137,0.098
53775.440703,16.13,0.087
53775.453582,16.147,0.089
53775.4665,16.254,0.124
53803.382038,16.67,0.084
53803.39407,16.723,0.086
53807.361971,16.822,0.139
53807.386217,17.304,0.276
53833.274822,16.523,0.084
53833.285561,16.343,0.058
53833.307047,16.217,0.051
53858.268038,16.714,0.114
53864.243471,16.329,0.116
53864.262707,16.222,0.106
53864.27245,16.328,0.117
53864.281995,16.359,0.125
53876.244078,16.559,0.071
53905.223072,16.783,0.089
53905.242492,16.348,0.064
53905.253885,16.302,0.069
53933.165518,16.911,0.058
53933.175768,16.849,0.063
53933.186471,16.885,0.071
53933.196735,16.956,0.079
53933.207086,16.816,0.089
53955.146175,16.862,0.244
53955.158376,16.53,0.185
53955.195022,16.858,0.311
54079.421967,16.809,0.154
54079.433828,16.461,0.107
54079.44566,16.5,0.105
54079.457574,16.485,0.102
54079.469412,16.285,0.081
54108.392633,16.703,0.104
54108.405491,16.721,0.105
54108.418116,16.648,0.098
54108.430947,16.724,0.102
54108.443573,16.767,0.109
54139.336426,16.747,0.109
54139.34811,17.072,0.19
54139.359553,16.752,0.142
54139.371258,17.025,0.249
54139.382777,16.765,0.16
54157.335847,16.747,0.094
54157.346866,16.821,0.101
54157.357879,16.837,0.096
54157.380136,16.882,0.101
54465.449125,16.87,0.114
54465.461481,16.847,0.111
54465.474487,16.872,0.112
54465.486856,16.855,0.107
54465.499224,16.796,0.102
54496.47301,16.667,0.078
54496.497499,16.362,0.059
54496.509293,16.263,0.054
54496.521435,16.245,0.054
54524.338452,16.712,0.084
54524.349855,16.839,0.074
54524.361945,16.76,0.068
54524.373613,16.743,0.068
54524.385146,16.664,0.064
54539.314971,16.258,0.049
54539.325369,16.254,0.049
54539.335786,16.338,0.051
54539.346303,16.307,0.051
54539.356813,16.357,0.051
54571.248124,16.593,0.097
54571.258829,16.278,0.076
54571.269558,16.022,0.061
54571.280434,15.96,0.059
54571.291143,16.046,0.061
