mjd,m,merr
52613.452376,15.528,0.026
52613.467547,15.476,0.024
52613.482892,15.516,0.026
52613.498091,15.562,0.026
52613.513377,15.679,0.028
52618.489614,15.579,0.037
52618.505184,15.684,0.037
52640.455082,15.578,0.023
52640.469977,15.523,0.023
52640.484847,15.499,0.023
52640.499763,15.509,0.021
52640.514601,15.561,0.023
52643.44107,15.357,0.022
52643.469004,15.653,0.022
52643.483011,15.783,0.024
52643.497314,15.879,0.026
52647.457919,15.735,0.031
52647.487146,15.709,0.028
52647.501823,15.583,0.026
52667.387956,15.554,0.025
52667.402711,15.62,0.028
52667.417747,15.754,0.03
52667.432501,15.828,0.035
52667.447448,15.773,0.038
52670.398054,15.533,0.026
52670.41197,15.358,0.024
52673.305612,15.882,0.031
52673.320894,15.772,0.028
52673.336156,15.628,0.024
52673.351478,15.566,0.022
52673.366819,15.504,0.022
52703.311075,15.547,0.063
52703.324842,15.51,0.028
52703.338201,15.493,0.052
52703.352297,15.574,0.03
52703.365576,15.637,0.1
52707.30887,15.375,0.02
52707.322688,15.383,0.022
52707.335813,15.365,0.022
52708.240379,15.804,0.035
52708.254788,15.861,0.036
52708.267854,15.794,0.033
52708.280997,15.64,0.028
52708.294143,15.575,0.026
52709.238754,15.601,0.033
52709.25239,15.683,0.035
52709.266025,15.822,0.038
52709.279161,15.892,0.041
52709.292441,15.786,0.036
52730.239713,15.56,0.022
52730.25142,15.658,0.024
52730.263101,15.75,0.026
52730.274762,15.81,0.028
52730.286574,15.834,0.028
52733.251777,15.627,0.026
52733.263837,15.588,0.024
52733.276104,15.524,0.022
52733.288959,15.505,0.024
52733.30097,15.476,0.044
52738.236442,15.638,0.026
52738.247861,15.577,0.026
52738.2598,15.539,0.024
52738.271223,15.5,0.024
52738.282832,15.495,0.024
52755.20007,15.6,0.028
52755.200412,15.583,0.028
52755.211965,15.646,0.03
52755.223922,15.708,0.031
52755.224265,15.743,0.031
52755.235859,15.813,0.036
52755.236202,15.86,0.035
52755.247828,15.836,0.038
52755.248171,15.873,0.038
52758.204608,15.588,0.024
52758.216459,15.554,0.024
52758.228313,15.446,0.022
52758.240326,15.377,0.022
52758.25221,15.372,0.022
52788.170583,15.704,0.052
52788.180835,15.621,0.041
52788.191141,15.653,0.067
52793.221698,15.572,0.039
52793.231738,15.543,0.039
52793.241687,15.646,0.046
52966.465501,15.508,0.026
52966.477917,15.479,0.024
52966.490459,15.443,0.024
52966.502997,15.483,0.022
52973.432204,15.624,0.031
52973.443304,15.684,0.033
52973.456161,15.811,0.036
52973.467714,15.854,0.036
52973.47972,15.818,0.035
52994.475004,15.748,0.02
52994.489029,15.599,0.017
52994.502261,15.5,0.015
52994.515535,15.492,0.015
52994.528927,15.443,0.015
52997.505464,15.424,0.067
53025.375191,15.593,0.043
53028.398583,15.654,0.017
53028.410974,15.48,0.017
53028.435883,15.281,0.018
53053.347632,15.745,0.026
53053.359248,15.674,0.024
53053.370918,15.58,0.03
53053.382565,15.593,0.037
53053.394771,15.449,0.022
53061.327836,15.523,0.015
53061.3389,15.466,0.013
53061.349966,15.477,0.015
53061.361034,15.504,0.015
53061.372147,15.528,0.015
53064.280913,15.577,0.028
53064.293282,15.475,0.022
53064.294149,15.551,0.022
53064.305919,15.632,0.026
53064.330047,15.665,0.026
53064.337072,15.795,0.026
53064.348724,15.951,0.031
53079.308628,15.578,0.022
53079.319359,15.704,0.026
53079.330165,15.797,0.028
53079.340912,15.745,0.026
53079.351915,15.662,0.026
53082.311931,15.235,0.017
53089.222767,15.326,0.017
53110.19219,15.625,0.03
53110.202879,15.565,0.028
53110.213566,15.485,0.026
53110.224314,15.461,0.026
53110.235073,15.483,0.024
53116.30679,15.528,0.018
53116.318149,15.709,0.026
53116.329778,15.787,0.026
53116.341784,15.853,0.026
53116.353019,15.815,0.028
53138.159413,15.483,0.022
53138.16928,15.509,0.022
53138.188929,15.496,0.024
53138.198739,15.591,0.026
53141.210322,15.552,0.022
53141.220505,15.505,0.022
53144.207937,15.611,0.036
53144.23489,15.875,0.089
53166.177402,15.564,0.031
53166.186755,15.539,0.031
53166.196108,15.543,0.033
53166.205485,15.516,0.035
53166.214848,15.518,0.035
53346.453028,15.787,0.043
53346.477716,15.697,0.035
53346.490009,15.626,0.033
53351.48982,15.648,0.035
53351.504353,15.59,0.033
53351.518712,15.506,0.033
53351.533053,15.55,0.035
53353.402367,15.667,0.035
53353.415304,15.548,0.03
53353.428247,15.54,0.03
53353.456649,15.595,0.03
53376.48078,15.465,0.02
53376.494718,15.467,0.02
53376.508527,15.472,0.02
53376.525799,15.524,0.022
53381.422712,15.504,0.052
53381.44843,15.41,0.111
53381.461501,15.489,0.087
53381.474354,15.464,0.046
53403.366187,15.516,0.022
53403.379041,15.559,0.024
53403.393001,15.621,0.026
53403.405796,15.709,0.028
53410.353783,15.418,0.022
53410.366565,15.582,0.018
53410.392183,15.491,0.017
53410.405128,15.494,0.017
53432.346759,15.614,0.109
53432.380912,15.637,0.028
53432.39261,15.59,0.028
53433.286185,15.444,0.02
53433.30121,15.407,0.02
53433.31552,15.408,0.02
53433.331127,15.45,0.02
53433.345171,15.522,0.022
53437.293129,15.443,0.02
53437.305142,15.497,0.022
53437.316763,15.553,0.022
53437.328466,15.615,0.026
53437.340101,15.782,0.028
53440.302875,15.749,0.026
53440.316654,15.63,0.024
53440.329214,15.572,0.022
53440.342323,15.518,0.022
53440.356385,15.484,0.022
53441.275404,15.478,0.022
53441.286904,15.597,0.022
53441.298288,15.709,0.024
53441.309689,15.714,0.026
53441.321131,15.702,0.026
53442.257777,15.398,0.02
53442.269087,15.411,0.02
53442.280388,15.442,0.022
53442.292233,15.464,0.022
53442.304157,15.527,0.022
53443.271706,15.462,0.02
53443.282555,15.425,0.018
53443.294048,15.424,0.018
53443.304893,15.401,0.018
53443.316308,15.414,0.018
53446.279795,15.657,0.044
53446.290248,15.731,0.044
53446.301183,15.799,0.028
53446.312107,15.791,0.03
53446.32363,15.689,0.024
53464.291629,15.482,0.022
53464.301811,15.508,0.024
53464.311974,15.522,0.022
53464.322158,15.597,0.028
53464.332323,15.648,0.028
53468.264943,15.541,0.054
53468.274557,15.51,0.052
53495.203216,15.842,0.05
53495.213539,15.846,0.048
53495.223757,15.771,0.046
53495.234085,15.673,0.048
53495.244361,15.647,0.054
53496.196056,15.591,0.031
53496.206343,15.673,0.033
53496.216571,15.754,0.037
53496.226851,15.813,0.041
53496.237116,15.81,0.043
53503.18705,15.563,0.026
53503.195907,15.542,0.026
53503.205761,15.539,0.026
53503.21615,15.483,0.026
53503.226116,15.543,0.026
53525.173236,15.847,0.044
53525.18338,15.78,0.044
53525.193597,15.705,0.039
53525.203768,15.642,0.039
53527.165501,15.535,0.031
53527.175766,15.556,0.033
53527.185617,15.608,0.035
53527.19545,15.703,0.041
53527.205215,15.759,0.043
53530.165149,15.877,0.048
53530.175223,15.8,0.044
53530.185075,15.671,0.041
53530.19488,15.617,0.041
53530.20482,15.55,0.039
53708.458901,15.636,0.03
53708.471879,15.557,0.026
53708.484649,15.51,0.026
53708.497362,15.461,0.024
53708.510141,15.479,0.024
53710.452563,15.65,0.035
53710.46598,15.721,0.037
53710.478545,15.773,0.039
53710.491192,15.756,0.039
53710.503801,15.765,0.039
53732.42262,15.541,0.037
53732.435407,15.479,0.033
53732.448088,15.545,0.033
53732.460848,15.549,0.035
53732.473639,15.559,0.035
53735.465642,15.856,0.05
53735.479044,15.761,0.078
53735.49181,15.574,0.039
53735.517601,15.51,0.03
53746.401254,15.504,0.035
53746.413716,15.494,0.033
53746.426271,15.575,0.037
53746.438958,15.652,0.039
53746.451424,15.858,0.044
53759.406401,15.719,0.03
53759.419211,15.604,0.03
53759.431805,15.539,0.039
53759.444424,15.563,0.044
53762.410998,15.364,0.022
53762.423698,15.39,0.035
53762.436381,15.413,0.028
53762.461785,15.863,0.031
53787.465601,15.608,0.03
53787.477624,15.689,0.072
53787.501906,15.518,0.037
53790.295299,15.476,0.023
53790.307231,15.497,0.023
53790.319209,15.54,0.023
53790.331215,15.599,0.023
53790.34039,15.648,0.028
53790.343108,15.678,0.026
53790.352088,15.703,0.03
53790.363775,15.85,0.033
53790.375471,15.795,0.031
53790.387175,15.701,0.031
53793.345923,15.454,0.028
53793.357654,15.405,0.022
53793.369382,15.383,0.03
53793.381122,15.395,0.022
53793.392865,15.375,0.044
53797.248668,15.745,0.026
53797.260227,15.842,0.03
53797.271878,15.813,0.031
53797.283457,15.798,0.028
53799.334778,15.85,0.03
53799.346223,15.701,0.03
53799.357642,15.583,0.03
53799.369077,15.526,0.033
53799.380521,15.491,0.041
53817.216889,15.58,0.023
53817.228316,15.7,0.025
53817.251331,15.605,0.025
53817.263071,15.505,0.023
53819.288654,15.863,0.037
53819.299982,16.123,0.211
53819.310835,15.965,0.111
53819.323616,15.669,0.028
53819.334784,15.589,0.026
53826.284471,15.498,0.024
53826.320752,15.692,0.033
53826.332926,15.784,0.035
53827.296725,15.53,0.024
53827.307843,15.532,0.024
53827.31876,15.382,0.068
53827.32954,15.604,0.028
53827.340544,15.652,0.03
53832.222747,15.919,0.044
53832.234455,15.822,0.041
53832.245499,15.748,0.043
53845.19222,15.557,0.028
53845.203315,15.535,0.026
53845.214469,15.52,0.026
53845.225555,15.581,0.03
53845.236633,15.589,0.054
53846.245943,15.493,0.033
53846.25674,15.538,0.035
53846.267548,15.528,0.035
53846.278353,15.596,0.037
53846.289163,15.679,0.043
53850.194736,15.511,0.028
53850.205127,15.451,0.026
53850.215616,15.498,0.028
53850.226128,15.543,0.03
53850.236706,15.558,0.031
53850.271961,15.787,0.035
53850.283477,15.871,0.037
53850.294858,15.769,0.035
53850.306494,15.677,0.033
53850.317951,15.632,0.033
53853.24212,15.704,0.035
53853.252854,15.664,0.033
53853.263873,15.581,0.033
53853.274606,15.54,0.031
53853.285095,15.513,0.031
53879.161427,15.482,0.021
53879.172233,15.582,0.023
53879.182967,15.564,0.025
53879.19371,15.709,0.028
53879.205327,15.818,0.031
53882.167246,15.772,0.033
53882.180037,15.661,0.031
53882.193027,15.585,0.028
53882.204258,15.525,0.028
53882.216164,15.49,0.028
53884.172073,15.334,0.037
53884.195624,15.678,0.044
53884.207397,15.791,0.048
53885.15722,15.514,0.026
53885.168321,15.532,0.026
53885.179173,15.538,0.028
53885.189937,15.576,0.028
53885.201226,15.821,0.031
54059.461495,15.503,0.031
54059.474489,15.486,0.031
54059.488162,15.526,0.028
54059.500767,15.557,0.028
54060.43927,15.767,0.037
54060.453195,15.625,0.031
54060.466103,15.557,0.03
54060.479014,15.558,0.028
54060.492085,15.499,0.026
54083.468169,15.846,0.061
54083.495358,15.825,0.05
54086.424462,15.661,0.035
54086.437413,15.728,0.03
54086.450258,15.65,0.026
54086.463112,15.58,0.024
54086.47608,15.543,0.024
54091.357118,15.496,0.04
54091.369038,15.613,0.038
54091.377802,15.694,0.028
54091.381672,15.704,0.04
54091.390386,15.791,0.028
54091.393577,15.788,0.041
54091.403302,15.9,0.031
54091.405693,15.895,0.045
54091.415897,15.873,0.03
54091.428495,15.781,0.028
54113.403127,15.674,0.061
54113.43011,15.913,0.045
54113.443016,15.871,0.045
54115.411289,15.486,0.028
54115.424028,15.491,0.028
54115.437163,15.584,0.03
54115.450038,15.582,0.031
54115.46317,15.671,0.033
54123.342976,15.449,0.025
54123.35536,15.505,0.025
54123.367898,15.544,0.025
54123.380515,15.557,0.026
54123.39294,15.665,0.028
54144.359984,15.509,0.02
54144.371453,15.566,0.02
54144.382541,15.601,0.05
54144.394193,15.705,0.024
54144.4065,15.798,0.028
54148.338122,15.555,0.026
54148.349716,15.644,0.028
54148.361279,15.742,0.031
54148.372915,15.803,0.033
54148.38487,15.856,0.036
54154.327666,15.482,0.017
54154.34008,15.51,0.017
54154.351666,15.557,0.018
54154.363286,15.592,0.02
54154.374934,15.668,0.02
54155.300358,15.742,0.028
54155.31201,15.655,0.024
54155.323728,15.596,0.022
54155.335744,15.542,0.02
54155.347924,15.502,0.018
54173.270739,15.256,0.018
54173.281483,15.526,0.02
54173.292136,15.535,0.02
54173.302778,15.575,0.02
54173.3135,15.649,0.02
54174.269833,15.55,0.025
54174.280782,15.475,0.023
54174.291816,15.444,0.025
54174.302733,15.442,0.031
54174.314013,15.457,0.025
54176.275849,15.884,0.028
54176.286425,15.88,0.028
54176.297131,15.813,0.026
54176.307792,15.688,0.022
54176.318394,15.611,0.022
54179.291984,15.51,0.018
54179.302918,15.506,0.018
54179.314313,15.539,0.02
54179.325261,15.59,0.022
54179.336572,15.656,0.024
54180.278114,15.633,0.025
54180.288453,15.574,0.023
54180.298924,15.501,0.021
54180.309504,15.477,0.021
54180.320014,15.466,0.02
54186.338378,15.259,0.018
54186.349942,15.527,0.02
54186.361513,15.535,0.02
54186.372958,15.575,0.02
54186.384735,15.649,0.02
54200.218661,15.834,0.038
54200.228133,15.802,0.036
54200.25713,15.572,0.031
54206.263124,15.727,0.024
54206.272372,15.664,0.022
54206.281771,15.605,0.022
54206.290922,15.561,0.022
54206.300052,15.532,0.022
54209.259045,15.594,0.072
54209.26818,15.711,0.122
54209.27724,15.6,0.061
54209.286307,15.584,0.057
54209.295369,15.675,0.063
54439.447942,15.873,0.022
54439.460833,15.742,0.018
54439.47371,15.63,0.017
54439.486582,15.572,0.017
54439.499451,15.511,0.015
54507.331564,15.516,0.015
54507.343615,15.507,0.015
54507.355737,15.482,0.015
54507.367806,15.521,0.015
54507.379865,15.578,0.015
54507.451783,15.532,0.031
54507.4637,15.439,0.031
54507.475662,15.401,0.028
54507.488461,15.379,0.025
54507.500331,15.359,0.026
54522.3946,15.838,0.028
54522.406255,15.844,0.03
54522.417926,15.771,0.028
54522.429574,15.717,0.026
54522.441219,15.607,0.026
54529.326309,15.691,0.018
54529.33763,15.624,0.017
54529.348926,15.552,0.015
54529.360227,15.514,0.015
54529.371526,15.509,0.017
54535.39218,15.466,0.025
54535.403191,15.479,0.025
54535.414193,15.501,0.026
54535.425193,15.524,0.026
54535.436353,15.62,0.031
54536.271417,15.515,0.018
54536.282414,15.492,0.015
54536.293381,15.51,0.015
54536.304376,15.56,0.015
54536.315357,15.605,0.015
54553.304697,15.498,0.022
54553.31659,15.486,0.018
54553.32847,15.51,0.018
54553.340539,15.567,0.02
54553.352472,15.616,0.022
54558.17823,15.503,0.018
54558.189805,15.563,0.026
54558.201371,15.619,0.039
54558.212922,15.741,0.037
54558.224514,15.8,0.072
54562.297201,15.528,0.015
54562.308738,15.58,0.015
54562.320255,15.661,0.017
54562.331811,15.768,0.018
54562.343346,15.817,0.02
54580.19544,15.465,0.02
54580.206066,15.497,0.02
54580.216682,15.513,0.022
54580.227286,15.579,0.024
54580.237958,15.702,0.03
54584.249444,15.695,0.024
54584.260105,15.61,0.022
54584.270684,15.576,0.022
54584.281254,15.523,0.02
54584.291884,15.513,0.02
54591.201821,15.505,0.02
54591.212092,15.501,0.02
54591.222361,15.505,0.022
54591.232646,15.542,0.024
54591.24294,15.626,0.026
54611.161342,15.482,0.018
54611.171702,15.473,0.018
54611.181613,15.525,0.018
54611.19152,15.503,0.02
54611.201404,15.514,0.02
54614.16359,15.69,0.024
54614.173558,15.774,0.026
54614.183526,15.875,0.028
54614.193502,15.829,0.028
54614.203476,15.757,0.028
