mjd,m,merr
52644.492986,15.926,0.037
52644.508015,15.899,0.044
52644.522743,15.906,0.052
52644.538045,15.916,0.041
52648.403976,15.934,0.048
52648.418946,15.92,0.048
52648.433886,15.921,0.044
52648.44902,15.929,0.041
52648.464419,16.011,0.041
52667.471864,16.273,0.05
52667.487139,16.279,0.052
52667.502343,16.368,0.059
52667.517722,16.311,0.054
52667.532949,16.305,0.054
52671.467525,16.237,0.046
52671.483142,16.177,0.043
52671.498667,15.97,0.035
52671.514054,15.972,0.035
52674.461286,15.95,0.037
52674.475858,15.95,0.037
52674.490863,15.926,0.035
52703.45399,15.891,0.073
52703.480611,15.929,0.043
52703.495893,15.935,0.045
52707.373139,15.915,0.036
52707.373498,15.785,0.038
52707.386327,15.932,0.036
52707.399422,15.99,0.038
52707.412509,15.992,0.041
52707.426658,16.062,0.043
52730.303088,16.306,0.059
52730.315103,16.272,0.049
52730.32712,16.346,0.051
52730.339143,16.339,0.051
52730.351934,16.32,0.054
52737.317799,15.928,0.031
52737.333474,15.896,0.031
52737.345458,15.922,0.03
52737.357318,15.94,0.033
52737.369656,15.973,0.033
52756.258373,15.995,0.045
52756.270466,16.012,0.046
52756.282802,16.027,0.046
52756.294891,16.065,0.048
52756.307014,16.055,0.049
52761.261057,16.269,0.044
52761.272781,16.309,0.046
52761.284556,16.332,0.05
52761.29628,16.332,0.05
52761.308091,16.374,0.052
52764.26197,16.286,0.049
52764.274016,16.286,0.049
52764.285965,16.289,0.048
52764.298049,16.12,0.041
52764.309949,16.001,0.038
52789.261299,16.338,0.053
52791.232468,16.39,0.246
52794.217005,16.31,0.057
52794.227021,16.365,0.061
52794.237187,16.31,0.057
52794.247159,16.18,0.055
52794.257259,16.132,0.052
52816.173838,15.922,0.056
52816.183888,16.09,0.064
52816.193975,15.961,0.059
52816.204254,16.047,0.069
52816.214411,16.065,0.081
52823.183346,16.216,0.079
52823.193427,16.348,0.076
52823.203436,16.484,0.087
52996.469988,16.277,0.039
52996.482946,16.267,0.037
52996.495963,16.274,0.037
52996.509032,16.203,0.033
52996.522003,16.091,0.03
53001.472456,15.918,0.026
53001.485721,15.924,0.024
53001.49896,15.937,0.024
53001.512922,15.956,0.024
53001.526259,16.027,0.024
53027.413961,16.272,0.035
53027.426732,16.254,0.035
53027.453405,16.152,0.03
53033.399369,15.884,0.037
53033.411485,15.926,0.035
53033.423933,16.008,0.037
53033.436027,15.979,0.035
53033.448193,16.042,0.037
53054.432592,16.362,0.041
53054.445984,16.302,0.041
53054.461468,16.231,0.039
53054.474054,16.199,0.039
53054.486475,16.166,0.037
53060.364018,16.0,0.024
53060.375225,15.966,0.022
53060.387034,15.933,0.024
53060.39832,15.941,0.024
53060.409592,15.946,0.024
53080.340736,15.99,0.031
53080.351734,16.019,0.031
53080.363351,16.051,0.033
53080.374848,16.105,0.035
53080.386297,16.129,0.035
53084.342716,16.311,0.03
53084.353343,16.299,0.03
53084.364139,16.293,0.03
53084.374835,16.285,0.03
53084.385705,16.303,0.03
53087.339105,16.315,0.031
53087.349535,16.31,0.031
53087.360178,16.261,0.03
53087.370761,16.213,0.03
53087.381311,16.171,0.03
53139.207559,15.949,0.037
53139.216862,15.938,0.037
53139.226163,15.947,0.037
53139.23562,15.911,0.037
53139.244931,15.911,0.037
53148.206619,16.311,0.044
53148.215569,16.347,0.048
53148.224524,16.293,0.046
53148.233507,16.291,0.048
53148.242461,16.284,0.039
53169.17715,15.975,0.039
53169.187269,15.915,0.037
53169.197366,15.939,0.037
53169.20747,15.904,0.035
53169.217581,15.936,0.037
53175.177078,16.185,0.037
53175.18706,16.162,0.05
53175.197102,16.238,0.035
53175.207023,16.237,0.035
53175.21695,16.308,0.043
53354.461235,16.065,0.054
53354.474011,16.041,0.048
53354.488153,15.904,0.041
53354.500981,15.92,0.041
53354.513942,15.89,0.041
53377.473391,16.248,0.048
53377.486337,16.327,0.052
53377.499284,16.331,0.05
53377.512239,16.279,0.048
53377.525191,16.338,0.05
53404.442728,15.991,0.059
53404.455726,16.091,0.064
53404.468685,16.14,0.066
53404.48167,16.176,0.059
53404.494714,16.278,0.064
53440.477044,15.937,0.043
53440.487559,15.893,0.041
53440.498711,15.908,0.041
53465.340304,16.096,0.043
53465.350474,16.111,0.044
53465.363095,16.179,0.044
53465.373924,16.231,0.044
53465.384682,16.251,0.046
53468.282098,16.139,0.093
53468.291649,16.15,0.068
53468.30166,16.205,0.165
53473.282641,16.344,0.057
53473.293382,16.318,0.055
53473.304469,16.304,0.054
53473.315884,16.233,0.052
53473.326976,16.116,0.046
53475.315712,15.951,0.041
53475.325606,15.956,0.039
53475.335428,15.937,0.039
53475.345245,15.918,0.037
53475.356097,15.894,0.037
53478.365115,16.161,0.074
53478.374725,16.17,0.074
53478.383742,16.226,0.076
53478.392795,16.213,0.072
53478.401808,16.23,0.067
53479.285347,15.854,0.065
53479.298234,15.898,0.067
53479.308246,16.02,0.074
53479.318459,16.047,0.076
53479.327956,15.959,0.072
53493.300606,15.987,0.048
53493.310942,16.059,0.052
53493.321666,16.091,0.052
53493.331728,16.074,0.05
53493.341895,16.08,0.05
53496.24792,15.956,0.044
53496.258054,16.001,0.044
53496.268145,16.119,0.05
53496.278165,16.081,0.05
53496.288307,16.129,0.052
53526.239765,16.03,0.048
53526.250113,16.095,0.052
53526.260494,16.192,0.059
53527.172957,15.965,0.044
53527.183184,15.982,0.044
53527.19308,16.025,0.046
53527.20285,16.061,0.048
53527.212669,16.001,0.046
53556.171037,15.956,0.046
53556.181553,15.989,0.048
53556.192168,16.088,0.05
53556.203005,16.046,0.05
53556.213515,16.122,0.057
53746.467025,16.209,0.072
53746.479635,16.264,0.072
53746.492137,16.31,0.067
53746.504602,16.337,0.061
53746.517122,16.363,0.055
53791.411019,16.275,0.045
53791.422946,16.357,0.049
53791.434809,16.322,0.048
53791.44667,16.301,0.049
53791.458609,16.425,0.058
53815.343702,15.962,0.052
53815.354837,15.94,0.05
53815.365985,15.922,0.05
53815.377161,15.885,0.05
53815.388318,15.953,0.055
53817.321159,15.979,0.036
53817.332771,15.966,0.036
53817.344233,15.911,0.035
53817.356011,15.935,0.035
53846.243774,16.245,0.056
53846.254361,16.164,0.051
53846.264928,16.011,0.045
53846.275689,15.967,0.043
53846.286193,15.916,0.041
53850.248132,15.933,0.045
53850.258399,16.0,0.046
53850.268719,15.993,0.046
53850.279108,16.054,0.048
53850.289464,16.084,0.049
53881.213855,15.985,0.048
53881.223845,15.962,0.046
53881.233978,16.048,0.051
53881.244116,16.085,0.053
53881.254108,16.069,0.056
53884.219773,16.227,0.061
53884.231357,16.31,0.063
53884.242924,16.269,0.065
53884.254508,16.281,0.065
53884.266102,16.297,0.067
53886.21081,16.302,0.063
53886.220811,16.34,0.064
53886.230898,16.377,0.068
53886.241105,16.393,0.071
53886.251123,16.332,0.068
53901.183328,16.167,0.12
53901.193327,16.274,0.118
53901.203345,16.29,0.098
53901.213385,16.279,0.115
53910.169767,15.897,0.052
53910.180033,15.864,0.05
53910.190287,15.901,0.052
53910.200529,15.892,0.05
53910.210742,15.989,0.065
53911.230652,16.171,0.175
53914.174202,16.182,0.094
53914.184651,16.19,0.091
53914.205557,16.218,0.142
54155.360731,15.942,0.03
54155.372565,15.91,0.028
54155.384412,15.931,0.03
54155.396369,15.925,0.03
54155.408213,15.929,0.03
54156.378326,15.89,0.028
54156.389874,15.901,0.026
54156.408016,15.965,0.026
54156.419899,15.97,0.026
54156.431455,15.982,0.026
54174.325584,15.985,0.048
54174.336236,16.023,0.054
54174.346982,16.02,0.045
54174.357809,16.067,0.049
54174.368512,16.058,0.041
54180.331259,16.369,0.049
54180.34164,16.382,0.049
54180.351952,16.355,0.048
54180.362345,16.314,0.048
54180.372934,16.329,0.049
54200.287088,16.116,0.058
54200.306001,15.925,0.076
54475.45732,16.32,0.037
54475.470399,16.236,0.033
54475.483301,16.186,0.031
54475.496174,16.123,0.03
54475.509353,15.993,0.028
54483.432209,16.031,0.043
54483.44512,16.033,0.039
54483.458024,16.081,0.039
54509.39278,15.912,0.022
54509.404884,15.947,0.024
54509.416977,15.935,0.024
54509.429044,15.897,0.024
54509.441132,15.907,0.024
54524.447788,15.946,0.03
54524.47089,16.048,0.033
54524.494811,16.067,0.035
54532.33742,16.218,0.03
54532.348775,16.206,0.03
54532.3601,16.237,0.031
54532.371356,16.294,0.031
54532.382183,16.367,0.049
54532.382599,16.231,0.031
54532.385093,16.273,0.031
54532.393188,16.301,0.046
54532.396569,16.304,0.033
54532.404452,16.403,0.056
54532.40789,16.295,0.033
54532.41546,16.347,0.054
54532.419165,16.321,0.033
54532.426476,16.291,0.053
54532.430414,16.241,0.033
54538.36176,15.973,0.024
54538.372942,15.929,0.022
54538.383959,15.921,0.022
54538.394887,15.958,0.022
54538.405928,15.91,0.022
54543.277165,15.889,0.044
54543.28806,15.876,0.044
54543.299011,15.828,0.039
54543.309891,15.893,0.039
54543.320759,15.917,0.041
54555.356571,15.898,0.022
54555.368423,15.918,0.022
54555.380275,15.934,0.024
54555.392147,15.943,0.024
54555.403988,16.011,0.026
54568.301587,16.22,0.054
54568.312744,16.136,0.051
54568.323769,16.037,0.048
54568.33475,15.984,0.046
54568.345554,15.949,0.045
54580.249077,16.282,0.055
54580.259674,16.178,0.052
54580.270276,16.301,0.059
54580.280875,16.239,0.057
54580.291544,16.294,0.059
54581.242961,16.284,0.048
54581.253537,16.329,0.055
54581.264085,16.334,0.063
54581.27474,16.279,0.065
54581.285291,16.281,0.07
54586.246823,15.957,0.035
54586.257242,15.952,0.031
54586.267574,15.949,0.033
54586.277981,15.923,0.033
54586.288321,15.915,0.033
54590.24373,15.998,0.061
54590.253412,16.083,0.069
54590.26362,16.058,0.087
54590.284321,16.068,0.087
54594.256643,16.233,0.046
54594.266917,16.229,0.046
54594.277226,16.331,0.052
54594.287495,16.331,0.054
54594.297784,16.328,0.05
54611.212245,16.347,0.039
54611.222125,16.286,0.037
54611.231988,16.33,0.039
54611.241985,16.327,0.039
54611.251763,16.295,0.041
54618.211807,15.944,0.031
54618.222031,15.879,0.03
54618.232243,15.948,0.031
54618.242466,15.942,0.031
54618.252721,15.994,0.033
