mjd,m,merr
52666.480641,15.683,0.025
52676.397276,15.837,0.036
52676.412579,15.852,0.036
52698.404526,15.769,0.024
52698.418686,15.746,0.024
52698.433848,15.722,0.024
52711.307344,15.813,0.038
52711.320352,15.742,0.036
52711.333732,15.723,0.035
52711.347071,15.752,0.033
52711.36013,15.695,0.031
52725.382815,16.095,0.038
52725.395651,16.025,0.036
52725.407871,16.012,0.036
52725.420288,15.977,0.036
52725.432969,15.889,0.035
52739.297888,15.735,0.031
52739.309538,15.741,0.031
52739.321433,15.715,0.031
52739.333047,15.689,0.03
52739.344677,15.698,0.031
52754.261019,16.066,0.033
52754.273903,16.02,0.033
52754.286407,16.051,0.033
52754.300534,16.073,0.035
52754.312809,16.017,0.033
52769.214309,15.734,0.041
52769.225942,15.78,0.043
52769.237718,15.796,0.043
52769.249718,15.836,0.044
52769.262098,15.845,0.046
52794.217756,16.006,0.045
52794.228043,16.036,0.046
52794.238576,15.97,0.045
52794.249022,16.044,0.051
52820.174775,15.765,0.033
52820.194618,15.782,0.05
52820.204456,15.737,0.035
52820.214352,15.708,0.037
52824.173361,15.77,0.037
52824.183327,15.763,0.035
52824.19318,15.715,0.033
52824.203054,15.705,0.035
52824.212963,15.716,0.033
53006.454428,16.071,0.037
53006.466663,16.086,0.037
53006.478932,16.019,0.035
53006.491209,16.017,0.033
53033.400341,15.815,0.03
53033.413107,15.819,0.03
53033.425362,15.869,0.03
53033.43764,15.919,0.031
53033.450108,15.954,0.031
53052.389103,15.714,0.022
53052.400933,15.714,0.02
53052.412745,15.717,0.02
53052.424488,15.704,0.022
53052.436301,15.748,0.022
53064.290382,16.034,0.043
53064.327205,15.861,0.031
53064.345757,15.758,0.026
53064.359659,15.737,0.024
53079.332053,16.058,0.035
53079.343298,16.03,0.033
53079.354776,16.055,0.035
53079.365923,16.053,0.035
53092.284384,16.026,0.03
53092.294801,15.924,0.028
53092.304798,15.886,0.025
53092.314823,15.814,0.023
53092.325123,15.766,0.021
53110.247759,15.697,0.03
53110.258564,15.767,0.031
53110.269458,15.745,0.03
53110.28044,15.779,0.031
53110.291342,15.835,0.031
53119.24944,15.948,0.025
53119.260193,15.966,0.026
53119.270645,16.0,0.026
53119.281183,15.98,0.025
53119.295221,16.031,0.028
53138.249254,15.75,0.028
53138.258757,15.781,0.028
53138.268264,15.796,0.03
53138.277736,15.839,0.031
53138.287163,15.848,0.031
53149.207884,15.807,0.028
53149.233801,15.728,0.025
53149.242664,15.729,0.025
53166.176358,15.682,0.033
53166.187021,15.652,0.035
53166.196917,15.687,0.036
53166.206672,15.672,0.033
53166.216509,15.683,0.033
53437.415757,15.738,0.024
53437.427059,15.717,0.022
53437.438359,15.73,0.024
53437.455088,15.733,0.026
53437.466366,15.756,0.026
53438.467351,15.997,0.031
53438.478993,16.054,0.033
53438.490717,16.02,0.033
53438.502647,16.036,0.035
53445.467231,15.773,0.022
53445.479032,15.818,0.024
53445.49125,15.823,0.026
53471.315682,15.846,0.031
53471.326639,15.82,0.031
53471.337059,15.907,0.033
53471.34757,15.899,0.054
53471.357639,15.906,0.048
53502.201955,16.043,0.039
53502.212423,15.997,0.039
53502.223746,15.882,0.035
53502.234625,15.835,0.035
53502.246615,15.758,0.03
53523.219519,15.695,0.028
53523.230033,15.722,0.03
53523.240499,15.762,0.03
53523.250983,15.723,0.028
53523.261511,15.768,0.03
53738.513719,15.688,0.068
53769.45269,15.992,0.031
53769.466235,15.858,0.026
53769.479429,15.775,0.022
53769.493228,15.748,0.022
53769.506563,15.755,0.022
53789.414221,16.108,0.061
53789.451817,15.848,0.03
53789.464452,15.786,0.04
53845.258427,15.857,0.102
53845.269581,15.901,0.046
53845.280426,15.924,0.044
53845.291281,15.952,0.046
53852.246634,15.691,0.035
53881.218405,15.79,0.039
53881.229443,15.774,0.037
53881.240498,15.833,0.039
53881.251558,15.828,0.041
53881.262952,15.903,0.048
53887.216514,15.972,0.059
53887.226743,15.958,0.058
53887.23715,15.941,0.054
53887.24729,15.87,0.046
53887.257557,15.779,0.045
53902.176445,15.879,0.055
53902.20628,16.055,0.059
53902.216222,16.102,0.059
53914.175441,15.918,0.064
53914.184986,16.204,0.079
54144.389446,15.675,0.03
54144.401408,15.693,0.028
54144.413295,15.693,0.03
54144.425449,15.716,0.031
54144.437419,15.718,0.03
54153.392794,15.817,0.033
54153.405387,15.84,0.046
54153.429051,15.928,0.054
54153.440768,15.961,0.078
54208.257795,15.97,0.036
54208.266375,15.914,0.033
54208.275347,15.891,0.033
54208.284209,15.882,0.03
54208.292906,15.799,0.031
54453.46283,15.689,0.02
54453.475898,15.725,0.02
54453.488984,15.71,0.018
54453.502041,15.759,0.018
54453.515097,15.772,0.018
54478.413031,15.785,0.063
54478.452104,15.88,0.05
54478.465087,15.942,0.018
54559.240224,15.645,0.018
54559.251862,15.693,0.018
54559.263709,15.708,0.018
54559.275626,15.746,0.018
54559.287341,15.759,0.018
54568.24481,15.866,0.03
54568.255791,15.876,0.03
54568.266899,15.931,0.031
54568.278033,15.954,0.031
54568.28912,16.03,0.031
54581.250399,16.02,0.031
54581.260966,16.077,0.037
54581.271624,16.066,0.041
54581.282178,16.018,0.043
54581.292811,15.957,0.041
54589.250563,16.023,0.028
54589.260965,16.051,0.028
54589.271502,16.006,0.028
54589.282019,16.025,0.028
54589.292471,15.938,0.026
54592.237877,16.021,0.054
54621.210809,16.01,0.031
54621.220921,16.013,0.033
54621.231058,16.037,0.031
54621.241173,16.024,0.033
54621.251281,16.048,0.035
