mjd,m,merr
52639.453666,16.448,0.054
52639.468229,16.431,0.05
52639.483579,16.471,0.052
52639.498239,16.479,0.052
52639.51317,16.489,0.052
52650.428637,16.625,0.059
52650.442721,16.626,0.059
52650.456678,16.614,0.055
52650.470702,16.624,0.055
52650.484737,16.602,0.054
52665.392133,16.048,0.037
52665.406493,16.119,0.041
52665.420775,16.127,0.037
52665.435339,16.125,0.037
52665.449664,16.202,0.041
52677.388377,16.234,0.067
52677.402931,16.15,0.068
52677.417218,16.028,0.039
52677.431637,15.979,0.037
52677.44593,15.943,0.055
52680.425605,16.421,0.045
52680.455257,16.482,0.051
52680.486109,16.462,0.051
52697.400255,16.438,0.14
52706.372155,16.057,0.036
52706.385257,16.112,0.038
52706.398365,16.094,0.038
52706.411464,16.15,0.04
52706.424906,16.105,0.038
52712.313061,16.39,0.1
52712.326427,16.289,0.104
52712.339407,16.167,0.057
52712.352346,16.125,0.054
52712.365254,16.042,0.046
52724.301481,16.493,0.044
52724.313044,16.508,0.046
52724.331447,16.525,0.046
52724.344013,16.595,0.05
52724.355933,16.601,0.05
52753.255632,16.596,0.059
52753.268295,16.626,0.063
52753.284837,16.639,0.061
52753.297122,16.531,0.057
52753.31008,16.517,0.055
52770.214007,16.027,0.057
52770.226388,16.046,0.057
52770.238467,16.042,0.057
52770.25059,16.133,0.061
52770.262514,16.06,0.057
52787.217868,16.381,0.044
52787.228671,16.411,0.046
52787.239232,16.39,0.043
52787.249822,16.432,0.046
52787.26039,16.386,0.046
52797.216384,16.258,0.072
52797.226358,16.315,0.08
52797.236346,16.318,0.081
52797.246322,16.405,0.093
52797.256305,16.379,0.089
52811.176849,15.919,0.043
52811.18681,15.999,0.046
52811.196716,16.014,0.046
52811.206549,15.987,0.044
52811.216441,16.01,0.046
52825.192634,16.49,0.122
52825.202741,16.604,0.111
52825.212972,16.591,0.111
52992.469337,16.433,0.048
52992.48272,16.464,0.048
52992.49644,16.473,0.052
52992.509733,16.571,0.055
52992.522996,16.552,0.057
53034.402655,16.136,0.039
53034.415017,16.141,0.039
53034.42754,16.177,0.043
53034.439941,16.22,0.041
53034.452219,16.171,0.041
53050.334358,16.67,0.102
53050.346049,16.659,0.126
53050.357732,16.546,0.142
53050.369345,16.29,0.096
53050.380959,16.228,0.094
53065.336243,16.186,0.037
53065.34788,16.198,0.039
53065.359226,16.225,0.043
53065.370548,16.265,0.044
53065.382041,16.251,0.044
53078.330432,16.493,0.048
53078.341194,16.568,0.05
53078.352051,16.54,0.048
53093.282041,16.533,0.039
53093.292329,16.528,0.041
53093.302612,16.532,0.039
53093.312906,16.575,0.039
53093.3233,16.586,0.039
53109.247006,16.492,0.05
53109.258121,16.502,0.048
53109.269254,16.5,0.05
53109.280338,16.551,0.052
53109.291387,16.53,0.05
53122.244642,16.64,0.056
53122.255004,16.562,0.053
53122.265261,16.373,0.045
53122.275524,16.283,0.04
53122.28584,16.181,0.036
53137.245572,16.271,0.044
53137.255366,16.238,0.044
53137.265218,16.269,0.044
53137.275033,16.283,0.046
53137.284852,16.303,0.052
53153.207912,16.174,0.049
53153.218076,16.128,0.048
53153.227562,16.067,0.046
53153.236554,16.012,0.045
53153.245054,15.977,0.045
53165.227921,16.667,0.067
53165.237922,16.741,0.154
53165.258022,16.658,0.074
53178.177421,16.17,0.035
53178.18735,16.215,0.038
53178.196897,16.229,0.038
53178.206314,16.239,0.038
53178.215783,16.304,0.061
53449.283219,16.53,0.078
53449.293688,16.513,0.08
53449.304642,16.489,0.076
53449.31514,16.548,0.068
53473.390025,16.412,0.054
53473.401973,16.357,0.055
53473.412049,16.421,0.059
53473.421669,16.47,0.061
53473.431285,16.397,0.061
53498.219067,16.414,0.137
53498.229701,16.25,0.096
53498.239827,16.316,0.067
53500.244443,16.331,0.046
53500.255171,16.326,0.046
53500.266556,16.373,0.048
53500.278314,16.36,0.048
53500.288536,16.41,0.052
53528.221501,16.09,0.054
53528.232762,15.973,0.048
53528.243827,15.995,0.046
53528.254666,15.907,0.043
53528.265031,15.996,0.046
53539.176884,16.401,0.124
53539.186412,16.35,0.117
53539.195937,16.372,0.126
53539.205456,16.362,0.124
53539.214965,16.314,0.12
53550.177899,16.508,0.065
53550.197673,16.384,0.133
53550.207558,16.451,0.067
53550.21744,16.518,0.074
53714.463107,16.006,0.041
53714.475977,16.054,0.041
53714.488906,16.116,0.041
53714.501607,16.109,0.037
53714.514501,16.134,0.035
53740.469916,16.543,0.054
53740.482806,16.577,0.054
53740.49576,16.568,0.054
53740.508573,16.613,0.055
53740.521567,16.569,0.055
53770.417576,16.342,0.048
53770.430398,16.356,0.048
53770.444735,16.373,0.046
53770.462137,16.387,0.05
53770.476269,16.407,0.046
53787.372307,16.488,0.071
53787.411018,16.381,0.089
53787.423909,16.516,0.053
53813.362092,16.279,0.074
53813.37313,16.296,0.076
53813.384131,16.277,0.076
53813.395154,16.37,0.083
53813.406181,16.354,0.08
53823.254264,16.026,0.033
53823.265226,15.968,0.031
53823.276031,15.923,0.03
53823.287086,15.944,0.03
53823.298012,15.988,0.031
53844.239351,16.173,0.059
53844.24966,16.198,0.048
53844.259879,16.268,0.054
53844.270112,16.259,0.05
53844.280343,16.222,0.048
53853.245582,16.459,0.074
53853.25598,16.467,0.071
53853.266267,16.515,0.073
53853.276581,16.459,0.073
53853.287037,16.446,0.068
53883.24626,16.344,0.054
53887.225477,16.22,0.068
53887.236112,16.243,0.07
53887.246769,16.203,0.067
53887.25748,16.199,0.065
53887.268193,16.219,0.067
53902.176141,16.388,0.074
53902.210342,16.442,0.081
53915.175446,16.499,0.094
53915.185318,16.568,0.102
53915.196684,16.47,0.091
53931.171955,16.606,0.073
53931.192558,16.649,0.084
54084.461064,16.653,0.15
54084.473978,16.419,0.092
54084.486836,16.475,0.089
54084.499764,16.523,0.094
54084.512594,16.478,0.091
54098.426542,16.38,0.054
54098.438656,16.454,0.052
54098.453836,16.433,0.052
54098.4672,16.473,0.052
54098.479414,16.475,0.052
54110.400628,16.216,0.116
54110.413323,16.277,0.112
54110.426118,16.223,0.104
54110.438798,16.227,0.099
54121.391774,16.516,0.05
54121.403986,16.484,0.054
54121.416182,16.541,0.052
54121.42838,16.545,0.055
54121.44057,16.519,0.054
54155.355756,16.147,0.043
54155.367272,16.159,0.043
54155.379063,16.206,0.043
54155.390822,16.251,0.048
54155.403376,16.182,0.046
54206.270867,16.518,0.058
54206.280275,16.426,0.054
54206.289622,16.284,0.049
54206.298928,16.209,0.046
54206.308286,16.162,0.045
54529.266842,16.49,0.066
54529.278776,16.491,0.066
54529.290111,16.562,0.066
54529.301548,16.497,0.059
54529.312654,16.519,0.061
54574.2855,16.403,0.122
54582.247738,16.311,0.044
54582.258079,16.349,0.046
54582.268493,16.354,0.046
54582.278827,16.371,0.046
54582.289209,16.376,0.048
54613.206134,16.367,0.046
54613.215974,16.367,0.054
54613.225991,16.355,0.048
54613.236047,16.44,0.05
54613.24587,16.44,0.089
