mjd,m,merr
52650.429657,16.134,0.035
52650.443688,16.152,0.037
52650.457648,16.116,0.033
52650.471651,16.125,0.033
52650.485689,16.091,0.031
52665.402124,15.97,0.038
52696.399763,16.028,0.055
52696.413679,15.995,0.03
52696.427154,15.995,0.031
52712.314296,16.2,0.068
52712.327637,16.086,0.087
52712.341115,16.058,0.056
52712.354397,15.982,0.054
52712.368743,15.944,0.048
52723.331671,16.15,0.12
52723.343579,16.227,0.08
52752.241325,16.064,0.035
52752.251587,16.097,0.037
52752.261866,16.097,0.035
52752.272162,16.047,0.035
52752.282453,16.046,0.035
52771.226171,16.329,0.099
52771.239113,16.217,0.091
52771.250561,16.31,0.096
52771.262047,16.277,0.096
52787.218659,16.341,0.049
52787.2295,16.337,0.049
52787.240417,16.339,0.049
52787.251209,16.291,0.048
52787.262172,16.246,0.048
52811.178012,16.39,0.069
52811.187932,16.406,0.066
52811.198037,16.375,0.066
52811.208337,16.321,0.063
52811.218297,16.237,0.061
52826.171892,16.023,0.064
52826.181814,16.162,0.078
52826.19164,16.082,0.069
52826.201995,16.088,0.084
52826.211898,16.068,0.079
52840.161625,16.041,0.046
52840.17156,16.138,0.054
52840.181529,16.102,0.048
52840.191486,16.131,0.055
52840.201447,16.119,0.055
53035.425599,16.17,0.033
53035.438067,16.088,0.033
53035.450963,16.087,0.031
53035.463359,16.069,0.031
53050.334889,15.989,0.046
53050.346576,15.981,0.046
53050.358264,16.039,0.083
53050.369874,15.96,0.061
53050.381489,16.052,0.078
53065.343517,16.138,0.033
53065.356018,16.134,0.033
53065.369822,16.089,0.033
53065.385532,16.088,0.031
53065.402512,16.067,0.03
53078.330933,16.045,0.03
53078.341693,16.06,0.03
53078.352633,16.07,0.03
53109.247379,16.14,0.035
53109.258493,16.112,0.031
53109.269627,16.11,0.033
53109.280711,16.072,0.031
53109.29176,16.078,0.031
53122.249018,16.126,0.035
53122.259367,16.144,0.035
53122.269723,16.198,0.037
53122.280074,16.201,0.037
53122.290746,16.22,0.037
53137.245916,16.032,0.035
53137.25571,16.01,0.035
53137.265561,16.018,0.033
53137.275375,16.022,0.035
53137.285196,16.013,0.037
53153.212267,16.092,0.041
53153.221215,16.095,0.043
53153.230083,16.065,0.041
53153.238845,16.096,0.043
53153.247604,16.099,0.044
53165.22827,16.0,0.035
53165.248273,15.93,0.178
53165.258369,15.95,0.041
53178.178613,16.299,0.035
53178.188753,16.307,0.037
53178.198964,16.348,0.039
53178.209043,16.355,0.039
53178.219125,16.349,0.061
53358.470695,16.243,0.043
53358.483336,16.324,0.044
53358.495966,16.272,0.041
53358.508601,16.355,0.043
53358.528912,16.267,0.041
53386.483383,16.189,0.037
53386.496344,16.131,0.035
53386.509636,16.108,0.033
53386.522631,16.067,0.033
53386.537579,15.985,0.031
53441.395195,16.098,0.031
53441.406101,16.137,0.033
53441.417077,16.151,0.033
53441.428525,16.179,0.037
53441.439445,16.261,0.041
53443.386524,16.01,0.031
53443.397171,15.987,0.052
53443.418422,16.041,0.096
53443.429063,16.02,0.055
53473.390432,16.287,0.046
53473.402378,16.294,0.048
53473.412459,16.358,0.052
53473.422074,16.241,0.048
53473.43169,16.299,0.052
53498.258036,15.97,0.041
53498.268669,16.01,0.035
53498.308521,15.911,0.033
53499.214138,15.999,0.033
53499.22497,16.025,0.033
53499.235141,16.039,0.035
53499.246003,16.052,0.033
53499.256328,16.081,0.035
53528.221876,16.07,0.048
53528.233134,16.024,0.046
53528.244198,16.063,0.046
53528.255039,16.106,0.048
53528.265403,16.061,0.046
53539.177211,16.084,0.085
53539.186743,16.082,0.085
53539.196273,16.301,0.107
53539.205781,16.264,0.105
53539.21529,16.108,0.091
53551.176763,16.224,0.046
53551.186778,16.241,0.048
53551.196919,16.25,0.048
53551.206869,16.236,0.046
53551.216778,16.239,0.05
53570.165169,15.926,0.072
53570.175793,15.88,0.072
53570.186392,15.922,0.076
53570.197006,15.917,0.08
53741.47331,16.212,0.03
53741.486425,16.235,0.03
53741.499815,16.238,0.03
53741.512704,16.213,0.028
53741.525636,16.18,0.028
53786.345779,16.062,0.063
53786.369658,16.036,0.05
53786.381699,15.945,0.043
53843.310518,16.122,0.049
53843.321961,16.109,0.051
53843.333336,16.135,0.054
53843.344845,16.066,0.051
53844.230334,15.957,0.039
53844.240566,15.985,0.05
53844.250877,15.988,0.041
53844.261095,15.983,0.041
53844.271325,16.024,0.041
53845.238497,16.214,0.078
53845.27134,16.04,0.048
53845.282186,16.068,0.048
53854.244195,16.23,0.086
53854.254264,15.948,0.053
53854.274424,16.001,0.117
53882.214312,16.103,0.045
53882.224859,16.052,0.041
53882.235502,16.076,0.045
53882.246198,16.134,0.049
53882.256713,16.022,0.043
53886.225731,16.089,0.046
53886.236614,16.076,0.048
53886.247505,16.172,0.054
53886.25842,16.204,0.055
53886.269326,16.247,0.057
53903.177934,16.089,0.055
53903.188005,16.104,0.057
53903.198262,16.055,0.054
53903.208483,16.039,0.052
53903.218602,16.059,0.052
53932.190191,16.215,0.117
53932.201084,16.162,0.091
53932.211804,16.208,0.094
53942.160231,16.257,0.106
54085.469039,16.034,0.056
54085.481981,16.084,0.053
54085.494956,16.017,0.046
54085.50816,16.0,0.043
54085.52109,15.977,0.045
54123.388299,16.077,0.031
54123.400648,16.054,0.031
54123.413162,16.012,0.03
54123.425695,15.999,0.03
54123.437993,15.98,0.026
54156.323379,16.224,0.051
54156.334398,16.271,0.051
54156.345462,16.249,0.048
54156.356625,16.376,0.053
54156.367777,16.333,0.049
54201.283196,15.928,0.024
54201.293229,15.944,0.024
54201.303507,15.908,0.022
54201.313224,15.94,0.024
54201.323163,15.962,0.024
54207.277532,16.048,0.048
54207.287202,15.965,0.051
54216.260401,16.195,0.055
54216.269181,16.152,0.054
54216.277938,16.109,0.052
54216.287059,16.09,0.05
54216.295814,16.084,0.048
54573.245667,16.317,0.085
54573.256485,16.417,0.094
54573.267215,16.242,0.081
54573.277945,16.305,0.078
54573.288706,16.255,0.076
