mjd,m,merr
52666.464543,15.716,0.031
52666.48001,15.712,0.03
52666.494699,15.751,0.03
52666.510436,15.885,0.036
52666.525144,15.964,0.036
52676.366178,15.724,0.041
52676.381262,15.828,0.043
52676.39624,15.946,0.045
52676.411676,16.009,0.046
52676.426661,15.996,0.046
52698.39838,15.74,0.031
52698.39873,15.753,0.028
52698.413762,15.697,0.03
52698.414112,15.735,0.028
52698.428361,15.715,0.03
52698.428711,15.686,0.026
52698.442836,15.73,0.033
52698.443186,15.724,0.03
52698.457949,15.715,0.033
52698.458302,15.72,0.03
52711.307587,15.717,0.038
52711.307702,15.693,0.035
52711.320602,15.761,0.038
52711.320717,15.75,0.036
52711.333975,15.777,0.038
52711.33409,15.862,0.04
52711.347312,15.93,0.043
52711.347427,15.9,0.041
52711.360372,15.944,0.043
52711.360487,15.985,0.041
52725.372975,15.717,0.031
52725.386918,15.694,0.024
52725.400275,15.715,0.024
52725.412839,15.738,0.026
52725.425253,15.756,0.026
52734.311902,15.811,0.073
52734.32346,15.652,0.119
52738.301122,15.86,0.033
52738.301238,15.851,0.033
52738.314297,15.972,0.035
52738.328156,15.956,0.035
52738.328271,15.988,0.033
52738.341576,15.934,0.035
52738.353971,15.898,0.033
52738.354086,15.833,0.028
52754.260904,15.711,0.026
52754.273789,15.737,0.028
52754.286292,15.836,0.03
52754.300419,15.924,0.033
52754.312689,15.959,0.033
52769.229613,16.059,0.063
52769.240767,15.993,0.063
52769.2411,15.898,0.054
52769.253202,15.848,0.053
52769.264753,15.79,0.053
52794.228323,15.702,0.035
52794.238857,15.732,0.036
52794.249304,15.754,0.038
52794.260058,15.746,0.04
52797.238215,15.772,0.064
52797.24881,15.816,0.066
52797.259017,15.878,0.073
52813.179329,15.628,0.041
52813.189181,15.672,0.04
52813.19907,15.738,0.043
52813.218756,15.692,0.046
52824.173269,15.755,0.037
52824.183235,15.749,0.035
52824.193089,15.748,0.035
52824.202962,15.792,0.039
52824.212873,15.87,0.041
52993.460316,15.726,0.024
52993.473577,15.712,0.02
52993.486937,15.716,0.02
52993.500423,15.775,0.022
52993.513819,15.819,0.02
53002.502497,16.019,0.021
53002.517301,15.868,0.018
53002.531597,15.773,0.016
53006.454303,15.715,0.028
53006.466538,15.673,0.028
53006.478808,15.681,0.028
53006.491084,15.698,0.026
53033.400248,15.785,0.031
53033.413009,15.734,0.028
53033.425265,15.7,0.028
53033.437543,15.669,0.026
53033.45001,15.697,0.028
53052.388982,15.733,0.024
53052.400811,15.747,0.024
53052.412623,15.739,0.022
53052.424366,15.739,0.024
53052.43617,15.759,0.024
53064.290247,15.779,0.039
53064.327069,15.691,0.026
53064.345622,15.762,0.026
53064.359524,15.76,0.026
53079.331945,15.818,0.03
53079.343192,15.762,0.028
53079.35467,15.743,0.026
53079.365816,15.742,0.028
53079.377934,15.738,0.028
53086.349229,15.955,0.025
53086.360854,15.967,0.026
53086.382922,15.853,0.026
53086.393873,15.76,0.021
53087.329677,15.784,0.018
53087.340088,15.762,0.018
53087.350517,15.732,0.017
53087.361161,15.738,0.017
53087.371744,15.701,0.017
53089.330249,15.938,0.054
53089.34118,16.007,0.026
53089.362257,15.854,0.074
53110.247653,15.723,0.033
53110.25847,15.716,0.031
53110.269369,15.739,0.031
53110.280347,15.78,0.031
53110.29125,15.799,0.031
53119.249282,16.009,0.028
53119.260044,15.983,0.026
53119.270494,15.998,0.028
53119.281033,16.015,0.026
53119.295071,15.916,0.026
53138.249165,16.056,0.038
53138.258668,15.996,0.035
53138.268175,15.837,0.031
53138.277646,15.813,0.03
53138.287074,15.786,0.031
53149.207754,16.074,0.036
53149.216346,16.086,0.038
53149.224898,16.048,0.036
53149.233672,16.013,0.033
53149.242535,15.933,0.031
53166.176273,15.88,0.041
53166.186937,15.83,0.043
53166.196833,15.821,0.041
53166.206588,15.797,0.04
53166.216425,15.775,0.038
53438.467185,15.903,0.031
53438.478819,15.804,0.03
53438.490566,15.76,0.028
53438.502499,15.713,0.028
53471.315576,15.717,0.03
53471.326329,15.786,0.031
53471.336955,15.886,0.035
53471.347465,15.948,0.046
53471.357533,15.847,0.052
53502.201848,15.71,0.03
53502.212318,15.816,0.033
53502.22364,15.909,0.037
53502.234519,16.038,0.043
53502.246508,16.049,0.041
53523.219406,15.824,0.033
53523.229921,15.874,0.035
53523.240387,15.948,0.035
53523.25087,16.064,0.041
53523.261398,16.017,0.039
53737.480066,15.699,0.026
53737.493321,15.698,0.026
53737.506665,15.737,0.026
53737.520059,15.769,0.026
53747.469608,15.959,0.072
53747.482684,15.84,0.063
53747.495611,15.759,0.052
53747.50895,15.724,0.041
53747.521856,15.733,0.037
53789.414068,15.853,0.045
53789.439056,16.039,0.125
53789.451664,16.043,0.04
53789.464299,16.043,0.053
53799.346712,15.912,0.026
53799.358735,15.809,0.023
53799.370577,15.764,0.021
53799.382374,15.724,0.021
53799.394256,15.729,0.021
53845.269482,15.99,0.055
53845.280327,15.949,0.046
53845.291181,15.794,0.044
53851.24465,15.909,0.04
53851.254907,15.789,0.035
53851.265205,15.721,0.035
53851.275639,15.728,0.035
53851.285935,15.698,0.033
53880.212734,15.96,0.046
53880.223951,15.957,0.044
53880.235179,15.925,0.043
53880.246415,15.837,0.041
53880.257644,15.793,0.039
53885.218822,15.954,0.046
53885.23082,16.026,0.046
53885.242755,15.977,0.044
53885.254745,15.937,0.046
53885.266903,15.819,0.043
53901.194756,15.726,0.043
53901.214861,15.861,0.054
53912.175107,16.062,0.054
53912.204303,15.954,0.051
53912.214057,16.002,0.099
54112.497557,15.744,0.043
54112.510152,15.771,0.043
54112.522743,15.939,0.049
54112.535396,15.94,0.049
54144.389307,15.98,0.038
54144.401268,15.874,0.033
54144.413156,15.794,0.031
54144.425309,15.756,0.031
54144.43728,15.701,0.03
54153.392655,15.718,0.03
54153.405249,15.73,0.045
54153.417014,15.69,0.084
54153.428912,15.812,0.051
54153.440629,15.856,0.084
54201.285357,16.03,0.041
54201.294685,15.973,0.038
54201.304069,15.92,0.036
54201.313537,15.823,0.035
54201.322885,15.814,0.033
54453.462639,15.662,0.022
54453.475707,15.735,0.022
54453.488793,15.795,0.022
54453.50185,15.958,0.024
54453.514906,15.991,0.024
54478.412728,15.839,0.067
54478.425699,15.953,0.093
54478.451804,15.933,0.068
54478.464783,15.953,0.02
54559.240086,15.715,0.02
54559.251723,15.685,0.02
54559.263569,15.696,0.02
54559.275487,15.705,0.018
54559.287201,15.759,0.02
54568.244693,15.968,0.033
54568.255673,16.045,0.035
54568.266782,16.044,0.035
54568.277916,16.042,0.033
54568.289003,15.954,0.031
54581.250281,15.848,0.03
54581.260848,15.906,0.035
54581.271507,15.946,0.039
54581.28206,15.905,0.043
54581.292603,15.966,0.044
54597.252008,15.998,0.048
54597.26268,16.03,0.048
54597.273283,15.985,0.048
54597.28404,16.004,0.046
54597.294662,15.926,0.043
54620.217376,15.727,0.026
54620.227602,15.722,0.026
54620.237756,15.733,0.026
54620.247963,15.728,0.026
54620.258165,15.753,0.028
