mjd,m,merr
52643.492218,15.071,0.016
52643.508648,14.903,0.015
52643.525142,14.808,0.013
52667.473432,15.197,0.018
52667.488704,15.227,0.018
52667.503911,15.163,0.018
52667.519293,14.898,0.015
52667.534513,14.854,0.013
52670.496076,15.026,0.018
52670.510649,14.882,0.016
52670.525672,14.811,0.015
52676.368966,14.875,0.017
52676.384656,14.85,0.017
52676.400235,14.878,0.015
52676.420802,15.039,0.017
52676.435415,15.236,0.02
52703.454947,15.207,0.03
52703.455548,15.244,0.026
52703.482167,14.939,0.018
52703.497451,14.865,0.016
52707.374338,14.762,0.012
52707.374453,14.83,0.015
52707.387639,14.885,0.015
52707.400734,14.98,0.016
52707.413817,15.185,0.02
52707.427976,15.263,0.021
52727.37205,15.064,0.061
52730.304528,15.074,0.021
52730.316545,15.222,0.021
52730.328559,15.226,0.02
52730.34122,15.162,0.018
52730.353365,14.974,0.016
52737.320745,14.993,0.013
52737.33478,14.881,0.011
52737.34675,14.839,0.011
52737.358629,14.828,0.011
52737.370984,14.859,0.011
52738.292997,15.26,0.017
52738.306478,15.126,0.015
52738.31798,14.999,0.013
52738.32947,14.911,0.013
52738.341267,14.852,0.011
52756.259158,14.866,0.016
52756.271251,14.834,0.016
52756.283586,14.86,0.016
52756.295678,14.908,0.018
52756.307798,15.04,0.02
52761.262169,14.852,0.013
52761.273892,14.879,0.013
52761.285666,15.034,0.015
52761.29739,15.248,0.018
52761.3092,15.25,0.018
52768.265095,15.239,0.024
52768.277095,15.286,0.024
52768.28929,15.286,0.024
52768.301238,15.083,0.02
52768.313064,14.92,0.017
52789.219558,14.935,0.018
52789.23019,14.848,0.018
52789.241032,14.831,0.016
52789.251794,14.807,0.016
52789.262779,14.851,0.016
52791.233581,14.834,0.051
52816.174774,15.16,0.026
52816.184817,15.286,0.031
52816.194911,15.235,0.031
52816.205188,15.192,0.031
52816.215348,15.058,0.031
52823.183901,15.058,0.03
52823.193985,14.929,0.021
52823.203992,14.862,0.021
53000.507115,15.189,0.012
53000.520196,14.992,0.01
53000.533282,14.914,0.008
53033.400383,14.78,0.013
53033.424947,14.829,0.013
53033.43704,14.947,0.013
53033.449207,15.125,0.015
53054.434952,14.757,0.009
53054.447395,14.817,0.011
53054.462799,14.914,0.011
53054.475388,15.148,0.015
53054.487805,15.225,0.017
53062.412105,14.872,0.036
53062.423898,14.881,0.063
53062.435717,15.091,0.028
53080.341745,14.92,0.011
53080.352676,15.035,0.013
53080.364809,15.25,0.015
53080.375781,15.251,0.015
53080.387233,15.222,0.015
53087.339913,15.127,0.011
53139.247266,15.158,0.018
53139.256756,15.005,0.015
53139.266205,14.926,0.015
53139.275724,14.837,0.013
53139.285189,14.836,0.013
53148.20751,15.061,0.015
53148.216461,14.915,0.013
53148.225414,14.822,0.013
53148.234398,14.871,0.013
53148.243352,14.728,0.011
53169.177927,14.823,0.013
53169.188046,14.896,0.015
53169.198143,14.967,0.015
53169.208247,15.141,0.017
53169.21836,15.239,0.018
53175.177918,15.07,0.013
53175.187901,15.263,0.02
53175.197942,15.262,0.015
53175.207865,15.233,0.015
53175.217791,15.127,0.018
53404.444062,15.088,0.025
53404.456999,14.971,0.023
53404.469971,14.913,0.023
53404.483068,14.884,0.023
53404.496001,14.894,0.016
53440.477934,14.96,0.017
53440.488435,15.155,0.018
53440.499585,15.216,0.02
53478.365759,14.907,0.022
53478.375374,14.836,0.02
53478.384387,14.785,0.018
53478.39344,14.781,0.018
53478.402457,14.791,0.017
53496.2492,15.214,0.022
53496.259201,15.226,0.022
53496.269259,15.154,0.02
53496.27928,14.982,0.018
53496.289422,14.869,0.017
53527.17391,14.817,0.015
53527.18399,14.817,0.015
53527.193879,14.844,0.017
53527.203646,14.885,0.017
53527.213466,14.976,0.017
53556.171698,14.803,0.015
53556.182213,14.806,0.015
53556.192829,14.851,0.015
53556.203665,14.874,0.017
53556.214177,14.983,0.018
53746.468071,14.815,0.02
53746.480683,14.882,0.018
53746.493186,15.021,0.02
53746.505649,15.218,0.02
53746.518168,15.203,0.018
53791.41205,15.061,0.015
53791.423976,15.255,0.018
53791.435841,15.259,0.018
53791.447694,15.231,0.018
53791.459638,15.017,0.015
53815.344777,15.123,0.022
53815.355914,14.952,0.02
53815.36706,14.869,0.018
53815.378237,14.796,0.018
53815.38941,14.82,0.018
53817.322138,15.261,0.018
53817.333743,15.185,0.018
53817.345205,14.994,0.015
53817.356986,14.885,0.013
53846.245585,14.818,0.015
53846.256165,14.825,0.015
53846.266701,14.85,0.016
53846.277463,14.889,0.016
53846.287965,15.025,0.018
53850.249015,14.855,0.021
53850.259278,14.929,0.016
53850.269599,15.003,0.018
53850.279989,15.189,0.021
53850.29036,15.242,0.023
53884.2207,14.84,0.017
53884.232289,14.873,0.017
53884.243847,14.993,0.02
53884.255437,15.165,0.022
53884.267033,15.246,0.024
53886.211457,14.842,0.018
53886.22146,14.89,0.018
53886.231708,14.942,0.02
53886.241754,15.092,0.021
53886.251768,15.222,0.025
53901.184349,15.26,0.037
53901.194346,15.219,0.035
53901.204375,15.274,0.037
53911.222019,14.79,0.041
53911.23164,14.844,0.045
54155.362056,14.805,0.011
54155.373895,14.782,0.011
54155.385847,14.822,0.011
54155.397694,14.893,0.011
54155.409544,14.985,0.013
54156.379347,14.79,0.009
54156.390898,14.879,0.009
54156.40904,15.045,0.011
54156.420924,15.208,0.011
54156.432482,15.202,0.011
54174.326524,15.068,0.021
54174.337186,15.211,0.023
54174.34793,15.237,0.021
54174.358757,15.208,0.025
54174.369566,15.036,0.016
54180.332525,15.208,0.016
54180.342835,15.054,0.015
54180.353146,14.933,0.013
54180.363597,14.843,0.013
54180.374146,14.809,0.013
54200.269099,14.949,0.028
54200.288197,14.826,0.018
54200.307333,14.884,0.026
54476.464727,14.804,0.007
54476.477669,14.905,0.009
54476.490573,15.071,0.009
54476.503482,15.188,0.011
54476.516381,15.124,0.02
54509.394627,14.82,0.009
54509.406725,14.776,0.009
54509.418812,14.787,0.009
54509.43088,14.835,0.009
54509.442969,14.904,0.009
54533.338786,14.876,0.007
54533.350057,15.038,0.009
54533.361352,15.173,0.009
54533.372766,15.183,0.009
54533.384044,15.179,0.009
54538.363691,15.173,0.011
54538.37487,14.976,0.009
54538.385885,14.855,0.009
54538.396827,14.778,0.007
54538.407852,14.735,0.007
54580.249988,14.871,0.015
54580.260581,14.966,0.017
54580.271188,15.138,0.018
54580.281785,15.219,0.02
54580.292453,15.207,0.02
54587.255621,15.226,0.015
54587.26614,15.188,0.015
54587.276588,15.013,0.013
54587.286979,14.915,0.011
54587.297356,14.847,0.011
54590.244821,15.26,0.033
54590.254918,15.179,0.031
54590.264711,15.04,0.036
54595.248148,14.922,0.013
54595.258138,14.887,0.013
54595.268089,14.835,0.013
54595.278055,14.8,0.011
54595.288031,14.797,0.011
54611.213413,14.812,0.009
54611.223269,14.811,0.011
54611.233306,14.866,0.011
54611.243119,14.943,0.011
54611.252905,15.076,0.013
54619.212016,14.996,0.013
54619.222252,15.166,0.018
54619.232558,15.202,0.017
54619.242795,15.215,0.017
54619.253233,15.185,0.017
