mjd,m,merr
52643.491941,15.847,0.033
52643.508392,15.875,0.033
52667.472519,15.756,0.03
52667.487794,15.737,0.031
52667.502997,15.761,0.031
52667.518378,15.818,0.033
52667.533604,15.841,0.031
52670.495831,16.24,0.049
52670.510406,16.141,0.045
52670.525428,15.946,0.036
52676.367794,16.117,0.052
52676.383485,16.217,0.055
52676.398946,16.151,0.046
52676.419701,16.227,0.048
52676.43431,16.124,0.044
52703.454709,16.058,0.099
52707.373857,16.296,0.049
52727.371211,15.878,0.165
52730.303688,16.251,0.054
52730.315706,16.342,0.051
52737.319184,15.91,0.03
52737.333825,15.989,0.031
52737.345809,16.006,0.031
52737.357674,16.019,0.031
52737.370007,16.058,0.031
52738.292722,16.3,0.046
52738.29671,16.338,0.054
52738.306225,16.297,0.044
52738.309831,16.302,0.051
52738.317723,16.273,0.043
52738.322902,16.345,0.051
52738.329219,16.329,0.044
52738.336777,16.354,0.051
52738.341012,16.319,0.043
52738.350977,16.377,0.053
52739.295912,16.155,0.051
52739.307569,16.179,0.053
52739.319459,16.167,0.051
52739.331072,16.204,0.051
52739.342701,16.224,0.054
52741.298438,16.261,0.081
52741.310372,16.325,0.083
52741.322559,16.179,0.071
52741.334714,16.179,0.074
52741.348056,16.217,0.074
52756.258823,16.378,0.059
52756.270916,16.313,0.056
52756.295343,16.022,0.045
52756.307464,15.909,0.041
52761.261723,15.829,0.03
52761.273445,15.775,0.028
52761.285221,15.737,0.028
52761.296944,15.761,0.028
52761.308754,15.769,0.03
52764.201221,16.274,0.054
52764.213168,16.24,0.051
52764.225115,16.268,0.049
52764.237154,16.328,0.054
52764.2493,16.397,0.054
52764.262422,16.423,0.054
52764.274467,16.396,0.053
52764.286421,16.3,0.048
52764.298501,16.258,0.045
52764.310401,16.083,0.04
52765.214651,16.116,0.079
52765.238865,16.099,0.048
52765.251146,16.167,0.045
52789.219118,16.076,0.051
52789.240592,16.109,0.049
52789.251352,16.094,0.049
52791.265395,16.15,0.104
52816.174495,15.829,0.051
52816.184539,15.746,0.051
52816.194632,15.739,0.051
52816.204909,15.701,0.053
52816.215069,15.714,0.061
52823.173401,15.947,0.163
52823.183435,16.02,0.078
52823.193517,16.067,0.061
52823.203525,16.1,0.064
53000.50671,16.174,0.026
53000.519791,16.189,0.026
53000.532875,16.234,0.026
53033.399644,15.897,0.035
53033.411761,15.762,0.028
53033.424209,15.767,0.028
53033.436303,15.736,0.026
53033.448468,15.757,0.026
53054.433146,15.776,0.022
53054.446619,15.845,0.024
53054.462023,15.859,0.026
53054.474607,15.873,0.028
53054.487029,15.896,0.028
53062.411714,15.743,0.071
53062.435324,15.75,0.043
53080.341312,15.761,0.024
53080.352254,15.799,0.024
53080.364393,15.826,0.026
53080.375366,15.836,0.026
53080.386816,15.874,0.028
53087.339266,16.109,0.026
53087.349696,16.115,0.026
53087.370922,16.128,0.026
53087.381472,16.121,0.028
53112.240221,16.221,0.046
53112.250918,16.269,0.043
53112.261619,16.343,0.048
53112.272387,16.272,0.043
53112.283166,16.356,0.068
53139.246719,16.126,0.041
53139.256209,16.193,0.043
53139.265661,16.179,0.043
53139.275178,16.202,0.041
53139.284644,16.164,0.043
53148.207063,15.74,0.024
53148.216014,15.768,0.028
53148.224968,15.75,0.026
53148.233951,15.771,0.028
53148.242905,15.814,0.024
53169.177581,15.773,0.03
53169.1877,15.78,0.03
53169.197797,15.725,0.03
53169.2079,15.756,0.03
53169.218012,15.764,0.03
53175.177496,16.218,0.035
53175.187478,16.219,0.05
53175.197521,16.225,0.033
53175.207443,16.26,0.037
53175.21737,16.239,0.044
53354.461343,16.004,0.048
53354.474119,15.986,0.044
53354.488261,16.022,0.044
53354.501088,16.055,0.044
53354.51405,16.072,0.043
53377.4735,16.175,0.041
53377.499393,16.143,0.039
53377.5253,16.223,0.041
53440.477677,16.24,0.052
53440.488185,16.244,0.055
53440.499336,16.271,0.054
53465.340456,16.102,0.039
53465.350572,15.951,0.033
53465.363192,15.939,0.031
53465.374021,15.856,0.03
53465.38478,15.801,0.03
53468.282195,16.223,0.098
53468.291746,16.214,0.067
53471.309644,16.255,0.05
53471.321198,16.231,0.05
53471.332351,16.266,0.05
53471.342885,16.294,0.052
53471.352973,16.219,0.061
53473.273687,16.294,0.052
53473.285989,16.294,0.052
53473.293479,16.333,0.052
53473.296863,16.368,0.055
53473.304595,16.331,0.052
53473.308059,16.329,0.055
53473.31649,16.397,0.055
53473.320125,16.321,0.054
53473.327086,16.391,0.057
53474.292327,16.134,0.044
53474.3053,16.115,0.043
53474.31907,16.173,0.044
53474.330323,16.169,0.044
53474.340654,16.176,0.046
53478.365221,15.729,0.048
53478.374831,15.763,0.046
53478.383847,15.788,0.048
53478.392901,15.799,0.046
53478.401921,15.829,0.046
53479.285459,16.209,0.083
53479.298373,16.257,0.087
53479.308733,16.251,0.085
53479.318557,16.29,0.094
53479.328054,16.227,0.085
53496.248791,15.734,0.035
53496.258798,15.78,0.035
53496.268856,15.77,0.035
53496.278875,15.775,0.037
53496.289017,15.824,0.037
53527.173735,15.834,0.037
53527.183807,15.867,0.039
53527.193703,15.891,0.039
53527.20347,15.926,0.041
53527.21329,15.854,0.039
53556.171128,15.8,0.037
53556.181645,15.854,0.039
53556.19226,15.896,0.039
53556.203096,15.904,0.043
53556.213607,15.918,0.044
53746.467139,16.133,0.067
53746.47975,16.161,0.063
53746.492252,16.125,0.055
53746.504717,16.243,0.052
53791.411455,16.048,0.033
53791.423381,16.049,0.035
53791.435245,16.05,0.036
53791.447098,16.136,0.04
53791.459042,16.081,0.04
53815.344543,15.855,0.044
53815.355679,15.88,0.044
53815.366825,15.944,0.052
53815.378001,15.976,0.05
53815.389161,15.932,0.052
53817.321859,16.027,0.038
53817.333468,16.053,0.038
53817.344931,16.071,0.038
53817.356711,16.08,0.04
53846.244736,15.923,0.041
53846.255333,15.936,0.041
53850.248228,16.353,0.064
53850.258495,16.167,0.051
53850.268815,16.156,0.053
53850.279203,16.202,0.053
53850.28956,16.213,0.056
53881.21461,16.556,0.074
53881.224587,16.35,0.061
53881.234722,16.356,0.063
53881.244857,16.378,0.064
53881.254853,16.353,0.066
53884.219869,16.189,0.055
53884.231454,16.204,0.055
53884.243017,16.248,0.061
53884.254607,16.245,0.059
53884.266201,16.277,0.063
53886.211181,16.084,0.056
53886.221184,15.936,0.049
53886.231275,15.92,0.048
53886.24148,15.866,0.046
53886.251494,15.82,0.046
53901.184161,15.932,0.072
53901.194176,15.914,0.067
53901.204188,16.002,0.072
53910.170492,16.324,0.07
53910.180754,16.226,0.065
53910.190988,16.281,0.065
53910.201238,16.214,0.061
53910.21145,16.327,0.098
53911.221842,16.161,0.165
53914.174588,15.983,0.081
53914.185027,15.958,0.065
54155.361774,15.806,0.024
54155.373611,15.843,0.026
54155.385566,15.86,0.026
54155.397413,15.862,0.026
54155.409263,15.895,0.028
54156.379058,16.219,0.035
54156.390609,16.26,0.033
54156.408754,16.283,0.031
54156.420637,16.322,0.031
54156.432194,16.334,0.033
54174.325713,16.333,0.063
54174.336366,16.33,0.068
54174.347111,16.428,0.061
54174.357939,16.396,0.063
54174.368642,16.348,0.051
54180.332191,16.279,0.043
54180.342572,16.248,0.041
54180.352884,16.271,0.043
54180.363335,16.282,0.053
54180.373883,16.211,0.043
54200.268912,16.302,0.094
54475.457641,16.284,0.033
54475.470719,16.291,0.033
54475.48362,16.323,0.033
54475.496492,16.361,0.035
54475.50967,16.365,0.035
54483.406447,16.331,0.072
54483.419695,16.28,0.059
54483.432614,16.29,0.05
54483.445525,16.253,0.041
54483.458427,16.189,0.037
54509.394129,16.264,0.028
54509.40623,16.315,0.03
54509.418319,16.343,0.03
54509.430385,16.349,0.031
54509.442474,16.348,0.031
54532.337987,15.974,0.022
54532.349382,15.882,0.02
54532.360662,15.813,0.018
54532.371919,15.753,0.018
54532.383157,15.733,0.018
54538.362576,16.223,0.028
54538.373753,16.251,0.028
54538.38477,16.261,0.028
54538.395716,16.306,0.03
54543.278966,16.273,0.061
54543.289876,16.297,0.059
54543.300805,16.261,0.054
54543.311681,16.292,0.054
54543.322556,16.288,0.054
54568.301734,16.021,0.049
54568.31289,16.038,0.051
54568.323915,16.019,0.051
54568.334895,16.039,0.054
54568.3457,15.953,0.048
54580.24921,16.171,0.048
54580.259807,16.193,0.05
54580.27041,16.211,0.052
54580.281009,16.216,0.055
54580.291678,16.24,0.054
54581.243089,15.929,0.031
54581.253664,15.934,0.037
54581.264213,16.046,0.044
54581.274867,15.969,0.046
54581.28542,16.04,0.052
54586.247073,16.036,0.035
54586.257492,16.08,0.033
54586.267824,16.07,0.033
54586.27823,16.112,0.035
54586.288571,16.119,0.035
54594.256895,16.075,0.035
54594.267172,16.093,0.037
54594.277476,16.071,0.037
54594.287743,16.088,0.037
54594.298034,16.104,0.037
54611.213157,16.253,0.033
54611.223015,16.271,0.035
54611.242865,16.358,0.039
54611.252651,16.319,0.039
54618.212027,15.835,0.028
54618.22225,15.893,0.028
54618.242685,15.904,0.03
54618.252941,15.912,0.028
