mjd,m,merr
52612.464278,16.44,0.061
52612.479488,16.381,0.054
52612.494604,16.416,0.054
52612.509776,16.354,0.053
52612.524804,16.51,0.059
52620.459987,16.447,0.054
52620.475128,16.647,0.065
52620.490206,16.703,0.155
52620.505513,16.602,0.07
52620.520595,16.458,0.057
52623.447955,16.56,0.07
52623.46362,16.44,0.07
52623.479323,16.318,0.087
52623.49524,16.303,0.067
52623.511242,16.267,0.061
52650.356357,16.594,0.059
52650.370746,16.436,0.046
52650.384768,16.392,0.044
52650.39901,16.367,0.043
52650.413095,16.336,0.041
52652.382199,16.464,0.052
52652.397362,16.366,0.046
52652.412637,16.316,0.041
52652.427969,16.3,0.039
52652.44313,16.317,0.039
52664.284952,16.485,0.05
52664.300205,16.616,0.054
52664.315481,16.754,0.061
52664.330818,16.679,0.057
52664.34607,16.494,0.05
52680.332693,16.715,0.073
52680.356881,16.583,0.061
52680.375226,16.356,0.046
52680.391735,16.359,0.046
52680.409716,16.372,0.049
52681.280945,16.636,0.096
52681.298007,16.439,0.08
52681.316488,16.349,0.054
52681.335029,16.313,0.046
52695.310245,16.458,0.053
52695.310859,16.351,0.046
52695.324055,16.402,0.051
52695.324665,16.336,0.046
52695.337839,16.353,0.053
52695.351614,16.35,0.064
52695.365431,16.34,0.137
52695.366044,16.332,0.147
52712.285018,16.36,0.076
52712.298312,16.431,0.085
52722.241015,16.401,0.049
52722.24113,16.377,0.045
52722.253145,16.463,0.051
52722.25326,16.418,0.046
52722.265611,16.601,0.058
52722.265727,16.488,0.048
52722.277931,16.668,0.061
52722.278047,16.629,0.054
52722.290079,16.711,0.063
52722.290195,16.731,0.059
52751.199673,16.675,0.107
52751.210776,16.726,0.087
52751.221585,16.575,0.066
52751.232421,16.495,0.064
52751.243419,16.433,0.059
52770.202976,16.775,0.157
52770.203315,16.466,0.116
52782.164163,16.591,0.065
52782.174831,16.499,0.063
52782.185458,16.457,0.059
52782.196245,16.371,0.067
52782.206884,16.346,0.12
52800.198354,16.592,0.183
52800.20839,16.59,0.185
52810.171883,16.407,0.068
52810.18188,16.403,0.07
52812.172816,16.564,0.08
52812.183115,16.387,0.07
52812.193373,16.354,0.07
52812.203669,16.337,0.07
52812.214007,16.284,0.068
52947.491087,16.367,0.065
52947.503341,16.402,0.067
52976.400017,16.519,0.049
52976.411101,16.694,0.056
52976.422164,16.809,0.063
52976.433217,16.794,0.061
52976.444291,16.669,0.056
52990.400655,16.663,0.061
52990.413944,16.846,0.068
52990.42795,16.708,0.061
52990.440882,16.728,0.068
52990.454154,16.511,0.059
53023.342521,16.529,0.037
53023.355986,16.637,0.043
53023.368964,16.72,0.046
53023.381938,16.645,0.043
53023.394708,16.47,0.037
53024.400126,16.572,0.141
53024.438952,16.836,0.17
53046.347034,16.499,0.061
53046.35897,16.731,0.074
53046.370954,16.687,0.074
53046.383096,16.718,0.076
53065.23327,16.468,0.053
53065.245224,16.385,0.048
53065.257164,16.416,0.048
53065.269068,16.349,0.045
53065.280972,16.435,0.048
53094.235564,16.659,0.064
53094.255147,16.725,0.066
53094.264939,16.661,0.059
53107.241382,16.363,0.039
53107.252655,16.45,0.043
53107.263847,16.452,0.044
53107.275058,16.566,0.048
53107.286328,16.66,0.054
53122.207347,16.759,0.1
53122.217732,16.598,0.081
53122.238698,16.673,0.074
53127.197956,16.426,0.13
53136.197822,16.625,0.067
53136.207179,16.675,0.068
53136.216484,16.773,0.076
53136.225787,16.73,0.076
53136.235105,16.605,0.07
53153.177301,16.602,0.087
53153.186452,16.548,0.081
53153.195514,16.522,0.08
53153.204687,16.263,0.067
53154.177563,16.3,0.08
53154.186321,16.388,0.087
53154.195109,16.358,0.087
53154.203908,16.468,0.094
53164.170884,16.517,0.067
53164.181087,16.692,0.067
53164.191298,16.756,0.083
53164.201517,16.653,0.068
53164.211737,16.658,0.068
53178.17172,16.681,0.07
53178.181798,16.78,0.074
53178.191937,16.735,0.072
53178.202152,16.626,0.072
53178.21223,16.586,0.068
53319.462191,16.592,0.076
53319.474046,16.652,0.078
53319.485941,16.791,0.087
53319.497799,16.569,0.07
53319.509662,16.469,0.065
53330.460966,16.437,0.073
53330.474538,16.543,0.099
53330.488802,16.668,0.087
53330.503594,16.63,0.084
53340.457194,16.296,0.106
53340.469704,16.155,0.091
53340.503051,16.133,0.086
53340.515508,16.324,0.086
53356.471864,16.672,0.064
53356.485413,16.652,0.059
53356.498918,16.532,0.051
53356.512284,16.518,0.051
53356.525733,16.431,0.046
53358.404244,16.298,0.048
53358.417267,16.332,0.05
53358.430336,16.36,0.05
53358.443417,16.427,0.052
53358.457282,16.547,0.057
53360.422463,16.253,0.055
53360.435606,16.304,0.055
53360.448745,16.445,0.172
53386.413216,16.43,0.05
53386.426359,16.458,0.05
53386.469295,16.783,0.067
53401.349105,16.648,0.076
53401.361722,16.864,0.094
53401.374344,17.069,0.115
53401.38697,16.903,0.102
53430.305132,17.439,0.266
53430.317341,16.571,0.065
53430.329084,16.496,0.061
53430.341384,16.41,0.059
53430.35741,16.315,0.057
53441.336868,16.702,0.057
53441.349587,16.618,0.052
53441.360623,16.502,0.048
53441.371645,16.457,0.048
53441.383209,16.44,0.048
53491.196373,16.558,0.083
53491.217825,16.699,0.078
53491.228779,16.743,0.08
53491.239292,16.715,0.085
53537.170914,16.238,0.113
53537.191057,16.316,0.141
53537.20113,16.576,0.172
53684.442129,16.748,0.117
53684.467079,16.423,0.07
53684.479935,16.365,0.074
53684.492374,16.358,0.072
53700.448488,16.746,0.083
53700.461549,16.585,0.072
53700.474305,16.436,0.061
53700.487016,16.385,0.055
53700.499962,16.336,0.052
53727.4039,16.315,0.055
53727.41676,16.311,0.081
53727.429595,16.424,0.059
53727.44244,16.413,0.059
53727.455217,16.561,0.07
53757.325668,16.787,0.074
53757.338404,16.73,0.07
53757.351125,16.586,0.063
53757.363973,16.501,0.059
53757.376726,16.4,0.055
53773.353137,16.653,0.072
53773.365861,16.554,0.067
53773.379062,16.469,0.059
53773.392001,16.37,0.052
53773.404767,16.365,0.048
53774.344794,16.363,0.063
53774.357633,16.432,0.076
53774.372168,16.433,0.065
53774.385851,16.551,0.07
53774.399395,16.548,0.081
53775.349042,16.639,0.118
53775.374467,16.631,0.098
53775.400022,16.567,0.168
53775.416539,16.502,0.147
53825.235076,16.789,0.061
53825.246324,16.81,0.063
53825.257472,16.768,0.059
53825.268709,16.684,0.058
53825.279982,16.52,0.049
53842.241823,16.609,0.092
53842.253399,16.543,0.089
53842.264977,16.516,0.092
53842.276552,16.653,0.112
53904.167987,16.499,0.081
53904.177919,16.475,0.081
53904.187878,16.405,0.076
53904.19793,16.589,0.094
53904.207984,16.656,0.105
54052.454019,16.412,0.068
54052.466478,16.455,0.074
54052.478736,16.587,0.08
54052.490993,16.754,0.094
54052.503257,16.651,0.081
54071.487248,16.425,0.061
54081.393983,16.79,0.093
54081.407607,16.871,0.102
54081.42051,16.738,0.085
54081.43348,16.568,0.07
54081.446261,16.548,0.065
54098.37467,16.533,0.064
54098.386871,16.45,0.056
54098.39902,16.444,0.053
54098.411353,16.409,0.051
54098.423513,16.397,0.048
54109.404514,16.779,0.185
54124.333985,16.617,0.054
54124.346545,16.531,0.049
54124.359244,16.436,0.046
54124.371701,16.503,0.051
54124.384121,16.4,0.043
54140.334757,16.705,0.073
54140.346922,16.577,0.063
54140.359294,16.496,0.058
54140.371302,16.516,0.063
54140.383362,16.387,0.056
54187.274265,16.706,0.12
54187.285254,16.577,0.102
54187.295715,16.403,0.087
54187.306413,16.526,0.099
54198.226395,16.39,0.052
54198.25524,16.516,0.057
54198.264883,16.534,0.057
54210.219716,16.592,0.063
54210.228752,16.546,0.059
54210.237464,16.639,0.064
54210.246168,16.7,0.068
54210.255107,16.744,0.073
54218.232834,16.455,0.131
54218.241415,16.446,0.124
54218.25001,16.49,0.131
54218.258611,16.287,0.115
54498.328202,16.228,0.048
54498.340641,16.244,0.049
54498.35246,16.243,0.048
54498.364288,16.275,0.051
54498.376155,16.212,0.046
54526.279787,16.693,0.059
54526.291058,16.544,0.054
54526.302441,16.486,0.049
54526.31387,16.42,0.049
54526.325033,16.422,0.049
54537.266701,16.632,0.076
54537.277644,16.87,0.112
54537.288671,16.728,0.109
54537.299732,16.879,0.099
54537.310746,16.685,0.087
54559.241392,16.471,0.066
54559.253622,16.374,0.061
54559.265398,16.282,0.056
54559.276932,16.269,0.054
54559.288328,16.245,0.054
54569.23779,16.384,0.063
54569.248886,16.477,0.069
54569.259807,16.412,0.066
54569.270711,16.433,0.068
54569.281657,16.565,0.074
54584.196273,16.548,0.076
54584.20627,16.538,0.074
54584.216271,16.703,0.086
54584.226476,16.845,0.097
54584.236503,17.019,0.114
