mjd,m,merr
52666.461068,15.06,0.015
52666.475521,15.078,0.015
52666.489985,15.115,0.015
52666.504511,15.151,0.015
52666.518979,15.181,0.015
52698.405292,15.037,0.013
52698.419665,15.087,0.015
52711.317444,15.264,0.02
52711.331725,15.236,0.018
52711.346117,15.229,0.018
52711.360132,15.246,0.018
52711.374126,15.241,0.018
52725.383174,14.524,0.01
52725.383777,14.429,0.01
52725.396011,14.576,0.01
52725.396633,14.485,0.012
52725.408263,14.632,0.01
52725.408865,14.549,0.012
52725.420649,14.679,0.012
52725.421253,14.604,0.013
52725.433933,14.672,0.013
52739.297602,14.738,0.013
52739.309276,14.788,0.013
52739.321119,14.833,0.013
52739.332833,14.873,0.013
52739.344672,14.892,0.013
52754.277219,14.95,0.016
52754.289703,14.981,0.018
52754.302304,15.018,0.02
52754.302537,15.01,0.018
52754.315554,15.056,0.018
52754.327926,15.062,0.018
52769.214885,15.02,0.022
52769.226515,15.065,0.022
52769.238288,15.076,0.022
52769.250284,15.066,0.022
52769.262672,15.121,0.024
52820.175142,14.428,0.011
52820.194971,14.521,0.026
52820.204817,14.609,0.013
52820.214705,14.67,0.015
52825.203365,15.185,0.028
52993.460806,15.18,0.015
52993.4733,15.18,0.013
52993.498574,15.235,0.013
52993.511155,15.245,0.013
53034.396157,15.03,0.016
53034.407995,15.036,0.016
53034.419843,15.069,0.018
53034.431765,15.106,0.018
53034.443778,15.138,0.018
53052.425188,14.82,0.011
53052.43698,14.853,0.011
53064.287671,15.174,0.016
53064.299719,15.204,0.016
53064.312087,15.207,0.015
53064.32442,15.239,0.016
53064.336628,15.252,0.015
53079.333288,15.264,0.018
53079.344509,15.253,0.018
53079.355982,15.251,0.016
53079.367133,15.256,0.018
53093.278863,15.228,0.013
53093.288743,14.933,0.01
53093.298843,14.689,0.008
53093.309878,14.499,0.007
53093.31979,14.446,0.007
53110.24829,15.227,0.02
53110.259105,15.254,0.021
53110.270002,15.305,0.02
53110.280986,15.334,0.021
53110.291882,15.355,0.021
53121.248675,15.138,0.013
53121.2594,15.18,0.013
53121.270241,15.188,0.013
53121.280888,15.207,0.013
53121.291553,15.22,0.015
53138.249772,15.06,0.016
53138.259271,15.061,0.015
53138.268761,15.085,0.016
53138.278236,15.102,0.016
53138.287694,15.16,0.016
53150.230664,15.381,0.036
53166.176832,15.294,0.025
53166.187489,15.321,0.026
53166.197385,15.332,0.026
53166.207142,15.372,0.026
53166.217024,15.334,0.025
53177.178769,15.185,0.016
53177.188404,15.277,0.023
53177.219165,15.25,0.018
53437.41623,14.812,0.011
53437.427532,14.833,0.011
53437.438833,14.877,0.011
53437.455556,14.923,0.013
53437.466826,14.949,0.013
53445.467895,14.976,0.011
53445.479696,14.983,0.011
53445.491904,15.019,0.013
53471.317451,15.369,0.02
53471.328572,15.346,0.02
53471.338268,15.338,0.02
53471.34878,15.261,0.033
53471.358848,15.024,0.017
53501.248491,14.517,0.011
53501.263201,14.579,0.011
53501.278372,14.662,0.011
53501.29053,14.712,0.013
53501.300729,14.739,0.013
53529.210377,15.238,0.022
53529.22212,15.244,0.022
53529.233456,15.256,0.024
53529.244873,15.202,0.024
53529.255783,15.249,0.024
53769.45427,15.218,0.017
53769.467766,15.229,0.015
53769.480922,15.209,0.015
53769.494729,15.231,0.015
53769.508065,15.293,0.015
53788.362597,14.897,0.012
53788.387864,14.954,0.016
53788.400526,14.992,0.013
53788.413192,15.021,0.013
53813.372166,14.862,0.02
53813.3837,14.865,0.02
53813.395132,14.91,0.02
53813.406676,14.944,0.021
53813.418275,14.974,0.021
53820.353618,14.975,0.021
53844.292571,14.937,0.015
53844.30355,14.973,0.016
53844.314511,14.966,0.018
53844.325418,15.024,0.02
53844.33633,15.037,0.02
53852.247271,14.857,0.018
53852.257425,14.878,0.018
53852.267627,14.91,0.018
53852.277759,14.924,0.018
53852.287945,14.963,0.018
53881.219051,15.22,0.024
53881.230092,15.221,0.022
53881.241145,15.215,0.022
53881.252206,15.207,0.022
53881.263603,15.219,0.026
53887.216861,15.311,0.03
53887.22708,15.246,0.03
53887.237493,15.137,0.025
53887.247632,14.804,0.02
53887.257888,14.597,0.016
53902.176771,14.411,0.015
53902.196722,14.398,0.024
53902.206606,14.426,0.015
53902.216548,14.452,0.015
53914.176012,15.213,0.033
53914.185558,15.199,0.031
53931.167439,15.099,0.024
53931.188296,15.106,0.028
53931.198703,15.165,0.03
53931.20909,15.123,0.03
54154.34127,15.201,0.018
54154.352688,15.234,0.02
54154.364104,15.223,0.02
54154.375564,15.255,0.018
54154.387072,15.264,0.02
54169.329467,15.236,0.028
54169.351384,15.258,0.03
54169.362258,15.234,0.028
54169.373149,15.19,0.025
54208.258343,15.222,0.02
54208.266929,15.256,0.018
54208.275894,15.259,0.02
54208.284759,15.299,0.02
54208.293459,15.336,0.02
54560.250248,15.273,0.011
54560.261842,15.302,0.011
54560.27339,15.332,0.011
54560.284989,15.37,0.013
54560.296862,15.307,0.011
54581.240805,14.894,0.028
54581.250555,14.93,0.03
54581.260231,14.945,0.03
54581.270018,14.987,0.031
54581.279783,14.957,0.031
54589.251271,14.929,0.011
54589.261751,14.94,0.011
54589.272209,14.962,0.011
54589.282732,15.001,0.011
54589.29318,15.014,0.011
54594.251581,15.277,0.036
54594.261124,15.263,0.036
54594.270548,15.269,0.038
54594.280591,15.275,0.038
54594.290423,15.267,0.038
54612.209484,15.047,0.026
54612.218065,15.084,0.026
54612.227559,15.089,0.028
54612.236078,15.159,0.028
54612.244653,15.174,0.03
54621.211393,14.939,0.013
54621.221547,14.946,0.013
54621.231639,14.959,0.013
54621.241758,14.995,0.013
54621.251869,15.017,0.015
