mjd,m,merr
52652.456058,16.653,0.057
52652.486509,16.662,0.061
52652.504702,16.651,0.057
52652.519564,16.627,0.057
52664.357921,16.849,0.085
52664.373166,16.837,0.117
52664.419007,16.483,0.17
52722.35282,16.779,0.063
52722.365934,16.748,0.059
52722.378482,16.87,0.067
52722.391485,16.817,0.067
52722.404102,16.841,0.07
52751.262681,16.169,0.039
52751.27338,16.197,0.041
52751.284741,16.279,0.043
52751.29704,16.268,0.043
52751.311206,16.341,0.046
52772.269271,16.861,0.19
52772.293697,16.842,0.167
52782.216411,16.945,0.268
52800.217464,16.863,0.202
52800.227818,16.935,0.216
52810.230587,16.661,0.292
52810.240395,16.758,0.102
52810.250223,16.608,0.131
52812.223879,16.138,0.044
52812.23396,16.183,0.044
52812.24395,16.235,0.05
52812.25419,16.258,0.05
52812.264176,16.305,0.052
52827.172362,16.873,0.167
52990.479681,16.296,0.044
52990.492708,16.262,0.043
52990.50591,16.355,0.044
52990.518939,16.382,0.046
53046.40598,16.737,0.083
53046.418491,16.76,0.085
53046.430449,16.736,0.087
53046.442356,16.641,0.076
53046.454933,16.672,0.08
53107.295768,16.57,0.046
53107.306803,16.564,0.046
53107.317966,16.581,0.044
53107.32911,16.66,0.05
53107.34018,16.665,0.048
53127.246915,16.469,0.126
53127.256974,16.675,0.141
53127.266937,16.713,0.139
53127.276895,16.741,0.133
53127.286928,16.777,0.144
53136.243708,16.717,0.07
53136.253079,16.726,0.072
53136.26255,16.693,0.068
53136.271817,16.794,0.074
53136.281085,16.83,0.08
53154.21257,16.546,0.085
53154.221329,16.467,0.08
53154.23022,16.549,0.087
53154.239005,16.665,0.098
53154.24792,16.683,0.098
53164.220051,16.635,0.055
53164.230224,16.698,0.057
53164.240458,16.699,0.067
53164.250635,16.731,0.065
53164.260819,16.665,0.061
53194.21389,16.916,0.203
53340.468076,16.364,0.094
53340.483558,16.256,0.081
53340.501474,16.338,0.081
53340.513937,16.387,0.079
53358.474191,16.761,0.081
53358.503162,16.809,0.076
53358.517659,16.938,0.084
53421.354301,16.157,0.059
53421.378059,16.22,0.057
53421.39014,16.208,0.055
53421.402019,16.309,0.057
53430.370119,16.562,0.076
53430.381827,16.634,0.078
53430.39621,16.64,0.076
53430.408026,16.687,0.081
53430.419368,16.719,0.083
53491.252428,16.465,0.068
53491.264356,16.455,0.055
53491.275762,16.549,0.061
53491.288148,16.427,0.059
53491.299334,16.598,0.061
53537.259411,16.72,0.159
53566.20951,16.454,0.105
53583.156759,16.189,0.172
53583.168063,16.17,0.052
53583.179335,16.163,0.052
53583.190595,16.12,0.054
53583.201869,16.198,0.061
53727.492437,16.416,0.091
53757.388323,16.4,0.065
53757.400962,16.441,0.067
53757.413667,16.409,0.065
53757.426458,16.513,0.068
53757.439191,16.472,0.067
53773.418025,16.664,0.063
53773.443705,16.66,0.057
53773.456386,16.665,0.057
53773.469253,16.639,0.057
53826.290148,16.792,0.059
53826.311579,16.945,0.087
53826.333529,16.806,0.064
53827.330982,16.689,0.049
53827.342064,16.775,0.056
53827.353021,16.746,0.056
53856.271817,16.955,0.092
53856.281893,16.992,0.096
53856.291759,16.954,0.094
53856.301728,16.995,0.096
53856.311655,16.814,0.081
53877.25671,16.814,0.053
53877.267346,16.676,0.063
53904.216653,16.755,0.093
53904.226485,16.756,0.096
53904.236388,16.766,0.094
53904.246265,16.851,0.104
53904.256141,16.828,0.102
53933.168011,16.275,0.055
53933.178728,16.106,0.054
53933.189386,16.14,0.057
53933.200096,16.113,0.07
53933.210941,16.176,0.074
54098.434285,16.87,0.089
54098.446639,16.823,0.086
54098.459576,16.814,0.078
54098.471674,16.632,0.071
54098.483767,16.405,0.059
54109.468877,17.259,0.27
54124.40786,16.496,0.053
54124.421214,16.389,0.049
54124.433927,16.484,0.049
54124.446362,16.54,0.054
54140.394983,16.735,0.083
54140.407195,16.788,0.086
54140.419311,16.769,0.078
54140.431578,16.808,0.084
54140.443847,16.862,0.091
54188.285575,16.32,0.094
54188.295552,16.382,0.096
54188.305276,16.44,0.097
54188.315413,16.434,0.097
54198.274338,16.246,0.044
54198.283989,16.361,0.07
54198.303793,16.374,0.185
54210.264661,16.758,0.074
54210.273465,16.778,0.073
54210.282391,16.808,0.076
54210.291217,16.747,0.071
54210.300111,16.862,0.081
54218.267692,16.605,0.117
54218.276357,16.65,0.12
54218.284996,16.553,0.109
54218.293629,16.754,0.131
54218.302224,16.677,0.12
54481.446721,16.391,0.063
54498.400217,16.246,0.048
54498.412688,16.333,0.048
54498.424505,16.339,0.053
54526.336616,16.719,0.064
54526.34818,16.816,0.068
54526.359577,16.827,0.069
54537.322072,16.614,0.124
54537.332991,16.686,0.193
54537.343964,16.721,0.092
54537.355145,16.627,0.092
54537.366272,16.65,0.079
54555.242505,16.17,0.053
54555.254365,16.144,0.051
54555.265998,16.169,0.053
54555.277742,16.194,0.053
54555.289456,16.33,0.059
54559.298447,16.494,0.063
54559.309991,16.341,0.056
54559.321646,16.206,0.049
54559.333122,16.155,0.048
54559.344583,16.158,0.048
54569.291108,16.129,0.046
54569.302072,16.148,0.048
54569.313059,16.122,0.046
54569.323976,16.172,0.049
54569.334871,16.272,0.053
54585.241572,16.431,0.104
54585.251696,16.622,0.12
54585.261727,16.55,0.086
54585.281901,16.564,0.068
54599.24277,16.315,0.087
54599.25207,16.262,0.081
54599.261375,16.296,0.086
54618.213934,16.499,0.091
54618.224295,16.628,0.101
54618.234683,16.65,0.102
54618.245099,16.529,0.092
54618.255827,16.661,0.106
