mjd,m,merr
52676.367465,18.065,0.343
52676.382546,17.336,0.163
52676.397658,16.819,0.094
52676.41296,16.79,0.091
52676.427947,16.962,0.112
52698.399785,15.39,0.023
52698.415164,15.421,0.023
52698.429761,15.419,0.025
52698.444242,15.439,0.025
52698.444915,15.473,0.025
52698.459355,15.468,0.025
52711.308783,15.727,0.038
52711.321792,15.697,0.036
52711.335168,15.722,0.036
52711.348504,15.714,0.035
52711.361563,15.751,0.035
52725.374174,15.733,0.035
52725.388115,15.728,0.024
52725.40147,15.728,0.024
52725.414037,15.744,0.024
52725.42645,15.761,0.026
52734.312485,15.604,0.068
52734.324474,15.662,0.083
52738.302067,15.705,0.028
52738.315246,15.534,0.025
52738.329103,15.438,0.021
52738.342525,15.409,0.021
52738.354917,15.363,0.02
52754.2618,15.755,0.026
52754.274684,15.776,0.028
52754.287189,15.739,0.026
52754.301315,15.775,0.028
52754.313592,15.784,0.026
52769.218563,15.722,0.046
52769.23042,15.654,0.041
52769.241896,15.587,0.038
52769.254,15.49,0.038
52769.265558,15.558,0.038
52794.218677,15.719,0.035
52794.228965,15.739,0.036
52794.239502,15.722,0.036
52794.250026,15.748,0.036
52794.260703,15.736,0.036
52797.218017,15.762,0.053
52797.238953,15.715,0.054
52797.249544,15.716,0.053
52797.259754,15.691,0.054
52813.180046,15.728,0.045
52813.189901,15.711,0.038
52813.199792,15.728,0.038
52813.209629,15.693,0.04
52813.219477,15.714,0.043
52824.174086,15.388,0.024
52824.184056,15.387,0.024
52824.193906,15.409,0.026
52824.203789,15.422,0.026
52824.213686,15.449,0.026
52993.461386,15.476,0.018
52993.474646,15.444,0.017
52993.488008,15.378,0.015
52993.501644,15.317,0.013
52993.51489,15.291,0.013
53006.455695,15.712,0.026
53006.467884,15.673,0.03
53006.480155,15.676,0.026
53006.492432,15.724,0.026
53006.504623,15.713,0.031
53033.401398,15.802,0.031
53033.414158,15.804,0.03
53033.426443,15.858,0.031
53033.438694,15.843,0.03
53033.451161,15.85,0.03
53052.390103,15.815,0.024
53052.40199,15.842,0.024
53052.413743,15.847,0.024
53052.425518,15.851,0.024
53052.437309,15.811,0.024
53064.291637,15.738,0.035
53064.328402,15.814,0.028
53064.346954,15.844,0.028
53064.361407,15.83,0.03
53079.332987,15.435,0.021
53079.344224,15.44,0.02
53079.355696,15.481,0.021
53079.366838,15.487,0.021
53089.331575,15.612,0.094
53089.342395,15.613,0.018
53110.248565,15.451,0.025
53110.259378,15.441,0.025
53110.270276,15.435,0.025
53110.28126,15.49,0.023
53110.292158,15.485,0.023
53119.250179,15.496,0.018
53119.260932,15.446,0.016
53119.271366,15.454,0.016
53119.281904,15.4,0.015
53119.295943,15.362,0.015
53138.250021,15.45,0.021
53138.25952,15.378,0.021
53138.26901,15.383,0.02
53138.278486,15.309,0.02
53138.287944,15.318,0.02
53149.208502,15.76,0.026
53149.217094,15.732,0.026
53149.225669,15.754,0.026
53149.234426,15.721,0.025
53149.243284,15.645,0.025
53166.177068,15.78,0.036
53166.187724,15.771,0.038
53166.19762,15.783,0.038
53166.207377,15.768,0.036
53166.217259,15.795,0.036
53438.468287,15.438,0.02
53438.479907,15.425,0.02
53438.491634,15.434,0.02
53471.317143,15.854,0.031
53471.328264,15.806,0.031
53471.337961,15.699,0.028
53471.348472,15.587,0.041
53471.358541,15.508,0.028
53502.202672,15.84,0.033
53502.213139,15.826,0.033
53502.224744,15.851,0.035
53502.236398,15.84,0.035
53502.24755,15.79,0.031
53523.220275,15.761,0.033
53523.230783,15.822,0.031
53523.241248,15.766,0.03
53523.251731,15.778,0.03
53523.262275,15.807,0.031
53737.481257,15.744,0.026
53737.494514,15.785,0.033
53737.507857,15.775,0.026
53737.521249,15.801,0.026
53747.470658,15.745,0.055
53747.483724,15.798,0.055
53747.496667,15.848,0.054
53747.50999,15.901,0.046
53747.522913,15.867,0.041
53789.415228,15.685,0.051
53789.440212,15.734,0.064
53789.452823,15.751,0.035
53789.465467,15.732,0.043
53799.34786,15.736,0.023
53799.359867,15.767,0.025
53799.371706,15.757,0.023
53799.383514,15.751,0.023
53799.395426,15.772,0.025
53845.270497,15.488,0.031
53845.281343,15.467,0.03
53845.292199,15.375,0.024
53851.245594,15.648,0.033
53851.255877,15.7,0.031
53851.266186,15.71,0.033
53851.276605,15.746,0.033
53880.213703,15.767,0.037
53880.224921,15.751,0.035
53880.236146,15.76,0.033
53880.247383,15.747,0.035
53880.258616,15.781,0.035
53885.219849,15.789,0.039
53885.23185,15.806,0.037
53885.243787,15.841,0.037
53885.255773,15.863,0.041
53885.267934,15.835,0.043
53912.175873,15.387,0.031
53912.205067,15.403,0.031
54112.498582,15.453,0.035
54112.511176,15.438,0.035
54112.52377,15.46,0.035
54144.390423,15.744,0.033
54144.402382,15.792,0.033
54144.414346,15.761,0.031
54144.426427,15.763,0.031
54144.438392,15.814,0.031
54153.393765,15.58,0.028
54153.406355,15.645,0.036
54153.418121,15.591,0.031
54153.430012,15.657,0.04
54201.286232,15.74,0.038
54201.295561,15.696,0.035
54201.304945,15.719,0.036
54201.314414,15.759,0.038
54201.323769,15.746,0.036
54453.464405,15.553,0.02
54453.47747,15.644,0.018
54453.490555,15.574,0.018
54453.50361,15.596,0.017
54453.516667,15.654,0.017
54478.467361,15.766,0.017
54478.480458,15.714,0.017
54478.493549,15.572,0.013
54478.506635,15.462,0.011
54559.241655,15.85,0.022
54559.253293,15.84,0.022
54559.265248,15.832,0.022
54559.277139,15.815,0.02
54559.288845,15.78,0.018
54568.245921,15.802,0.028
54568.256899,15.778,0.026
54568.268009,15.768,0.026
54568.279157,15.759,0.024
54568.29024,15.772,0.024
54581.251265,15.431,0.018
54581.261832,15.446,0.022
54581.272491,15.465,0.024
54581.283047,15.451,0.026
54581.293709,15.486,0.028
54598.146302,15.627,0.059
54598.156827,15.572,0.043
54598.167377,15.61,0.039
54598.177952,15.536,0.035
54598.188493,15.571,0.031
54620.21827,15.781,0.024
54620.228496,15.748,0.024
54620.238653,15.757,0.024
54620.248859,15.77,0.024
54620.259057,15.77,0.026
