mjd,m,merr
52650.430946,14.739,0.013
52650.444981,14.681,0.011
52650.458942,14.609,0.009
52650.473024,14.546,0.009
52650.486979,14.504,0.009
52665.393851,14.678,0.013
52665.40821,14.751,0.013
52665.422496,14.771,0.013
52665.437061,14.752,0.013
52665.451389,14.658,0.011
52677.390098,14.513,0.013
52677.404651,14.49,0.013
52677.418937,14.52,0.011
52677.433362,14.527,0.011
52677.447655,14.609,0.013
52680.427627,14.747,0.013
52680.442388,14.764,0.013
52680.457272,14.671,0.015
52680.472012,14.587,0.013
52680.488124,14.52,0.012
52697.444045,14.602,0.02
52706.367147,14.521,0.009
52706.38003,14.512,0.009
52706.393003,14.506,0.009
52706.40621,14.52,0.009
52706.41915,14.573,0.011
52712.315473,14.742,0.017
52712.341354,14.745,0.017
52712.35429,14.719,0.015
52712.367447,14.653,0.013
52724.358292,14.569,0.009
52724.36991,14.646,0.009
52724.381455,14.713,0.011
52724.393002,14.757,0.011
52724.404576,14.772,0.011
52753.25743,14.548,0.011
52753.270094,14.516,0.011
52753.286633,14.507,0.011
52753.29892,14.493,0.011
52753.311876,14.505,0.011
52797.217797,14.72,0.018
52797.227779,14.644,0.018
52797.23777,14.617,0.018
52797.247738,14.563,0.017
52797.257717,14.532,0.017
52811.178111,14.748,0.017
52811.188062,14.703,0.015
52811.197966,14.649,0.015
52811.207864,14.599,0.013
52811.217692,14.544,0.013
52825.193816,14.542,0.02
52825.203997,14.533,0.016
52825.21415,14.491,0.018
52842.17078,14.592,0.02
52992.470795,14.978,0.013
52992.497898,14.888,0.013
52992.511191,14.815,0.013
52992.524454,14.814,0.013
53034.404248,14.55,0.011
53034.416712,14.504,0.011
53034.441532,14.532,0.011
53034.453809,14.526,0.011
53051.388697,14.706,0.009
53051.400299,14.753,0.009
53051.411976,14.784,0.009
53051.42366,14.794,0.011
53051.435299,14.788,0.009
53065.337998,14.597,0.009
53065.349644,14.655,0.011
53065.36099,14.685,0.011
53065.372366,14.773,0.011
53065.383771,14.769,0.011
53078.413662,14.539,0.015
53093.283331,14.71,0.009
53093.293618,14.763,0.009
53093.303902,14.801,0.009
53093.31423,14.829,0.009
53093.324673,14.82,0.009
53094.333607,14.677,0.007
53094.344016,14.818,0.009
53094.354514,14.892,0.009
53094.365192,14.866,0.009
53094.375489,14.887,0.009
53096.323417,14.542,0.017
53096.333645,14.524,0.017
53096.343871,14.53,0.017
53096.354291,14.52,0.017
53096.36505,14.556,0.017
53109.300058,14.516,0.012
53109.310197,14.535,0.012
53109.320388,14.594,0.012
53109.330519,14.64,0.012
53109.340621,14.677,0.013
53120.2419,14.817,0.011
53120.242029,14.761,0.009
53120.252443,14.795,0.009
53120.263407,14.756,0.009
53120.263535,14.715,0.009
53120.274047,14.68,0.009
53120.274176,14.618,0.009
53120.284904,14.642,0.009
53120.285033,14.564,0.007
53121.241437,14.708,0.01
53121.243714,14.727,0.009
53121.252018,14.772,0.01
53121.254398,14.79,0.011
53121.26278,14.808,0.01
53121.265177,14.8,0.011
53121.273656,14.781,0.01
53121.27583,14.81,0.011
53121.284307,14.781,0.01
53121.286484,14.787,0.009
53122.245991,14.639,0.01
53122.256387,14.633,0.01
53122.261592,14.645,0.01
53122.26661,14.674,0.01
53122.271852,14.673,0.01
53122.276885,14.706,0.01
53122.287189,14.769,0.01
53137.252299,14.576,0.012
53137.262359,14.584,0.012
53137.272167,14.639,0.012
53137.282084,14.693,0.013
53137.291796,14.766,0.015
53153.209144,14.71,0.013
53153.219308,14.666,0.013
53153.228795,14.606,0.012
53153.237786,14.567,0.012
53153.246288,14.546,0.012
53165.234177,14.791,0.015
53165.243984,14.915,0.041
53165.256504,14.801,0.018
53165.266312,14.794,0.016
53165.276404,14.746,0.016
53178.178494,14.796,0.012
53178.188426,14.792,0.012
53178.198017,14.791,0.012
53178.207392,14.789,0.012
53178.216859,14.736,0.016
53358.473022,14.659,0.013
53358.485664,14.606,0.011
53358.498295,14.582,0.011
53358.51093,14.551,0.011
53358.531241,14.595,0.011
53449.284397,14.781,0.017
53449.294865,14.817,0.018
53449.305823,14.862,0.017
53449.316317,14.891,0.017
53500.246226,14.683,0.011
53500.256619,14.64,0.011
53500.267946,14.62,0.011
53500.279702,14.586,0.011
53500.289927,14.595,0.011
53528.223098,14.586,0.015
53528.234356,14.621,0.015
53528.245425,14.644,0.015
53528.256261,14.678,0.015
53528.266641,14.721,0.015
53540.188422,14.771,0.039
53540.198223,14.799,0.039
53540.207931,14.812,0.037
53540.217607,14.794,0.037
53550.17913,14.719,0.015
53550.189035,14.818,0.028
53550.198902,14.808,0.022
53550.208789,14.861,0.017
53550.218669,14.867,0.018
53740.471778,14.845,0.013
53740.484669,14.767,0.011
53740.497624,14.695,0.011
53740.510501,14.636,0.011
53740.523434,14.579,0.011
53770.420697,14.67,0.011
53770.434849,14.766,0.013
53770.447958,14.816,0.013
53770.465266,14.821,0.013
53770.479401,14.833,0.013
53787.412515,14.68,0.018
53787.425398,14.594,0.01
53813.364066,14.68,0.018
53813.375068,14.718,0.02
53813.386071,14.811,0.02
53813.397099,14.83,0.02
53813.408131,14.846,0.022
53823.255848,14.812,0.012
53823.266829,14.747,0.012
53823.277603,14.68,0.01
53823.288658,14.647,0.01
53823.299581,14.594,0.01
53844.282025,14.835,0.015
53844.292297,14.832,0.017
53844.30257,14.779,0.017
53844.313057,14.695,0.015
53844.323507,14.664,0.017
53853.247084,14.818,0.018
53853.257482,14.81,0.018
53853.26779,14.764,0.016
53853.278098,14.73,0.016
53853.288557,14.689,0.016
53883.216587,14.725,0.016
53883.226893,14.77,0.018
53883.237198,14.89,0.018
53883.247475,14.907,0.02
53883.257787,14.908,0.02
53887.226903,14.838,0.022
53887.237549,14.813,0.022
53887.248213,14.783,0.02
53887.25892,14.699,0.018
53887.269637,14.675,0.018
53902.177481,14.614,0.018
53902.200756,14.721,0.018
53902.211735,14.779,0.02
53915.176779,14.803,0.021
53915.186642,14.815,0.021
53915.198019,14.756,0.02
53931.183337,14.794,0.023
53931.193569,14.838,0.023
53931.203705,14.823,0.025
54084.4629,14.539,0.021
54084.475816,14.618,0.02
54084.488677,14.625,0.018
54084.501607,14.692,0.02
54084.514577,14.806,0.021
54098.428215,14.488,0.011
54098.440326,14.576,0.011
54098.455507,14.623,0.011
54098.468873,14.665,0.011
54098.481085,14.731,0.013
54110.466675,14.6,0.025
54121.393561,14.624,0.011
54121.405765,14.681,0.011
54121.417961,14.741,0.011
54121.430154,14.817,0.013
54121.442344,14.822,0.013
54155.35755,14.607,0.012
54155.369084,14.632,0.012
54155.381019,14.667,0.012
54155.392619,14.771,0.013
54155.405177,14.822,0.013
54206.272422,14.743,0.013
54206.281832,14.799,0.013
54206.291174,14.801,0.013
54206.300493,14.787,0.015
54206.309896,14.785,0.015
54529.269489,14.572,0.015
54529.281425,14.628,0.016
54529.292834,14.635,0.016
54529.304203,14.701,0.016
54529.315306,14.756,0.018
54562.190025,14.559,0.018
54562.203447,14.538,0.018
54562.21635,14.579,0.02
54562.239397,14.659,0.02
54582.24919,14.663,0.011
54582.259611,14.704,0.011
54582.269941,14.799,0.013
54582.280283,14.787,0.011
54582.290675,14.798,0.013
54594.301589,14.55,0.009
54594.311584,14.586,0.009
54594.321573,14.619,0.011
54594.341647,14.758,0.011
54613.207359,14.601,0.011
54613.217198,14.596,0.011
54613.227214,14.555,0.011
54613.237271,14.539,0.011
54613.24729,14.532,0.011
