mjd,m,merr
52646.480134,16.204,0.054
52646.495073,16.189,0.049
52646.510282,16.212,0.049
52646.525181,16.185,0.049
52667.463648,15.914,0.04
52667.47888,15.978,0.043
52667.493492,15.977,0.043
52667.50814,16.026,0.045
52667.522764,16.003,0.046
52676.368705,15.928,0.048
52676.384392,15.958,0.044
52676.399925,15.966,0.041
52676.42056,15.986,0.043
52676.435169,16.009,0.043
52701.378082,16.093,0.041
52701.378197,16.039,0.04
52701.396699,16.143,0.045
52701.411618,16.132,0.043
52701.411734,16.128,0.043
52701.42477,16.203,0.048
52701.424886,16.156,0.046
52701.437832,16.226,0.049
52701.437948,16.166,0.046
52707.379367,16.132,0.039
52707.392515,16.105,0.037
52707.406104,15.993,0.035
52707.419752,15.795,0.03
52707.433027,15.753,0.03
52729.301817,15.524,0.026
52729.313936,15.507,0.025
52729.326368,15.553,0.026
52729.338412,15.61,0.026
52729.350807,15.653,0.028
52732.308297,15.709,0.031
52732.320618,15.77,0.031
52732.332568,15.725,0.031
52732.344482,15.791,0.033
52732.356968,15.771,0.033
52738.300256,15.781,0.028
52738.311817,15.824,0.028
52738.323323,15.813,0.028
52738.33496,15.856,0.028
52738.346704,15.878,0.028
52743.30672,16.073,0.074
52743.319133,16.069,0.078
52755.259866,15.987,0.043
52755.259977,16.02,0.041
52755.27271,15.915,0.038
52755.27282,15.853,0.036
52755.284908,15.89,0.036
52755.285018,15.849,0.035
52755.297074,15.845,0.036
52755.297183,15.811,0.036
52755.309026,15.739,0.036
52755.309135,15.835,0.038
52761.261636,15.591,0.028
52761.261868,15.563,0.026
52761.274421,15.598,0.028
52761.274653,15.564,0.026
52761.286449,15.61,0.03
52761.286682,15.629,0.03
52761.298601,15.655,0.03
52761.298834,15.607,0.028
52761.310498,15.617,0.031
52761.31073,15.688,0.031
52768.215877,16.213,0.061
52768.227732,16.199,0.059
52768.239873,16.211,0.061
52768.251572,16.09,0.054
52768.263514,16.095,0.054
52792.221651,15.857,0.043
52792.232376,15.843,0.046
52792.243325,15.894,0.048
52792.254154,15.854,0.048
52793.254312,15.857,0.043
52793.264683,15.843,0.046
52793.274985,15.894,0.048
52793.285747,15.854,0.048
52819.215612,15.72,0.049
52824.174966,16.0,0.056
52824.184863,16.094,0.056
52824.19483,15.999,0.054
52824.204852,16.029,0.058
52824.214804,16.106,0.059
53033.400199,15.992,0.041
53033.412315,16.002,0.039
53033.424764,16.005,0.037
53033.436857,15.969,0.035
53033.449023,16.033,0.039
53053.409535,15.993,0.031
53053.421329,15.973,0.033
53053.433028,16.018,0.039
53053.445382,16.078,0.08
53053.457088,16.013,0.067
53062.398001,16.174,0.1
53062.409356,16.051,0.067
53062.42073,16.189,0.111
53062.432142,16.095,0.039
53062.443621,16.07,0.098
53079.365656,15.898,0.03
53079.376494,15.94,0.031
53079.387858,15.92,0.03
53079.399406,15.955,0.03
53079.410642,15.976,0.031
53080.391799,15.752,0.024
53080.402752,15.78,0.026
53080.413701,15.819,0.026
53080.42465,15.832,0.026
53080.435611,15.834,0.028
53081.402523,16.13,0.035
53081.424789,15.967,0.03
53081.436315,15.805,0.026
53087.347988,15.832,0.021
53087.358848,15.836,0.021
53087.369966,15.792,0.02
53087.381686,15.722,0.02
53087.392665,15.732,0.02
53110.293659,16.093,0.039
53110.304476,16.1,0.041
53110.315277,16.165,0.041
53110.32608,16.111,0.039
53110.33688,16.144,0.041
53118.263021,15.802,0.02
53118.273499,15.843,0.02
53118.284666,15.829,0.02
53118.294956,15.867,0.021
53118.305138,15.885,0.023
53138.250484,15.694,0.028
53138.260007,15.692,0.026
53138.269587,15.694,0.028
53138.279182,15.716,0.026
53138.288762,15.736,0.03
53148.24836,15.785,0.026
53148.274792,15.732,0.025
53148.283654,15.709,0.025
53166.24172,15.914,0.039
53166.251167,15.933,0.037
53166.260618,15.934,0.037
53166.270068,15.954,0.039
53166.279606,15.975,0.041
53175.177628,15.995,0.043
53175.18721,16.039,0.056
53175.19688,16.121,0.036
53175.206524,16.061,0.035
53175.216221,16.067,0.041
53404.444316,16.025,0.063
53404.457253,15.999,0.061
53404.470225,16.009,0.064
53404.483321,16.0,0.066
53404.496256,16.04,0.051
53441.388961,15.624,0.024
53441.399889,15.621,0.024
53441.410835,15.624,0.024
53441.421781,15.634,0.026
53441.433225,15.68,0.028
53447.356803,15.693,0.026
53447.367198,15.789,0.048
53447.388464,15.914,0.155
53447.399818,15.785,0.026
53468.38936,16.146,0.043
53468.398969,16.161,0.048
53468.408538,16.133,0.044
53468.418125,16.166,0.046
53468.427744,16.183,0.048
53478.366192,16.007,0.057
53478.375807,16.113,0.063
53478.38482,16.023,0.059
53478.393875,16.07,0.057
53478.402892,16.039,0.054
53496.249504,15.937,0.043
53496.259506,15.928,0.041
53496.269568,15.848,0.039
53496.279592,15.833,0.039
53496.289746,15.774,0.037
53503.324139,16.121,0.035
53503.333171,16.119,0.037
53503.343519,15.989,0.035
53503.353067,15.899,0.035
53503.363405,15.86,0.039
53527.174191,15.833,0.037
53527.184273,15.827,0.037
53527.194143,15.849,0.039
53527.203928,15.885,0.039
53527.213738,15.845,0.039
53556.172271,15.884,0.039
53556.182785,15.828,0.037
53556.193404,15.886,0.039
53556.204237,15.889,0.039
53556.214752,15.908,0.041
53746.467841,15.91,0.055
53746.480453,15.94,0.052
53746.492955,15.965,0.05
53746.505419,15.94,0.044
53746.517939,15.957,0.041
53790.40463,16.091,0.041
53790.416723,16.07,0.04
53790.428394,16.1,0.049
53790.440196,16.13,0.04
53790.452431,16.142,0.04
53817.322559,15.908,0.035
53817.334166,15.883,0.035
53817.345627,15.889,0.035
53817.35741,15.955,0.036
53845.260963,16.156,0.19
53845.272208,16.061,0.049
53845.283486,16.047,0.051
53845.294699,16.068,0.051
53850.248811,15.554,0.031
53850.259074,15.545,0.03
53850.269395,15.584,0.031
53850.279787,15.541,0.03
53850.290157,15.611,0.033
53884.220479,15.951,0.046
53884.232066,15.923,0.044
53884.243626,15.98,0.048
53884.255217,15.992,0.048
53884.266811,15.994,0.05
53901.194619,15.827,0.074
53901.204651,15.767,0.059
53911.222285,15.861,0.129
53911.231906,15.855,0.104
54155.410001,15.942,0.03
54155.421843,15.964,0.031
54155.433703,15.969,0.03
54155.445678,15.997,0.033
54155.457599,16.003,0.033
54174.327064,15.958,0.049
54174.337725,16.012,0.048
54174.34847,15.987,0.046
54174.359297,16.025,0.054
54174.370106,16.03,0.04
54180.332923,16.008,0.035
54180.343234,16.017,0.036
54180.353546,16.062,0.036
54180.364168,16.058,0.04
54180.374544,16.034,0.04
54200.288504,15.982,0.069
54200.307641,16.044,0.078
54476.465126,16.1,0.026
54476.478061,16.13,0.026
54476.490973,16.138,0.026
54476.503874,16.162,0.026
54476.516775,16.21,0.055
54484.432002,15.898,0.044
54484.4451,15.834,0.043
54484.458113,15.877,0.039
54533.338391,15.508,0.015
54533.349665,15.525,0.015
54533.360956,15.551,0.015
54533.372369,15.597,0.015
54533.383653,15.617,0.015
54539.320129,15.719,0.018
54539.33102,15.733,0.018
54539.341895,15.755,0.017
54539.352743,15.75,0.017
54539.363645,15.781,0.017
54558.241856,15.771,0.05
54558.253441,15.735,0.05
54558.265072,15.779,0.031
54558.276714,15.817,0.033
54558.288283,15.83,0.035
54567.290645,15.976,0.03
54567.301945,15.987,0.03
54567.313244,15.98,0.03
54567.324421,16.015,0.03
54567.335574,16.016,0.03
54580.250504,15.911,0.039
54580.261095,15.915,0.041
54580.271701,15.98,0.043
54580.282298,15.957,0.043
54580.292967,15.978,0.043
54587.255374,15.842,0.03
54587.26589,15.871,0.031
54587.276342,15.864,0.031
54587.28673,15.836,0.031
54587.297111,15.888,0.033
54590.245187,15.887,0.054
54590.255354,15.976,0.061
54590.265074,15.975,0.078
54590.275281,16.368,0.162
54590.285839,15.999,0.073
54595.247913,16.141,0.041
54595.257901,16.171,0.043
54595.267853,16.146,0.039
54595.27782,16.205,0.039
54595.287794,16.169,0.037
54611.213808,16.102,0.031
54611.223666,16.122,0.031
54611.233691,16.099,0.031
54611.243509,16.044,0.03
54611.253294,15.957,0.028
54619.211805,15.883,0.031
54619.222043,15.912,0.033
54619.232346,15.94,0.037
54619.242584,15.922,0.035
54619.253019,15.941,0.037
